%!PS-Adobe-3.0 EPSF-3.0
%%Creator: (MATLAB, The Mathworks, Inc. Version 9.7.0.1319299 \(R2019b\) Update 5. Operating System: Windows 10)
%%Title: Plots_Quality/Dziuk_Goursat_Histogramm.eps
%%CreationDate: 2020-12-13T21:51:22
%%Pages: (atend)
%%BoundingBox:    14    19   381   315
%%LanguageLevel: 2
%%EndComments
%%BeginProlog
%%BeginResource: procset (Apache XML Graphics Std ProcSet) 1.2 0
%%Version: 1.2 0
%%Copyright: (Copyright 2001-2003,2010 The Apache Software Foundation. License terms: http://www.apache.org/licenses/LICENSE-2.0)
/bd{bind def}bind def
/ld{load def}bd
/GR/grestore ld
/GS/gsave ld
/RM/rmoveto ld
/C/curveto ld
/t/show ld
/L/lineto ld
/ML/setmiterlimit ld
/CT/concat ld
/f/fill ld
/N/newpath ld
/S/stroke ld
/CC/setcmykcolor ld
/A/ashow ld
/cp/closepath ld
/RC/setrgbcolor ld
/LJ/setlinejoin ld
/GC/setgray ld
/LW/setlinewidth ld
/M/moveto ld
/re {4 2 roll M
1 index 0 rlineto
0 exch rlineto
neg 0 rlineto
cp } bd
/_ctm matrix def
/_tm matrix def
/BT { _ctm currentmatrix pop matrix _tm copy pop 0 0 moveto } bd
/ET { _ctm setmatrix } bd
/iTm { _ctm setmatrix _tm concat } bd
/Tm { _tm astore pop iTm 0 0 moveto } bd
/ux 0.0 def
/uy 0.0 def
/F {
  /Tp exch def
  /Tf exch def
  Tf findfont Tp scalefont setfont
  /cf Tf def  /cs Tp def
} bd
/ULS {currentpoint /uy exch def /ux exch def} bd
/ULE {
  /Tcx currentpoint pop def
  gsave
  newpath
  cf findfont cs scalefont dup
  /FontMatrix get 0 get /Ts exch def /FontInfo get dup
  /UnderlinePosition get Ts mul /To exch def
  /UnderlineThickness get Ts mul /Tt exch def
  ux uy To add moveto  Tcx uy To add lineto
  Tt setlinewidth stroke
  grestore
} bd
/OLE {
  /Tcx currentpoint pop def
  gsave
  newpath
  cf findfont cs scalefont dup
  /FontMatrix get 0 get /Ts exch def /FontInfo get dup
  /UnderlinePosition get Ts mul /To exch def
  /UnderlineThickness get Ts mul /Tt exch def
  ux uy To add cs add moveto Tcx uy To add cs add lineto
  Tt setlinewidth stroke
  grestore
} bd
/SOE {
  /Tcx currentpoint pop def
  gsave
  newpath
  cf findfont cs scalefont dup
  /FontMatrix get 0 get /Ts exch def /FontInfo get dup
  /UnderlinePosition get Ts mul /To exch def
  /UnderlineThickness get Ts mul /Tt exch def
  ux uy To add cs 10 mul 26 idiv add moveto Tcx uy To add cs 10 mul 26 idiv add lineto
  Tt setlinewidth stroke
  grestore
} bd
/QT {
/Y22 exch store
/X22 exch store
/Y21 exch store
/X21 exch store
currentpoint
/Y21 load 2 mul add 3 div exch
/X21 load 2 mul add 3 div exch
/X21 load 2 mul /X22 load add 3 div
/Y21 load 2 mul /Y22 load add 3 div
/X22 load /Y22 load curveto
} bd
/SSPD {
dup length /d exch dict def
{
/v exch def
/k exch def
currentpagedevice k known {
/cpdv currentpagedevice k get def
v cpdv ne {
/upd false def
/nullv v type /nulltype eq def
/nullcpdv cpdv type /nulltype eq def
nullv nullcpdv or
{
/upd true def
} {
/sametype v type cpdv type eq def
sametype {
v type /arraytype eq {
/vlen v length def
/cpdvlen cpdv length def
vlen cpdvlen eq {
0 1 vlen 1 sub {
/i exch def
/obj v i get def
/cpdobj cpdv i get def
obj cpdobj ne {
/upd true def
exit
} if
} for
} {
/upd true def
} ifelse
} {
v type /dicttype eq {
v {
/dv exch def
/dk exch def
/cpddv cpdv dk get def
dv cpddv ne {
/upd true def
exit
} if
} forall
} {
/upd true def
} ifelse
} ifelse
} if
} ifelse
upd true eq {
d k v put
} if
} if
} if
} forall
d length 0 gt {
d setpagedevice
} if
} bd
/RE { % /NewFontName [NewEncodingArray] /FontName RE -
  findfont dup length dict begin
  {
    1 index /FID ne
    {def} {pop pop} ifelse
  } forall
  /Encoding exch def
  /FontName 1 index def
  currentdict definefont pop
  end
} bind def
%%EndResource
%%BeginResource: procset (Apache XML Graphics EPS ProcSet) 1.0 0
%%Version: 1.0 0
%%Copyright: (Copyright 2002-2003 The Apache Software Foundation. License terms: http://www.apache.org/licenses/LICENSE-2.0)
/BeginEPSF { %def
/b4_Inc_state save def         % Save state for cleanup
/dict_count countdictstack def % Count objects on dict stack
/op_count count 1 sub def      % Count objects on operand stack
userdict begin                 % Push userdict on dict stack
/showpage { } def              % Redefine showpage, { } = null proc
0 setgray 0 setlinecap         % Prepare graphics state
1 setlinewidth 0 setlinejoin
10 setmiterlimit [ ] 0 setdash newpath
/languagelevel where           % If level not equal to 1 then
{pop languagelevel             % set strokeadjust and
1 ne                           % overprint to their defaults.
{false setstrokeadjust false setoverprint
} if
} if
} bd
/EndEPSF { %def
count op_count sub {pop} repeat            % Clean up stacks
countdictstack dict_count sub {end} repeat
b4_Inc_state restore
} bd
%%EndResource
%FOPBeginFontDict
%%IncludeResource: font Courier-Oblique
%%IncludeResource: font Courier-BoldOblique
%%IncludeResource: font Courier-Bold
%%IncludeResource: font ZapfDingbats
%%IncludeResource: font Symbol
%%IncludeResource: font Helvetica
%%IncludeResource: font Helvetica-Oblique
%%IncludeResource: font Helvetica-Bold
%%IncludeResource: font Helvetica-BoldOblique
%%IncludeResource: font Times-Roman
%%IncludeResource: font Times-Italic
%%IncludeResource: font Times-Bold
%%IncludeResource: font Times-BoldItalic
%%IncludeResource: font Courier
%FOPEndFontDict
%%BeginResource: encoding WinAnsiEncoding
/WinAnsiEncoding [
/.notdef /.notdef /.notdef /.notdef /.notdef
/.notdef /.notdef /.notdef /.notdef /.notdef
/.notdef /.notdef /.notdef /.notdef /.notdef
/.notdef /.notdef /.notdef /.notdef /.notdef
/.notdef /.notdef /.notdef /.notdef /.notdef
/.notdef /.notdef /.notdef /.notdef /.notdef
/.notdef /.notdef /space /exclam /quotedbl
/numbersign /dollar /percent /ampersand /quotesingle
/parenleft /parenright /asterisk /plus /comma
/hyphen /period /slash /zero /one
/two /three /four /five /six
/seven /eight /nine /colon /semicolon
/less /equal /greater /question /at
/A /B /C /D /E
/F /G /H /I /J
/K /L /M /N /O
/P /Q /R /S /T
/U /V /W /X /Y
/Z /bracketleft /backslash /bracketright /asciicircum
/underscore /quoteleft /a /b /c
/d /e /f /g /h
/i /j /k /l /m
/n /o /p /q /r
/s /t /u /v /w
/x /y /z /braceleft /bar
/braceright /asciitilde /bullet /Euro /bullet
/quotesinglbase /florin /quotedblbase /ellipsis /dagger
/daggerdbl /circumflex /perthousand /Scaron /guilsinglleft
/OE /bullet /Zcaron /bullet /bullet
/quoteleft /quoteright /quotedblleft /quotedblright /bullet
/endash /emdash /asciitilde /trademark /scaron
/guilsinglright /oe /bullet /zcaron /Ydieresis
/space /exclamdown /cent /sterling /currency
/yen /brokenbar /section /dieresis /copyright
/ordfeminine /guillemotleft /logicalnot /sfthyphen /registered
/macron /degree /plusminus /twosuperior /threesuperior
/acute /mu /paragraph /middot /cedilla
/onesuperior /ordmasculine /guillemotright /onequarter /onehalf
/threequarters /questiondown /Agrave /Aacute /Acircumflex
/Atilde /Adieresis /Aring /AE /Ccedilla
/Egrave /Eacute /Ecircumflex /Edieresis /Igrave
/Iacute /Icircumflex /Idieresis /Eth /Ntilde
/Ograve /Oacute /Ocircumflex /Otilde /Odieresis
/multiply /Oslash /Ugrave /Uacute /Ucircumflex
/Udieresis /Yacute /Thorn /germandbls /agrave
/aacute /acircumflex /atilde /adieresis /aring
/ae /ccedilla /egrave /eacute /ecircumflex
/edieresis /igrave /iacute /icircumflex /idieresis
/eth /ntilde /ograve /oacute /ocircumflex
/otilde /odieresis /divide /oslash /ugrave
/uacute /ucircumflex /udieresis /yacute /thorn
/ydieresis
] def
%%EndResource
%FOPBeginFontReencode
/Courier-Oblique findfont
dup length dict begin
  {1 index /FID ne {def} {pop pop} ifelse} forall
  /Encoding WinAnsiEncoding def
  currentdict
end
/Courier-Oblique exch definefont pop
/Courier-BoldOblique findfont
dup length dict begin
  {1 index /FID ne {def} {pop pop} ifelse} forall
  /Encoding WinAnsiEncoding def
  currentdict
end
/Courier-BoldOblique exch definefont pop
/Courier-Bold findfont
dup length dict begin
  {1 index /FID ne {def} {pop pop} ifelse} forall
  /Encoding WinAnsiEncoding def
  currentdict
end
/Courier-Bold exch definefont pop
/Helvetica findfont
dup length dict begin
  {1 index /FID ne {def} {pop pop} ifelse} forall
  /Encoding WinAnsiEncoding def
  currentdict
end
/Helvetica exch definefont pop
/Helvetica-Oblique findfont
dup length dict begin
  {1 index /FID ne {def} {pop pop} ifelse} forall
  /Encoding WinAnsiEncoding def
  currentdict
end
/Helvetica-Oblique exch definefont pop
/Helvetica-Bold findfont
dup length dict begin
  {1 index /FID ne {def} {pop pop} ifelse} forall
  /Encoding WinAnsiEncoding def
  currentdict
end
/Helvetica-Bold exch definefont pop
/Helvetica-BoldOblique findfont
dup length dict begin
  {1 index /FID ne {def} {pop pop} ifelse} forall
  /Encoding WinAnsiEncoding def
  currentdict
end
/Helvetica-BoldOblique exch definefont pop
/Times-Roman findfont
dup length dict begin
  {1 index /FID ne {def} {pop pop} ifelse} forall
  /Encoding WinAnsiEncoding def
  currentdict
end
/Times-Roman exch definefont pop
/Times-Italic findfont
dup length dict begin
  {1 index /FID ne {def} {pop pop} ifelse} forall
  /Encoding WinAnsiEncoding def
  currentdict
end
/Times-Italic exch definefont pop
/Times-Bold findfont
dup length dict begin
  {1 index /FID ne {def} {pop pop} ifelse} forall
  /Encoding WinAnsiEncoding def
  currentdict
end
/Times-Bold exch definefont pop
/Times-BoldItalic findfont
dup length dict begin
  {1 index /FID ne {def} {pop pop} ifelse} forall
  /Encoding WinAnsiEncoding def
  currentdict
end
/Times-BoldItalic exch definefont pop
/Courier findfont
dup length dict begin
  {1 index /FID ne {def} {pop pop} ifelse} forall
  /Encoding WinAnsiEncoding def
  currentdict
end
/Courier exch definefont pop
%FOPEndFontReencode
%%EndProlog
%%Page: 1 1
%%PageBoundingBox: 0 0 420 315
%%BeginPageSetup
[1 0 0 -1 0 315] CT
%%EndPageSetup
GS
[0.75 0 0 0.75 0 0] CT
1 GC
N
0 0 560 420 re
f
GR
GS
[0.75 0 0 0.75 0 0] CT
1 GC
N
0 0 560 420 re
f
GR
GS
[0.75 0 0 0.75 0 0] CT
1 GC
N
73 374 M
507 374 L
507 36 L
73 36 L
cp
f
GR
GS
[0.75 0 0 0.75 217.50021 24.94358] CT
N
-91.847 -12.261 M
-91.847 -12.792 L
-90.3 -12.792 -90.3 -13.261 QT
-90.3 -21.511 L
-90.3 -21.979 -91.847 -21.979 QT
-91.847 -22.511 L
-86.316 -22.511 L
-85.3 -22.511 -84.449 -22.065 QT
-83.597 -21.62 -82.996 -20.878 QT
-82.394 -20.136 -82.066 -19.198 QT
-81.738 -18.261 -81.738 -17.292 QT
-81.738 -16.339 -82.066 -15.44 QT
-82.394 -14.542 -83.019 -13.815 QT
-83.644 -13.089 -84.488 -12.675 QT
-85.331 -12.261 -86.316 -12.261 QT
-91.847 -12.261 L
cp
-88.956 -13.261 M
-88.956 -12.948 -88.777 -12.87 QT
-88.597 -12.792 -88.191 -12.792 QT
-86.706 -12.792 L
-85.941 -12.792 -85.246 -13.12 QT
-84.55 -13.448 -84.097 -14.042 QT
-83.628 -14.682 -83.464 -15.464 QT
-83.3 -16.245 -83.3 -17.292 QT
-83.3 -18.37 -83.464 -19.19 QT
-83.628 -20.011 -84.097 -20.667 QT
-84.55 -21.292 -85.238 -21.636 QT
-85.925 -21.979 -86.706 -21.979 QT
-88.191 -21.979 L
-88.472 -21.979 -88.621 -21.956 QT
-88.769 -21.932 -88.863 -21.831 QT
-88.956 -21.729 -88.956 -21.511 QT
-88.956 -13.261 L
cp
f
GR
GS
[0.75 0 0 0.75 217.50021 24.94358] CT
N
-80.55 -12.261 M
-80.721 -12.261 -80.721 -12.432 QT
-80.721 -12.542 L
-80.721 -12.604 -80.675 -12.651 QT
-76.487 -18.339 L
-77.846 -18.339 L
-78.471 -18.339 -78.886 -18.253 QT
-79.3 -18.167 -79.573 -17.948 QT
-79.846 -17.729 -79.964 -17.339 QT
-80.081 -16.948 -80.081 -16.245 QT
-80.518 -16.245 L
-80.346 -18.729 L
-75.315 -18.729 L
-75.253 -18.729 -75.206 -18.682 QT
-75.159 -18.636 -75.159 -18.557 QT
-75.159 -18.479 L
-75.159 -18.432 -75.19 -18.37 QT
-79.378 -12.698 L
-77.956 -12.698 L
-77.3 -12.698 -76.862 -12.776 QT
-76.425 -12.854 -76.112 -13.167 QT
-75.831 -13.448 -75.729 -13.932 QT
-75.628 -14.417 -75.565 -15.12 QT
-75.128 -15.12 L
-75.393 -12.261 L
-80.55 -12.261 L
cp
f
GR
GS
[0.75 0 0 0.75 217.50021 24.94358] CT
N
-74.156 -12.261 M
-74.156 -12.792 L
-73.656 -12.792 -73.32 -12.87 QT
-72.984 -12.948 -72.984 -13.261 QT
-72.984 -17.354 L
-72.984 -17.932 -73.211 -18.065 QT
-73.437 -18.198 -74.094 -18.198 QT
-74.094 -18.729 L
-71.937 -18.886 L
-71.937 -13.261 L
-71.937 -12.948 -71.648 -12.87 QT
-71.359 -12.792 -70.89 -12.792 QT
-70.89 -12.261 L
-74.156 -12.261 L
cp
-73.531 -21.464 M
-73.531 -21.792 -73.281 -22.042 QT
-73.031 -22.292 -72.703 -22.292 QT
-72.5 -22.292 -72.297 -22.182 QT
-72.094 -22.073 -71.984 -21.878 QT
-71.875 -21.682 -71.875 -21.464 QT
-71.875 -21.151 -72.125 -20.901 QT
-72.375 -20.651 -72.703 -20.651 QT
-73.031 -20.651 -73.281 -20.901 QT
-73.531 -21.151 -73.531 -21.464 QT
cp
f
GR
GS
[0.75 0 0 0.75 217.50021 24.94358] CT
N
-68.926 -14.042 M
-68.926 -17.354 L
-68.926 -17.761 -69.051 -17.94 QT
-69.176 -18.12 -69.402 -18.159 QT
-69.629 -18.198 -70.098 -18.198 QT
-70.098 -18.729 L
-67.832 -18.886 L
-67.832 -14.042 L
-67.832 -13.464 -67.746 -13.136 QT
-67.66 -12.807 -67.387 -12.651 QT
-67.113 -12.495 -66.52 -12.495 QT
-65.707 -12.495 -65.23 -13.167 QT
-64.754 -13.839 -64.754 -14.698 QT
-64.754 -17.354 L
-64.754 -17.761 -64.879 -17.94 QT
-65.004 -18.12 -65.23 -18.159 QT
-65.457 -18.198 -65.926 -18.198 QT
-65.926 -18.729 L
-63.66 -18.886 L
-63.66 -13.62 L
-63.66 -13.229 -63.543 -13.05 QT
-63.426 -12.87 -63.199 -12.831 QT
-62.973 -12.792 -62.488 -12.792 QT
-62.488 -12.261 L
-64.707 -12.089 L
-64.707 -13.354 L
-64.988 -12.792 -65.488 -12.44 QT
-65.988 -12.089 -66.582 -12.089 QT
-67.66 -12.089 -68.293 -12.55 QT
-68.926 -13.011 -68.926 -14.042 QT
cp
f
GR
GS
[0.75 0 0 0.75 217.50021 24.94358] CT
N
-62.012 -12.261 M
-62.012 -12.792 L
-61.496 -12.792 -61.168 -12.87 QT
-60.84 -12.948 -60.84 -13.261 QT
-60.84 -21.136 L
-60.84 -21.542 -60.965 -21.722 QT
-61.09 -21.901 -61.317 -21.94 QT
-61.543 -21.979 -62.012 -21.979 QT
-62.012 -22.511 L
-59.793 -22.667 L
-59.793 -15.542 L
-57.778 -17.307 L
-57.481 -17.604 -57.481 -17.839 QT
-57.481 -18.011 -57.606 -18.104 QT
-57.731 -18.198 -57.903 -18.198 QT
-57.903 -18.729 L
-55.09 -18.729 L
-55.09 -18.198 L
-56.106 -18.198 -57.121 -17.307 QT
-58.184 -16.386 L
-56.278 -13.667 L
-55.887 -13.104 -55.621 -12.948 QT
-55.356 -12.792 -54.731 -12.792 QT
-54.731 -12.261 L
-57.715 -12.261 L
-57.715 -12.792 L
-57.215 -12.792 -57.215 -13.104 QT
-57.215 -13.323 -57.481 -13.667 QT
-58.918 -15.729 L
-59.84 -14.932 L
-59.84 -13.261 L
-59.84 -12.948 -59.504 -12.87 QT
-59.168 -12.792 -58.668 -12.792 QT
-58.668 -12.261 L
-62.012 -12.261 L
cp
f
GR
GS
[0.75 0 0 0.75 217.50021 24.94358] CT
N
-53.396 -13.089 M
-53.396 -13.432 -53.146 -13.667 QT
-52.896 -13.901 -52.568 -13.901 QT
-52.365 -13.901 -52.17 -13.792 QT
-51.974 -13.682 -51.865 -13.487 QT
-51.756 -13.292 -51.756 -13.089 QT
-51.756 -12.761 -51.998 -12.511 QT
-52.24 -12.261 -52.568 -12.261 QT
-52.896 -12.261 -53.146 -12.511 QT
-53.396 -12.761 -53.396 -13.089 QT
cp
-53.396 -17.901 M
-53.396 -18.12 -53.287 -18.307 QT
-53.177 -18.495 -52.982 -18.612 QT
-52.787 -18.729 -52.568 -18.729 QT
-52.365 -18.729 -52.17 -18.612 QT
-51.974 -18.495 -51.865 -18.307 QT
-51.756 -18.12 -51.756 -17.901 QT
-51.756 -17.557 -51.99 -17.315 QT
-52.224 -17.073 -52.568 -17.073 QT
-52.912 -17.073 -53.154 -17.315 QT
-53.396 -17.557 -53.396 -17.901 QT
cp
f
GR
GS
[0.75 0 0 0.75 217.50021 24.94358] CT
N
-40.616 -13.87 M
-40.085 -13.198 -39.304 -12.831 QT
-38.522 -12.464 -37.663 -12.464 QT
-36.835 -12.464 -36.155 -12.886 QT
-35.475 -13.307 -35.475 -14.089 QT
-35.475 -15.354 L
-35.475 -15.823 -37.35 -15.823 QT
-37.35 -16.354 L
-33.054 -16.354 L
-33.054 -15.823 L
-33.522 -15.823 -33.804 -15.745 QT
-34.085 -15.667 -34.085 -15.354 QT
-34.085 -12.386 L
-34.085 -12.339 -34.124 -12.3 QT
-34.163 -12.261 -34.21 -12.261 QT
-34.35 -12.261 -34.679 -12.589 QT
-35.007 -12.917 -35.194 -13.182 QT
-35.554 -12.542 -36.343 -12.237 QT
-37.132 -11.932 -37.975 -11.932 QT
-39.444 -11.932 -40.64 -12.682 QT
-41.835 -13.432 -42.53 -14.69 QT
-43.225 -15.948 -43.225 -17.386 QT
-43.225 -18.448 -42.827 -19.456 QT
-42.429 -20.464 -41.702 -21.222 QT
-40.975 -21.979 -40.015 -22.409 QT
-39.054 -22.839 -37.975 -22.839 QT
-37.21 -22.839 -36.515 -22.503 QT
-35.819 -22.167 -35.272 -21.557 QT
-34.413 -22.792 L
-34.319 -22.839 -34.304 -22.839 QT
-34.194 -22.839 L
-34.147 -22.839 -34.116 -22.8 QT
-34.085 -22.761 -34.085 -22.714 QT
-34.085 -18.667 L
-34.085 -18.526 -34.194 -18.526 QT
-34.46 -18.526 L
-34.6 -18.526 -34.6 -18.667 QT
-34.6 -19.089 -34.772 -19.628 QT
-34.944 -20.167 -35.218 -20.643 QT
-35.491 -21.12 -35.835 -21.495 QT
-36.679 -22.307 -37.772 -22.307 QT
-38.6 -22.307 -39.366 -21.932 QT
-40.132 -21.557 -40.647 -20.901 QT
-41.194 -20.198 -41.405 -19.3 QT
-41.616 -18.401 -41.616 -17.386 QT
-41.616 -15.089 -40.616 -13.87 QT
cp
f
GR
GS
[0.75 0 0 0.75 217.50021 24.94358] CT
N
-32.091 -12.261 M
-32.091 -12.792 L
-31.591 -12.792 -31.255 -12.87 QT
-30.919 -12.948 -30.919 -13.261 QT
-30.919 -17.354 L
-30.919 -17.932 -31.146 -18.065 QT
-31.372 -18.198 -32.029 -18.198 QT
-32.029 -18.729 L
-29.872 -18.886 L
-29.872 -13.261 L
-29.872 -12.948 -29.583 -12.87 QT
-29.294 -12.792 -28.826 -12.792 QT
-28.826 -12.261 L
-32.091 -12.261 L
cp
-31.466 -21.464 M
-31.466 -21.792 -31.216 -22.042 QT
-30.966 -22.292 -30.638 -22.292 QT
-30.435 -22.292 -30.232 -22.182 QT
-30.029 -22.073 -29.919 -21.878 QT
-29.81 -21.682 -29.81 -21.464 QT
-29.81 -21.151 -30.06 -20.901 QT
-30.31 -20.651 -30.638 -20.651 QT
-30.966 -20.651 -31.216 -20.901 QT
-31.466 -21.151 -31.466 -21.464 QT
cp
f
GR
GS
[0.75 0 0 0.75 217.50021 24.94358] CT
N
-26.955 -14.057 M
-26.955 -18.198 L
-28.205 -18.198 L
-28.205 -18.589 L
-27.22 -18.589 -26.759 -19.503 QT
-26.298 -20.417 -26.298 -21.495 QT
-25.861 -21.495 L
-25.861 -18.729 L
-23.751 -18.729 L
-23.751 -18.198 L
-25.861 -18.198 L
-25.861 -14.089 L
-25.861 -13.464 -25.65 -12.995 QT
-25.439 -12.526 -24.908 -12.526 QT
-24.392 -12.526 -24.166 -13.026 QT
-23.939 -13.526 -23.939 -14.089 QT
-23.939 -14.979 L
-23.501 -14.979 L
-23.501 -14.057 L
-23.501 -13.589 -23.673 -13.136 QT
-23.845 -12.682 -24.181 -12.386 QT
-24.517 -12.089 -25.001 -12.089 QT
-25.908 -12.089 -26.431 -12.628 QT
-26.955 -13.167 -26.955 -14.057 QT
cp
f
GR
GS
[0.75 0 0 0.75 217.50021 24.94358] CT
N
-21.251 -14.057 M
-21.251 -18.198 L
-22.501 -18.198 L
-22.501 -18.589 L
-21.516 -18.589 -21.056 -19.503 QT
-20.595 -20.417 -20.595 -21.495 QT
-20.157 -21.495 L
-20.157 -18.729 L
-18.048 -18.729 L
-18.048 -18.198 L
-20.157 -18.198 L
-20.157 -14.089 L
-20.157 -13.464 -19.946 -12.995 QT
-19.735 -12.526 -19.204 -12.526 QT
-18.688 -12.526 -18.462 -13.026 QT
-18.235 -13.526 -18.235 -14.089 QT
-18.235 -14.979 L
-17.798 -14.979 L
-17.798 -14.057 L
-17.798 -13.589 -17.97 -13.136 QT
-18.141 -12.682 -18.477 -12.386 QT
-18.813 -12.089 -19.298 -12.089 QT
-20.204 -12.089 -20.727 -12.628 QT
-21.251 -13.167 -21.251 -14.057 QT
cp
f
GR
GS
[0.75 0 0 0.75 217.50021 24.94358] CT
N
-13.344 -12.089 M
-14.266 -12.089 -15.024 -12.573 QT
-15.782 -13.057 -16.219 -13.854 QT
-16.657 -14.651 -16.657 -15.542 QT
-16.657 -16.432 -16.258 -17.222 QT
-15.86 -18.011 -15.149 -18.495 QT
-14.438 -18.979 -13.563 -18.979 QT
-12.86 -18.979 -12.352 -18.753 QT
-11.844 -18.526 -11.516 -18.112 QT
-11.188 -17.698 -11.024 -17.143 QT
-10.86 -16.589 -10.86 -15.917 QT
-10.86 -15.729 -11 -15.729 QT
-15.344 -15.729 L
-15.344 -15.557 L
-15.344 -14.323 -14.844 -13.425 QT
-14.344 -12.526 -13.203 -12.526 QT
-12.75 -12.526 -12.36 -12.737 QT
-11.969 -12.948 -11.68 -13.307 QT
-11.391 -13.667 -11.282 -14.089 QT
-11.266 -14.136 -11.227 -14.182 QT
-11.188 -14.229 -11.141 -14.229 QT
-11 -14.229 L
-10.86 -14.229 -10.86 -14.026 QT
-11.063 -13.182 -11.766 -12.636 QT
-12.469 -12.089 -13.344 -12.089 QT
cp
-15.328 -16.104 M
-11.922 -16.104 L
-11.922 -16.667 -12.078 -17.245 QT
-12.235 -17.823 -12.602 -18.206 QT
-12.969 -18.589 -13.563 -18.589 QT
-14.407 -18.589 -14.867 -17.792 QT
-15.328 -16.995 -15.328 -16.104 QT
cp
f
GR
GS
[0.75 0 0 0.75 217.50021 24.94358] CT
N
-10.169 -12.261 M
-10.169 -12.792 L
-9.654 -12.792 -9.326 -12.87 QT
-8.997 -12.948 -8.997 -13.261 QT
-8.997 -17.354 L
-8.997 -17.761 -9.122 -17.94 QT
-9.247 -18.12 -9.474 -18.159 QT
-9.701 -18.198 -10.169 -18.198 QT
-10.169 -18.729 L
-8.029 -18.886 L
-8.029 -17.417 L
-7.779 -18.073 -7.333 -18.479 QT
-6.888 -18.886 -6.247 -18.886 QT
-5.81 -18.886 -5.458 -18.62 QT
-5.107 -18.354 -5.107 -17.932 QT
-5.107 -17.651 -5.302 -17.456 QT
-5.497 -17.261 -5.779 -17.261 QT
-6.06 -17.261 -6.255 -17.456 QT
-6.451 -17.651 -6.451 -17.932 QT
-6.451 -18.339 -6.169 -18.495 QT
-6.247 -18.495 L
-6.857 -18.495 -7.24 -18.057 QT
-7.622 -17.62 -7.786 -16.972 QT
-7.951 -16.323 -7.951 -15.729 QT
-7.951 -13.261 L
-7.951 -12.792 -6.497 -12.792 QT
-6.497 -12.261 L
-10.169 -12.261 L
cp
f
GR
GS
[0.75 0 0 0.75 217.50021 24.94358] CT
N
5.917 -11.932 M
4.48 -11.932 3.339 -12.69 QT
2.198 -13.448 1.558 -14.706 QT
0.917 -15.964 0.917 -17.339 QT
0.917 -18.37 1.284 -19.37 QT
1.652 -20.37 2.316 -21.151 QT
2.98 -21.932 3.909 -22.386 QT
4.839 -22.839 5.917 -22.839 QT
6.98 -22.839 7.909 -22.378 QT
8.839 -21.917 9.503 -21.136 QT
10.167 -20.354 10.527 -19.378 QT
10.886 -18.401 10.886 -17.339 QT
10.886 -16.307 10.527 -15.331 QT
10.167 -14.354 9.472 -13.573 QT
8.777 -12.792 7.855 -12.37 QT
8.152 -11.698 8.448 -11.331 QT
8.745 -10.964 9.277 -10.964 QT
9.839 -10.964 10.245 -11.347 QT
10.652 -11.729 10.652 -12.292 QT
10.652 -12.339 10.706 -12.386 QT
10.761 -12.432 10.808 -12.432 QT
10.98 -12.432 10.98 -12.229 QT
10.98 -11.151 10.558 -10.253 QT
10.136 -9.354 9.183 -9.354 QT
8.652 -9.354 8.308 -9.612 QT
7.964 -9.87 7.784 -10.268 QT
7.605 -10.667 7.503 -11.198 QT
7.402 -11.729 7.323 -12.151 QT
6.652 -11.932 5.917 -11.932 QT
cp
5.917 -12.37 M
6.589 -12.37 7.214 -12.714 QT
7.073 -13.354 6.784 -13.737 QT
6.495 -14.12 5.917 -14.12 QT
5.558 -14.12 5.308 -13.854 QT
5.058 -13.589 5.058 -13.229 QT
5.058 -12.854 5.292 -12.612 QT
5.527 -12.37 5.917 -12.37 QT
cp
4.667 -13.229 M
4.667 -13.557 4.831 -13.854 QT
4.995 -14.151 5.284 -14.331 QT
5.573 -14.511 5.917 -14.511 QT
6.558 -14.511 6.941 -14.089 QT
7.323 -13.667 7.62 -12.948 QT
8.12 -13.323 8.456 -13.831 QT
8.792 -14.339 8.98 -14.901 QT
9.167 -15.464 9.253 -16.089 QT
9.339 -16.714 9.339 -17.339 QT
9.339 -18.386 9.128 -19.3 QT
8.917 -20.214 8.417 -20.948 QT
7.98 -21.604 7.316 -22.003 QT
6.652 -22.401 5.917 -22.401 QT
5.152 -22.401 4.488 -22.011 QT
3.823 -21.62 3.386 -20.948 QT
2.886 -20.198 2.683 -19.284 QT
2.48 -18.37 2.48 -17.339 QT
2.48 -15.745 3.019 -14.44 QT
3.558 -13.136 4.823 -12.589 QT
4.667 -12.901 4.667 -13.229 QT
cp
f
GR
GS
[0.75 0 0 0.75 217.50021 24.94358] CT
N
13.106 -14.042 M
13.106 -17.354 L
13.106 -17.761 12.981 -17.94 QT
12.856 -18.12 12.629 -18.159 QT
12.403 -18.198 11.934 -18.198 QT
11.934 -18.729 L
14.2 -18.886 L
14.2 -14.042 L
14.2 -13.464 14.286 -13.136 QT
14.372 -12.807 14.645 -12.651 QT
14.918 -12.495 15.512 -12.495 QT
16.325 -12.495 16.801 -13.167 QT
17.278 -13.839 17.278 -14.698 QT
17.278 -17.354 L
17.278 -17.761 17.153 -17.94 QT
17.028 -18.12 16.801 -18.159 QT
16.575 -18.198 16.106 -18.198 QT
16.106 -18.729 L
18.372 -18.886 L
18.372 -13.62 L
18.372 -13.229 18.489 -13.05 QT
18.606 -12.87 18.832 -12.831 QT
19.059 -12.792 19.543 -12.792 QT
19.543 -12.261 L
17.325 -12.089 L
17.325 -13.354 L
17.043 -12.792 16.543 -12.44 QT
16.043 -12.089 15.45 -12.089 QT
14.372 -12.089 13.739 -12.55 QT
13.106 -13.011 13.106 -14.042 QT
cp
f
GR
GS
[0.75 0 0 0.75 217.50021 24.94358] CT
N
20.223 -13.729 M
20.223 -14.62 20.926 -15.182 QT
21.629 -15.745 22.621 -15.979 QT
23.613 -16.214 24.488 -16.214 QT
24.488 -16.823 L
24.488 -17.261 24.301 -17.667 QT
24.113 -18.073 23.754 -18.331 QT
23.395 -18.589 22.957 -18.589 QT
21.973 -18.589 21.442 -18.136 QT
21.738 -18.136 21.918 -17.925 QT
22.098 -17.714 22.098 -17.417 QT
22.098 -17.12 21.887 -16.909 QT
21.676 -16.698 21.395 -16.698 QT
21.082 -16.698 20.871 -16.909 QT
20.66 -17.12 20.66 -17.417 QT
20.66 -18.214 21.379 -18.597 QT
22.098 -18.979 22.957 -18.979 QT
23.567 -18.979 24.184 -18.722 QT
24.801 -18.464 25.192 -17.979 QT
25.582 -17.495 25.582 -16.854 QT
25.582 -13.479 L
25.582 -13.182 25.707 -12.94 QT
25.832 -12.698 26.098 -12.698 QT
26.348 -12.698 26.465 -12.948 QT
26.582 -13.198 26.582 -13.479 QT
26.582 -14.432 L
27.02 -14.432 L
27.02 -13.479 L
27.02 -13.136 26.848 -12.831 QT
26.676 -12.526 26.379 -12.347 QT
26.082 -12.167 25.738 -12.167 QT
25.301 -12.167 24.981 -12.511 QT
24.66 -12.854 24.629 -13.323 QT
24.348 -12.761 23.809 -12.425 QT
23.27 -12.089 22.645 -12.089 QT
22.082 -12.089 21.528 -12.261 QT
20.973 -12.432 20.598 -12.792 QT
20.223 -13.151 20.223 -13.729 QT
cp
21.442 -13.729 M
21.442 -13.198 21.832 -12.847 QT
22.223 -12.495 22.754 -12.495 QT
23.238 -12.495 23.629 -12.729 QT
24.02 -12.964 24.254 -13.386 QT
24.488 -13.807 24.488 -14.261 QT
24.488 -15.823 L
23.817 -15.823 23.098 -15.604 QT
22.379 -15.386 21.91 -14.909 QT
21.442 -14.432 21.442 -13.729 QT
cp
f
GR
GS
[0.75 0 0 0.75 217.50021 24.94358] CT
N
27.431 -12.261 M
27.431 -12.792 L
27.931 -12.792 28.267 -12.87 QT
28.603 -12.948 28.603 -13.261 QT
28.603 -21.136 L
28.603 -21.542 28.478 -21.722 QT
28.353 -21.901 28.126 -21.94 QT
27.9 -21.979 27.431 -21.979 QT
27.431 -22.511 L
29.65 -22.667 L
29.65 -13.261 L
29.65 -12.948 29.978 -12.87 QT
30.306 -12.792 30.822 -12.792 QT
30.822 -12.261 L
27.431 -12.261 L
cp
f
GR
GS
[0.75 0 0 0.75 217.50021 24.94358] CT
N
31.505 -12.261 M
31.505 -12.792 L
32.005 -12.792 32.341 -12.87 QT
32.677 -12.948 32.677 -13.261 QT
32.677 -17.354 L
32.677 -17.932 32.451 -18.065 QT
32.224 -18.198 31.568 -18.198 QT
31.568 -18.729 L
33.724 -18.886 L
33.724 -13.261 L
33.724 -12.948 34.013 -12.87 QT
34.302 -12.792 34.771 -12.792 QT
34.771 -12.261 L
31.505 -12.261 L
cp
32.13 -21.464 M
32.13 -21.792 32.38 -22.042 QT
32.63 -22.292 32.958 -22.292 QT
33.162 -22.292 33.365 -22.182 QT
33.568 -22.073 33.677 -21.878 QT
33.787 -21.682 33.787 -21.464 QT
33.787 -21.151 33.537 -20.901 QT
33.287 -20.651 32.958 -20.651 QT
32.63 -20.651 32.38 -20.901 QT
32.13 -21.151 32.13 -21.464 QT
cp
f
GR
GS
[0.75 0 0 0.75 217.50021 24.94358] CT
N
36.642 -14.057 M
36.642 -18.198 L
35.392 -18.198 L
35.392 -18.589 L
36.376 -18.589 36.837 -19.503 QT
37.298 -20.417 37.298 -21.495 QT
37.736 -21.495 L
37.736 -18.729 L
39.845 -18.729 L
39.845 -18.198 L
37.736 -18.198 L
37.736 -14.089 L
37.736 -13.464 37.947 -12.995 QT
38.157 -12.526 38.689 -12.526 QT
39.204 -12.526 39.431 -13.026 QT
39.657 -13.526 39.657 -14.089 QT
39.657 -14.979 L
40.095 -14.979 L
40.095 -14.057 L
40.095 -13.589 39.923 -13.136 QT
39.751 -12.682 39.415 -12.386 QT
39.079 -12.089 38.595 -12.089 QT
37.689 -12.089 37.165 -12.628 QT
36.642 -13.167 36.642 -14.057 QT
cp
f
GR
GS
[0.75 0 0 0.75 217.50021 24.94358] CT
N
42.33 -21.526 M
42.33 -21.839 42.557 -22.065 QT
42.783 -22.292 43.111 -22.292 QT
43.439 -22.292 43.666 -22.065 QT
43.892 -21.839 43.892 -21.526 QT
43.892 -21.182 43.666 -20.956 QT
43.439 -20.729 43.111 -20.729 QT
42.783 -20.729 42.557 -20.964 QT
42.33 -21.198 42.33 -21.526 QT
cp
45.221 -21.526 M
45.221 -21.839 45.447 -22.065 QT
45.674 -22.292 46.002 -22.292 QT
46.33 -22.292 46.557 -22.065 QT
46.783 -21.839 46.783 -21.526 QT
46.783 -21.182 46.557 -20.956 QT
46.33 -20.729 46.002 -20.729 QT
45.674 -20.729 45.447 -20.964 QT
45.221 -21.198 45.221 -21.526 QT
cp
f
GR
GS
[0.75 0 0 0.75 217.50021 24.94358] CT
N
41.408 -13.729 M
41.408 -14.62 42.111 -15.182 QT
42.814 -15.745 43.807 -15.979 QT
44.799 -16.214 45.674 -16.214 QT
45.674 -16.823 L
45.674 -17.261 45.486 -17.667 QT
45.299 -18.073 44.939 -18.331 QT
44.58 -18.589 44.142 -18.589 QT
43.158 -18.589 42.627 -18.136 QT
42.924 -18.136 43.103 -17.925 QT
43.283 -17.714 43.283 -17.417 QT
43.283 -17.12 43.072 -16.909 QT
42.861 -16.698 42.58 -16.698 QT
42.267 -16.698 42.057 -16.909 QT
41.846 -17.12 41.846 -17.417 QT
41.846 -18.214 42.564 -18.597 QT
43.283 -18.979 44.142 -18.979 QT
44.752 -18.979 45.369 -18.722 QT
45.986 -18.464 46.377 -17.979 QT
46.767 -17.495 46.767 -16.854 QT
46.767 -13.479 L
46.767 -13.182 46.892 -12.94 QT
47.017 -12.698 47.283 -12.698 QT
47.533 -12.698 47.65 -12.948 QT
47.767 -13.198 47.767 -13.479 QT
47.767 -14.432 L
48.205 -14.432 L
48.205 -13.479 L
48.205 -13.136 48.033 -12.831 QT
47.861 -12.526 47.564 -12.347 QT
47.267 -12.167 46.924 -12.167 QT
46.486 -12.167 46.166 -12.511 QT
45.846 -12.854 45.814 -13.323 QT
45.533 -12.761 44.994 -12.425 QT
44.455 -12.089 43.83 -12.089 QT
43.267 -12.089 42.713 -12.261 QT
42.158 -12.432 41.783 -12.792 QT
41.408 -13.151 41.408 -13.729 QT
cp
42.627 -13.729 M
42.627 -13.198 43.017 -12.847 QT
43.408 -12.495 43.939 -12.495 QT
44.424 -12.495 44.814 -12.729 QT
45.205 -12.964 45.439 -13.386 QT
45.674 -13.807 45.674 -14.261 QT
45.674 -15.823 L
45.002 -15.823 44.283 -15.604 QT
43.564 -15.386 43.096 -14.909 QT
42.627 -14.432 42.627 -13.729 QT
cp
f
GR
GS
[0.75 0 0 0.75 217.50021 24.94358] CT
N
49.679 -14.057 M
49.679 -18.198 L
48.429 -18.198 L
48.429 -18.589 L
49.413 -18.589 49.874 -19.503 QT
50.335 -20.417 50.335 -21.495 QT
50.773 -21.495 L
50.773 -18.729 L
52.882 -18.729 L
52.882 -18.198 L
50.773 -18.198 L
50.773 -14.089 L
50.773 -13.464 50.984 -12.995 QT
51.195 -12.526 51.726 -12.526 QT
52.241 -12.526 52.468 -13.026 QT
52.695 -13.526 52.695 -14.089 QT
52.695 -14.979 L
53.132 -14.979 L
53.132 -14.057 L
53.132 -13.589 52.96 -13.136 QT
52.788 -12.682 52.452 -12.386 QT
52.116 -12.089 51.632 -12.089 QT
50.726 -12.089 50.202 -12.628 QT
49.679 -13.167 49.679 -14.057 QT
cp
f
GR
GS
[0.75 0 0 0.75 217.50021 24.94358] CT
N
55.117 -13.089 M
55.117 -13.432 55.367 -13.667 QT
55.617 -13.901 55.945 -13.901 QT
56.148 -13.901 56.344 -13.792 QT
56.539 -13.682 56.648 -13.487 QT
56.758 -13.292 56.758 -13.089 QT
56.758 -12.761 56.515 -12.511 QT
56.273 -12.261 55.945 -12.261 QT
55.617 -12.261 55.367 -12.511 QT
55.117 -12.761 55.117 -13.089 QT
cp
55.117 -17.901 M
55.117 -18.12 55.226 -18.307 QT
55.336 -18.495 55.531 -18.612 QT
55.726 -18.729 55.945 -18.729 QT
56.148 -18.729 56.344 -18.612 QT
56.539 -18.495 56.648 -18.307 QT
56.758 -18.12 56.758 -17.901 QT
56.758 -17.557 56.523 -17.315 QT
56.289 -17.073 55.945 -17.073 QT
55.601 -17.073 55.359 -17.315 QT
55.117 -17.557 55.117 -17.901 QT
cp
f
GR
GS
[0.75 0 0 0.75 217.50021 24.94358] CT
N
66.954 -22.183 M
66.954 -22.589 L
66.954 -22.62 66.985 -22.667 QT
69.313 -25.245 L
69.845 -25.823 70.173 -26.206 QT
70.501 -26.589 70.821 -27.097 QT
71.141 -27.605 71.329 -28.128 QT
71.516 -28.651 71.516 -29.23 QT
71.516 -29.855 71.29 -30.417 QT
71.063 -30.98 70.61 -31.316 QT
70.157 -31.651 69.516 -31.651 QT
68.876 -31.651 68.352 -31.253 QT
67.829 -30.855 67.61 -30.245 QT
67.673 -30.261 67.782 -30.261 QT
68.11 -30.261 68.352 -30.034 QT
68.595 -29.808 68.595 -29.448 QT
68.595 -29.105 68.352 -28.862 QT
68.11 -28.62 67.782 -28.62 QT
67.423 -28.62 67.188 -28.862 QT
66.954 -29.105 66.954 -29.448 QT
66.954 -30.011 67.165 -30.503 QT
67.376 -30.995 67.774 -31.378 QT
68.173 -31.761 68.673 -31.964 QT
69.173 -32.167 69.735 -32.167 QT
70.595 -32.167 71.337 -31.808 QT
72.079 -31.448 72.509 -30.784 QT
72.938 -30.12 72.938 -29.23 QT
72.938 -28.589 72.657 -28.003 QT
72.376 -27.417 71.931 -26.933 QT
71.485 -26.448 70.782 -25.839 QT
70.079 -25.23 69.86 -25.026 QT
68.173 -23.401 L
69.61 -23.401 L
70.673 -23.401 71.384 -23.417 QT
72.095 -23.433 72.141 -23.48 QT
72.313 -23.667 72.501 -24.855 QT
72.938 -24.855 L
72.516 -22.183 L
66.954 -22.183 L
cp
f
GR
GS
[0.75 0 0 0.75 217.50021 24.94358] CT
N
74.694 -22.433 M
74.694 -22.526 74.709 -22.573 QT
75.834 -27.042 L
75.944 -27.464 75.944 -27.776 QT
75.944 -28.417 75.506 -28.417 QT
75.037 -28.417 74.811 -27.862 QT
74.584 -27.308 74.365 -26.448 QT
74.365 -26.401 74.319 -26.378 QT
74.272 -26.355 74.24 -26.355 QT
74.069 -26.355 L
74.006 -26.355 73.975 -26.409 QT
73.944 -26.464 73.944 -26.511 QT
74.1 -27.151 74.248 -27.605 QT
74.397 -28.058 74.717 -28.433 QT
75.037 -28.808 75.522 -28.808 QT
76.037 -28.808 76.428 -28.511 QT
76.819 -28.214 76.912 -27.714 QT
77.287 -28.214 77.78 -28.511 QT
78.272 -28.808 78.85 -28.808 QT
79.319 -28.808 79.686 -28.534 QT
80.053 -28.261 80.053 -27.776 QT
80.053 -27.401 79.811 -27.12 QT
79.569 -26.839 79.178 -26.839 QT
78.928 -26.839 78.764 -26.987 QT
78.6 -27.136 78.6 -27.37 QT
78.6 -27.698 78.842 -27.964 QT
79.084 -28.23 79.397 -28.23 QT
79.162 -28.417 78.819 -28.417 QT
78.178 -28.417 77.701 -27.964 QT
77.225 -27.511 76.834 -26.808 QT
75.772 -22.511 L
75.725 -22.308 75.545 -22.159 QT
75.365 -22.011 75.147 -22.011 QT
74.959 -22.011 74.826 -22.128 QT
74.694 -22.245 74.694 -22.433 QT
cp
f
GR
GS
[0.75 0 0 0.75 217.50021 24.94358] CT
N
80.936 -20.701 M
80.936 -20.889 81.014 -21.092 QT
81.826 -23.248 L
81.951 -23.608 81.951 -23.842 QT
81.951 -24.139 81.732 -24.139 QT
81.342 -24.139 81.084 -23.733 QT
80.826 -23.326 80.701 -22.826 QT
80.686 -22.764 80.623 -22.764 QT
80.514 -22.764 L
80.42 -22.764 80.42 -22.858 QT
80.42 -22.889 L
80.592 -23.483 80.92 -23.944 QT
81.248 -24.405 81.764 -24.405 QT
82.107 -24.405 82.357 -24.17 QT
82.607 -23.936 82.607 -23.576 QT
82.607 -23.389 82.529 -23.186 QT
81.717 -21.03 L
81.576 -20.701 81.576 -20.436 QT
81.576 -20.139 81.811 -20.139 QT
82.201 -20.139 82.459 -20.553 QT
82.717 -20.967 82.826 -21.451 QT
82.842 -21.514 82.904 -21.514 QT
83.029 -21.514 L
83.061 -21.514 83.084 -21.483 QT
83.107 -21.451 83.107 -21.42 QT
83.107 -21.42 83.107 -21.389 QT
82.967 -20.826 82.631 -20.35 QT
82.295 -19.873 81.779 -19.873 QT
81.436 -19.873 81.186 -20.116 QT
80.936 -20.358 80.936 -20.701 QT
cp
82.061 -26.045 M
82.061 -26.248 82.24 -26.42 QT
82.42 -26.592 82.623 -26.592 QT
82.795 -26.592 82.904 -26.491 QT
83.014 -26.389 83.014 -26.217 QT
83.014 -25.998 82.834 -25.826 QT
82.654 -25.655 82.451 -25.655 QT
82.279 -25.655 82.17 -25.772 QT
82.061 -25.889 82.061 -26.045 QT
cp
f
GR
GS
[0.75 0 0 0.75 217.50021 24.94358] CT
N
84.457 -20.155 M
84.457 -20.217 84.473 -20.248 QT
85.223 -23.233 L
85.301 -23.498 85.301 -23.717 QT
85.301 -24.139 85.004 -24.139 QT
84.691 -24.139 84.535 -23.764 QT
84.379 -23.389 84.238 -22.826 QT
84.238 -22.795 84.215 -22.78 QT
84.191 -22.764 84.16 -22.764 QT
84.051 -22.764 L
84.004 -22.764 83.98 -22.803 QT
83.957 -22.842 83.957 -22.858 QT
84.066 -23.295 84.168 -23.6 QT
84.269 -23.905 84.48 -24.155 QT
84.691 -24.405 85.004 -24.405 QT
85.379 -24.405 85.668 -24.17 QT
85.957 -23.936 85.957 -23.561 QT
86.254 -23.951 86.66 -24.178 QT
87.066 -24.405 87.504 -24.405 QT
87.863 -24.405 88.121 -24.28 QT
88.379 -24.155 88.527 -23.912 QT
88.676 -23.67 88.676 -23.326 QT
88.676 -22.92 88.488 -22.334 QT
88.301 -21.748 88.035 -21.03 QT
87.894 -20.701 87.894 -20.436 QT
87.894 -20.139 88.113 -20.139 QT
88.504 -20.139 88.769 -20.553 QT
89.035 -20.967 89.144 -21.451 QT
89.16 -21.514 89.223 -21.514 QT
89.348 -21.514 L
89.379 -21.514 89.41 -21.491 QT
89.441 -21.467 89.441 -21.42 QT
89.441 -21.42 89.426 -21.389 QT
89.285 -20.826 88.949 -20.35 QT
88.613 -19.873 88.098 -19.873 QT
87.754 -19.873 87.504 -20.116 QT
87.254 -20.358 87.254 -20.701 QT
87.254 -20.889 87.332 -21.092 QT
87.457 -21.42 87.621 -21.873 QT
87.785 -22.326 87.887 -22.741 QT
87.988 -23.155 87.988 -23.467 QT
87.988 -23.748 87.879 -23.944 QT
87.769 -24.139 87.488 -24.139 QT
87.129 -24.139 86.816 -23.983 QT
86.504 -23.826 86.277 -23.561 QT
86.051 -23.295 85.863 -22.92 QT
85.176 -20.201 L
85.144 -20.061 85.027 -19.967 QT
84.91 -19.873 84.754 -19.873 QT
84.644 -19.873 84.551 -19.951 QT
84.457 -20.03 84.457 -20.155 QT
cp
f
GR
GS
[0.75 0 0 0.75 217.50021 24.94358] CT
N
66.204 -16.221 24.383 0.587 re
f
GR
GS
[0.75 0 0 0.75 217.50021 24.94358] CT
N
68.596 -2.45 M
68.596 -2.544 68.612 -2.591 QT
69.737 -7.059 L
69.846 -7.481 69.846 -7.794 QT
69.846 -8.434 69.409 -8.434 QT
68.94 -8.434 68.713 -7.88 QT
68.487 -7.325 68.268 -6.466 QT
68.268 -6.419 68.221 -6.395 QT
68.174 -6.372 68.143 -6.372 QT
67.971 -6.372 L
67.909 -6.372 67.877 -6.427 QT
67.846 -6.481 67.846 -6.528 QT
68.002 -7.169 68.151 -7.622 QT
68.299 -8.075 68.619 -8.45 QT
68.94 -8.825 69.424 -8.825 QT
69.94 -8.825 70.33 -8.528 QT
70.721 -8.231 70.815 -7.731 QT
71.19 -8.231 71.682 -8.528 QT
72.174 -8.825 72.752 -8.825 QT
73.221 -8.825 73.588 -8.552 QT
73.955 -8.278 73.955 -7.794 QT
73.955 -7.419 73.713 -7.137 QT
73.471 -6.856 73.08 -6.856 QT
72.83 -6.856 72.666 -7.005 QT
72.502 -7.153 72.502 -7.387 QT
72.502 -7.716 72.744 -7.981 QT
72.987 -8.247 73.299 -8.247 QT
73.065 -8.434 72.721 -8.434 QT
72.08 -8.434 71.604 -7.981 QT
71.127 -7.528 70.737 -6.825 QT
69.674 -2.528 L
69.627 -2.325 69.448 -2.177 QT
69.268 -2.028 69.049 -2.028 QT
68.862 -2.028 68.729 -2.145 QT
68.596 -2.263 68.596 -2.45 QT
cp
f
GR
GS
[0.75 0 0 0.75 217.50021 24.94358] CT
N
76.072 0.109 M
75.588 0.109 75.221 -0.117 QT
74.854 -0.344 74.658 -0.719 QT
74.463 -1.094 74.463 -1.578 QT
74.463 -2.266 74.838 -2.93 QT
75.213 -3.594 75.838 -4.008 QT
76.463 -4.422 77.151 -4.422 QT
77.526 -4.422 77.815 -4.297 QT
78.104 -4.172 78.322 -3.938 QT
78.541 -3.703 78.658 -3.398 QT
78.776 -3.094 78.776 -2.734 QT
78.776 -2.203 78.549 -1.703 QT
78.322 -1.203 77.94 -0.789 QT
77.557 -0.375 77.065 -0.133 QT
76.572 0.109 76.072 0.109 QT
cp
76.088 -0.156 M
76.526 -0.156 76.901 -0.453 QT
77.276 -0.75 77.51 -1.219 QT
77.744 -1.688 77.869 -2.195 QT
77.994 -2.703 77.994 -3.125 QT
77.994 -3.563 77.776 -3.859 QT
77.557 -4.156 77.135 -4.156 QT
76.557 -4.156 76.111 -3.656 QT
75.666 -3.156 75.447 -2.461 QT
75.229 -1.766 75.229 -1.188 QT
75.229 -0.75 75.447 -0.453 QT
75.666 -0.156 76.088 -0.156 QT
cp
f
GR
GS
[0.75 0 0 0.75 217.50021 24.94358] CT
N
80.096 -1.094 M
80.096 -1.422 80.182 -1.766 QT
80.268 -2.109 80.424 -2.531 QT
80.58 -2.953 80.705 -3.266 QT
80.83 -3.625 80.83 -3.859 QT
80.83 -4.156 80.611 -4.156 QT
80.221 -4.156 79.963 -3.75 QT
79.705 -3.344 79.58 -2.844 QT
79.565 -2.781 79.502 -2.781 QT
79.393 -2.781 L
79.299 -2.781 79.299 -2.875 QT
79.299 -2.906 L
79.471 -3.5 79.799 -3.961 QT
80.127 -4.422 80.643 -4.422 QT
80.986 -4.422 81.236 -4.188 QT
81.486 -3.953 81.486 -3.594 QT
81.486 -3.406 81.408 -3.203 QT
81.361 -3.078 81.205 -2.664 QT
81.049 -2.25 80.963 -1.984 QT
80.877 -1.719 80.822 -1.461 QT
80.768 -1.203 80.768 -0.938 QT
80.768 -0.609 80.908 -0.383 QT
81.049 -0.156 81.377 -0.156 QT
82.018 -0.156 82.502 -0.938 QT
82.502 -0.984 82.51 -1.023 QT
82.518 -1.063 82.518 -1.094 QT
83.236 -3.984 L
83.283 -4.125 83.4 -4.219 QT
83.518 -4.313 83.658 -4.313 QT
83.783 -4.313 83.877 -4.234 QT
83.971 -4.156 83.971 -4.031 QT
83.971 -3.969 83.955 -3.953 QT
83.236 -1.063 L
83.158 -0.766 83.158 -0.578 QT
83.158 -0.156 83.455 -0.156 QT
83.768 -0.156 83.932 -0.555 QT
84.096 -0.953 84.205 -1.469 QT
84.221 -1.531 84.283 -1.531 QT
84.408 -1.531 L
84.44 -1.531 84.463 -1.492 QT
84.486 -1.453 84.486 -1.438 QT
84.393 -1 84.291 -0.695 QT
84.19 -0.391 83.971 -0.141 QT
83.752 0.109 83.44 0.109 QT
83.111 0.109 82.861 -0.063 QT
82.611 -0.234 82.518 -0.531 QT
82.299 -0.234 81.994 -0.063 QT
81.69 0.109 81.346 0.109 QT
80.783 0.109 80.44 -0.203 QT
80.096 -0.516 80.096 -1.094 QT
cp
f
GR
GS
[0.75 0 0 0.75 217.50021 24.94358] CT
N
85.536 -0.813 M
85.536 -0.953 85.567 -1.094 QT
86.286 -3.953 L
85.239 -3.953 L
85.129 -3.953 85.129 -4.094 QT
85.176 -4.313 85.27 -4.313 QT
86.364 -4.313 L
86.77 -5.938 L
86.817 -6.078 86.934 -6.172 QT
87.051 -6.266 87.192 -6.266 QT
87.317 -6.266 87.403 -6.188 QT
87.489 -6.109 87.489 -5.984 QT
87.489 -5.953 87.489 -5.938 QT
87.489 -5.922 87.473 -5.906 QT
87.082 -4.313 L
88.114 -4.313 L
88.207 -4.313 88.207 -4.188 QT
88.207 -4.156 88.192 -4.094 QT
88.176 -4.031 88.153 -3.992 QT
88.129 -3.953 88.082 -3.953 QT
86.989 -3.953 L
86.27 -1.063 L
86.207 -0.781 86.207 -0.578 QT
86.207 -0.156 86.489 -0.156 QT
86.926 -0.156 87.27 -0.57 QT
87.614 -0.984 87.786 -1.469 QT
87.832 -1.531 87.864 -1.531 QT
87.989 -1.531 L
88.036 -1.531 88.059 -1.5 QT
88.082 -1.469 88.082 -1.438 QT
88.082 -1.422 88.067 -1.406 QT
87.848 -0.813 87.426 -0.352 QT
87.004 0.109 86.473 0.109 QT
86.067 0.109 85.801 -0.148 QT
85.536 -0.406 85.536 -0.813 QT
cp
f
GR
GS
[0.75 0 0 0.75 0 0] CT
0.4 0.668 0.845 RC
N
286.413 374 M
286.413 373.437 L
279.24 373.437 L
279.24 374 L
cp
293.587 373.624 M
286.413 373.624 L
286.413 374 L
293.587 374 L
300.76 374 L
300.76 373.624 L
cp
307.934 374 M
307.934 373.437 L
300.76 373.437 L
300.76 374 L
cp
315.107 374 M
315.107 373.624 L
307.934 373.624 L
307.934 374 L
cp
322.281 372.498 M
315.107 372.498 L
315.107 374 L
322.281 374 L
329.455 374 L
329.455 372.498 L
cp
336.628 374 M
336.628 371.934 L
329.455 371.934 L
329.455 374 L
cp
343.802 374 M
343.802 371.371 L
336.628 371.371 L
336.628 374 L
cp
350.975 374 M
350.975 371.747 L
343.802 371.747 L
343.802 374 L
cp
358.149 374 M
358.149 372.122 L
350.975 372.122 L
350.975 374 L
cp
365.322 374 M
365.322 370.808 L
358.149 370.808 L
358.149 374 L
cp
372.496 374 M
372.496 369.681 L
365.322 369.681 L
365.322 374 L
cp
379.669 374 M
379.669 369.493 L
372.496 369.493 L
372.496 374 L
cp
386.843 374 M
386.843 369.869 L
379.669 369.869 L
379.669 374 L
cp
394.017 374 M
394.017 367.24 L
386.843 367.24 L
386.843 374 L
cp
401.19 374 M
401.19 364.423 L
394.017 364.423 L
394.017 374 L
cp
408.364 374 M
408.364 368.179 L
401.19 368.179 L
401.19 374 L
cp
415.537 374 M
415.537 364.048 L
408.364 364.048 L
408.364 374 L
cp
422.711 374 M
422.711 361.982 L
415.537 361.982 L
415.537 374 L
cp
429.884 374 M
429.884 356.537 L
422.711 356.537 L
422.711 374 L
cp
437.058 374 M
437.058 350.34 L
429.884 350.34 L
429.884 374 L
cp
444.231 374 M
444.231 340.012 L
437.058 340.012 L
437.058 374 L
cp
451.405 374 M
451.405 337.947 L
444.231 337.947 L
444.231 374 L
cp
458.579 374 M
458.579 315.226 L
451.405 315.226 L
451.405 374 L
cp
465.752 374 M
465.752 306.024 L
458.579 306.024 L
458.579 374 L
cp
472.926 374 M
472.926 292.504 L
465.752 292.504 L
465.752 374 L
cp
480.099 374 M
480.099 237.486 L
472.926 237.486 L
472.926 374 L
cp
487.273 374 M
487.273 46.516 L
480.099 46.516 L
480.099 374 L
cp
f
GR
GS
[0.75 0 0 0.75 0 0] CT
2 setlinecap
10.0 ML
0.667 LW
N
279.24 374 M
279.24 373.437 L
286.413 373.437 L
286.413 374 L
286.413 374 L
S
GR
GS
[0.75 0 0 0.75 0 0] CT
2 setlinecap
10.0 ML
0.667 LW
N
286.413 373.624 M
293.587 373.624 L
293.587 374 L
293.587 374 L
S
GR
GS
[0.75 0 0 0.75 0 0] CT
2 setlinecap
10.0 ML
0.667 LW
N
293.587 373.624 M
300.76 373.624 L
S
GR
GS
[0.75 0 0 0.75 0 0] CT
2 setlinecap
10.0 ML
0.667 LW
N
300.76 374 M
300.76 374 L
300.76 373.437 L
307.934 373.437 L
307.934 374 L
307.934 374 L
S
GR
GS
[0.75 0 0 0.75 0 0] CT
2 setlinecap
10.0 ML
0.667 LW
N
307.934 373.624 M
315.107 373.624 L
S
GR
GS
[0.75 0 0 0.75 0 0] CT
2 setlinecap
10.0 ML
0.667 LW
N
315.107 374 M
315.107 374 L
315.107 372.498 L
322.281 372.498 L
322.281 374 L
322.281 374 L
S
GR
GS
[0.75 0 0 0.75 0 0] CT
2 setlinecap
10.0 ML
0.667 LW
N
322.281 372.498 M
329.455 372.498 L
S
GR
GS
[0.75 0 0 0.75 0 0] CT
2 setlinecap
10.0 ML
0.667 LW
N
329.455 374 M
329.455 374 L
329.455 371.934 L
336.628 371.934 L
S
GR
GS
[0.75 0 0 0.75 0 0] CT
2 setlinecap
10.0 ML
0.667 LW
N
336.628 374 M
336.628 374 L
336.628 371.371 L
343.802 371.371 L
343.802 374 L
343.802 374 L
S
GR
GS
[0.75 0 0 0.75 0 0] CT
2 setlinecap
10.0 ML
0.667 LW
N
343.802 371.747 M
350.975 371.747 L
350.975 374 L
350.975 374 L
S
GR
GS
[0.75 0 0 0.75 0 0] CT
2 setlinecap
10.0 ML
0.667 LW
N
350.975 372.122 M
358.149 372.122 L
S
GR
GS
[0.75 0 0 0.75 0 0] CT
2 setlinecap
10.0 ML
0.667 LW
N
358.149 374 M
358.149 374 L
358.149 370.808 L
365.322 370.808 L
S
GR
GS
[0.75 0 0 0.75 0 0] CT
2 setlinecap
10.0 ML
0.667 LW
N
365.322 374 M
365.322 374 L
365.322 369.681 L
372.496 369.681 L
S
GR
GS
[0.75 0 0 0.75 0 0] CT
2 setlinecap
10.0 ML
0.667 LW
N
372.496 374 M
372.496 374 L
372.496 369.493 L
379.669 369.493 L
379.669 374 L
379.669 374 L
S
GR
GS
[0.75 0 0 0.75 0 0] CT
2 setlinecap
10.0 ML
0.667 LW
N
379.669 369.869 M
386.843 369.869 L
S
GR
GS
[0.75 0 0 0.75 0 0] CT
2 setlinecap
10.0 ML
0.667 LW
N
386.843 374 M
386.843 374 L
386.843 367.24 L
394.017 367.24 L
S
GR
GS
[0.75 0 0 0.75 0 0] CT
2 setlinecap
10.0 ML
0.667 LW
N
394.017 374 M
394.017 374 L
394.017 364.423 L
401.19 364.423 L
401.19 374 L
401.19 374 L
S
GR
GS
[0.75 0 0 0.75 0 0] CT
2 setlinecap
10.0 ML
0.667 LW
N
401.19 368.179 M
408.364 368.179 L
S
GR
GS
[0.75 0 0 0.75 0 0] CT
2 setlinecap
10.0 ML
0.667 LW
N
408.364 374 M
408.364 374 L
408.364 364.048 L
415.537 364.048 L
S
GR
GS
[0.75 0 0 0.75 0 0] CT
2 setlinecap
10.0 ML
0.667 LW
N
415.537 374 M
415.537 374 L
415.537 361.982 L
422.711 361.982 L
S
GR
GS
[0.75 0 0 0.75 0 0] CT
2 setlinecap
10.0 ML
0.667 LW
N
422.711 374 M
422.711 374 L
422.711 356.537 L
429.884 356.537 L
S
GR
GS
[0.75 0 0 0.75 0 0] CT
2 setlinecap
10.0 ML
0.667 LW
N
429.884 374 M
429.884 374 L
429.884 350.34 L
437.058 350.34 L
S
GR
GS
[0.75 0 0 0.75 0 0] CT
2 setlinecap
10.0 ML
0.667 LW
N
437.058 374 M
437.058 374 L
437.058 340.012 L
444.231 340.012 L
S
GR
GS
[0.75 0 0 0.75 0 0] CT
2 setlinecap
10.0 ML
0.667 LW
N
444.231 374 M
444.231 374 L
444.231 337.947 L
451.405 337.947 L
S
GR
GS
[0.75 0 0 0.75 0 0] CT
2 setlinecap
10.0 ML
0.667 LW
N
451.405 374 M
451.405 374 L
451.405 315.226 L
458.579 315.226 L
S
GR
GS
[0.75 0 0 0.75 0 0] CT
2 setlinecap
10.0 ML
0.667 LW
N
458.579 374 M
458.579 374 L
458.579 306.024 L
465.752 306.024 L
S
GR
GS
[0.75 0 0 0.75 0 0] CT
2 setlinecap
10.0 ML
0.667 LW
N
465.752 374 M
465.752 374 L
465.752 292.504 L
472.926 292.504 L
S
GR
GS
[0.75 0 0 0.75 0 0] CT
2 setlinecap
10.0 ML
0.667 LW
N
472.926 374 M
472.926 374 L
472.926 237.486 L
480.099 237.486 L
S
GR
GS
[0.75 0 0 0.75 0 0] CT
2 setlinecap
10.0 ML
0.667 LW
N
480.099 374 M
480.099 374 L
480.099 46.516 L
487.273 46.516 L
487.273 374 L
S
GR
GS
[0.75 0 0 0.75 0 0] CT
0.911 0.595 0.459 RC
N
99.901 374 M
99.901 373.812 L
92.727 373.812 L
92.727 374 L
cp
114.248 373.624 M
107.074 373.624 L
107.074 374 L
114.248 374 L
121.421 374 L
121.421 373.624 L
cp
135.769 374 M
135.769 373.437 L
128.595 373.437 L
128.595 374 L
cp
142.942 374 M
142.942 373.624 L
135.769 373.624 L
135.769 374 L
cp
157.289 374 M
157.289 373.812 L
150.116 373.812 L
150.116 374 L
cp
164.463 374 M
164.463 373.624 L
157.289 373.624 L
157.289 374 L
cp
171.636 374 M
171.636 372.686 L
164.463 372.686 L
164.463 374 L
cp
178.81 374 M
178.81 373.624 L
171.636 373.624 L
171.636 374 L
cp
185.984 374 M
185.984 373.812 L
178.81 373.812 L
178.81 374 L
cp
193.157 374 M
193.157 373.624 L
185.984 373.624 L
185.984 374 L
cp
200.331 374 M
200.331 373.812 L
193.157 373.812 L
193.157 374 L
cp
207.504 374 M
207.504 373.249 L
200.331 373.249 L
200.331 374 L
cp
214.678 374 M
214.678 372.873 L
207.504 372.873 L
207.504 374 L
cp
221.851 374 M
221.851 372.686 L
214.678 372.686 L
214.678 374 L
cp
229.025 373.249 M
221.851 373.249 L
221.851 374 L
229.025 374 L
236.198 374 L
236.198 373.249 L
cp
243.372 374 M
243.372 372.498 L
236.198 372.498 L
236.198 374 L
cp
250.545 372.873 M
243.372 372.873 L
243.372 374 L
250.545 374 L
257.719 374 L
257.719 372.873 L
cp
264.893 372.122 M
257.719 372.122 L
257.719 374 L
264.893 374 L
272.066 374 L
272.066 372.122 L
cp
279.24 374 M
279.24 371.183 L
272.066 371.183 L
272.066 374 L
cp
286.413 374 M
286.413 370.996 L
279.24 370.996 L
279.24 374 L
cp
293.587 374 M
293.587 370.62 L
286.413 370.62 L
286.413 374 L
cp
300.76 370.808 M
293.587 370.808 L
293.587 374 L
300.76 374 L
307.934 374 L
307.934 370.808 L
cp
315.107 374 M
315.107 368.367 L
307.934 368.367 L
307.934 374 L
cp
322.281 374 M
322.281 370.62 L
315.107 370.62 L
315.107 374 L
cp
329.455 374 M
329.455 365.55 L
322.281 365.55 L
322.281 374 L
cp
336.628 374 M
336.628 364.611 L
329.455 364.611 L
329.455 374 L
cp
343.802 374 M
343.802 365.55 L
336.628 365.55 L
336.628 374 L
cp
350.975 374 M
350.975 362.546 L
343.802 362.546 L
343.802 374 L
cp
358.149 374 M
358.149 362.17 L
350.975 362.17 L
350.975 374 L
cp
365.322 374 M
365.322 360.668 L
358.149 360.668 L
358.149 374 L
cp
372.496 374 M
372.496 357.288 L
365.322 357.288 L
365.322 374 L
cp
379.669 374 M
379.669 357.1 L
372.496 357.1 L
372.496 374 L
cp
386.843 374 M
386.843 349.777 L
379.669 349.777 L
379.669 374 L
cp
394.017 374 M
394.017 351.467 L
386.843 351.467 L
386.843 374 L
cp
401.19 374 M
401.19 339.073 L
394.017 339.073 L
394.017 374 L
cp
408.364 374 M
408.364 337.759 L
401.19 337.759 L
401.19 374 L
cp
415.537 374 M
415.537 337.196 L
408.364 337.196 L
408.364 374 L
cp
422.711 374 M
422.711 330.06 L
415.537 330.06 L
415.537 374 L
cp
429.884 374 M
429.884 317.854 L
422.711 317.854 L
422.711 374 L
cp
437.058 374 M
437.058 305.649 L
429.884 305.649 L
429.884 374 L
cp
444.231 374 M
444.231 309.592 L
437.058 309.592 L
437.058 374 L
cp
451.405 374 M
451.405 307.339 L
444.231 307.339 L
444.231 374 L
cp
458.579 374 M
458.579 314.287 L
451.405 314.287 L
451.405 374 L
cp
465.752 374 M
465.752 321.61 L
458.579 321.61 L
458.579 374 L
cp
472.926 374 M
472.926 323.863 L
465.752 323.863 L
465.752 374 L
cp
480.099 374 M
480.099 322.549 L
472.926 322.549 L
472.926 374 L
cp
487.273 374 M
487.273 322.361 L
480.099 322.361 L
480.099 374 L
cp
f
GR
GS
[0.75 0 0 0.75 0 0] CT
2 setlinecap
10.0 ML
0.667 LW
N
92.727 374 M
92.727 373.812 L
99.901 373.812 L
99.901 374 L
99.901 374 L
S
GR
GS
[0.75 0 0 0.75 0 0] CT
2 setlinecap
10.0 ML
0.667 LW
N
99.901 374 M
107.074 374 L
S
GR
GS
[0.75 0 0 0.75 0 0] CT
2 setlinecap
10.0 ML
0.667 LW
N
107.074 374 M
107.074 374 L
107.074 373.624 L
114.248 373.624 L
114.248 374 L
114.248 374 L
S
GR
GS
[0.75 0 0 0.75 0 0] CT
2 setlinecap
10.0 ML
0.667 LW
N
114.248 373.624 M
121.421 373.624 L
121.421 374 L
121.421 374 L
S
GR
GS
[0.75 0 0 0.75 0 0] CT
2 setlinecap
10.0 ML
0.667 LW
N
121.421 374 M
128.595 374 L
S
GR
GS
[0.75 0 0 0.75 0 0] CT
2 setlinecap
10.0 ML
0.667 LW
N
128.595 374 M
128.595 374 L
128.595 373.437 L
135.769 373.437 L
135.769 374 L
135.769 374 L
S
GR
GS
[0.75 0 0 0.75 0 0] CT
2 setlinecap
10.0 ML
0.667 LW
N
135.769 373.624 M
142.942 373.624 L
142.942 374 L
142.942 374 L
S
GR
GS
[0.75 0 0 0.75 0 0] CT
2 setlinecap
10.0 ML
0.667 LW
N
142.942 374 M
150.116 374 L
S
GR
GS
[0.75 0 0 0.75 0 0] CT
2 setlinecap
10.0 ML
0.667 LW
N
150.116 374 M
150.116 374 L
150.116 373.812 L
157.289 373.812 L
S
GR
GS
[0.75 0 0 0.75 0 0] CT
2 setlinecap
10.0 ML
0.667 LW
N
157.289 374 M
157.289 374 L
157.289 373.624 L
164.463 373.624 L
S
GR
GS
[0.75 0 0 0.75 0 0] CT
2 setlinecap
10.0 ML
0.667 LW
N
164.463 374 M
164.463 374 L
164.463 372.686 L
171.636 372.686 L
171.636 374 L
171.636 374 L
S
GR
GS
[0.75 0 0 0.75 0 0] CT
2 setlinecap
10.0 ML
0.667 LW
N
171.636 373.624 M
178.81 373.624 L
178.81 374 L
178.81 374 L
S
GR
GS
[0.75 0 0 0.75 0 0] CT
2 setlinecap
10.0 ML
0.667 LW
N
178.81 373.812 M
185.984 373.812 L
S
GR
GS
[0.75 0 0 0.75 0 0] CT
2 setlinecap
10.0 ML
0.667 LW
N
185.984 374 M
185.984 374 L
185.984 373.624 L
193.157 373.624 L
193.157 374 L
193.157 374 L
S
GR
GS
[0.75 0 0 0.75 0 0] CT
2 setlinecap
10.0 ML
0.667 LW
N
193.157 373.812 M
200.331 373.812 L
S
GR
GS
[0.75 0 0 0.75 0 0] CT
2 setlinecap
10.0 ML
0.667 LW
N
200.331 374 M
200.331 374 L
200.331 373.249 L
207.504 373.249 L
S
GR
GS
[0.75 0 0 0.75 0 0] CT
2 setlinecap
10.0 ML
0.667 LW
N
207.504 374 M
207.504 374 L
207.504 372.873 L
214.678 372.873 L
S
GR
GS
[0.75 0 0 0.75 0 0] CT
2 setlinecap
10.0 ML
0.667 LW
N
214.678 374 M
214.678 374 L
214.678 372.686 L
221.851 372.686 L
221.851 374 L
221.851 374 L
S
GR
GS
[0.75 0 0 0.75 0 0] CT
2 setlinecap
10.0 ML
0.667 LW
N
221.851 373.249 M
229.025 373.249 L
229.025 374 L
229.025 374 L
S
GR
GS
[0.75 0 0 0.75 0 0] CT
2 setlinecap
10.0 ML
0.667 LW
N
229.025 373.249 M
236.198 373.249 L
S
GR
GS
[0.75 0 0 0.75 0 0] CT
2 setlinecap
10.0 ML
0.667 LW
N
236.198 374 M
236.198 374 L
236.198 372.498 L
243.372 372.498 L
243.372 374 L
243.372 374 L
S
GR
GS
[0.75 0 0 0.75 0 0] CT
2 setlinecap
10.0 ML
0.667 LW
N
243.372 372.873 M
250.545 372.873 L
250.545 374 L
250.545 374 L
S
GR
GS
[0.75 0 0 0.75 0 0] CT
2 setlinecap
10.0 ML
0.667 LW
N
250.545 372.873 M
257.719 372.873 L
S
GR
GS
[0.75 0 0 0.75 0 0] CT
2 setlinecap
10.0 ML
0.667 LW
N
257.719 374 M
257.719 374 L
257.719 372.122 L
264.893 372.122 L
264.893 374 L
264.893 374 L
S
GR
GS
[0.75 0 0 0.75 0 0] CT
2 setlinecap
10.0 ML
0.667 LW
N
264.893 372.122 M
272.066 372.122 L
S
GR
GS
[0.75 0 0 0.75 0 0] CT
2 setlinecap
10.0 ML
0.667 LW
N
272.066 374 M
272.066 374 L
272.066 371.183 L
279.24 371.183 L
S
GR
GS
[0.75 0 0 0.75 0 0] CT
2 setlinecap
10.0 ML
0.667 LW
N
279.24 374 M
279.24 374 L
279.24 370.996 L
286.413 370.996 L
S
GR
GS
[0.75 0 0 0.75 0 0] CT
2 setlinecap
10.0 ML
0.667 LW
N
286.413 374 M
286.413 374 L
286.413 370.62 L
293.587 370.62 L
293.587 374 L
293.587 374 L
S
GR
GS
[0.75 0 0 0.75 0 0] CT
2 setlinecap
10.0 ML
0.667 LW
N
293.587 370.808 M
300.76 370.808 L
300.76 374 L
300.76 374 L
S
GR
GS
[0.75 0 0 0.75 0 0] CT
2 setlinecap
10.0 ML
0.667 LW
N
300.76 370.808 M
307.934 370.808 L
S
GR
GS
[0.75 0 0 0.75 0 0] CT
2 setlinecap
10.0 ML
0.667 LW
N
307.934 374 M
307.934 374 L
307.934 368.367 L
315.107 368.367 L
315.107 374 L
315.107 374 L
S
GR
GS
[0.75 0 0 0.75 0 0] CT
2 setlinecap
10.0 ML
0.667 LW
N
315.107 370.62 M
322.281 370.62 L
S
GR
GS
[0.75 0 0 0.75 0 0] CT
2 setlinecap
10.0 ML
0.667 LW
N
322.281 374 M
322.281 374 L
322.281 365.55 L
329.455 365.55 L
S
GR
GS
[0.75 0 0 0.75 0 0] CT
2 setlinecap
10.0 ML
0.667 LW
N
329.455 374 M
329.455 374 L
329.455 364.611 L
336.628 364.611 L
336.628 374 L
336.628 374 L
S
GR
GS
[0.75 0 0 0.75 0 0] CT
2 setlinecap
10.0 ML
0.667 LW
N
336.628 365.55 M
343.802 365.55 L
S
GR
GS
[0.75 0 0 0.75 0 0] CT
2 setlinecap
10.0 ML
0.667 LW
N
343.802 374 M
343.802 374 L
343.802 362.546 L
350.975 362.546 L
S
GR
GS
[0.75 0 0 0.75 0 0] CT
2 setlinecap
10.0 ML
0.667 LW
N
350.975 374 M
350.975 374 L
350.975 362.17 L
358.149 362.17 L
S
GR
GS
[0.75 0 0 0.75 0 0] CT
2 setlinecap
10.0 ML
0.667 LW
N
358.149 374 M
358.149 374 L
358.149 360.668 L
365.322 360.668 L
S
GR
GS
[0.75 0 0 0.75 0 0] CT
2 setlinecap
10.0 ML
0.667 LW
N
365.322 374 M
365.322 374 L
365.322 357.288 L
372.496 357.288 L
S
GR
GS
[0.75 0 0 0.75 0 0] CT
2 setlinecap
10.0 ML
0.667 LW
N
372.496 374 M
372.496 374 L
372.496 357.1 L
379.669 357.1 L
S
GR
GS
[0.75 0 0 0.75 0 0] CT
2 setlinecap
10.0 ML
0.667 LW
N
379.669 374 M
379.669 374 L
379.669 349.777 L
386.843 349.777 L
386.843 374 L
386.843 374 L
S
GR
GS
[0.75 0 0 0.75 0 0] CT
2 setlinecap
10.0 ML
0.667 LW
N
386.843 351.467 M
394.017 351.467 L
S
GR
GS
[0.75 0 0 0.75 0 0] CT
2 setlinecap
10.0 ML
0.667 LW
N
394.017 374 M
394.017 374 L
394.017 339.073 L
401.19 339.073 L
S
GR
GS
[0.75 0 0 0.75 0 0] CT
2 setlinecap
10.0 ML
0.667 LW
N
401.19 374 M
401.19 374 L
401.19 337.759 L
408.364 337.759 L
S
GR
GS
[0.75 0 0 0.75 0 0] CT
2 setlinecap
10.0 ML
0.667 LW
N
408.364 374 M
408.364 374 L
408.364 337.196 L
415.537 337.196 L
S
GR
GS
[0.75 0 0 0.75 0 0] CT
2 setlinecap
10.0 ML
0.667 LW
N
415.537 374 M
415.537 374 L
415.537 330.06 L
422.711 330.06 L
S
GR
GS
[0.75 0 0 0.75 0 0] CT
2 setlinecap
10.0 ML
0.667 LW
N
422.711 374 M
422.711 374 L
422.711 317.854 L
429.884 317.854 L
S
GR
GS
[0.75 0 0 0.75 0 0] CT
2 setlinecap
10.0 ML
0.667 LW
N
429.884 374 M
429.884 374 L
429.884 305.649 L
437.058 305.649 L
437.058 374 L
437.058 374 L
S
GR
GS
[0.75 0 0 0.75 0 0] CT
2 setlinecap
10.0 ML
0.667 LW
N
437.058 309.592 M
444.231 309.592 L
S
GR
GS
[0.75 0 0 0.75 0 0] CT
2 setlinecap
10.0 ML
0.667 LW
N
444.231 374 M
444.231 374 L
444.231 307.339 L
451.405 307.339 L
451.405 374 L
451.405 374 L
S
GR
GS
[0.75 0 0 0.75 0 0] CT
2 setlinecap
10.0 ML
0.667 LW
N
451.405 314.287 M
458.579 314.287 L
458.579 374 L
458.579 374 L
S
GR
GS
[0.75 0 0 0.75 0 0] CT
2 setlinecap
10.0 ML
0.667 LW
N
458.579 321.61 M
465.752 321.61 L
465.752 374 L
465.752 374 L
S
GR
GS
[0.75 0 0 0.75 0 0] CT
2 setlinecap
10.0 ML
0.667 LW
N
465.752 323.863 M
472.926 323.863 L
S
GR
GS
[0.75 0 0 0.75 0 0] CT
2 setlinecap
10.0 ML
0.667 LW
N
472.926 374 M
472.926 374 L
472.926 322.549 L
480.099 322.549 L
S
GR
GS
[0.75 0 0 0.75 0 0] CT
2 setlinecap
10.0 ML
0.667 LW
N
480.099 374 M
480.099 374 L
480.099 322.361 L
487.273 322.361 L
487.273 374 L
S
GR
GS
[0.75 0 0 0.75 0 0] CT
0.958 0.816 0.475 RC
N
150.116 373.624 M
142.942 373.624 L
142.942 374 L
150.116 374 L
157.289 374 L
157.289 373.624 L
cp
171.636 374 M
171.636 373.812 L
164.463 373.812 L
164.463 374 L
cp
193.157 374 M
193.157 373.812 L
185.984 373.812 L
185.984 374 L
cp
207.504 374 M
207.504 373.812 L
200.331 373.812 L
200.331 374 L
cp
221.851 374 M
221.851 373.437 L
214.678 373.437 L
214.678 374 L
cp
229.025 374 M
229.025 372.873 L
221.851 372.873 L
221.851 374 L
cp
236.198 374 M
236.198 373.249 L
229.025 373.249 L
229.025 374 L
cp
243.372 374 M
243.372 372.873 L
236.198 372.873 L
236.198 374 L
cp
250.545 374 M
250.545 372.122 L
243.372 372.122 L
243.372 374 L
cp
257.719 374 M
257.719 372.686 L
250.545 372.686 L
250.545 374 L
cp
264.893 374 M
264.893 373.249 L
257.719 373.249 L
257.719 374 L
cp
272.066 374 M
272.066 372.31 L
264.893 372.31 L
264.893 374 L
cp
279.24 374 M
279.24 373.061 L
272.066 373.061 L
272.066 374 L
cp
286.413 374 M
286.413 372.122 L
279.24 372.122 L
279.24 374 L
cp
293.587 374 M
293.587 371.747 L
286.413 371.747 L
286.413 374 L
cp
300.76 374 M
300.76 371.183 L
293.587 371.183 L
293.587 374 L
cp
307.934 374 M
307.934 371.371 L
300.76 371.371 L
300.76 374 L
cp
315.107 374 M
315.107 370.432 L
307.934 370.432 L
307.934 374 L
cp
322.281 374 M
322.281 368.367 L
315.107 368.367 L
315.107 374 L
cp
329.455 374 M
329.455 369.306 L
322.281 369.306 L
322.281 374 L
cp
336.628 374 M
336.628 369.493 L
329.455 369.493 L
329.455 374 L
cp
343.802 374 M
343.802 368.367 L
336.628 368.367 L
336.628 374 L
cp
350.975 374 M
350.975 368.742 L
343.802 368.742 L
343.802 374 L
cp
358.149 374 M
358.149 366.301 L
350.975 366.301 L
350.975 374 L
cp
365.322 374 M
365.322 366.864 L
358.149 366.864 L
358.149 374 L
cp
372.496 374 M
372.496 365.174 L
365.322 365.174 L
365.322 374 L
cp
379.669 374 M
379.669 365.55 L
372.496 365.55 L
372.496 374 L
cp
386.843 374 M
386.843 361.231 L
379.669 361.231 L
379.669 374 L
cp
394.017 374 M
394.017 360.856 L
386.843 360.856 L
386.843 374 L
cp
401.19 374 M
401.19 359.166 L
394.017 359.166 L
394.017 374 L
cp
408.364 374 M
408.364 354.096 L
401.19 354.096 L
401.19 374 L
cp
415.537 374 M
415.537 350.34 L
408.364 350.34 L
408.364 374 L
cp
422.711 374 M
422.711 343.768 L
415.537 343.768 L
415.537 374 L
cp
429.884 374 M
429.884 337.008 L
422.711 337.008 L
422.711 374 L
cp
437.058 374 M
437.058 324.051 L
429.884 324.051 L
429.884 374 L
cp
444.231 374 M
444.231 306.024 L
437.058 306.024 L
437.058 374 L
cp
451.405 374 M
451.405 297.387 L
444.231 297.387 L
444.231 374 L
cp
458.579 374 M
458.579 294.946 L
451.405 294.946 L
451.405 374 L
cp
465.752 374 M
465.752 290.439 L
458.579 290.439 L
458.579 374 L
cp
472.926 374 M
472.926 288.749 L
465.752 288.749 L
465.752 374 L
cp
480.099 374 M
480.099 277.107 L
472.926 277.107 L
472.926 374 L
cp
487.273 374 M
487.273 289.5 L
480.099 289.5 L
480.099 374 L
cp
f
GR
GS
[0.75 0 0 0.75 0 0] CT
2 setlinecap
10.0 ML
0.667 LW
N
142.942 374 M
142.942 373.624 L
150.116 373.624 L
150.116 374 L
150.116 374 L
S
GR
GS
[0.75 0 0 0.75 0 0] CT
2 setlinecap
10.0 ML
0.667 LW
N
150.116 373.624 M
157.289 373.624 L
157.289 374 L
157.289 374 L
S
GR
GS
[0.75 0 0 0.75 0 0] CT
2 setlinecap
10.0 ML
0.667 LW
N
157.289 374 M
164.463 374 L
S
GR
GS
[0.75 0 0 0.75 0 0] CT
2 setlinecap
10.0 ML
0.667 LW
N
164.463 374 M
164.463 374 L
164.463 373.812 L
171.636 373.812 L
171.636 374 L
171.636 374 L
S
GR
GS
[0.75 0 0 0.75 0 0] CT
2 setlinecap
10.0 ML
0.667 LW
N
171.636 374 M
178.81 374 L
178.81 374 L
178.81 374 L
S
GR
GS
[0.75 0 0 0.75 0 0] CT
2 setlinecap
10.0 ML
0.667 LW
N
178.81 374 M
185.984 374 L
S
GR
GS
[0.75 0 0 0.75 0 0] CT
2 setlinecap
10.0 ML
0.667 LW
N
185.984 374 M
185.984 374 L
185.984 373.812 L
193.157 373.812 L
193.157 374 L
193.157 374 L
S
GR
GS
[0.75 0 0 0.75 0 0] CT
2 setlinecap
10.0 ML
0.667 LW
N
193.157 374 M
200.331 374 L
S
GR
GS
[0.75 0 0 0.75 0 0] CT
2 setlinecap
10.0 ML
0.667 LW
N
200.331 374 M
200.331 374 L
200.331 373.812 L
207.504 373.812 L
207.504 374 L
207.504 374 L
S
GR
GS
[0.75 0 0 0.75 0 0] CT
2 setlinecap
10.0 ML
0.667 LW
N
207.504 374 M
214.678 374 L
S
GR
GS
[0.75 0 0 0.75 0 0] CT
2 setlinecap
10.0 ML
0.667 LW
N
214.678 374 M
214.678 374 L
214.678 373.437 L
221.851 373.437 L
S
GR
GS
[0.75 0 0 0.75 0 0] CT
2 setlinecap
10.0 ML
0.667 LW
N
221.851 374 M
221.851 374 L
221.851 372.873 L
229.025 372.873 L
229.025 374 L
229.025 374 L
S
GR
GS
[0.75 0 0 0.75 0 0] CT
2 setlinecap
10.0 ML
0.667 LW
N
229.025 373.249 M
236.198 373.249 L
S
GR
GS
[0.75 0 0 0.75 0 0] CT
2 setlinecap
10.0 ML
0.667 LW
N
236.198 374 M
236.198 374 L
236.198 372.873 L
243.372 372.873 L
S
GR
GS
[0.75 0 0 0.75 0 0] CT
2 setlinecap
10.0 ML
0.667 LW
N
243.372 374 M
243.372 374 L
243.372 372.122 L
250.545 372.122 L
250.545 374 L
250.545 374 L
S
GR
GS
[0.75 0 0 0.75 0 0] CT
2 setlinecap
10.0 ML
0.667 LW
N
250.545 372.686 M
257.719 372.686 L
257.719 374 L
257.719 374 L
S
GR
GS
[0.75 0 0 0.75 0 0] CT
2 setlinecap
10.0 ML
0.667 LW
N
257.719 373.249 M
264.893 373.249 L
S
GR
GS
[0.75 0 0 0.75 0 0] CT
2 setlinecap
10.0 ML
0.667 LW
N
264.893 374 M
264.893 374 L
264.893 372.31 L
272.066 372.31 L
272.066 374 L
272.066 374 L
S
GR
GS
[0.75 0 0 0.75 0 0] CT
2 setlinecap
10.0 ML
0.667 LW
N
272.066 373.061 M
279.24 373.061 L
S
GR
GS
[0.75 0 0 0.75 0 0] CT
2 setlinecap
10.0 ML
0.667 LW
N
279.24 374 M
279.24 374 L
279.24 372.122 L
286.413 372.122 L
S
GR
GS
[0.75 0 0 0.75 0 0] CT
2 setlinecap
10.0 ML
0.667 LW
N
286.413 374 M
286.413 374 L
286.413 371.747 L
293.587 371.747 L
S
GR
GS
[0.75 0 0 0.75 0 0] CT
2 setlinecap
10.0 ML
0.667 LW
N
293.587 374 M
293.587 374 L
293.587 371.183 L
300.76 371.183 L
300.76 374 L
300.76 374 L
S
GR
GS
[0.75 0 0 0.75 0 0] CT
2 setlinecap
10.0 ML
0.667 LW
N
300.76 371.371 M
307.934 371.371 L
S
GR
GS
[0.75 0 0 0.75 0 0] CT
2 setlinecap
10.0 ML
0.667 LW
N
307.934 374 M
307.934 374 L
307.934 370.432 L
315.107 370.432 L
S
GR
GS
[0.75 0 0 0.75 0 0] CT
2 setlinecap
10.0 ML
0.667 LW
N
315.107 374 M
315.107 374 L
315.107 368.367 L
322.281 368.367 L
322.281 374 L
322.281 374 L
S
GR
GS
[0.75 0 0 0.75 0 0] CT
2 setlinecap
10.0 ML
0.667 LW
N
322.281 369.306 M
329.455 369.306 L
329.455 374 L
329.455 374 L
S
GR
GS
[0.75 0 0 0.75 0 0] CT
2 setlinecap
10.0 ML
0.667 LW
N
329.455 369.493 M
336.628 369.493 L
S
GR
GS
[0.75 0 0 0.75 0 0] CT
2 setlinecap
10.0 ML
0.667 LW
N
336.628 374 M
336.628 374 L
336.628 368.367 L
343.802 368.367 L
343.802 374 L
343.802 374 L
S
GR
GS
[0.75 0 0 0.75 0 0] CT
2 setlinecap
10.0 ML
0.667 LW
N
343.802 368.742 M
350.975 368.742 L
S
GR
GS
[0.75 0 0 0.75 0 0] CT
2 setlinecap
10.0 ML
0.667 LW
N
350.975 374 M
350.975 374 L
350.975 366.301 L
358.149 366.301 L
358.149 374 L
358.149 374 L
S
GR
GS
[0.75 0 0 0.75 0 0] CT
2 setlinecap
10.0 ML
0.667 LW
N
358.149 366.864 M
365.322 366.864 L
S
GR
GS
[0.75 0 0 0.75 0 0] CT
2 setlinecap
10.0 ML
0.667 LW
N
365.322 374 M
365.322 374 L
365.322 365.174 L
372.496 365.174 L
372.496 374 L
372.496 374 L
S
GR
GS
[0.75 0 0 0.75 0 0] CT
2 setlinecap
10.0 ML
0.667 LW
N
372.496 365.55 M
379.669 365.55 L
S
GR
GS
[0.75 0 0 0.75 0 0] CT
2 setlinecap
10.0 ML
0.667 LW
N
379.669 374 M
379.669 374 L
379.669 361.231 L
386.843 361.231 L
S
GR
GS
[0.75 0 0 0.75 0 0] CT
2 setlinecap
10.0 ML
0.667 LW
N
386.843 374 M
386.843 374 L
386.843 360.856 L
394.017 360.856 L
S
GR
GS
[0.75 0 0 0.75 0 0] CT
2 setlinecap
10.0 ML
0.667 LW
N
394.017 374 M
394.017 374 L
394.017 359.166 L
401.19 359.166 L
S
GR
GS
[0.75 0 0 0.75 0 0] CT
2 setlinecap
10.0 ML
0.667 LW
N
401.19 374 M
401.19 374 L
401.19 354.096 L
408.364 354.096 L
S
GR
GS
[0.75 0 0 0.75 0 0] CT
2 setlinecap
10.0 ML
0.667 LW
N
408.364 374 M
408.364 374 L
408.364 350.34 L
415.537 350.34 L
S
GR
GS
[0.75 0 0 0.75 0 0] CT
2 setlinecap
10.0 ML
0.667 LW
N
415.537 374 M
415.537 374 L
415.537 343.768 L
422.711 343.768 L
S
GR
GS
[0.75 0 0 0.75 0 0] CT
2 setlinecap
10.0 ML
0.667 LW
N
422.711 374 M
422.711 374 L
422.711 337.008 L
429.884 337.008 L
S
GR
GS
[0.75 0 0 0.75 0 0] CT
2 setlinecap
10.0 ML
0.667 LW
N
429.884 374 M
429.884 374 L
429.884 324.051 L
437.058 324.051 L
S
GR
GS
[0.75 0 0 0.75 0 0] CT
2 setlinecap
10.0 ML
0.667 LW
N
437.058 374 M
437.058 374 L
437.058 306.024 L
444.231 306.024 L
S
GR
GS
[0.75 0 0 0.75 0 0] CT
2 setlinecap
10.0 ML
0.667 LW
N
444.231 374 M
444.231 374 L
444.231 297.387 L
451.405 297.387 L
S
GR
GS
[0.75 0 0 0.75 0 0] CT
2 setlinecap
10.0 ML
0.667 LW
N
451.405 374 M
451.405 374 L
451.405 294.946 L
458.579 294.946 L
S
GR
GS
[0.75 0 0 0.75 0 0] CT
2 setlinecap
10.0 ML
0.667 LW
N
458.579 374 M
458.579 374 L
458.579 290.439 L
465.752 290.439 L
S
GR
GS
[0.75 0 0 0.75 0 0] CT
2 setlinecap
10.0 ML
0.667 LW
N
465.752 374 M
465.752 374 L
465.752 288.749 L
472.926 288.749 L
S
GR
GS
[0.75 0 0 0.75 0 0] CT
2 setlinecap
10.0 ML
0.667 LW
N
472.926 374 M
472.926 374 L
472.926 277.107 L
480.099 277.107 L
480.099 374 L
480.099 374 L
S
GR
GS
[0.75 0 0 0.75 0 0] CT
2 setlinecap
10.0 ML
0.667 LW
N
480.099 289.5 M
487.273 289.5 L
487.273 374 L
S
GR
GS
[0.75 0 0 0.75 0 0] CT
0.149 GC
2 setlinecap
1 LJ
0.667 LW
N
73 374 M
507 374 L
S
GR
GS
[0.75 0 0 0.75 0 0] CT
0.149 GC
2 setlinecap
1 LJ
0.667 LW
N
73 36 M
507 36 L
S
GR
GS
[0.75 0 0 0.75 0 0] CT
0.149 GC
2 setlinecap
1 LJ
0.667 LW
N
128.595 374 M
128.595 369.66 L
S
GR
GS
[0.75 0 0 0.75 0 0] CT
0.149 GC
2 setlinecap
1 LJ
0.667 LW
N
200.331 374 M
200.331 369.66 L
S
GR
GS
[0.75 0 0 0.75 0 0] CT
0.149 GC
2 setlinecap
1 LJ
0.667 LW
N
272.066 374 M
272.066 369.66 L
S
GR
GS
[0.75 0 0 0.75 0 0] CT
0.149 GC
2 setlinecap
1 LJ
0.667 LW
N
343.802 374 M
343.802 369.66 L
S
GR
GS
[0.75 0 0 0.75 0 0] CT
0.149 GC
2 setlinecap
1 LJ
0.667 LW
N
415.537 374 M
415.537 369.66 L
S
GR
GS
[0.75 0 0 0.75 0 0] CT
0.149 GC
2 setlinecap
1 LJ
0.667 LW
N
487.273 374 M
487.273 369.66 L
S
GR
GS
[0.75 0 0 0.75 0 0] CT
0.149 GC
2 setlinecap
1 LJ
0.667 LW
N
128.595 36 M
128.595 40.34 L
S
GR
GS
[0.75 0 0 0.75 0 0] CT
0.149 GC
2 setlinecap
1 LJ
0.667 LW
N
200.331 36 M
200.331 40.34 L
S
GR
GS
[0.75 0 0 0.75 0 0] CT
0.149 GC
2 setlinecap
1 LJ
0.667 LW
N
272.066 36 M
272.066 40.34 L
S
GR
GS
[0.75 0 0 0.75 0 0] CT
0.149 GC
2 setlinecap
1 LJ
0.667 LW
N
343.802 36 M
343.802 40.34 L
S
GR
GS
[0.75 0 0 0.75 0 0] CT
0.149 GC
2 setlinecap
1 LJ
0.667 LW
N
415.537 36 M
415.537 40.34 L
S
GR
GS
[0.75 0 0 0.75 0 0] CT
0.149 GC
2 setlinecap
1 LJ
0.667 LW
N
487.273 36 M
487.273 40.34 L
S
GR
GS
[0.75 0 0 0.75 96.44629 284.50001] CT
0.149 GC
/Helvetica 13.333 F
GS
[1 0 0 1 0 0] CT
-13 14 moveto 
1 -1 scale
(0.75) t 
GR
GR
GS
[0.75 0 0 0.75 150.24795 284.50001] CT
0.149 GC
/Helvetica 13.333 F
GS
[1 0 0 1 0 0] CT
-9.5 14 moveto 
1 -1 scale
(0.8) t 
GR
GR
GS
[0.75 0 0 0.75 204.04962 284.50001] CT
0.149 GC
/Helvetica 13.333 F
GS
[1 0 0 1 0 0] CT
-13 14 moveto 
1 -1 scale
(0.85) t 
GR
GR
GS
[0.75 0 0 0.75 257.8512 284.50001] CT
0.149 GC
/Helvetica 13.333 F
GS
[1 0 0 1 0 0] CT
-9.5 14 moveto 
1 -1 scale
(0.9) t 
GR
GR
GS
[0.75 0 0 0.75 311.65288 284.50001] CT
0.149 GC
/Helvetica 13.333 F
GS
[1 0 0 1 0 0] CT
-13 14 moveto 
1 -1 scale
(0.95) t 
GR
GR
GS
[0.75 0 0 0.75 365.45455 284.50001] CT
0.149 GC
/Helvetica 13.333 F
GS
[1 0 0 1 0 0] CT
-4 14 moveto 
1 -1 scale
(1) t 
GR
GR
GS
[0.75 0 0 0.75 0 0] CT
0.149 GC
2 setlinecap
1 LJ
0.667 LW
N
73 374 M
73 36 L
S
GR
GS
[0.75 0 0 0.75 0 0] CT
0.149 GC
2 setlinecap
1 LJ
0.667 LW
N
507 374 M
507 36 L
S
GR
GS
[0.75 0 0 0.75 0 0] CT
0.149 GC
2 setlinecap
1 LJ
0.667 LW
N
73 374 M
77.34 374 L
S
GR
GS
[0.75 0 0 0.75 0 0] CT
0.149 GC
2 setlinecap
1 LJ
0.667 LW
N
73 336.444 M
77.34 336.444 L
S
GR
GS
[0.75 0 0 0.75 0 0] CT
0.149 GC
2 setlinecap
1 LJ
0.667 LW
N
73 298.889 M
77.34 298.889 L
S
GR
GS
[0.75 0 0 0.75 0 0] CT
0.149 GC
2 setlinecap
1 LJ
0.667 LW
N
73 261.333 M
77.34 261.333 L
S
GR
GS
[0.75 0 0 0.75 0 0] CT
0.149 GC
2 setlinecap
1 LJ
0.667 LW
N
73 223.778 M
77.34 223.778 L
S
GR
GS
[0.75 0 0 0.75 0 0] CT
0.149 GC
2 setlinecap
1 LJ
0.667 LW
N
73 186.222 M
77.34 186.222 L
S
GR
GS
[0.75 0 0 0.75 0 0] CT
0.149 GC
2 setlinecap
1 LJ
0.667 LW
N
73 148.667 M
77.34 148.667 L
S
GR
GS
[0.75 0 0 0.75 0 0] CT
0.149 GC
2 setlinecap
1 LJ
0.667 LW
N
73 111.111 M
77.34 111.111 L
S
GR
GS
[0.75 0 0 0.75 0 0] CT
0.149 GC
2 setlinecap
1 LJ
0.667 LW
N
73 73.556 M
77.34 73.556 L
S
GR
GS
[0.75 0 0 0.75 0 0] CT
0.149 GC
2 setlinecap
1 LJ
0.667 LW
N
73 36 M
77.34 36 L
S
GR
GS
[0.75 0 0 0.75 0 0] CT
0.149 GC
2 setlinecap
1 LJ
0.667 LW
N
507 374 M
502.66 374 L
S
GR
GS
[0.75 0 0 0.75 0 0] CT
0.149 GC
2 setlinecap
1 LJ
0.667 LW
N
507 336.444 M
502.66 336.444 L
S
GR
GS
[0.75 0 0 0.75 0 0] CT
0.149 GC
2 setlinecap
1 LJ
0.667 LW
N
507 298.889 M
502.66 298.889 L
S
GR
GS
[0.75 0 0 0.75 0 0] CT
0.149 GC
2 setlinecap
1 LJ
0.667 LW
N
507 261.333 M
502.66 261.333 L
S
GR
GS
[0.75 0 0 0.75 0 0] CT
0.149 GC
2 setlinecap
1 LJ
0.667 LW
N
507 223.778 M
502.66 223.778 L
S
GR
GS
[0.75 0 0 0.75 0 0] CT
0.149 GC
2 setlinecap
1 LJ
0.667 LW
N
507 186.222 M
502.66 186.222 L
S
GR
GS
[0.75 0 0 0.75 0 0] CT
0.149 GC
2 setlinecap
1 LJ
0.667 LW
N
507 148.667 M
502.66 148.667 L
S
GR
GS
[0.75 0 0 0.75 0 0] CT
0.149 GC
2 setlinecap
1 LJ
0.667 LW
N
507 111.111 M
502.66 111.111 L
S
GR
GS
[0.75 0 0 0.75 0 0] CT
0.149 GC
2 setlinecap
1 LJ
0.667 LW
N
507 73.556 M
502.66 73.556 L
S
GR
GS
[0.75 0 0 0.75 0 0] CT
0.149 GC
2 setlinecap
1 LJ
0.667 LW
N
507 36 M
502.66 36 L
S
GR
GS
[0.75 0 0 0.75 50.75 280.5] CT
0.149 GC
/Helvetica 13.333 F
GS
[1 0 0 1 0 0] CT
-8 5.5 moveto 
1 -1 scale
(0) t 
GR
GR
GS
[0.75 0 0 0.75 50.75 252.33334] CT
0.149 GC
/Helvetica 13.333 F
GS
[1 0 0 1 0 0] CT
-23 5.5 moveto 
1 -1 scale
(200) t 
GR
GR
GS
[0.75 0 0 0.75 50.75 224.16666] CT
0.149 GC
/Helvetica 13.333 F
GS
[1 0 0 1 0 0] CT
-23 5.5 moveto 
1 -1 scale
(400) t 
GR
GR
GS
[0.75 0 0 0.75 50.75 196.00001] CT
0.149 GC
/Helvetica 13.333 F
GS
[1 0 0 1 0 0] CT
-23 5.5 moveto 
1 -1 scale
(600) t 
GR
GR
GS
[0.75 0 0 0.75 50.75 167.83333] CT
0.149 GC
/Helvetica 13.333 F
GS
[1 0 0 1 0 0] CT
-23 5.5 moveto 
1 -1 scale
(800) t 
GR
GR
GS
[0.75 0 0 0.75 50.75 139.66667] CT
0.149 GC
/Helvetica 13.333 F
GS
[1 0 0 1 0 0] CT
-30 5.5 moveto 
1 -1 scale
(1000) t 
GR
GR
GS
[0.75 0 0 0.75 50.75 111.5] CT
0.149 GC
/Helvetica 13.333 F
GS
[1 0 0 1 0 0] CT
-30 5.5 moveto 
1 -1 scale
(1200) t 
GR
GR
GS
[0.75 0 0 0.75 50.75 83.33334] CT
0.149 GC
/Helvetica 13.333 F
GS
[1 0 0 1 0 0] CT
-30 5.5 moveto 
1 -1 scale
(1400) t 
GR
GR
GS
[0.75 0 0 0.75 50.75 55.16667] CT
0.149 GC
/Helvetica 13.333 F
GS
[1 0 0 1 0 0] CT
-30 5.5 moveto 
1 -1 scale
(1600) t 
GR
GR
GS
[0.75 0 0 0.75 50.75 27] CT
0.149 GC
/Helvetica 13.333 F
GS
[1 0 0 1 0 0] CT
-30 5.5 moveto 
1 -1 scale
(1800) t 
GR
GR
GS
[0 -0.75 0.75 0 25.25001 153.74987] CT
0.149 GC
/Helvetica 14.667 F
GS
[1 0 0 1 0 0] CT
-53.5 -4 moveto 
1 -1 scale
(Anzahl Dreiecke) t 
GR
GR
GS
[0.75 0 0 0.75 0 0] CT
1 GC
N
496 99 M
496 46 L
346 46 L
346 99 L
cp
f
GR
GS
[0.75 0 0 0.75 294.75 42] CT
/Helvetica 12 F
GS
[1 0 0 1 0 0] CT
0 5 moveto 
1 -1 scale
(Anfang) t 
GR
GR
GS
[0.75 0 0 0.75 0 0] CT
0.4 0.668 0.845 RC
N
390 62 M
390 50 L
350 50 L
350 62 L
cp
f
GR
GS
[0.75 0 0 0.75 0 0] CT
10.0 ML
0.667 LW
N
350 62 M
350 50 L
390 50 L
390 62 L
cp
S
GR
GS
[0.75 0 0 0.75 294.75 54.375] CT
/Helvetica 12 F
GS
[1 0 0 1 0 0] CT
0 5 moveto 
1 -1 scale
(Ale Ergebnis) t 
GR
GR
GS
[0.75 0 0 0.75 0 0] CT
0.911 0.595 0.459 RC
N
390 78.5 M
390 66.5 L
350 66.5 L
350 78.5 L
cp
f
GR
GS
[0.75 0 0 0.75 0 0] CT
10.0 ML
0.667 LW
N
350 78.5 M
350 66.5 L
390 66.5 L
390 78.5 L
cp
S
GR
GS
[0.75 0 0 0.75 294.75 66.75] CT
/Helvetica 12 F
GS
[1 0 0 1 0 0] CT
0 5 moveto 
1 -1 scale
(Ergebnis ohne Ale) t 
GR
GR
GS
[0.75 0 0 0.75 0 0] CT
0.958 0.816 0.475 RC
N
390 95 M
390 83 L
350 83 L
350 95 L
cp
f
GR
GS
[0.75 0 0 0.75 0 0] CT
10.0 ML
0.667 LW
N
350 95 M
350 83 L
390 83 L
390 95 L
cp
S
GR
GS
[0.75 0 0 0.75 0 0] CT
0.149 GC
10.0 ML
0.667 LW
N
346 99 M
346 46 L
496 46 L
496 99 L
cp
S
GR
%%Trailer
%%Pages: 1
%%EOF
