%!PS-Adobe-3.0 EPSF-3.0
%%Creator: (MATLAB, The Mathworks, Inc. Version 9.7.0.1319299 \(R2019b\) Update 5. Operating System: Windows 10)
%%Title: Plots_Quality/Dziuk_Ellipsoid_Time.eps
%%CreationDate: 2020-12-17T16:34:53
%%Pages: (atend)
%%BoundingBox:    33     5   385   315
%%LanguageLevel: 2
%%EndComments
%%BeginProlog
%%BeginResource: procset (Apache XML Graphics Std ProcSet) 1.2 0
%%Version: 1.2 0
%%Copyright: (Copyright 2001-2003,2010 The Apache Software Foundation. License terms: http://www.apache.org/licenses/LICENSE-2.0)
/bd{bind def}bind def
/ld{load def}bd
/GR/grestore ld
/GS/gsave ld
/RM/rmoveto ld
/C/curveto ld
/t/show ld
/L/lineto ld
/ML/setmiterlimit ld
/CT/concat ld
/f/fill ld
/N/newpath ld
/S/stroke ld
/CC/setcmykcolor ld
/A/ashow ld
/cp/closepath ld
/RC/setrgbcolor ld
/LJ/setlinejoin ld
/GC/setgray ld
/LW/setlinewidth ld
/M/moveto ld
/re {4 2 roll M
1 index 0 rlineto
0 exch rlineto
neg 0 rlineto
cp } bd
/_ctm matrix def
/_tm matrix def
/BT { _ctm currentmatrix pop matrix _tm copy pop 0 0 moveto } bd
/ET { _ctm setmatrix } bd
/iTm { _ctm setmatrix _tm concat } bd
/Tm { _tm astore pop iTm 0 0 moveto } bd
/ux 0.0 def
/uy 0.0 def
/F {
  /Tp exch def
  /Tf exch def
  Tf findfont Tp scalefont setfont
  /cf Tf def  /cs Tp def
} bd
/ULS {currentpoint /uy exch def /ux exch def} bd
/ULE {
  /Tcx currentpoint pop def
  gsave
  newpath
  cf findfont cs scalefont dup
  /FontMatrix get 0 get /Ts exch def /FontInfo get dup
  /UnderlinePosition get Ts mul /To exch def
  /UnderlineThickness get Ts mul /Tt exch def
  ux uy To add moveto  Tcx uy To add lineto
  Tt setlinewidth stroke
  grestore
} bd
/OLE {
  /Tcx currentpoint pop def
  gsave
  newpath
  cf findfont cs scalefont dup
  /FontMatrix get 0 get /Ts exch def /FontInfo get dup
  /UnderlinePosition get Ts mul /To exch def
  /UnderlineThickness get Ts mul /Tt exch def
  ux uy To add cs add moveto Tcx uy To add cs add lineto
  Tt setlinewidth stroke
  grestore
} bd
/SOE {
  /Tcx currentpoint pop def
  gsave
  newpath
  cf findfont cs scalefont dup
  /FontMatrix get 0 get /Ts exch def /FontInfo get dup
  /UnderlinePosition get Ts mul /To exch def
  /UnderlineThickness get Ts mul /Tt exch def
  ux uy To add cs 10 mul 26 idiv add moveto Tcx uy To add cs 10 mul 26 idiv add lineto
  Tt setlinewidth stroke
  grestore
} bd
/QT {
/Y22 exch store
/X22 exch store
/Y21 exch store
/X21 exch store
currentpoint
/Y21 load 2 mul add 3 div exch
/X21 load 2 mul add 3 div exch
/X21 load 2 mul /X22 load add 3 div
/Y21 load 2 mul /Y22 load add 3 div
/X22 load /Y22 load curveto
} bd
/SSPD {
dup length /d exch dict def
{
/v exch def
/k exch def
currentpagedevice k known {
/cpdv currentpagedevice k get def
v cpdv ne {
/upd false def
/nullv v type /nulltype eq def
/nullcpdv cpdv type /nulltype eq def
nullv nullcpdv or
{
/upd true def
} {
/sametype v type cpdv type eq def
sametype {
v type /arraytype eq {
/vlen v length def
/cpdvlen cpdv length def
vlen cpdvlen eq {
0 1 vlen 1 sub {
/i exch def
/obj v i get def
/cpdobj cpdv i get def
obj cpdobj ne {
/upd true def
exit
} if
} for
} {
/upd true def
} ifelse
} {
v type /dicttype eq {
v {
/dv exch def
/dk exch def
/cpddv cpdv dk get def
dv cpddv ne {
/upd true def
exit
} if
} forall
} {
/upd true def
} ifelse
} ifelse
} if
} ifelse
upd true eq {
d k v put
} if
} if
} if
} forall
d length 0 gt {
d setpagedevice
} if
} bd
/RE { % /NewFontName [NewEncodingArray] /FontName RE -
  findfont dup length dict begin
  {
    1 index /FID ne
    {def} {pop pop} ifelse
  } forall
  /Encoding exch def
  /FontName 1 index def
  currentdict definefont pop
  end
} bind def
%%EndResource
%%BeginResource: procset (Apache XML Graphics EPS ProcSet) 1.0 0
%%Version: 1.0 0
%%Copyright: (Copyright 2002-2003 The Apache Software Foundation. License terms: http://www.apache.org/licenses/LICENSE-2.0)
/BeginEPSF { %def
/b4_Inc_state save def         % Save state for cleanup
/dict_count countdictstack def % Count objects on dict stack
/op_count count 1 sub def      % Count objects on operand stack
userdict begin                 % Push userdict on dict stack
/showpage { } def              % Redefine showpage, { } = null proc
0 setgray 0 setlinecap         % Prepare graphics state
1 setlinewidth 0 setlinejoin
10 setmiterlimit [ ] 0 setdash newpath
/languagelevel where           % If level not equal to 1 then
{pop languagelevel             % set strokeadjust and
1 ne                           % overprint to their defaults.
{false setstrokeadjust false setoverprint
} if
} if
} bd
/EndEPSF { %def
count op_count sub {pop} repeat            % Clean up stacks
countdictstack dict_count sub {end} repeat
b4_Inc_state restore
} bd
%%EndResource
%FOPBeginFontDict
%%IncludeResource: font Courier-Oblique
%%IncludeResource: font Courier-BoldOblique
%%IncludeResource: font Courier-Bold
%%IncludeResource: font ZapfDingbats
%%IncludeResource: font Symbol
%%IncludeResource: font Helvetica
%%IncludeResource: font Helvetica-Oblique
%%IncludeResource: font Helvetica-Bold
%%IncludeResource: font Helvetica-BoldOblique
%%IncludeResource: font Times-Roman
%%IncludeResource: font Times-Italic
%%IncludeResource: font Times-Bold
%%IncludeResource: font Times-BoldItalic
%%IncludeResource: font Courier
%FOPEndFontDict
%%BeginResource: encoding WinAnsiEncoding
/WinAnsiEncoding [
/.notdef /.notdef /.notdef /.notdef /.notdef
/.notdef /.notdef /.notdef /.notdef /.notdef
/.notdef /.notdef /.notdef /.notdef /.notdef
/.notdef /.notdef /.notdef /.notdef /.notdef
/.notdef /.notdef /.notdef /.notdef /.notdef
/.notdef /.notdef /.notdef /.notdef /.notdef
/.notdef /.notdef /space /exclam /quotedbl
/numbersign /dollar /percent /ampersand /quotesingle
/parenleft /parenright /asterisk /plus /comma
/hyphen /period /slash /zero /one
/two /three /four /five /six
/seven /eight /nine /colon /semicolon
/less /equal /greater /question /at
/A /B /C /D /E
/F /G /H /I /J
/K /L /M /N /O
/P /Q /R /S /T
/U /V /W /X /Y
/Z /bracketleft /backslash /bracketright /asciicircum
/underscore /quoteleft /a /b /c
/d /e /f /g /h
/i /j /k /l /m
/n /o /p /q /r
/s /t /u /v /w
/x /y /z /braceleft /bar
/braceright /asciitilde /bullet /Euro /bullet
/quotesinglbase /florin /quotedblbase /ellipsis /dagger
/daggerdbl /circumflex /perthousand /Scaron /guilsinglleft
/OE /bullet /Zcaron /bullet /bullet
/quoteleft /quoteright /quotedblleft /quotedblright /bullet
/endash /emdash /asciitilde /trademark /scaron
/guilsinglright /oe /bullet /zcaron /Ydieresis
/space /exclamdown /cent /sterling /currency
/yen /brokenbar /section /dieresis /copyright
/ordfeminine /guillemotleft /logicalnot /sfthyphen /registered
/macron /degree /plusminus /twosuperior /threesuperior
/acute /mu /paragraph /middot /cedilla
/onesuperior /ordmasculine /guillemotright /onequarter /onehalf
/threequarters /questiondown /Agrave /Aacute /Acircumflex
/Atilde /Adieresis /Aring /AE /Ccedilla
/Egrave /Eacute /Ecircumflex /Edieresis /Igrave
/Iacute /Icircumflex /Idieresis /Eth /Ntilde
/Ograve /Oacute /Ocircumflex /Otilde /Odieresis
/multiply /Oslash /Ugrave /Uacute /Ucircumflex
/Udieresis /Yacute /Thorn /germandbls /agrave
/aacute /acircumflex /atilde /adieresis /aring
/ae /ccedilla /egrave /eacute /ecircumflex
/edieresis /igrave /iacute /icircumflex /idieresis
/eth /ntilde /ograve /oacute /ocircumflex
/otilde /odieresis /divide /oslash /ugrave
/uacute /ucircumflex /udieresis /yacute /thorn
/ydieresis
] def
%%EndResource
%FOPBeginFontReencode
/Courier-Oblique findfont
dup length dict begin
  {1 index /FID ne {def} {pop pop} ifelse} forall
  /Encoding WinAnsiEncoding def
  currentdict
end
/Courier-Oblique exch definefont pop
/Courier-BoldOblique findfont
dup length dict begin
  {1 index /FID ne {def} {pop pop} ifelse} forall
  /Encoding WinAnsiEncoding def
  currentdict
end
/Courier-BoldOblique exch definefont pop
/Courier-Bold findfont
dup length dict begin
  {1 index /FID ne {def} {pop pop} ifelse} forall
  /Encoding WinAnsiEncoding def
  currentdict
end
/Courier-Bold exch definefont pop
/Helvetica findfont
dup length dict begin
  {1 index /FID ne {def} {pop pop} ifelse} forall
  /Encoding WinAnsiEncoding def
  currentdict
end
/Helvetica exch definefont pop
/Helvetica-Oblique findfont
dup length dict begin
  {1 index /FID ne {def} {pop pop} ifelse} forall
  /Encoding WinAnsiEncoding def
  currentdict
end
/Helvetica-Oblique exch definefont pop
/Helvetica-Bold findfont
dup length dict begin
  {1 index /FID ne {def} {pop pop} ifelse} forall
  /Encoding WinAnsiEncoding def
  currentdict
end
/Helvetica-Bold exch definefont pop
/Helvetica-BoldOblique findfont
dup length dict begin
  {1 index /FID ne {def} {pop pop} ifelse} forall
  /Encoding WinAnsiEncoding def
  currentdict
end
/Helvetica-BoldOblique exch definefont pop
/Times-Roman findfont
dup length dict begin
  {1 index /FID ne {def} {pop pop} ifelse} forall
  /Encoding WinAnsiEncoding def
  currentdict
end
/Times-Roman exch definefont pop
/Times-Italic findfont
dup length dict begin
  {1 index /FID ne {def} {pop pop} ifelse} forall
  /Encoding WinAnsiEncoding def
  currentdict
end
/Times-Italic exch definefont pop
/Times-Bold findfont
dup length dict begin
  {1 index /FID ne {def} {pop pop} ifelse} forall
  /Encoding WinAnsiEncoding def
  currentdict
end
/Times-Bold exch definefont pop
/Times-BoldItalic findfont
dup length dict begin
  {1 index /FID ne {def} {pop pop} ifelse} forall
  /Encoding WinAnsiEncoding def
  currentdict
end
/Times-BoldItalic exch definefont pop
/Courier findfont
dup length dict begin
  {1 index /FID ne {def} {pop pop} ifelse} forall
  /Encoding WinAnsiEncoding def
  currentdict
end
/Courier exch definefont pop
%FOPEndFontReencode
%%EndProlog
%%Page: 1 1
%%PageBoundingBox: 0 0 420 315
%%BeginPageSetup
[1 0 0 -1 0 315] CT
%%EndPageSetup
GS
[0.75 0 0 0.75 0 0] CT
1 GC
N
0 0 560 420 re
f
GR
GS
[0.75 0 0 0.75 0 0] CT
1 GC
N
0 0 560 420 re
f
GR
GS
[0.75 0 0 0.75 0 0] CT
1 GC
N
73 374 M
507 374 L
507 37 L
73 37 L
cp
f
GR
GS
[0.75 0 0 0.75 0 0] CT
0.149 GC
2 setlinecap
1 LJ
0.667 LW
N
73 374 M
507 374 L
S
GR
GS
[0.75 0 0 0.75 0 0] CT
0.149 GC
2 setlinecap
1 LJ
0.667 LW
N
73 37 M
507 37 L
S
GR
GS
[0.75 0 0 0.75 0 0] CT
0.149 GC
2 setlinecap
1 LJ
0.667 LW
N
73 374 M
73 369.66 L
S
GR
GS
[0.75 0 0 0.75 0 0] CT
0.149 GC
2 setlinecap
1 LJ
0.667 LW
N
159.8 374 M
159.8 369.66 L
S
GR
GS
[0.75 0 0 0.75 0 0] CT
0.149 GC
2 setlinecap
1 LJ
0.667 LW
N
246.6 374 M
246.6 369.66 L
S
GR
GS
[0.75 0 0 0.75 0 0] CT
0.149 GC
2 setlinecap
1 LJ
0.667 LW
N
333.4 374 M
333.4 369.66 L
S
GR
GS
[0.75 0 0 0.75 0 0] CT
0.149 GC
2 setlinecap
1 LJ
0.667 LW
N
420.2 374 M
420.2 369.66 L
S
GR
GS
[0.75 0 0 0.75 0 0] CT
0.149 GC
2 setlinecap
1 LJ
0.667 LW
N
507 374 M
507 369.66 L
S
GR
GS
[0.75 0 0 0.75 0 0] CT
0.149 GC
2 setlinecap
1 LJ
0.667 LW
N
73 37 M
73 41.34 L
S
GR
GS
[0.75 0 0 0.75 0 0] CT
0.149 GC
2 setlinecap
1 LJ
0.667 LW
N
159.8 37 M
159.8 41.34 L
S
GR
GS
[0.75 0 0 0.75 0 0] CT
0.149 GC
2 setlinecap
1 LJ
0.667 LW
N
246.6 37 M
246.6 41.34 L
S
GR
GS
[0.75 0 0 0.75 0 0] CT
0.149 GC
2 setlinecap
1 LJ
0.667 LW
N
333.4 37 M
333.4 41.34 L
S
GR
GS
[0.75 0 0 0.75 0 0] CT
0.149 GC
2 setlinecap
1 LJ
0.667 LW
N
420.2 37 M
420.2 41.34 L
S
GR
GS
[0.75 0 0 0.75 0 0] CT
0.149 GC
2 setlinecap
1 LJ
0.667 LW
N
507 37 M
507 41.34 L
S
GR
GS
[0.75 0 0 0.75 54.75 284.50001] CT
0.149 GC
/Helvetica 13.333 F
GS
[1 0 0 1 0 0] CT
-4 14 moveto 
1 -1 scale
(0) t 
GR
GR
GS
[0.75 0 0 0.75 119.85 284.50001] CT
0.149 GC
/Helvetica 13.333 F
GS
[1 0 0 1 0 0] CT
-4 14 moveto 
1 -1 scale
(5) t 
GR
GR
GS
[0.75 0 0 0.75 184.95 284.50001] CT
0.149 GC
/Helvetica 13.333 F
GS
[1 0 0 1 0 0] CT
-7.5 14 moveto 
1 -1 scale
(10) t 
GR
GR
GS
[0.75 0 0 0.75 250.05 284.50001] CT
0.149 GC
/Helvetica 13.333 F
GS
[1 0 0 1 0 0] CT
-7.5 14 moveto 
1 -1 scale
(15) t 
GR
GR
GS
[0.75 0 0 0.75 315.15001 284.50001] CT
0.149 GC
/Helvetica 13.333 F
GS
[1 0 0 1 0 0] CT
-7.5 14 moveto 
1 -1 scale
(20) t 
GR
GR
GS
[0.75 0 0 0.75 380.25 284.50001] CT
0.149 GC
/Helvetica 13.333 F
GS
[1 0 0 1 0 0] CT
-7.5 14 moveto 
1 -1 scale
(25) t 
GR
GR
GS
[0.75 0 0 0.75 217.50016 298.24999] CT
0.149 GC
/Helvetica 14.667 F
GS
[1 0 0 1 0 0] CT
-36 15 moveto 
1 -1 scale
(Zeitschritte) t 
GR
GR
GS
[0.75 0 0 0.75 0 0] CT
0.149 GC
2 setlinecap
1 LJ
0.667 LW
N
73 374 M
73 37 L
S
GR
GS
[0.75 0 0 0.75 0 0] CT
0.149 GC
2 setlinecap
1 LJ
0.667 LW
N
507 374 M
507 37 L
S
GR
GS
[0.75 0 0 0.75 0 0] CT
0.149 GC
2 setlinecap
1 LJ
0.667 LW
N
73 374 M
77.34 374 L
S
GR
GS
[0.75 0 0 0.75 0 0] CT
0.149 GC
2 setlinecap
1 LJ
0.667 LW
N
73 331.875 M
77.34 331.875 L
S
GR
GS
[0.75 0 0 0.75 0 0] CT
0.149 GC
2 setlinecap
1 LJ
0.667 LW
N
73 289.75 M
77.34 289.75 L
S
GR
GS
[0.75 0 0 0.75 0 0] CT
0.149 GC
2 setlinecap
1 LJ
0.667 LW
N
73 247.625 M
77.34 247.625 L
S
GR
GS
[0.75 0 0 0.75 0 0] CT
0.149 GC
2 setlinecap
1 LJ
0.667 LW
N
73 205.5 M
77.34 205.5 L
S
GR
GS
[0.75 0 0 0.75 0 0] CT
0.149 GC
2 setlinecap
1 LJ
0.667 LW
N
73 163.375 M
77.34 163.375 L
S
GR
GS
[0.75 0 0 0.75 0 0] CT
0.149 GC
2 setlinecap
1 LJ
0.667 LW
N
73 121.25 M
77.34 121.25 L
S
GR
GS
[0.75 0 0 0.75 0 0] CT
0.149 GC
2 setlinecap
1 LJ
0.667 LW
N
73 79.125 M
77.34 79.125 L
S
GR
GS
[0.75 0 0 0.75 0 0] CT
0.149 GC
2 setlinecap
1 LJ
0.667 LW
N
73 37 M
77.34 37 L
S
GR
GS
[0.75 0 0 0.75 0 0] CT
0.149 GC
2 setlinecap
1 LJ
0.667 LW
N
507 374 M
502.66 374 L
S
GR
GS
[0.75 0 0 0.75 0 0] CT
0.149 GC
2 setlinecap
1 LJ
0.667 LW
N
507 331.875 M
502.66 331.875 L
S
GR
GS
[0.75 0 0 0.75 0 0] CT
0.149 GC
2 setlinecap
1 LJ
0.667 LW
N
507 289.75 M
502.66 289.75 L
S
GR
GS
[0.75 0 0 0.75 0 0] CT
0.149 GC
2 setlinecap
1 LJ
0.667 LW
N
507 247.625 M
502.66 247.625 L
S
GR
GS
[0.75 0 0 0.75 0 0] CT
0.149 GC
2 setlinecap
1 LJ
0.667 LW
N
507 205.5 M
502.66 205.5 L
S
GR
GS
[0.75 0 0 0.75 0 0] CT
0.149 GC
2 setlinecap
1 LJ
0.667 LW
N
507 163.375 M
502.66 163.375 L
S
GR
GS
[0.75 0 0 0.75 0 0] CT
0.149 GC
2 setlinecap
1 LJ
0.667 LW
N
507 121.25 M
502.66 121.25 L
S
GR
GS
[0.75 0 0 0.75 0 0] CT
0.149 GC
2 setlinecap
1 LJ
0.667 LW
N
507 79.125 M
502.66 79.125 L
S
GR
GS
[0.75 0 0 0.75 0 0] CT
0.149 GC
2 setlinecap
1 LJ
0.667 LW
N
507 37 M
502.66 37 L
S
GR
GS
[0.75 0 0 0.75 50.75 280.5] CT
0.149 GC
/Helvetica 13.333 F
GS
[1 0 0 1 0 0] CT
-8 5.5 moveto 
1 -1 scale
(0) t 
GR
GR
GS
[0.75 0 0 0.75 50.75 248.90625] CT
0.149 GC
/Helvetica 13.333 F
GS
[1 0 0 1 0 0] CT
-15 5.5 moveto 
1 -1 scale
(50) t 
GR
GR
GS
[0.75 0 0 0.75 50.75 217.3125] CT
0.149 GC
/Helvetica 13.333 F
GS
[1 0 0 1 0 0] CT
-23 5.5 moveto 
1 -1 scale
(100) t 
GR
GR
GS
[0.75 0 0 0.75 50.75 185.71875] CT
0.149 GC
/Helvetica 13.333 F
GS
[1 0 0 1 0 0] CT
-23 5.5 moveto 
1 -1 scale
(150) t 
GR
GR
GS
[0.75 0 0 0.75 50.75 154.125] CT
0.149 GC
/Helvetica 13.333 F
GS
[1 0 0 1 0 0] CT
-23 5.5 moveto 
1 -1 scale
(200) t 
GR
GR
GS
[0.75 0 0 0.75 50.75 122.53125] CT
0.149 GC
/Helvetica 13.333 F
GS
[1 0 0 1 0 0] CT
-23 5.5 moveto 
1 -1 scale
(250) t 
GR
GR
GS
[0.75 0 0 0.75 50.75 90.9375] CT
0.149 GC
/Helvetica 13.333 F
GS
[1 0 0 1 0 0] CT
-23 5.5 moveto 
1 -1 scale
(300) t 
GR
GR
GS
[0.75 0 0 0.75 50.75 59.34375] CT
0.149 GC
/Helvetica 13.333 F
GS
[1 0 0 1 0 0] CT
-23 5.5 moveto 
1 -1 scale
(350) t 
GR
GR
GS
[0.75 0 0 0.75 50.75 27.75] CT
0.149 GC
/Helvetica 13.333 F
GS
[1 0 0 1 0 0] CT
-23 5.5 moveto 
1 -1 scale
(400) t 
GR
GR
GS
[0.75 0 0 0.75 217.50021 25.6875] CT
N
-47.922 -12.261 M
-47.922 -12.792 L
-46.375 -12.792 -46.375 -13.261 QT
-46.375 -21.511 L
-46.375 -21.979 -47.922 -21.979 QT
-47.922 -22.511 L
-42.391 -22.511 L
-41.375 -22.511 -40.524 -22.065 QT
-39.672 -21.62 -39.071 -20.878 QT
-38.469 -20.136 -38.141 -19.198 QT
-37.813 -18.261 -37.813 -17.292 QT
-37.813 -16.339 -38.141 -15.44 QT
-38.469 -14.542 -39.094 -13.815 QT
-39.719 -13.089 -40.563 -12.675 QT
-41.407 -12.261 -42.391 -12.261 QT
-47.922 -12.261 L
cp
-45.032 -13.261 M
-45.032 -12.948 -44.852 -12.87 QT
-44.672 -12.792 -44.266 -12.792 QT
-42.782 -12.792 L
-42.016 -12.792 -41.321 -13.12 QT
-40.625 -13.448 -40.172 -14.042 QT
-39.704 -14.682 -39.54 -15.464 QT
-39.375 -16.245 -39.375 -17.292 QT
-39.375 -18.37 -39.54 -19.19 QT
-39.704 -20.011 -40.172 -20.667 QT
-40.625 -21.292 -41.313 -21.636 QT
-42 -21.979 -42.782 -21.979 QT
-44.266 -21.979 L
-44.547 -21.979 -44.696 -21.956 QT
-44.844 -21.932 -44.938 -21.831 QT
-45.032 -21.729 -45.032 -21.511 QT
-45.032 -13.261 L
cp
f
GR
GS
[0.75 0 0 0.75 217.50021 25.6875] CT
N
-36.625 -12.261 M
-36.797 -12.261 -36.797 -12.432 QT
-36.797 -12.542 L
-36.797 -12.604 -36.75 -12.651 QT
-32.562 -18.339 L
-33.922 -18.339 L
-34.547 -18.339 -34.961 -18.253 QT
-35.375 -18.167 -35.648 -17.948 QT
-35.922 -17.729 -36.039 -17.339 QT
-36.156 -16.948 -36.156 -16.245 QT
-36.594 -16.245 L
-36.422 -18.729 L
-31.39 -18.729 L
-31.328 -18.729 -31.281 -18.682 QT
-31.234 -18.636 -31.234 -18.557 QT
-31.234 -18.479 L
-31.234 -18.432 -31.265 -18.37 QT
-35.453 -12.698 L
-34.031 -12.698 L
-33.375 -12.698 -32.937 -12.776 QT
-32.5 -12.854 -32.187 -13.167 QT
-31.906 -13.448 -31.805 -13.932 QT
-31.703 -14.417 -31.64 -15.12 QT
-31.203 -15.12 L
-31.469 -12.261 L
-36.625 -12.261 L
cp
f
GR
GS
[0.75 0 0 0.75 217.50021 25.6875] CT
N
-30.231 -12.261 M
-30.231 -12.792 L
-29.731 -12.792 -29.395 -12.87 QT
-29.059 -12.948 -29.059 -13.261 QT
-29.059 -17.354 L
-29.059 -17.932 -29.286 -18.065 QT
-29.513 -18.198 -30.169 -18.198 QT
-30.169 -18.729 L
-28.013 -18.886 L
-28.013 -13.261 L
-28.013 -12.948 -27.724 -12.87 QT
-27.434 -12.792 -26.966 -12.792 QT
-26.966 -12.261 L
-30.231 -12.261 L
cp
-29.606 -21.464 M
-29.606 -21.792 -29.356 -22.042 QT
-29.106 -22.292 -28.778 -22.292 QT
-28.575 -22.292 -28.372 -22.182 QT
-28.169 -22.073 -28.059 -21.878 QT
-27.95 -21.682 -27.95 -21.464 QT
-27.95 -21.151 -28.2 -20.901 QT
-28.45 -20.651 -28.778 -20.651 QT
-29.106 -20.651 -29.356 -20.901 QT
-29.606 -21.151 -29.606 -21.464 QT
cp
f
GR
GS
[0.75 0 0 0.75 217.50021 25.6875] CT
N
-25.001 -14.042 M
-25.001 -17.354 L
-25.001 -17.761 -25.126 -17.94 QT
-25.251 -18.12 -25.478 -18.159 QT
-25.704 -18.198 -26.173 -18.198 QT
-26.173 -18.729 L
-23.907 -18.886 L
-23.907 -14.042 L
-23.907 -13.464 -23.821 -13.136 QT
-23.735 -12.807 -23.462 -12.651 QT
-23.189 -12.495 -22.595 -12.495 QT
-21.782 -12.495 -21.306 -13.167 QT
-20.829 -13.839 -20.829 -14.698 QT
-20.829 -17.354 L
-20.829 -17.761 -20.954 -17.94 QT
-21.079 -18.12 -21.306 -18.159 QT
-21.532 -18.198 -22.001 -18.198 QT
-22.001 -18.729 L
-19.735 -18.886 L
-19.735 -13.62 L
-19.735 -13.229 -19.618 -13.05 QT
-19.501 -12.87 -19.274 -12.831 QT
-19.048 -12.792 -18.564 -12.792 QT
-18.564 -12.261 L
-20.782 -12.089 L
-20.782 -13.354 L
-21.064 -12.792 -21.564 -12.44 QT
-22.064 -12.089 -22.657 -12.089 QT
-23.735 -12.089 -24.368 -12.55 QT
-25.001 -13.011 -25.001 -14.042 QT
cp
f
GR
GS
[0.75 0 0 0.75 217.50021 25.6875] CT
N
-18.087 -12.261 M
-18.087 -12.792 L
-17.572 -12.792 -17.243 -12.87 QT
-16.915 -12.948 -16.915 -13.261 QT
-16.915 -21.136 L
-16.915 -21.542 -17.04 -21.722 QT
-17.165 -21.901 -17.392 -21.94 QT
-17.618 -21.979 -18.087 -21.979 QT
-18.087 -22.511 L
-15.868 -22.667 L
-15.868 -15.542 L
-13.853 -17.307 L
-13.556 -17.604 -13.556 -17.839 QT
-13.556 -18.011 -13.681 -18.104 QT
-13.806 -18.198 -13.978 -18.198 QT
-13.978 -18.729 L
-11.165 -18.729 L
-11.165 -18.198 L
-12.181 -18.198 -13.197 -17.307 QT
-14.259 -16.386 L
-12.353 -13.667 L
-11.962 -13.104 -11.697 -12.948 QT
-11.431 -12.792 -10.806 -12.792 QT
-10.806 -12.261 L
-13.79 -12.261 L
-13.79 -12.792 L
-13.29 -12.792 -13.29 -13.104 QT
-13.29 -13.323 -13.556 -13.667 QT
-14.993 -15.729 L
-15.915 -14.932 L
-15.915 -13.261 L
-15.915 -12.948 -15.579 -12.87 QT
-15.243 -12.792 -14.743 -12.792 QT
-14.743 -12.261 L
-18.087 -12.261 L
cp
f
GR
GS
[0.75 0 0 0.75 217.50021 25.6875] CT
N
-9.471 -13.089 M
-9.471 -13.432 -9.221 -13.667 QT
-8.971 -13.901 -8.643 -13.901 QT
-8.44 -13.901 -8.245 -13.792 QT
-8.05 -13.682 -7.94 -13.487 QT
-7.831 -13.292 -7.831 -13.089 QT
-7.831 -12.761 -8.073 -12.511 QT
-8.315 -12.261 -8.643 -12.261 QT
-8.971 -12.261 -9.221 -12.511 QT
-9.471 -12.761 -9.471 -13.089 QT
cp
-9.471 -17.901 M
-9.471 -18.12 -9.362 -18.307 QT
-9.253 -18.495 -9.057 -18.612 QT
-8.862 -18.729 -8.643 -18.729 QT
-8.44 -18.729 -8.245 -18.612 QT
-8.05 -18.495 -7.94 -18.307 QT
-7.831 -18.12 -7.831 -17.901 QT
-7.831 -17.557 -8.065 -17.315 QT
-8.3 -17.073 -8.643 -17.073 QT
-8.987 -17.073 -9.229 -17.315 QT
-9.471 -17.557 -9.471 -17.901 QT
cp
f
GR
GS
[0.75 0 0 0.75 217.50021 25.6875] CT
N
-3.747 -22.433 M
-3.747 -22.526 -3.731 -22.573 QT
-2.606 -27.042 L
-2.497 -27.464 -2.497 -27.776 QT
-2.497 -28.417 -2.934 -28.417 QT
-3.403 -28.417 -3.63 -27.862 QT
-3.856 -27.308 -4.075 -26.448 QT
-4.075 -26.401 -4.122 -26.378 QT
-4.169 -26.355 -4.2 -26.355 QT
-4.372 -26.355 L
-4.434 -26.355 -4.465 -26.409 QT
-4.497 -26.464 -4.497 -26.511 QT
-4.34 -27.151 -4.192 -27.605 QT
-4.044 -28.058 -3.723 -28.433 QT
-3.403 -28.808 -2.919 -28.808 QT
-2.356 -28.808 -1.926 -28.456 QT
-1.497 -28.105 -1.497 -27.558 QT
-1.044 -28.136 -0.45 -28.472 QT
0.144 -28.808 0.831 -28.808 QT
1.535 -28.808 2.05 -28.448 QT
2.566 -28.089 2.566 -27.417 QT
3.035 -28.073 3.652 -28.441 QT
4.269 -28.808 5.003 -28.808 QT
5.769 -28.808 6.245 -28.386 QT
6.722 -27.964 6.722 -27.198 QT
6.722 -26.573 6.449 -25.706 QT
6.175 -24.839 5.769 -23.761 QT
5.55 -23.245 5.55 -22.855 QT
5.55 -22.417 5.894 -22.417 QT
6.488 -22.417 6.878 -23.042 QT
7.269 -23.667 7.425 -24.386 QT
7.472 -24.48 7.55 -24.48 QT
7.722 -24.48 L
7.785 -24.48 7.824 -24.441 QT
7.863 -24.401 7.863 -24.339 QT
7.863 -24.323 7.847 -24.292 QT
7.644 -23.448 7.136 -22.73 QT
6.628 -22.011 5.863 -22.011 QT
5.331 -22.011 4.964 -22.378 QT
4.597 -22.745 4.597 -23.261 QT
4.597 -23.526 4.706 -23.839 QT
5.144 -24.98 5.425 -25.862 QT
5.706 -26.745 5.706 -27.417 QT
5.706 -27.839 5.535 -28.128 QT
5.363 -28.417 4.972 -28.417 QT
4.144 -28.417 3.55 -27.917 QT
2.956 -27.417 2.503 -26.589 QT
2.488 -26.448 2.472 -26.37 QT
1.503 -22.511 L
1.441 -22.308 1.261 -22.159 QT
1.081 -22.011 0.863 -22.011 QT
0.691 -22.011 0.558 -22.128 QT
0.425 -22.245 0.425 -22.433 QT
0.425 -22.526 0.441 -22.573 QT
1.394 -26.401 L
1.55 -27.011 1.55 -27.417 QT
1.55 -27.839 1.378 -28.128 QT
1.206 -28.417 0.8 -28.417 QT
0.253 -28.417 -0.215 -28.175 QT
-0.684 -27.933 -1.028 -27.534 QT
-1.372 -27.136 -1.653 -26.589 QT
-2.669 -22.511 L
-2.715 -22.308 -2.895 -22.159 QT
-3.075 -22.011 -3.294 -22.011 QT
-3.481 -22.011 -3.614 -22.128 QT
-3.747 -22.245 -3.747 -22.433 QT
cp
f
GR
GS
[0.75 0 0 0.75 217.50021 25.6875] CT
N
10.584 -22.011 M
9.631 -22.011 9.092 -22.73 QT
8.553 -23.448 8.553 -24.417 QT
8.553 -25.37 9.045 -26.409 QT
9.537 -27.448 10.389 -28.128 QT
11.24 -28.808 12.209 -28.808 QT
12.662 -28.808 13.014 -28.566 QT
13.365 -28.323 13.553 -27.917 QT
13.725 -28.511 14.209 -28.511 QT
14.412 -28.511 14.537 -28.394 QT
14.662 -28.276 14.662 -28.089 QT
14.662 -28.042 14.662 -28.026 QT
14.662 -28.011 14.646 -27.98 QT
13.6 -23.792 L
13.49 -23.339 13.49 -23.058 QT
13.49 -22.417 13.928 -22.417 QT
14.396 -22.417 14.646 -23.011 QT
14.896 -23.605 15.053 -24.386 QT
15.084 -24.48 15.178 -24.48 QT
15.365 -24.48 L
15.412 -24.48 15.451 -24.425 QT
15.49 -24.37 15.49 -24.323 QT
15.225 -23.276 14.912 -22.644 QT
14.6 -22.011 13.896 -22.011 QT
13.396 -22.011 13.006 -22.308 QT
12.615 -22.605 12.521 -23.105 QT
11.553 -22.011 10.584 -22.011 QT
cp
10.6 -22.417 M
11.146 -22.417 11.654 -22.823 QT
12.162 -23.23 12.521 -23.776 QT
12.537 -23.792 12.537 -23.823 QT
13.35 -27.073 L
13.365 -27.12 L
13.271 -27.651 12.975 -28.034 QT
12.678 -28.417 12.178 -28.417 QT
11.662 -28.417 11.225 -28.003 QT
10.787 -27.589 10.49 -27.026 QT
10.209 -26.433 9.935 -25.386 QT
9.662 -24.339 9.662 -23.761 QT
9.662 -23.245 9.889 -22.831 QT
10.115 -22.417 10.6 -22.417 QT
cp
f
GR
GS
[0.75 0 0 0.75 217.50021 25.6875] CT
N
16.899 -22.62 M
17.165 -22.417 17.649 -22.417 QT
18.118 -22.417 18.477 -22.862 QT
18.837 -23.308 18.962 -23.839 QT
19.649 -26.511 L
19.805 -27.23 19.805 -27.495 QT
19.805 -27.87 19.594 -28.144 QT
19.383 -28.417 19.008 -28.417 QT
18.54 -28.417 18.126 -28.12 QT
17.712 -27.823 17.423 -27.37 QT
17.133 -26.917 17.024 -26.448 QT
16.993 -26.355 16.899 -26.355 QT
16.712 -26.355 L
16.602 -26.355 16.602 -26.495 QT
16.602 -26.526 L
16.743 -27.089 17.094 -27.62 QT
17.446 -28.151 17.954 -28.48 QT
18.462 -28.808 19.04 -28.808 QT
19.602 -28.808 20.04 -28.519 QT
20.477 -28.23 20.665 -27.714 QT
20.915 -28.183 21.313 -28.495 QT
21.712 -28.808 22.196 -28.808 QT
22.524 -28.808 22.86 -28.698 QT
23.196 -28.589 23.407 -28.355 QT
23.618 -28.12 23.618 -27.761 QT
23.618 -27.386 23.368 -27.112 QT
23.118 -26.839 22.743 -26.839 QT
22.508 -26.839 22.344 -26.987 QT
22.18 -27.136 22.18 -27.37 QT
22.18 -27.698 22.399 -27.933 QT
22.618 -28.167 22.915 -28.214 QT
22.649 -28.417 22.165 -28.417 QT
21.68 -28.417 21.329 -27.972 QT
20.977 -27.526 20.821 -26.98 QT
20.165 -24.323 L
20.008 -23.73 20.008 -23.339 QT
20.008 -22.964 20.219 -22.691 QT
20.43 -22.417 20.79 -22.417 QT
21.493 -22.417 22.048 -23.034 QT
22.602 -23.651 22.774 -24.386 QT
22.805 -24.48 22.899 -24.48 QT
23.087 -24.48 L
23.133 -24.48 23.173 -24.441 QT
23.212 -24.401 23.212 -24.339 QT
23.212 -24.323 23.196 -24.292 QT
22.993 -23.401 22.305 -22.706 QT
21.618 -22.011 20.774 -22.011 QT
20.212 -22.011 19.774 -22.308 QT
19.337 -22.605 19.149 -23.12 QT
18.915 -22.667 18.501 -22.339 QT
18.087 -22.011 17.618 -22.011 QT
17.29 -22.011 16.954 -22.128 QT
16.618 -22.245 16.407 -22.48 QT
16.196 -22.714 16.196 -23.073 QT
16.196 -23.417 16.438 -23.706 QT
16.68 -23.995 17.04 -23.995 QT
17.29 -23.995 17.462 -23.847 QT
17.633 -23.698 17.633 -23.464 QT
17.633 -23.136 17.423 -22.901 QT
17.212 -22.667 16.899 -22.62 QT
cp
f
GR
GS
[0.75 0 0 0.75 217.50021 25.6875] CT
N
28.766 -18.464 M
27.922 -19.12 27.321 -19.972 QT
26.719 -20.823 26.336 -21.792 QT
25.953 -22.761 25.758 -23.816 QT
25.563 -24.87 25.563 -25.933 QT
25.563 -27.011 25.758 -28.066 QT
25.953 -29.12 26.344 -30.097 QT
26.735 -31.073 27.344 -31.917 QT
27.953 -32.761 28.766 -33.401 QT
28.766 -33.433 28.828 -33.433 QT
28.969 -33.433 L
29.016 -33.433 29.055 -33.394 QT
29.094 -33.355 29.094 -33.308 QT
29.094 -33.23 29.063 -33.198 QT
28.328 -32.495 27.844 -31.675 QT
27.36 -30.855 27.063 -29.925 QT
26.766 -28.995 26.633 -28.003 QT
26.5 -27.011 26.5 -25.933 QT
26.5 -21.167 29.047 -18.683 QT
29.094 -18.651 29.094 -18.558 QT
29.094 -18.526 29.055 -18.48 QT
29.016 -18.433 28.969 -18.433 QT
28.828 -18.433 L
28.766 -18.433 28.766 -18.464 QT
cp
f
GR
GS
[0.75 0 0 0.75 217.50021 25.6875] CT
N
31.11 -23.105 M
31.516 -22.417 32.735 -22.417 QT
33.266 -22.417 33.743 -22.597 QT
34.22 -22.776 34.532 -23.128 QT
34.845 -23.48 34.845 -23.995 QT
34.845 -24.386 34.563 -24.636 QT
34.282 -24.886 33.876 -24.98 QT
33.063 -25.136 L
32.516 -25.276 32.157 -25.659 QT
31.798 -26.042 31.798 -26.573 QT
31.798 -27.245 32.157 -27.761 QT
32.516 -28.276 33.11 -28.542 QT
33.704 -28.808 34.345 -28.808 QT
35.016 -28.808 35.555 -28.487 QT
36.095 -28.167 36.095 -27.526 QT
36.095 -27.183 35.899 -26.917 QT
35.704 -26.651 35.36 -26.651 QT
35.173 -26.651 35.024 -26.776 QT
34.876 -26.901 34.876 -27.105 QT
34.876 -27.276 34.977 -27.441 QT
35.079 -27.605 35.243 -27.706 QT
35.407 -27.808 35.579 -27.808 QT
35.454 -28.136 35.095 -28.276 QT
34.735 -28.417 34.313 -28.417 QT
33.923 -28.417 33.548 -28.269 QT
33.173 -28.12 32.938 -27.823 QT
32.704 -27.526 32.704 -27.12 QT
32.704 -26.855 32.899 -26.644 QT
33.095 -26.433 33.36 -26.355 QT
34.235 -26.167 L
34.657 -26.089 35.001 -25.862 QT
35.345 -25.636 35.548 -25.3 QT
35.751 -24.964 35.751 -24.526 QT
35.751 -23.964 35.438 -23.425 QT
35.126 -22.886 34.673 -22.558 QT
33.876 -22.011 32.72 -22.011 QT
31.923 -22.011 31.259 -22.378 QT
30.595 -22.745 30.595 -23.48 QT
30.595 -23.886 30.829 -24.191 QT
31.063 -24.495 31.47 -24.495 QT
31.72 -24.495 31.884 -24.347 QT
32.048 -24.198 32.048 -23.948 QT
32.048 -23.605 31.79 -23.355 QT
31.532 -23.105 31.188 -23.105 QT
31.11 -23.105 L
cp
f
GR
GS
[0.75 0 0 0.75 217.50021 25.6875] CT
N
37.47 -20.701 M
37.47 -20.889 37.548 -21.092 QT
38.36 -23.248 L
38.485 -23.608 38.485 -23.842 QT
38.485 -24.139 38.266 -24.139 QT
37.876 -24.139 37.618 -23.733 QT
37.36 -23.326 37.235 -22.826 QT
37.22 -22.764 37.157 -22.764 QT
37.048 -22.764 L
36.954 -22.764 36.954 -22.858 QT
36.954 -22.889 L
37.126 -23.483 37.454 -23.944 QT
37.782 -24.405 38.298 -24.405 QT
38.641 -24.405 38.891 -24.17 QT
39.141 -23.936 39.141 -23.576 QT
39.141 -23.389 39.063 -23.186 QT
38.251 -21.03 L
38.11 -20.701 38.11 -20.436 QT
38.11 -20.139 38.345 -20.139 QT
38.735 -20.139 38.993 -20.553 QT
39.251 -20.967 39.36 -21.451 QT
39.376 -21.514 39.438 -21.514 QT
39.563 -21.514 L
39.595 -21.514 39.618 -21.483 QT
39.641 -21.451 39.641 -21.42 QT
39.641 -21.42 39.641 -21.389 QT
39.501 -20.826 39.165 -20.35 QT
38.829 -19.873 38.313 -19.873 QT
37.97 -19.873 37.72 -20.116 QT
37.47 -20.358 37.47 -20.701 QT
cp
38.595 -26.045 M
38.595 -26.248 38.774 -26.42 QT
38.954 -26.592 39.157 -26.592 QT
39.329 -26.592 39.438 -26.491 QT
39.548 -26.389 39.548 -26.217 QT
39.548 -25.998 39.368 -25.826 QT
39.188 -25.655 38.985 -25.655 QT
38.813 -25.655 38.704 -25.772 QT
38.595 -25.889 38.595 -26.045 QT
cp
f
GR
GS
[0.75 0 0 0.75 217.50021 25.6875] CT
N
41.927 -18.433 M
41.802 -18.433 41.802 -18.558 QT
41.802 -18.636 41.834 -18.667 QT
44.396 -21.167 44.396 -25.933 QT
44.396 -30.698 41.865 -33.183 QT
41.802 -33.214 41.802 -33.308 QT
41.802 -33.355 41.841 -33.394 QT
41.881 -33.433 41.927 -33.433 QT
42.068 -33.433 L
42.115 -33.433 42.146 -33.401 QT
43.224 -32.558 43.943 -31.339 QT
44.662 -30.12 44.99 -28.745 QT
45.318 -27.37 45.318 -25.933 QT
45.318 -24.87 45.138 -23.839 QT
44.959 -22.808 44.568 -21.808 QT
44.177 -20.808 43.576 -19.964 QT
42.974 -19.12 42.146 -18.464 QT
42.115 -18.433 42.068 -18.433 QT
41.927 -18.433 L
cp
f
GR
GS
[0.75 0 0 0.75 217.50021 25.6875] CT
N
-4.903 -16.221 51.565 0.587 re
f
GR
GS
[0.75 0 0 0.75 217.50021 25.6875] CT
N
13.511 -2.45 M
13.511 -2.544 13.527 -2.591 QT
14.652 -7.059 L
14.761 -7.481 14.761 -7.794 QT
14.761 -8.434 14.324 -8.434 QT
13.855 -8.434 13.628 -7.88 QT
13.402 -7.325 13.183 -6.466 QT
13.183 -6.419 13.136 -6.395 QT
13.089 -6.372 13.058 -6.372 QT
12.886 -6.372 L
12.824 -6.372 12.792 -6.427 QT
12.761 -6.481 12.761 -6.528 QT
12.917 -7.169 13.066 -7.622 QT
13.214 -8.075 13.535 -8.45 QT
13.855 -8.825 14.339 -8.825 QT
14.855 -8.825 15.245 -8.528 QT
15.636 -8.231 15.73 -7.731 QT
16.105 -8.231 16.597 -8.528 QT
17.089 -8.825 17.667 -8.825 QT
18.136 -8.825 18.503 -8.552 QT
18.87 -8.278 18.87 -7.794 QT
18.87 -7.419 18.628 -7.137 QT
18.386 -6.856 17.995 -6.856 QT
17.745 -6.856 17.581 -7.005 QT
17.417 -7.153 17.417 -7.387 QT
17.417 -7.716 17.66 -7.981 QT
17.902 -8.247 18.214 -8.247 QT
17.98 -8.434 17.636 -8.434 QT
16.995 -8.434 16.519 -7.981 QT
16.042 -7.528 15.652 -6.825 QT
14.589 -2.528 L
14.542 -2.325 14.363 -2.177 QT
14.183 -2.028 13.964 -2.028 QT
13.777 -2.028 13.644 -2.145 QT
13.511 -2.263 13.511 -2.45 QT
cp
f
GR
GS
[0.75 0 0 0.75 217.50021 25.6875] CT
N
19.753 -0.719 M
19.753 -0.906 19.831 -1.109 QT
20.644 -3.266 L
20.769 -3.625 20.769 -3.859 QT
20.769 -4.156 20.55 -4.156 QT
20.159 -4.156 19.902 -3.75 QT
19.644 -3.344 19.519 -2.844 QT
19.503 -2.781 19.441 -2.781 QT
19.331 -2.781 L
19.237 -2.781 19.237 -2.875 QT
19.237 -2.906 L
19.409 -3.5 19.737 -3.961 QT
20.066 -4.422 20.581 -4.422 QT
20.925 -4.422 21.175 -4.188 QT
21.425 -3.953 21.425 -3.594 QT
21.425 -3.406 21.347 -3.203 QT
20.534 -1.047 L
20.394 -0.719 20.394 -0.453 QT
20.394 -0.156 20.628 -0.156 QT
21.019 -0.156 21.277 -0.57 QT
21.534 -0.984 21.644 -1.469 QT
21.659 -1.531 21.722 -1.531 QT
21.847 -1.531 L
21.878 -1.531 21.902 -1.5 QT
21.925 -1.469 21.925 -1.438 QT
21.925 -1.438 21.925 -1.406 QT
21.784 -0.844 21.448 -0.367 QT
21.112 0.109 20.597 0.109 QT
20.253 0.109 20.003 -0.133 QT
19.753 -0.375 19.753 -0.719 QT
cp
20.878 -6.063 M
20.878 -6.266 21.058 -6.438 QT
21.237 -6.609 21.441 -6.609 QT
21.612 -6.609 21.722 -6.508 QT
21.831 -6.406 21.831 -6.234 QT
21.831 -6.016 21.652 -5.844 QT
21.472 -5.672 21.269 -5.672 QT
21.097 -5.672 20.987 -5.789 QT
20.878 -5.906 20.878 -6.063 QT
cp
f
GR
GS
[0.75 0 0 0.75 217.50021 25.6875] CT
N
23.274 -0.172 M
23.274 -0.234 23.29 -0.266 QT
24.04 -3.25 L
24.118 -3.516 24.118 -3.734 QT
24.118 -4.156 23.821 -4.156 QT
23.509 -4.156 23.353 -3.781 QT
23.196 -3.406 23.056 -2.844 QT
23.056 -2.813 23.032 -2.797 QT
23.009 -2.781 22.978 -2.781 QT
22.868 -2.781 L
22.821 -2.781 22.798 -2.82 QT
22.774 -2.859 22.774 -2.875 QT
22.884 -3.313 22.985 -3.617 QT
23.087 -3.922 23.298 -4.172 QT
23.509 -4.422 23.821 -4.422 QT
24.196 -4.422 24.485 -4.188 QT
24.774 -3.953 24.774 -3.578 QT
25.071 -3.969 25.478 -4.195 QT
25.884 -4.422 26.321 -4.422 QT
26.681 -4.422 26.939 -4.297 QT
27.196 -4.172 27.345 -3.93 QT
27.493 -3.688 27.493 -3.344 QT
27.493 -2.938 27.306 -2.352 QT
27.118 -1.766 26.853 -1.047 QT
26.712 -0.719 26.712 -0.453 QT
26.712 -0.156 26.931 -0.156 QT
27.321 -0.156 27.587 -0.57 QT
27.853 -0.984 27.962 -1.469 QT
27.978 -1.531 28.04 -1.531 QT
28.165 -1.531 L
28.196 -1.531 28.228 -1.508 QT
28.259 -1.484 28.259 -1.438 QT
28.259 -1.438 28.243 -1.406 QT
28.103 -0.844 27.767 -0.367 QT
27.431 0.109 26.915 0.109 QT
26.571 0.109 26.321 -0.133 QT
26.071 -0.375 26.071 -0.719 QT
26.071 -0.906 26.149 -1.109 QT
26.274 -1.438 26.439 -1.891 QT
26.603 -2.344 26.704 -2.758 QT
26.806 -3.172 26.806 -3.484 QT
26.806 -3.766 26.696 -3.961 QT
26.587 -4.156 26.306 -4.156 QT
25.946 -4.156 25.634 -4 QT
25.321 -3.844 25.095 -3.578 QT
24.868 -3.313 24.681 -2.938 QT
23.993 -0.219 L
23.962 -0.078 23.845 0.016 QT
23.728 0.109 23.571 0.109 QT
23.462 0.109 23.368 0.031 QT
23.274 -0.047 23.274 -0.172 QT
cp
f
GR
GS
[0.75 0 0 0.75 0 0] CT
0 0.447 0.741 RC
[10 6] 0 setdash
2 LJ
0.667 LW
N
90.36 372.925 M
107.72 372.927 L
125.08 372.929 L
142.44 372.935 L
159.8 372.938 L
177.16 372.938 L
194.52 372.937 L
211.88 372.937 L
229.24 372.938 L
246.6 372.939 L
263.96 372.94 L
281.32 372.94 L
298.68 372.941 L
316.04 372.942 L
333.4 372.942 L
350.76 372.943 L
368.12 372.943 L
385.48 372.943 L
402.84 372.942 L
420.2 372.941 L
437.56 372.941 L
454.92 372.94 L
472.28 372.94 L
489.64 372.94 L
507 372.939 L
S
GR
GS
[0.75 0 0 0.75 67.77 279.69388] CT
0 0.447 0.741 RC
10.0 ML
0.667 LW
N
-3 -3 M
-3 3 L
3 3 L
3 -3 L
cp
S
GR
GS
[0.75 0 0 0.75 80.79 279.69491] CT
0 0.447 0.741 RC
10.0 ML
0.667 LW
N
-3 -3 M
-3 3 L
3 3 L
3 -3 L
cp
S
GR
GS
[0.75 0 0 0.75 93.81 279.69649] CT
0 0.447 0.741 RC
10.0 ML
0.667 LW
N
-3 -3 M
-3 3 L
3 3 L
3 -3 L
cp
S
GR
GS
[0.75 0 0 0.75 106.83 279.7009] CT
0 0.447 0.741 RC
10.0 ML
0.667 LW
N
-3 -3 M
-3 3 L
3 3 L
3 -3 L
cp
S
GR
GS
[0.75 0 0 0.75 119.85 279.70374] CT
0 0.447 0.741 RC
10.0 ML
0.667 LW
N
-3 -3 M
-3 3 L
3 3 L
3 -3 L
cp
S
GR
GS
[0.75 0 0 0.75 132.87 279.70338] CT
0 0.447 0.741 RC
10.0 ML
0.667 LW
N
-3 -3 M
-3 3 L
3 3 L
3 -3 L
cp
S
GR
GS
[0.75 0 0 0.75 145.89 279.70303] CT
0 0.447 0.741 RC
10.0 ML
0.667 LW
N
-3 -3 M
-3 3 L
3 3 L
3 -3 L
cp
S
GR
GS
[0.75 0 0 0.75 158.91 279.70294] CT
0 0.447 0.741 RC
10.0 ML
0.667 LW
N
-3 -3 M
-3 3 L
3 3 L
3 -3 L
cp
S
GR
GS
[0.75 0 0 0.75 171.93 279.70361] CT
0 0.447 0.741 RC
10.0 ML
0.667 LW
N
-3 -3 M
-3 3 L
3 3 L
3 -3 L
cp
S
GR
GS
[0.75 0 0 0.75 184.95 279.70425] CT
0 0.447 0.741 RC
10.0 ML
0.667 LW
N
-3 -3 M
-3 3 L
3 3 L
3 -3 L
cp
S
GR
GS
[0.75 0 0 0.75 197.96999 279.70473] CT
0 0.447 0.741 RC
10.0 ML
0.667 LW
N
-3 -3 M
-3 3 L
3 3 L
3 -3 L
cp
S
GR
GS
[0.75 0 0 0.75 210.99001 279.70518] CT
0 0.447 0.741 RC
10.0 ML
0.667 LW
N
-3 -3 M
-3 3 L
3 3 L
3 -3 L
cp
S
GR
GS
[0.75 0 0 0.75 224.00999 279.70583] CT
0 0.447 0.741 RC
10.0 ML
0.667 LW
N
-3 -3 M
-3 3 L
3 3 L
3 -3 L
cp
S
GR
GS
[0.75 0 0 0.75 237.03001 279.70638] CT
0 0.447 0.741 RC
10.0 ML
0.667 LW
N
-3 -3 M
-3 3 L
3 3 L
3 -3 L
cp
S
GR
GS
[0.75 0 0 0.75 250.05 279.70674] CT
0 0.447 0.741 RC
10.0 ML
0.667 LW
N
-3 -3 M
-3 3 L
3 3 L
3 -3 L
cp
S
GR
GS
[0.75 0 0 0.75 263.07001 279.70704] CT
0 0.447 0.741 RC
10.0 ML
0.667 LW
N
-3 -3 M
-3 3 L
3 3 L
3 -3 L
cp
S
GR
GS
[0.75 0 0 0.75 276.09 279.70729] CT
0 0.447 0.741 RC
10.0 ML
0.667 LW
N
-3 -3 M
-3 3 L
3 3 L
3 -3 L
cp
S
GR
GS
[0.75 0 0 0.75 289.11001 279.70695] CT
0 0.447 0.741 RC
10.0 ML
0.667 LW
N
-3 -3 M
-3 3 L
3 3 L
3 -3 L
cp
S
GR
GS
[0.75 0 0 0.75 302.13 279.70651] CT
0 0.447 0.741 RC
10.0 ML
0.667 LW
N
-3 -3 M
-3 3 L
3 3 L
3 -3 L
cp
S
GR
GS
[0.75 0 0 0.75 315.15001 279.70594] CT
0 0.447 0.741 RC
10.0 ML
0.667 LW
N
-3 -3 M
-3 3 L
3 3 L
3 -3 L
cp
S
GR
GS
[0.75 0 0 0.75 328.17 279.70578] CT
0 0.447 0.741 RC
10.0 ML
0.667 LW
N
-3 -3 M
-3 3 L
3 3 L
3 -3 L
cp
S
GR
GS
[0.75 0 0 0.75 341.19001 279.70535] CT
0 0.447 0.741 RC
10.0 ML
0.667 LW
N
-3 -3 M
-3 3 L
3 3 L
3 -3 L
cp
S
GR
GS
[0.75 0 0 0.75 354.21 279.70521] CT
0 0.447 0.741 RC
10.0 ML
0.667 LW
N
-3 -3 M
-3 3 L
3 3 L
3 -3 L
cp
S
GR
GS
[0.75 0 0 0.75 367.23001 279.7047] CT
0 0.447 0.741 RC
10.0 ML
0.667 LW
N
-3 -3 M
-3 3 L
3 3 L
3 -3 L
cp
S
GR
GS
[0.75 0 0 0.75 380.25 279.70404] CT
0 0.447 0.741 RC
10.0 ML
0.667 LW
N
-3 -3 M
-3 3 L
3 3 L
3 -3 L
cp
S
GR
GS
[0.75 0 0 0.75 0 0] CT
0.851 0.325 0.098 RC
[10 6] 0 setdash
2 LJ
0.667 LW
N
90.36 372.925 M
107.72 372.927 L
125.08 372.929 L
142.44 372.864 L
159.8 372.784 L
177.16 372.693 L
194.52 372.586 L
211.88 372.458 L
229.24 372.303 L
246.6 372.108 L
263.96 371.851 L
281.32 371.488 L
298.68 370.93 L
316.04 369.94 L
333.4 367.709 L
350.76 360.469 L
368.12 363.845 L
385.48 360.904 L
402.84 362.202 L
420.2 361.291 L
437.56 359.503 L
454.92 354.786 L
472.28 344.464 L
489.64 304.148 L
507 263.568 L
S
GR
GS
[0.75 0 0 0.75 67.77 279.69388] CT
0.851 0.325 0.098 RC
10.0 ML
0.667 LW
N
-3 -3 M
-3 3 L
3 3 L
3 -3 L
cp
S
GR
GS
[0.75 0 0 0.75 80.79 279.69491] CT
0.851 0.325 0.098 RC
10.0 ML
0.667 LW
N
-3 -3 M
-3 3 L
3 3 L
3 -3 L
cp
S
GR
GS
[0.75 0 0 0.75 93.81 279.69649] CT
0.851 0.325 0.098 RC
10.0 ML
0.667 LW
N
-3 -3 M
-3 3 L
3 3 L
3 -3 L
cp
S
GR
GS
[0.75 0 0 0.75 106.83 279.64801] CT
0.851 0.325 0.098 RC
10.0 ML
0.667 LW
N
-3 -3 M
-3 3 L
3 3 L
3 -3 L
cp
S
GR
GS
[0.75 0 0 0.75 119.85 279.58829] CT
0.851 0.325 0.098 RC
10.0 ML
0.667 LW
N
-3 -3 M
-3 3 L
3 3 L
3 -3 L
cp
S
GR
GS
[0.75 0 0 0.75 132.87 279.51993] CT
0.851 0.325 0.098 RC
10.0 ML
0.667 LW
N
-3 -3 M
-3 3 L
3 3 L
3 -3 L
cp
S
GR
GS
[0.75 0 0 0.75 145.89 279.43922] CT
0.851 0.325 0.098 RC
10.0 ML
0.667 LW
N
-3 -3 M
-3 3 L
3 3 L
3 -3 L
cp
S
GR
GS
[0.75 0 0 0.75 158.91 279.34337] CT
0.851 0.325 0.098 RC
10.0 ML
0.667 LW
N
-3 -3 M
-3 3 L
3 3 L
3 -3 L
cp
S
GR
GS
[0.75 0 0 0.75 171.93 279.22691] CT
0.851 0.325 0.098 RC
10.0 ML
0.667 LW
N
-3 -3 M
-3 3 L
3 3 L
3 -3 L
cp
S
GR
GS
[0.75 0 0 0.75 184.95 279.08114] CT
0.851 0.325 0.098 RC
10.0 ML
0.667 LW
N
-3 -3 M
-3 3 L
3 3 L
3 -3 L
cp
S
GR
GS
[0.75 0 0 0.75 197.96999 278.8886] CT
0.851 0.325 0.098 RC
10.0 ML
0.667 LW
N
-3 -3 M
-3 3 L
3 3 L
3 -3 L
cp
S
GR
GS
[0.75 0 0 0.75 210.99001 278.61612] CT
0.851 0.325 0.098 RC
10.0 ML
0.667 LW
N
-3 -3 M
-3 3 L
3 3 L
3 -3 L
cp
S
GR
GS
[0.75 0 0 0.75 224.00999 278.19772] CT
0.851 0.325 0.098 RC
10.0 ML
0.667 LW
N
-3 -3 M
-3 3 L
3 3 L
3 -3 L
cp
S
GR
GS
[0.75 0 0 0.75 237.03001 277.45505] CT
0.851 0.325 0.098 RC
10.0 ML
0.667 LW
N
-3 -3 M
-3 3 L
3 3 L
3 -3 L
cp
S
GR
GS
[0.75 0 0 0.75 250.05 275.78151] CT
0.851 0.325 0.098 RC
10.0 ML
0.667 LW
N
-3 -3 M
-3 3 L
3 3 L
3 -3 L
cp
S
GR
GS
[0.75 0 0 0.75 263.07001 270.3514] CT
0.851 0.325 0.098 RC
10.0 ML
0.667 LW
N
-3 -3 M
-3 3 L
3 3 L
3 -3 L
cp
S
GR
GS
[0.75 0 0 0.75 276.09 272.8838] CT
0.851 0.325 0.098 RC
10.0 ML
0.667 LW
N
-3 -3 M
-3 3 L
3 3 L
3 -3 L
cp
S
GR
GS
[0.75 0 0 0.75 289.11001 270.67774] CT
0.851 0.325 0.098 RC
10.0 ML
0.667 LW
N
-3 -3 M
-3 3 L
3 3 L
3 -3 L
cp
S
GR
GS
[0.75 0 0 0.75 302.13 271.65152] CT
0.851 0.325 0.098 RC
10.0 ML
0.667 LW
N
-3 -3 M
-3 3 L
3 3 L
3 -3 L
cp
S
GR
GS
[0.75 0 0 0.75 315.15001 270.96799] CT
0.851 0.325 0.098 RC
10.0 ML
0.667 LW
N
-3 -3 M
-3 3 L
3 3 L
3 -3 L
cp
S
GR
GS
[0.75 0 0 0.75 328.17 269.62706] CT
0.851 0.325 0.098 RC
10.0 ML
0.667 LW
N
-3 -3 M
-3 3 L
3 3 L
3 -3 L
cp
S
GR
GS
[0.75 0 0 0.75 341.19001 266.08987] CT
0.851 0.325 0.098 RC
10.0 ML
0.667 LW
N
-3 -3 M
-3 3 L
3 3 L
3 -3 L
cp
S
GR
GS
[0.75 0 0 0.75 354.21 258.34795] CT
0.851 0.325 0.098 RC
10.0 ML
0.667 LW
N
-3 -3 M
-3 3 L
3 3 L
3 -3 L
cp
S
GR
GS
[0.75 0 0 0.75 367.23001 228.11096] CT
0.851 0.325 0.098 RC
10.0 ML
0.667 LW
N
-3 -3 M
-3 3 L
3 3 L
3 -3 L
cp
S
GR
GS
[0.75 0 0 0.75 380.25 197.67579] CT
0.851 0.325 0.098 RC
10.0 ML
0.667 LW
N
-3 -3 M
-3 3 L
3 3 L
3 -3 L
cp
S
GR
GS
[0.75 0 0 0.75 0 0] CT
0.929 0.694 0.125 RC
[1 3] 0 setdash
2 LJ
0.667 LW
N
90.36 370.774 M
107.72 370.778 L
125.08 370.782 L
142.44 370.802 L
159.8 370.813 L
177.16 370.812 L
194.52 370.811 L
211.88 370.811 L
229.24 370.813 L
246.6 370.816 L
263.96 370.818 L
281.32 370.82 L
298.68 370.822 L
316.04 370.824 L
333.4 370.825 L
350.76 370.827 L
368.12 370.829 L
385.48 370.827 L
402.84 370.826 L
420.2 370.824 L
437.56 370.822 L
454.92 370.82 L
472.28 370.819 L
489.64 370.817 L
507 370.815 L
S
GR
GS
[0.75 0 0 0.75 67.77 278.08019] CT
0.929 0.694 0.125 RC
N
0 -3.667 M
2.025 -3.667 3.667 -2.025 3.667 0 C
3.667 0 L
3.667 2.025 2.025 3.667 0 3.667 C
-2.025 3.667 -3.667 2.025 -3.667 0 C
-3.667 -2.025 -2.025 -3.667 0 -3.667 C
cp
0 -4.333 M
-2.393 -4.333 -4.333 -2.393 -4.333 0 C
-4.333 2.393 -2.393 4.333 0 4.333 C
2.393 4.333 4.333 2.393 4.333 0 C
4.333 0 L
4.333 -2.393 2.393 -4.333 0 -4.333 C
cp
f
GR
GS
[0.75 0 0 0.75 80.79 278.08349] CT
0.929 0.694 0.125 RC
N
/f-862814258{0 -3.667 M
2.025 -3.667 3.667 -2.025 3.667 0 C
3.667 0 L
3.667 2.025 2.025 3.667 0 3.667 C
-2.025 3.667 -3.667 2.025 -3.667 0 C
-3.667 -2.025 -2.025 -3.667 0 -3.667 C
cp
0 -4.333 M
-2.393 -4.333 -4.333 -2.393 -4.333 0 C
-4.333 2.393 -2.393 4.333 0 4.333 C
2.393 4.333 4.333 2.393 4.333 0 C
4.333 0 L
4.333 -2.393 2.393 -4.333 0 -4.333 C
cp}def
f-862814258
f
GR
GS
[0.75 0 0 0.75 93.81 278.0866] CT
0.929 0.694 0.125 RC
N
f-862814258
f
GR
GS
[0.75 0 0 0.75 106.83 278.10116] CT
0.929 0.694 0.125 RC
N
f-862814258
f
GR
GS
[0.75 0 0 0.75 119.85 278.10988] CT
0.929 0.694 0.125 RC
N
f-862814258
f
GR
GS
[0.75 0 0 0.75 132.87 278.10878] CT
0.929 0.694 0.125 RC
N
f-862814258
f
GR
GS
[0.75 0 0 0.75 145.89 278.10809] CT
0.929 0.694 0.125 RC
N
f-862814258
f
GR
GS
[0.75 0 0 0.75 158.91 278.10855] CT
0.929 0.694 0.125 RC
N
f-862814258
f
GR
GS
[0.75 0 0 0.75 171.93 278.10999] CT
0.929 0.694 0.125 RC
N
f-862814258
f
GR
GS
[0.75 0 0 0.75 184.95 278.11166] CT
0.929 0.694 0.125 RC
N
f-862814258
f
GR
GS
[0.75 0 0 0.75 197.96999 278.11329] CT
0.929 0.694 0.125 RC
N
f-862814258
f
GR
GS
[0.75 0 0 0.75 210.99001 278.11482] CT
0.929 0.694 0.125 RC
N
f-862814258
f
GR
GS
[0.75 0 0 0.75 224.00999 278.11626] CT
0.929 0.694 0.125 RC
N
f-862814258
f
GR
GS
[0.75 0 0 0.75 237.03001 278.11768] CT
0.929 0.694 0.125 RC
N
f-862814258
f
GR
GS
[0.75 0 0 0.75 250.05 278.11903] CT
0.929 0.694 0.125 RC
N
f-862814258
f
GR
GS
[0.75 0 0 0.75 263.07001 278.12038] CT
0.929 0.694 0.125 RC
N
f-862814258
f
GR
GS
[0.75 0 0 0.75 276.09 278.12164] CT
0.929 0.694 0.125 RC
N
f-862814258
f
GR
GS
[0.75 0 0 0.75 289.11001 278.12041] CT
0.929 0.694 0.125 RC
N
f-862814258
f
GR
GS
[0.75 0 0 0.75 302.13 278.11913] CT
0.929 0.694 0.125 RC
N
f-862814258
f
GR
GS
[0.75 0 0 0.75 315.15001 278.11782] CT
0.929 0.694 0.125 RC
N
f-862814258
f
GR
GS
[0.75 0 0 0.75 328.17 278.11654] CT
0.929 0.694 0.125 RC
N
f-862814258
f
GR
GS
[0.75 0 0 0.75 341.19001 278.11526] CT
0.929 0.694 0.125 RC
N
f-862814258
f
GR
GS
[0.75 0 0 0.75 354.21 278.11411] CT
0.929 0.694 0.125 RC
N
f-862814258
f
GR
GS
[0.75 0 0 0.75 367.23001 278.11292] CT
0.929 0.694 0.125 RC
N
f-862814258
f
GR
GS
[0.75 0 0 0.75 380.25 278.11162] CT
0.929 0.694 0.125 RC
N
f-862814258
f
GR
GS
[0.75 0 0 0.75 0 0] CT
0.494 0.184 0.557 RC
[1 3] 0 setdash
2 LJ
0.667 LW
N
90.36 370.774 M
107.72 370.778 L
125.08 370.782 L
142.44 370.59 L
159.8 370.351 L
177.16 370.075 L
194.52 369.752 L
211.88 369.37 L
229.24 368.906 L
246.6 368.321 L
263.96 367.549 L
281.32 366.461 L
298.68 364.784 L
316.04 361.813 L
333.4 355.12 L
350.76 333.343 L
368.12 343.511 L
385.48 334.687 L
402.84 338.586 L
420.2 335.825 L
437.56 330.431 L
454.92 316.332 L
472.28 285.368 L
489.64 164.2 L
507 42.129 L
S
GR
GS
[0.75 0 0 0.75 67.77 278.08019] CT
0.494 0.184 0.557 RC
N
f-862814258
f
GR
GS
[0.75 0 0 0.75 80.79 278.08349] CT
0.494 0.184 0.557 RC
N
f-862814258
f
GR
GS
[0.75 0 0 0.75 93.81 278.0866] CT
0.494 0.184 0.557 RC
N
f-862814258
f
GR
GS
[0.75 0 0 0.75 106.83 277.94218] CT
0.494 0.184 0.557 RC
N
f-862814258
f
GR
GS
[0.75 0 0 0.75 119.85 277.76342] CT
0.494 0.184 0.557 RC
N
f-862814258
f
GR
GS
[0.75 0 0 0.75 132.87 277.55608] CT
0.494 0.184 0.557 RC
N
f-862814258
f
GR
GS
[0.75 0 0 0.75 145.89 277.31433] CT
0.494 0.184 0.557 RC
N
f-862814258
f
GR
GS
[0.75 0 0 0.75 158.91 277.02786] CT
0.494 0.184 0.557 RC
N
f-862814258
f
GR
GS
[0.75 0 0 0.75 171.93 276.67962] CT
0.494 0.184 0.557 RC
N
f-862814258
f
GR
GS
[0.75 0 0 0.75 184.95 276.24099] CT
0.494 0.184 0.557 RC
N
f-862814258
f
GR
GS
[0.75 0 0 0.75 197.96999 275.66169] CT
0.494 0.184 0.557 RC
N
f-862814258
f
GR
GS
[0.75 0 0 0.75 210.99001 274.84598] CT
0.494 0.184 0.557 RC
N
f-862814258
f
GR
GS
[0.75 0 0 0.75 224.00999 273.58825] CT
0.494 0.184 0.557 RC
N
f-862814258
f
GR
GS
[0.75 0 0 0.75 237.03001 271.35967] CT
0.494 0.184 0.557 RC
N
f-862814258
f
GR
GS
[0.75 0 0 0.75 250.05 266.3402] CT
0.494 0.184 0.557 RC
N
f-862814258
f
GR
GS
[0.75 0 0 0.75 263.07001 250.00742] CT
0.494 0.184 0.557 RC
N
f-862814258
f
GR
GS
[0.75 0 0 0.75 276.09 257.63349] CT
0.494 0.184 0.557 RC
N
f-862814258
f
GR
GS
[0.75 0 0 0.75 289.11001 251.01544] CT
0.494 0.184 0.557 RC
N
f-862814258
f
GR
GS
[0.75 0 0 0.75 302.13 253.93932] CT
0.494 0.184 0.557 RC
N
f-862814258
f
GR
GS
[0.75 0 0 0.75 315.15001 251.86887] CT
0.494 0.184 0.557 RC
N
f-862814258
f
GR
GS
[0.75 0 0 0.75 328.17 247.8233] CT
0.494 0.184 0.557 RC
N
f-862814258
f
GR
GS
[0.75 0 0 0.75 341.19001 237.24907] CT
0.494 0.184 0.557 RC
N
f-862814258
f
GR
GS
[0.75 0 0 0.75 354.21 214.02576] CT
0.494 0.184 0.557 RC
N
f-862814258
f
GR
GS
[0.75 0 0 0.75 367.23001 123.14994] CT
0.494 0.184 0.557 RC
N
f-862814258
f
GR
GS
[0.75 0 0 0.75 380.25 31.59711] CT
0.494 0.184 0.557 RC
N
f-862814258
f
GR
GS
[0.75 0 0 0.75 0 0] CT
0.467 0.675 0.188 RC
[8 3 2 3] 0 setdash
2 LJ
0.667 LW
N
90.36 371.471 M
107.72 371.471 L
125.08 371.47 L
142.44 371.471 L
159.8 371.471 L
177.16 371.471 L
194.52 371.471 L
211.88 371.472 L
229.24 371.472 L
246.6 371.471 L
263.96 371.472 L
281.32 371.472 L
298.68 371.471 L
316.04 371.471 L
333.4 371.471 L
350.76 371.472 L
368.12 371.472 L
385.48 371.472 L
402.84 371.472 L
420.2 371.472 L
437.56 371.472 L
454.92 371.472 L
472.28 371.471 L
489.64 371.471 L
507 371.472 L
S
GR
GS
[0.75 0 0 0.75 67.77 278.60326] CT
0.467 0.675 0.188 RC
10.0 ML
0.667 LW
N
-4 0 M
0 5.32 L
4 0 L
0 -5.32 L
cp
S
GR
GS
[0.75 0 0 0.75 80.79 278.60342] CT
0.467 0.675 0.188 RC
10.0 ML
0.667 LW
N
-4 0 M
0 5.32 L
4 0 L
0 -5.32 L
cp
S
GR
GS
[0.75 0 0 0.75 93.81 278.60216] CT
0.467 0.675 0.188 RC
10.0 ML
0.667 LW
N
-4 0 M
0 5.32 L
4 0 L
0 -5.32 L
cp
S
GR
GS
[0.75 0 0 0.75 106.83 278.60316] CT
0.467 0.675 0.188 RC
10.0 ML
0.667 LW
N
-4 0 M
0 5.32 L
4 0 L
0 -5.32 L
cp
S
GR
GS
[0.75 0 0 0.75 119.85 278.60328] CT
0.467 0.675 0.188 RC
10.0 ML
0.667 LW
N
-4 0 M
0 5.32 L
4 0 L
0 -5.32 L
cp
S
GR
GS
[0.75 0 0 0.75 132.87 278.60332] CT
0.467 0.675 0.188 RC
10.0 ML
0.667 LW
N
-4 0 M
0 5.32 L
4 0 L
0 -5.32 L
cp
S
GR
GS
[0.75 0 0 0.75 145.89 278.6036] CT
0.467 0.675 0.188 RC
10.0 ML
0.667 LW
N
-4 0 M
0 5.32 L
4 0 L
0 -5.32 L
cp
S
GR
GS
[0.75 0 0 0.75 158.91 278.60417] CT
0.467 0.675 0.188 RC
10.0 ML
0.667 LW
N
-4 0 M
0 5.32 L
4 0 L
0 -5.32 L
cp
S
GR
GS
[0.75 0 0 0.75 171.93 278.60374] CT
0.467 0.675 0.188 RC
10.0 ML
0.667 LW
N
-4 0 M
0 5.32 L
4 0 L
0 -5.32 L
cp
S
GR
GS
[0.75 0 0 0.75 184.95 278.60353] CT
0.467 0.675 0.188 RC
10.0 ML
0.667 LW
N
-4 0 M
0 5.32 L
4 0 L
0 -5.32 L
cp
S
GR
GS
[0.75 0 0 0.75 197.96999 278.60367] CT
0.467 0.675 0.188 RC
10.0 ML
0.667 LW
N
-4 0 M
0 5.32 L
4 0 L
0 -5.32 L
cp
S
GR
GS
[0.75 0 0 0.75 210.99001 278.60376] CT
0.467 0.675 0.188 RC
10.0 ML
0.667 LW
N
-4 0 M
0 5.32 L
4 0 L
0 -5.32 L
cp
S
GR
GS
[0.75 0 0 0.75 224.00999 278.60342] CT
0.467 0.675 0.188 RC
10.0 ML
0.667 LW
N
-4 0 M
0 5.32 L
4 0 L
0 -5.32 L
cp
S
GR
GS
[0.75 0 0 0.75 237.03001 278.60319] CT
0.467 0.675 0.188 RC
10.0 ML
0.667 LW
N
-4 0 M
0 5.32 L
4 0 L
0 -5.32 L
cp
S
GR
GS
[0.75 0 0 0.75 250.05 278.60344] CT
0.467 0.675 0.188 RC
10.0 ML
0.667 LW
N
-4 0 M
0 5.32 L
4 0 L
0 -5.32 L
cp
S
GR
GS
[0.75 0 0 0.75 263.07001 278.60381] CT
0.467 0.675 0.188 RC
10.0 ML
0.667 LW
N
-4 0 M
0 5.32 L
4 0 L
0 -5.32 L
cp
S
GR
GS
[0.75 0 0 0.75 276.09 278.60417] CT
0.467 0.675 0.188 RC
10.0 ML
0.667 LW
N
-4 0 M
0 5.32 L
4 0 L
0 -5.32 L
cp
S
GR
GS
[0.75 0 0 0.75 289.11001 278.60401] CT
0.467 0.675 0.188 RC
10.0 ML
0.667 LW
N
-4 0 M
0 5.32 L
4 0 L
0 -5.32 L
cp
S
GR
GS
[0.75 0 0 0.75 302.13 278.60406] CT
0.467 0.675 0.188 RC
10.0 ML
0.667 LW
N
-4 0 M
0 5.32 L
4 0 L
0 -5.32 L
cp
S
GR
GS
[0.75 0 0 0.75 315.15001 278.60435] CT
0.467 0.675 0.188 RC
10.0 ML
0.667 LW
N
-4 0 M
0 5.32 L
4 0 L
0 -5.32 L
cp
S
GR
GS
[0.75 0 0 0.75 328.17 278.60374] CT
0.467 0.675 0.188 RC
10.0 ML
0.667 LW
N
-4 0 M
0 5.32 L
4 0 L
0 -5.32 L
cp
S
GR
GS
[0.75 0 0 0.75 341.19001 278.60378] CT
0.467 0.675 0.188 RC
10.0 ML
0.667 LW
N
-4 0 M
0 5.32 L
4 0 L
0 -5.32 L
cp
S
GR
GS
[0.75 0 0 0.75 354.21 278.60319] CT
0.467 0.675 0.188 RC
10.0 ML
0.667 LW
N
-4 0 M
0 5.32 L
4 0 L
0 -5.32 L
cp
S
GR
GS
[0.75 0 0 0.75 367.23001 278.60339] CT
0.467 0.675 0.188 RC
10.0 ML
0.667 LW
N
-4 0 M
0 5.32 L
4 0 L
0 -5.32 L
cp
S
GR
GS
[0.75 0 0 0.75 380.25 278.60401] CT
0.467 0.675 0.188 RC
10.0 ML
0.667 LW
N
-4 0 M
0 5.32 L
4 0 L
0 -5.32 L
cp
S
GR
GS
[0.75 0 0 0.75 0 0] CT
0.302 0.745 0.933 RC
[8 3 2 3] 0 setdash
2 LJ
0.667 LW
N
90.36 371.471 M
107.72 371.471 L
125.08 371.47 L
142.44 371.471 L
159.8 371.471 L
177.16 371.469 L
194.52 371.47 L
211.88 371.471 L
229.24 371.472 L
246.6 371.471 L
263.96 371.47 L
281.32 371.471 L
298.68 371.471 L
316.04 371.471 L
333.4 371.472 L
350.76 371.469 L
368.12 371.471 L
385.48 371.471 L
402.84 371.471 L
420.2 371.469 L
437.56 371.468 L
454.92 371.471 L
472.28 371.472 L
489.64 371.47 L
507 371.468 L
S
GR
GS
[0.75 0 0 0.75 67.77 278.60326] CT
0.302 0.745 0.933 RC
10.0 ML
0.667 LW
N
-4 0 M
0 5.32 L
4 0 L
0 -5.32 L
cp
S
GR
GS
[0.75 0 0 0.75 80.79 278.60342] CT
0.302 0.745 0.933 RC
10.0 ML
0.667 LW
N
-4 0 M
0 5.32 L
4 0 L
0 -5.32 L
cp
S
GR
GS
[0.75 0 0 0.75 93.81 278.60216] CT
0.302 0.745 0.933 RC
10.0 ML
0.667 LW
N
-4 0 M
0 5.32 L
4 0 L
0 -5.32 L
cp
S
GR
GS
[0.75 0 0 0.75 106.83 278.603] CT
0.302 0.745 0.933 RC
10.0 ML
0.667 LW
N
-4 0 M
0 5.32 L
4 0 L
0 -5.32 L
cp
S
GR
GS
[0.75 0 0 0.75 119.85 278.60337] CT
0.302 0.745 0.933 RC
10.0 ML
0.667 LW
N
-4 0 M
0 5.32 L
4 0 L
0 -5.32 L
cp
S
GR
GS
[0.75 0 0 0.75 132.87 278.602] CT
0.302 0.745 0.933 RC
10.0 ML
0.667 LW
N
-4 0 M
0 5.32 L
4 0 L
0 -5.32 L
cp
S
GR
GS
[0.75 0 0 0.75 145.89 278.60241] CT
0.302 0.745 0.933 RC
10.0 ML
0.667 LW
N
-4 0 M
0 5.32 L
4 0 L
0 -5.32 L
cp
S
GR
GS
[0.75 0 0 0.75 158.91 278.60316] CT
0.302 0.745 0.933 RC
10.0 ML
0.667 LW
N
-4 0 M
0 5.32 L
4 0 L
0 -5.32 L
cp
S
GR
GS
[0.75 0 0 0.75 171.93 278.60383] CT
0.302 0.745 0.933 RC
10.0 ML
0.667 LW
N
-4 0 M
0 5.32 L
4 0 L
0 -5.32 L
cp
S
GR
GS
[0.75 0 0 0.75 184.95 278.6033] CT
0.302 0.745 0.933 RC
10.0 ML
0.667 LW
N
-4 0 M
0 5.32 L
4 0 L
0 -5.32 L
cp
S
GR
GS
[0.75 0 0 0.75 197.96999 278.60275] CT
0.302 0.745 0.933 RC
10.0 ML
0.667 LW
N
-4 0 M
0 5.32 L
4 0 L
0 -5.32 L
cp
S
GR
GS
[0.75 0 0 0.75 210.99001 278.60358] CT
0.302 0.745 0.933 RC
10.0 ML
0.667 LW
N
-4 0 M
0 5.32 L
4 0 L
0 -5.32 L
cp
S
GR
GS
[0.75 0 0 0.75 224.00999 278.60303] CT
0.302 0.745 0.933 RC
10.0 ML
0.667 LW
N
-4 0 M
0 5.32 L
4 0 L
0 -5.32 L
cp
S
GR
GS
[0.75 0 0 0.75 237.03001 278.60323] CT
0.302 0.745 0.933 RC
10.0 ML
0.667 LW
N
-4 0 M
0 5.32 L
4 0 L
0 -5.32 L
cp
S
GR
GS
[0.75 0 0 0.75 250.05 278.60381] CT
0.302 0.745 0.933 RC
10.0 ML
0.667 LW
N
-4 0 M
0 5.32 L
4 0 L
0 -5.32 L
cp
S
GR
GS
[0.75 0 0 0.75 263.07001 278.60147] CT
0.302 0.745 0.933 RC
10.0 ML
0.667 LW
N
-4 0 M
0 5.32 L
4 0 L
0 -5.32 L
cp
S
GR
GS
[0.75 0 0 0.75 276.09 278.60289] CT
0.302 0.745 0.933 RC
10.0 ML
0.667 LW
N
-4 0 M
0 5.32 L
4 0 L
0 -5.32 L
cp
S
GR
GS
[0.75 0 0 0.75 289.11001 278.60323] CT
0.302 0.745 0.933 RC
10.0 ML
0.667 LW
N
-4 0 M
0 5.32 L
4 0 L
0 -5.32 L
cp
S
GR
GS
[0.75 0 0 0.75 302.13 278.60328] CT
0.302 0.745 0.933 RC
10.0 ML
0.667 LW
N
-4 0 M
0 5.32 L
4 0 L
0 -5.32 L
cp
S
GR
GS
[0.75 0 0 0.75 315.15001 278.60204] CT
0.302 0.745 0.933 RC
10.0 ML
0.667 LW
N
-4 0 M
0 5.32 L
4 0 L
0 -5.32 L
cp
S
GR
GS
[0.75 0 0 0.75 328.17 278.60101] CT
0.302 0.745 0.933 RC
10.0 ML
0.667 LW
N
-4 0 M
0 5.32 L
4 0 L
0 -5.32 L
cp
S
GR
GS
[0.75 0 0 0.75 341.19001 278.60349] CT
0.302 0.745 0.933 RC
10.0 ML
0.667 LW
N
-4 0 M
0 5.32 L
4 0 L
0 -5.32 L
cp
S
GR
GS
[0.75 0 0 0.75 354.21 278.60385] CT
0.302 0.745 0.933 RC
10.0 ML
0.667 LW
N
-4 0 M
0 5.32 L
4 0 L
0 -5.32 L
cp
S
GR
GS
[0.75 0 0 0.75 367.23001 278.60216] CT
0.302 0.745 0.933 RC
10.0 ML
0.667 LW
N
-4 0 M
0 5.32 L
4 0 L
0 -5.32 L
cp
S
GR
GS
[0.75 0 0 0.75 380.25 278.60108] CT
0.302 0.745 0.933 RC
10.0 ML
0.667 LW
N
-4 0 M
0 5.32 L
4 0 L
0 -5.32 L
cp
S
GR
GS
[0.75 0 0 0.75 0 0] CT
1 GC
N
347 173 M
347 70 L
233 70 L
233 173 L
cp
f
GR
GS
[0.75 0 0 0.75 210 60.03659] CT
/Helvetica 12 F
GS
[1 0 0 1 0 0] CT
0 5 moveto 
1 -1 scale
(max/minAle) t 
GR
GR
GS
[0.75 0 0 0.75 0 0] CT
0 0.447 0.741 RC
[10 6] 0 setdash
2 LJ
0.667 LW
N
237 80.049 M
277 80.049 L
S
GR
GS
[0.75 0 0 0.75 192.75 60.03659] CT
0 0.447 0.741 RC
10.0 ML
0.667 LW
N
-3 -3 M
-3 3 L
3 3 L
3 -3 L
cp
S
GR
GS
[0.75 0 0 0.75 210 72.47195] CT
/Helvetica 12 F
GS
[1 0 0 1 0 0] CT
0 5 moveto 
1 -1 scale
(max/min) t 
GR
GR
GS
[0.75 0 0 0.75 0 0] CT
0.851 0.325 0.098 RC
[10 6] 0 setdash
2 LJ
0.667 LW
N
237 96.629 M
277 96.629 L
S
GR
GS
[0.75 0 0 0.75 192.75 72.47195] CT
0.851 0.325 0.098 RC
10.0 ML
0.667 LW
N
-3 -3 M
-3 3 L
3 3 L
3 -3 L
cp
S
GR
GS
[0.75 0 0 0.75 210 84.90732] CT
/Helvetica 12 F
GS
[1 0 0 1 0 0] CT
0 5 moveto 
1 -1 scale
(maxAle) t 
GR
GR
GS
[0.75 0 0 0.75 0 0] CT
0.929 0.694 0.125 RC
[1 3] 0 setdash
2 LJ
0.667 LW
N
237 113.21 M
277 113.21 L
S
GR
GS
[0.75 0 0 0.75 192.75 84.90732] CT
0.929 0.694 0.125 RC
N
f-862814258
f
GR
GS
[0.75 0 0 0.75 210 97.34269] CT
/Helvetica 12 F
GS
[1 0 0 1 0 0] CT
0 5 moveto 
1 -1 scale
(max) t 
GR
GR
GS
[0.75 0 0 0.75 0 0] CT
0.494 0.184 0.557 RC
[1 3] 0 setdash
2 LJ
0.667 LW
N
237 129.79 M
277 129.79 L
S
GR
GS
[0.75 0 0 0.75 192.75 97.34268] CT
0.494 0.184 0.557 RC
N
f-862814258
f
GR
GS
[0.75 0 0 0.75 210 109.77805] CT
/Helvetica 12 F
GS
[1 0 0 1 0 0] CT
0 5 moveto 
1 -1 scale
(minAle) t 
GR
GR
GS
[0.75 0 0 0.75 0 0] CT
0.467 0.675 0.188 RC
[8 3 2 3] 0 setdash
2 LJ
0.667 LW
N
237 146.371 M
277 146.371 L
S
GR
GS
[0.75 0 0 0.75 192.75 109.77805] CT
0.467 0.675 0.188 RC
10.0 ML
0.667 LW
N
-4 0 M
0 5.32 L
4 0 L
0 -5.32 L
cp
S
GR
GS
[0.75 0 0 0.75 210 122.21341] CT
/Helvetica 12 F
GS
[1 0 0 1 0 0] CT
0 5 moveto 
1 -1 scale
(min) t 
GR
GR
GS
[0.75 0 0 0.75 0 0] CT
0.302 0.745 0.933 RC
[8 3 2 3] 0 setdash
2 LJ
0.667 LW
N
237 162.951 M
277 162.951 L
S
GR
GS
[0.75 0 0 0.75 192.75 122.21341] CT
0.302 0.745 0.933 RC
10.0 ML
0.667 LW
N
-4 0 M
0 5.32 L
4 0 L
0 -5.32 L
cp
S
GR
GS
[0.75 0 0 0.75 0 0] CT
0.149 GC
10.0 ML
0.667 LW
N
233 173 M
233 70 L
347 70 L
347 173 L
cp
S
GR
%%Trailer
%%Pages: 1
%%EOF
