%!PS-Adobe-3.0 EPSF-3.0
%%Creator: (MATLAB, The Mathworks, Inc. Version 9.7.0.1319299 \(R2019b\) Update 5. Operating System: Windows 10)
%%Title: Plots_Quality/Dziuk_Ellipsoid_Histogramm.eps
%%CreationDate: 2020-12-13T21:51:25
%%Pages: (atend)
%%BoundingBox:    14    19   381   315
%%LanguageLevel: 2
%%EndComments
%%BeginProlog
%%BeginResource: procset (Apache XML Graphics Std ProcSet) 1.2 0
%%Version: 1.2 0
%%Copyright: (Copyright 2001-2003,2010 The Apache Software Foundation. License terms: http://www.apache.org/licenses/LICENSE-2.0)
/bd{bind def}bind def
/ld{load def}bd
/GR/grestore ld
/GS/gsave ld
/RM/rmoveto ld
/C/curveto ld
/t/show ld
/L/lineto ld
/ML/setmiterlimit ld
/CT/concat ld
/f/fill ld
/N/newpath ld
/S/stroke ld
/CC/setcmykcolor ld
/A/ashow ld
/cp/closepath ld
/RC/setrgbcolor ld
/LJ/setlinejoin ld
/GC/setgray ld
/LW/setlinewidth ld
/M/moveto ld
/re {4 2 roll M
1 index 0 rlineto
0 exch rlineto
neg 0 rlineto
cp } bd
/_ctm matrix def
/_tm matrix def
/BT { _ctm currentmatrix pop matrix _tm copy pop 0 0 moveto } bd
/ET { _ctm setmatrix } bd
/iTm { _ctm setmatrix _tm concat } bd
/Tm { _tm astore pop iTm 0 0 moveto } bd
/ux 0.0 def
/uy 0.0 def
/F {
  /Tp exch def
  /Tf exch def
  Tf findfont Tp scalefont setfont
  /cf Tf def  /cs Tp def
} bd
/ULS {currentpoint /uy exch def /ux exch def} bd
/ULE {
  /Tcx currentpoint pop def
  gsave
  newpath
  cf findfont cs scalefont dup
  /FontMatrix get 0 get /Ts exch def /FontInfo get dup
  /UnderlinePosition get Ts mul /To exch def
  /UnderlineThickness get Ts mul /Tt exch def
  ux uy To add moveto  Tcx uy To add lineto
  Tt setlinewidth stroke
  grestore
} bd
/OLE {
  /Tcx currentpoint pop def
  gsave
  newpath
  cf findfont cs scalefont dup
  /FontMatrix get 0 get /Ts exch def /FontInfo get dup
  /UnderlinePosition get Ts mul /To exch def
  /UnderlineThickness get Ts mul /Tt exch def
  ux uy To add cs add moveto Tcx uy To add cs add lineto
  Tt setlinewidth stroke
  grestore
} bd
/SOE {
  /Tcx currentpoint pop def
  gsave
  newpath
  cf findfont cs scalefont dup
  /FontMatrix get 0 get /Ts exch def /FontInfo get dup
  /UnderlinePosition get Ts mul /To exch def
  /UnderlineThickness get Ts mul /Tt exch def
  ux uy To add cs 10 mul 26 idiv add moveto Tcx uy To add cs 10 mul 26 idiv add lineto
  Tt setlinewidth stroke
  grestore
} bd
/QT {
/Y22 exch store
/X22 exch store
/Y21 exch store
/X21 exch store
currentpoint
/Y21 load 2 mul add 3 div exch
/X21 load 2 mul add 3 div exch
/X21 load 2 mul /X22 load add 3 div
/Y21 load 2 mul /Y22 load add 3 div
/X22 load /Y22 load curveto
} bd
/SSPD {
dup length /d exch dict def
{
/v exch def
/k exch def
currentpagedevice k known {
/cpdv currentpagedevice k get def
v cpdv ne {
/upd false def
/nullv v type /nulltype eq def
/nullcpdv cpdv type /nulltype eq def
nullv nullcpdv or
{
/upd true def
} {
/sametype v type cpdv type eq def
sametype {
v type /arraytype eq {
/vlen v length def
/cpdvlen cpdv length def
vlen cpdvlen eq {
0 1 vlen 1 sub {
/i exch def
/obj v i get def
/cpdobj cpdv i get def
obj cpdobj ne {
/upd true def
exit
} if
} for
} {
/upd true def
} ifelse
} {
v type /dicttype eq {
v {
/dv exch def
/dk exch def
/cpddv cpdv dk get def
dv cpddv ne {
/upd true def
exit
} if
} forall
} {
/upd true def
} ifelse
} ifelse
} if
} ifelse
upd true eq {
d k v put
} if
} if
} if
} forall
d length 0 gt {
d setpagedevice
} if
} bd
/RE { % /NewFontName [NewEncodingArray] /FontName RE -
  findfont dup length dict begin
  {
    1 index /FID ne
    {def} {pop pop} ifelse
  } forall
  /Encoding exch def
  /FontName 1 index def
  currentdict definefont pop
  end
} bind def
%%EndResource
%%BeginResource: procset (Apache XML Graphics EPS ProcSet) 1.0 0
%%Version: 1.0 0
%%Copyright: (Copyright 2002-2003 The Apache Software Foundation. License terms: http://www.apache.org/licenses/LICENSE-2.0)
/BeginEPSF { %def
/b4_Inc_state save def         % Save state for cleanup
/dict_count countdictstack def % Count objects on dict stack
/op_count count 1 sub def      % Count objects on operand stack
userdict begin                 % Push userdict on dict stack
/showpage { } def              % Redefine showpage, { } = null proc
0 setgray 0 setlinecap         % Prepare graphics state
1 setlinewidth 0 setlinejoin
10 setmiterlimit [ ] 0 setdash newpath
/languagelevel where           % If level not equal to 1 then
{pop languagelevel             % set strokeadjust and
1 ne                           % overprint to their defaults.
{false setstrokeadjust false setoverprint
} if
} if
} bd
/EndEPSF { %def
count op_count sub {pop} repeat            % Clean up stacks
countdictstack dict_count sub {end} repeat
b4_Inc_state restore
} bd
%%EndResource
%FOPBeginFontDict
%%IncludeResource: font Courier-Oblique
%%IncludeResource: font Courier-BoldOblique
%%IncludeResource: font Courier-Bold
%%IncludeResource: font ZapfDingbats
%%IncludeResource: font Symbol
%%IncludeResource: font Helvetica
%%IncludeResource: font Helvetica-Oblique
%%IncludeResource: font Helvetica-Bold
%%IncludeResource: font Helvetica-BoldOblique
%%IncludeResource: font Times-Roman
%%IncludeResource: font Times-Italic
%%IncludeResource: font Times-Bold
%%IncludeResource: font Times-BoldItalic
%%IncludeResource: font Courier
%FOPEndFontDict
%%BeginResource: encoding WinAnsiEncoding
/WinAnsiEncoding [
/.notdef /.notdef /.notdef /.notdef /.notdef
/.notdef /.notdef /.notdef /.notdef /.notdef
/.notdef /.notdef /.notdef /.notdef /.notdef
/.notdef /.notdef /.notdef /.notdef /.notdef
/.notdef /.notdef /.notdef /.notdef /.notdef
/.notdef /.notdef /.notdef /.notdef /.notdef
/.notdef /.notdef /space /exclam /quotedbl
/numbersign /dollar /percent /ampersand /quotesingle
/parenleft /parenright /asterisk /plus /comma
/hyphen /period /slash /zero /one
/two /three /four /five /six
/seven /eight /nine /colon /semicolon
/less /equal /greater /question /at
/A /B /C /D /E
/F /G /H /I /J
/K /L /M /N /O
/P /Q /R /S /T
/U /V /W /X /Y
/Z /bracketleft /backslash /bracketright /asciicircum
/underscore /quoteleft /a /b /c
/d /e /f /g /h
/i /j /k /l /m
/n /o /p /q /r
/s /t /u /v /w
/x /y /z /braceleft /bar
/braceright /asciitilde /bullet /Euro /bullet
/quotesinglbase /florin /quotedblbase /ellipsis /dagger
/daggerdbl /circumflex /perthousand /Scaron /guilsinglleft
/OE /bullet /Zcaron /bullet /bullet
/quoteleft /quoteright /quotedblleft /quotedblright /bullet
/endash /emdash /asciitilde /trademark /scaron
/guilsinglright /oe /bullet /zcaron /Ydieresis
/space /exclamdown /cent /sterling /currency
/yen /brokenbar /section /dieresis /copyright
/ordfeminine /guillemotleft /logicalnot /sfthyphen /registered
/macron /degree /plusminus /twosuperior /threesuperior
/acute /mu /paragraph /middot /cedilla
/onesuperior /ordmasculine /guillemotright /onequarter /onehalf
/threequarters /questiondown /Agrave /Aacute /Acircumflex
/Atilde /Adieresis /Aring /AE /Ccedilla
/Egrave /Eacute /Ecircumflex /Edieresis /Igrave
/Iacute /Icircumflex /Idieresis /Eth /Ntilde
/Ograve /Oacute /Ocircumflex /Otilde /Odieresis
/multiply /Oslash /Ugrave /Uacute /Ucircumflex
/Udieresis /Yacute /Thorn /germandbls /agrave
/aacute /acircumflex /atilde /adieresis /aring
/ae /ccedilla /egrave /eacute /ecircumflex
/edieresis /igrave /iacute /icircumflex /idieresis
/eth /ntilde /ograve /oacute /ocircumflex
/otilde /odieresis /divide /oslash /ugrave
/uacute /ucircumflex /udieresis /yacute /thorn
/ydieresis
] def
%%EndResource
%FOPBeginFontReencode
/Courier-Oblique findfont
dup length dict begin
  {1 index /FID ne {def} {pop pop} ifelse} forall
  /Encoding WinAnsiEncoding def
  currentdict
end
/Courier-Oblique exch definefont pop
/Courier-BoldOblique findfont
dup length dict begin
  {1 index /FID ne {def} {pop pop} ifelse} forall
  /Encoding WinAnsiEncoding def
  currentdict
end
/Courier-BoldOblique exch definefont pop
/Courier-Bold findfont
dup length dict begin
  {1 index /FID ne {def} {pop pop} ifelse} forall
  /Encoding WinAnsiEncoding def
  currentdict
end
/Courier-Bold exch definefont pop
/Helvetica findfont
dup length dict begin
  {1 index /FID ne {def} {pop pop} ifelse} forall
  /Encoding WinAnsiEncoding def
  currentdict
end
/Helvetica exch definefont pop
/Helvetica-Oblique findfont
dup length dict begin
  {1 index /FID ne {def} {pop pop} ifelse} forall
  /Encoding WinAnsiEncoding def
  currentdict
end
/Helvetica-Oblique exch definefont pop
/Helvetica-Bold findfont
dup length dict begin
  {1 index /FID ne {def} {pop pop} ifelse} forall
  /Encoding WinAnsiEncoding def
  currentdict
end
/Helvetica-Bold exch definefont pop
/Helvetica-BoldOblique findfont
dup length dict begin
  {1 index /FID ne {def} {pop pop} ifelse} forall
  /Encoding WinAnsiEncoding def
  currentdict
end
/Helvetica-BoldOblique exch definefont pop
/Times-Roman findfont
dup length dict begin
  {1 index /FID ne {def} {pop pop} ifelse} forall
  /Encoding WinAnsiEncoding def
  currentdict
end
/Times-Roman exch definefont pop
/Times-Italic findfont
dup length dict begin
  {1 index /FID ne {def} {pop pop} ifelse} forall
  /Encoding WinAnsiEncoding def
  currentdict
end
/Times-Italic exch definefont pop
/Times-Bold findfont
dup length dict begin
  {1 index /FID ne {def} {pop pop} ifelse} forall
  /Encoding WinAnsiEncoding def
  currentdict
end
/Times-Bold exch definefont pop
/Times-BoldItalic findfont
dup length dict begin
  {1 index /FID ne {def} {pop pop} ifelse} forall
  /Encoding WinAnsiEncoding def
  currentdict
end
/Times-BoldItalic exch definefont pop
/Courier findfont
dup length dict begin
  {1 index /FID ne {def} {pop pop} ifelse} forall
  /Encoding WinAnsiEncoding def
  currentdict
end
/Courier exch definefont pop
%FOPEndFontReencode
%%EndProlog
%%Page: 1 1
%%PageBoundingBox: 0 0 420 315
%%BeginPageSetup
[1 0 0 -1 0 315] CT
%%EndPageSetup
GS
[0.75 0 0 0.75 0 0] CT
1 GC
N
0 0 560 420 re
f
GR
GS
[0.75 0 0 0.75 0 0] CT
1 GC
N
0 0 560 420 re
f
GR
GS
[0.75 0 0 0.75 0 0] CT
1 GC
N
73 374 M
507 374 L
507 36 L
73 36 L
cp
f
GR
GS
[0.75 0 0 0.75 217.50018 24.94358] CT
N
-91.847 -12.261 M
-91.847 -12.792 L
-90.3 -12.792 -90.3 -13.261 QT
-90.3 -21.511 L
-90.3 -21.979 -91.847 -21.979 QT
-91.847 -22.511 L
-86.316 -22.511 L
-85.3 -22.511 -84.449 -22.065 QT
-83.597 -21.62 -82.996 -20.878 QT
-82.394 -20.136 -82.066 -19.198 QT
-81.738 -18.261 -81.738 -17.292 QT
-81.738 -16.339 -82.066 -15.44 QT
-82.394 -14.542 -83.019 -13.815 QT
-83.644 -13.089 -84.488 -12.675 QT
-85.331 -12.261 -86.316 -12.261 QT
-91.847 -12.261 L
cp
-88.956 -13.261 M
-88.956 -12.948 -88.777 -12.87 QT
-88.597 -12.792 -88.191 -12.792 QT
-86.706 -12.792 L
-85.941 -12.792 -85.246 -13.12 QT
-84.55 -13.448 -84.097 -14.042 QT
-83.628 -14.682 -83.464 -15.464 QT
-83.3 -16.245 -83.3 -17.292 QT
-83.3 -18.37 -83.464 -19.19 QT
-83.628 -20.011 -84.097 -20.667 QT
-84.55 -21.292 -85.238 -21.636 QT
-85.925 -21.979 -86.706 -21.979 QT
-88.191 -21.979 L
-88.472 -21.979 -88.621 -21.956 QT
-88.769 -21.932 -88.863 -21.831 QT
-88.956 -21.729 -88.956 -21.511 QT
-88.956 -13.261 L
cp
f
GR
GS
[0.75 0 0 0.75 217.50018 24.94358] CT
N
-80.55 -12.261 M
-80.721 -12.261 -80.721 -12.432 QT
-80.721 -12.542 L
-80.721 -12.604 -80.675 -12.651 QT
-76.487 -18.339 L
-77.846 -18.339 L
-78.471 -18.339 -78.886 -18.253 QT
-79.3 -18.167 -79.573 -17.948 QT
-79.846 -17.729 -79.964 -17.339 QT
-80.081 -16.948 -80.081 -16.245 QT
-80.518 -16.245 L
-80.346 -18.729 L
-75.315 -18.729 L
-75.253 -18.729 -75.206 -18.682 QT
-75.159 -18.636 -75.159 -18.557 QT
-75.159 -18.479 L
-75.159 -18.432 -75.19 -18.37 QT
-79.378 -12.698 L
-77.956 -12.698 L
-77.3 -12.698 -76.862 -12.776 QT
-76.425 -12.854 -76.112 -13.167 QT
-75.831 -13.448 -75.729 -13.932 QT
-75.628 -14.417 -75.565 -15.12 QT
-75.128 -15.12 L
-75.393 -12.261 L
-80.55 -12.261 L
cp
f
GR
GS
[0.75 0 0 0.75 217.50018 24.94358] CT
N
-74.156 -12.261 M
-74.156 -12.792 L
-73.656 -12.792 -73.32 -12.87 QT
-72.984 -12.948 -72.984 -13.261 QT
-72.984 -17.354 L
-72.984 -17.932 -73.211 -18.065 QT
-73.437 -18.198 -74.094 -18.198 QT
-74.094 -18.729 L
-71.937 -18.886 L
-71.937 -13.261 L
-71.937 -12.948 -71.648 -12.87 QT
-71.359 -12.792 -70.89 -12.792 QT
-70.89 -12.261 L
-74.156 -12.261 L
cp
-73.531 -21.464 M
-73.531 -21.792 -73.281 -22.042 QT
-73.031 -22.292 -72.703 -22.292 QT
-72.5 -22.292 -72.297 -22.182 QT
-72.094 -22.073 -71.984 -21.878 QT
-71.875 -21.682 -71.875 -21.464 QT
-71.875 -21.151 -72.125 -20.901 QT
-72.375 -20.651 -72.703 -20.651 QT
-73.031 -20.651 -73.281 -20.901 QT
-73.531 -21.151 -73.531 -21.464 QT
cp
f
GR
GS
[0.75 0 0 0.75 217.50018 24.94358] CT
N
-68.926 -14.042 M
-68.926 -17.354 L
-68.926 -17.761 -69.051 -17.94 QT
-69.176 -18.12 -69.402 -18.159 QT
-69.629 -18.198 -70.098 -18.198 QT
-70.098 -18.729 L
-67.832 -18.886 L
-67.832 -14.042 L
-67.832 -13.464 -67.746 -13.136 QT
-67.66 -12.807 -67.387 -12.651 QT
-67.113 -12.495 -66.52 -12.495 QT
-65.707 -12.495 -65.23 -13.167 QT
-64.754 -13.839 -64.754 -14.698 QT
-64.754 -17.354 L
-64.754 -17.761 -64.879 -17.94 QT
-65.004 -18.12 -65.23 -18.159 QT
-65.457 -18.198 -65.926 -18.198 QT
-65.926 -18.729 L
-63.66 -18.886 L
-63.66 -13.62 L
-63.66 -13.229 -63.543 -13.05 QT
-63.426 -12.87 -63.199 -12.831 QT
-62.973 -12.792 -62.488 -12.792 QT
-62.488 -12.261 L
-64.707 -12.089 L
-64.707 -13.354 L
-64.988 -12.792 -65.488 -12.44 QT
-65.988 -12.089 -66.582 -12.089 QT
-67.66 -12.089 -68.293 -12.55 QT
-68.926 -13.011 -68.926 -14.042 QT
cp
f
GR
GS
[0.75 0 0 0.75 217.50018 24.94358] CT
N
-62.012 -12.261 M
-62.012 -12.792 L
-61.496 -12.792 -61.168 -12.87 QT
-60.84 -12.948 -60.84 -13.261 QT
-60.84 -21.136 L
-60.84 -21.542 -60.965 -21.722 QT
-61.09 -21.901 -61.317 -21.94 QT
-61.543 -21.979 -62.012 -21.979 QT
-62.012 -22.511 L
-59.793 -22.667 L
-59.793 -15.542 L
-57.778 -17.307 L
-57.481 -17.604 -57.481 -17.839 QT
-57.481 -18.011 -57.606 -18.104 QT
-57.731 -18.198 -57.903 -18.198 QT
-57.903 -18.729 L
-55.09 -18.729 L
-55.09 -18.198 L
-56.106 -18.198 -57.121 -17.307 QT
-58.184 -16.386 L
-56.278 -13.667 L
-55.887 -13.104 -55.621 -12.948 QT
-55.356 -12.792 -54.731 -12.792 QT
-54.731 -12.261 L
-57.715 -12.261 L
-57.715 -12.792 L
-57.215 -12.792 -57.215 -13.104 QT
-57.215 -13.323 -57.481 -13.667 QT
-58.918 -15.729 L
-59.84 -14.932 L
-59.84 -13.261 L
-59.84 -12.948 -59.504 -12.87 QT
-59.168 -12.792 -58.668 -12.792 QT
-58.668 -12.261 L
-62.012 -12.261 L
cp
f
GR
GS
[0.75 0 0 0.75 217.50018 24.94358] CT
N
-53.396 -13.089 M
-53.396 -13.432 -53.146 -13.667 QT
-52.896 -13.901 -52.568 -13.901 QT
-52.365 -13.901 -52.17 -13.792 QT
-51.974 -13.682 -51.865 -13.487 QT
-51.756 -13.292 -51.756 -13.089 QT
-51.756 -12.761 -51.998 -12.511 QT
-52.24 -12.261 -52.568 -12.261 QT
-52.896 -12.261 -53.146 -12.511 QT
-53.396 -12.761 -53.396 -13.089 QT
cp
-53.396 -17.901 M
-53.396 -18.12 -53.287 -18.307 QT
-53.177 -18.495 -52.982 -18.612 QT
-52.787 -18.729 -52.568 -18.729 QT
-52.365 -18.729 -52.17 -18.612 QT
-51.974 -18.495 -51.865 -18.307 QT
-51.756 -18.12 -51.756 -17.901 QT
-51.756 -17.557 -51.99 -17.315 QT
-52.224 -17.073 -52.568 -17.073 QT
-52.912 -17.073 -53.154 -17.315 QT
-53.396 -17.557 -53.396 -17.901 QT
cp
f
GR
GS
[0.75 0 0 0.75 217.50018 24.94358] CT
N
-40.616 -13.87 M
-40.085 -13.198 -39.304 -12.831 QT
-38.522 -12.464 -37.663 -12.464 QT
-36.835 -12.464 -36.155 -12.886 QT
-35.475 -13.307 -35.475 -14.089 QT
-35.475 -15.354 L
-35.475 -15.823 -37.35 -15.823 QT
-37.35 -16.354 L
-33.054 -16.354 L
-33.054 -15.823 L
-33.522 -15.823 -33.804 -15.745 QT
-34.085 -15.667 -34.085 -15.354 QT
-34.085 -12.386 L
-34.085 -12.339 -34.124 -12.3 QT
-34.163 -12.261 -34.21 -12.261 QT
-34.35 -12.261 -34.679 -12.589 QT
-35.007 -12.917 -35.194 -13.182 QT
-35.554 -12.542 -36.343 -12.237 QT
-37.132 -11.932 -37.975 -11.932 QT
-39.444 -11.932 -40.64 -12.682 QT
-41.835 -13.432 -42.53 -14.69 QT
-43.225 -15.948 -43.225 -17.386 QT
-43.225 -18.448 -42.827 -19.456 QT
-42.429 -20.464 -41.702 -21.222 QT
-40.975 -21.979 -40.015 -22.409 QT
-39.054 -22.839 -37.975 -22.839 QT
-37.21 -22.839 -36.515 -22.503 QT
-35.819 -22.167 -35.272 -21.557 QT
-34.413 -22.792 L
-34.319 -22.839 -34.304 -22.839 QT
-34.194 -22.839 L
-34.147 -22.839 -34.116 -22.8 QT
-34.085 -22.761 -34.085 -22.714 QT
-34.085 -18.667 L
-34.085 -18.526 -34.194 -18.526 QT
-34.46 -18.526 L
-34.6 -18.526 -34.6 -18.667 QT
-34.6 -19.089 -34.772 -19.628 QT
-34.944 -20.167 -35.218 -20.643 QT
-35.491 -21.12 -35.835 -21.495 QT
-36.679 -22.307 -37.772 -22.307 QT
-38.6 -22.307 -39.366 -21.932 QT
-40.132 -21.557 -40.647 -20.901 QT
-41.194 -20.198 -41.405 -19.3 QT
-41.616 -18.401 -41.616 -17.386 QT
-41.616 -15.089 -40.616 -13.87 QT
cp
f
GR
GS
[0.75 0 0 0.75 217.50018 24.94358] CT
N
-32.091 -12.261 M
-32.091 -12.792 L
-31.591 -12.792 -31.255 -12.87 QT
-30.919 -12.948 -30.919 -13.261 QT
-30.919 -17.354 L
-30.919 -17.932 -31.146 -18.065 QT
-31.372 -18.198 -32.029 -18.198 QT
-32.029 -18.729 L
-29.872 -18.886 L
-29.872 -13.261 L
-29.872 -12.948 -29.583 -12.87 QT
-29.294 -12.792 -28.826 -12.792 QT
-28.826 -12.261 L
-32.091 -12.261 L
cp
-31.466 -21.464 M
-31.466 -21.792 -31.216 -22.042 QT
-30.966 -22.292 -30.638 -22.292 QT
-30.435 -22.292 -30.232 -22.182 QT
-30.029 -22.073 -29.919 -21.878 QT
-29.81 -21.682 -29.81 -21.464 QT
-29.81 -21.151 -30.06 -20.901 QT
-30.31 -20.651 -30.638 -20.651 QT
-30.966 -20.651 -31.216 -20.901 QT
-31.466 -21.151 -31.466 -21.464 QT
cp
f
GR
GS
[0.75 0 0 0.75 217.50018 24.94358] CT
N
-26.955 -14.057 M
-26.955 -18.198 L
-28.205 -18.198 L
-28.205 -18.589 L
-27.22 -18.589 -26.759 -19.503 QT
-26.298 -20.417 -26.298 -21.495 QT
-25.861 -21.495 L
-25.861 -18.729 L
-23.751 -18.729 L
-23.751 -18.198 L
-25.861 -18.198 L
-25.861 -14.089 L
-25.861 -13.464 -25.65 -12.995 QT
-25.439 -12.526 -24.908 -12.526 QT
-24.392 -12.526 -24.166 -13.026 QT
-23.939 -13.526 -23.939 -14.089 QT
-23.939 -14.979 L
-23.501 -14.979 L
-23.501 -14.057 L
-23.501 -13.589 -23.673 -13.136 QT
-23.845 -12.682 -24.181 -12.386 QT
-24.517 -12.089 -25.001 -12.089 QT
-25.908 -12.089 -26.431 -12.628 QT
-26.955 -13.167 -26.955 -14.057 QT
cp
f
GR
GS
[0.75 0 0 0.75 217.50018 24.94358] CT
N
-21.251 -14.057 M
-21.251 -18.198 L
-22.501 -18.198 L
-22.501 -18.589 L
-21.516 -18.589 -21.056 -19.503 QT
-20.595 -20.417 -20.595 -21.495 QT
-20.157 -21.495 L
-20.157 -18.729 L
-18.048 -18.729 L
-18.048 -18.198 L
-20.157 -18.198 L
-20.157 -14.089 L
-20.157 -13.464 -19.946 -12.995 QT
-19.735 -12.526 -19.204 -12.526 QT
-18.688 -12.526 -18.462 -13.026 QT
-18.235 -13.526 -18.235 -14.089 QT
-18.235 -14.979 L
-17.798 -14.979 L
-17.798 -14.057 L
-17.798 -13.589 -17.97 -13.136 QT
-18.141 -12.682 -18.477 -12.386 QT
-18.813 -12.089 -19.298 -12.089 QT
-20.204 -12.089 -20.727 -12.628 QT
-21.251 -13.167 -21.251 -14.057 QT
cp
f
GR
GS
[0.75 0 0 0.75 217.50018 24.94358] CT
N
-13.344 -12.089 M
-14.266 -12.089 -15.024 -12.573 QT
-15.782 -13.057 -16.219 -13.854 QT
-16.657 -14.651 -16.657 -15.542 QT
-16.657 -16.432 -16.258 -17.222 QT
-15.86 -18.011 -15.149 -18.495 QT
-14.438 -18.979 -13.563 -18.979 QT
-12.86 -18.979 -12.352 -18.753 QT
-11.844 -18.526 -11.516 -18.112 QT
-11.188 -17.698 -11.024 -17.143 QT
-10.86 -16.589 -10.86 -15.917 QT
-10.86 -15.729 -11 -15.729 QT
-15.344 -15.729 L
-15.344 -15.557 L
-15.344 -14.323 -14.844 -13.425 QT
-14.344 -12.526 -13.203 -12.526 QT
-12.75 -12.526 -12.36 -12.737 QT
-11.969 -12.948 -11.68 -13.307 QT
-11.391 -13.667 -11.282 -14.089 QT
-11.266 -14.136 -11.227 -14.182 QT
-11.188 -14.229 -11.141 -14.229 QT
-11 -14.229 L
-10.86 -14.229 -10.86 -14.026 QT
-11.063 -13.182 -11.766 -12.636 QT
-12.469 -12.089 -13.344 -12.089 QT
cp
-15.328 -16.104 M
-11.922 -16.104 L
-11.922 -16.667 -12.078 -17.245 QT
-12.235 -17.823 -12.602 -18.206 QT
-12.969 -18.589 -13.563 -18.589 QT
-14.407 -18.589 -14.867 -17.792 QT
-15.328 -16.995 -15.328 -16.104 QT
cp
f
GR
GS
[0.75 0 0 0.75 217.50018 24.94358] CT
N
-10.169 -12.261 M
-10.169 -12.792 L
-9.654 -12.792 -9.326 -12.87 QT
-8.997 -12.948 -8.997 -13.261 QT
-8.997 -17.354 L
-8.997 -17.761 -9.122 -17.94 QT
-9.247 -18.12 -9.474 -18.159 QT
-9.701 -18.198 -10.169 -18.198 QT
-10.169 -18.729 L
-8.029 -18.886 L
-8.029 -17.417 L
-7.779 -18.073 -7.333 -18.479 QT
-6.888 -18.886 -6.247 -18.886 QT
-5.81 -18.886 -5.458 -18.62 QT
-5.107 -18.354 -5.107 -17.932 QT
-5.107 -17.651 -5.302 -17.456 QT
-5.497 -17.261 -5.779 -17.261 QT
-6.06 -17.261 -6.255 -17.456 QT
-6.451 -17.651 -6.451 -17.932 QT
-6.451 -18.339 -6.169 -18.495 QT
-6.247 -18.495 L
-6.857 -18.495 -7.24 -18.057 QT
-7.622 -17.62 -7.786 -16.972 QT
-7.951 -16.323 -7.951 -15.729 QT
-7.951 -13.261 L
-7.951 -12.792 -6.497 -12.792 QT
-6.497 -12.261 L
-10.169 -12.261 L
cp
f
GR
GS
[0.75 0 0 0.75 217.50018 24.94358] CT
N
5.917 -11.932 M
4.48 -11.932 3.339 -12.69 QT
2.198 -13.448 1.558 -14.706 QT
0.917 -15.964 0.917 -17.339 QT
0.917 -18.37 1.284 -19.37 QT
1.652 -20.37 2.316 -21.151 QT
2.98 -21.932 3.909 -22.386 QT
4.839 -22.839 5.917 -22.839 QT
6.98 -22.839 7.909 -22.378 QT
8.839 -21.917 9.503 -21.136 QT
10.167 -20.354 10.527 -19.378 QT
10.886 -18.401 10.886 -17.339 QT
10.886 -16.307 10.527 -15.331 QT
10.167 -14.354 9.472 -13.573 QT
8.777 -12.792 7.855 -12.37 QT
8.152 -11.698 8.448 -11.331 QT
8.745 -10.964 9.277 -10.964 QT
9.839 -10.964 10.245 -11.347 QT
10.652 -11.729 10.652 -12.292 QT
10.652 -12.339 10.706 -12.386 QT
10.761 -12.432 10.808 -12.432 QT
10.98 -12.432 10.98 -12.229 QT
10.98 -11.151 10.558 -10.253 QT
10.136 -9.354 9.183 -9.354 QT
8.652 -9.354 8.308 -9.612 QT
7.964 -9.87 7.784 -10.268 QT
7.605 -10.667 7.503 -11.198 QT
7.402 -11.729 7.323 -12.151 QT
6.652 -11.932 5.917 -11.932 QT
cp
5.917 -12.37 M
6.589 -12.37 7.214 -12.714 QT
7.073 -13.354 6.784 -13.737 QT
6.495 -14.12 5.917 -14.12 QT
5.558 -14.12 5.308 -13.854 QT
5.058 -13.589 5.058 -13.229 QT
5.058 -12.854 5.292 -12.612 QT
5.527 -12.37 5.917 -12.37 QT
cp
4.667 -13.229 M
4.667 -13.557 4.831 -13.854 QT
4.995 -14.151 5.284 -14.331 QT
5.573 -14.511 5.917 -14.511 QT
6.558 -14.511 6.941 -14.089 QT
7.323 -13.667 7.62 -12.948 QT
8.12 -13.323 8.456 -13.831 QT
8.792 -14.339 8.98 -14.901 QT
9.167 -15.464 9.253 -16.089 QT
9.339 -16.714 9.339 -17.339 QT
9.339 -18.386 9.128 -19.3 QT
8.917 -20.214 8.417 -20.948 QT
7.98 -21.604 7.316 -22.003 QT
6.652 -22.401 5.917 -22.401 QT
5.152 -22.401 4.488 -22.011 QT
3.823 -21.62 3.386 -20.948 QT
2.886 -20.198 2.683 -19.284 QT
2.48 -18.37 2.48 -17.339 QT
2.48 -15.745 3.019 -14.44 QT
3.558 -13.136 4.823 -12.589 QT
4.667 -12.901 4.667 -13.229 QT
cp
f
GR
GS
[0.75 0 0 0.75 217.50018 24.94358] CT
N
13.106 -14.042 M
13.106 -17.354 L
13.106 -17.761 12.981 -17.94 QT
12.856 -18.12 12.629 -18.159 QT
12.403 -18.198 11.934 -18.198 QT
11.934 -18.729 L
14.2 -18.886 L
14.2 -14.042 L
14.2 -13.464 14.286 -13.136 QT
14.372 -12.807 14.645 -12.651 QT
14.918 -12.495 15.512 -12.495 QT
16.325 -12.495 16.801 -13.167 QT
17.278 -13.839 17.278 -14.698 QT
17.278 -17.354 L
17.278 -17.761 17.153 -17.94 QT
17.028 -18.12 16.801 -18.159 QT
16.575 -18.198 16.106 -18.198 QT
16.106 -18.729 L
18.372 -18.886 L
18.372 -13.62 L
18.372 -13.229 18.489 -13.05 QT
18.606 -12.87 18.832 -12.831 QT
19.059 -12.792 19.543 -12.792 QT
19.543 -12.261 L
17.325 -12.089 L
17.325 -13.354 L
17.043 -12.792 16.543 -12.44 QT
16.043 -12.089 15.45 -12.089 QT
14.372 -12.089 13.739 -12.55 QT
13.106 -13.011 13.106 -14.042 QT
cp
f
GR
GS
[0.75 0 0 0.75 217.50018 24.94358] CT
N
20.223 -13.729 M
20.223 -14.62 20.926 -15.182 QT
21.629 -15.745 22.621 -15.979 QT
23.613 -16.214 24.488 -16.214 QT
24.488 -16.823 L
24.488 -17.261 24.301 -17.667 QT
24.113 -18.073 23.754 -18.331 QT
23.395 -18.589 22.957 -18.589 QT
21.973 -18.589 21.442 -18.136 QT
21.738 -18.136 21.918 -17.925 QT
22.098 -17.714 22.098 -17.417 QT
22.098 -17.12 21.887 -16.909 QT
21.676 -16.698 21.395 -16.698 QT
21.082 -16.698 20.871 -16.909 QT
20.66 -17.12 20.66 -17.417 QT
20.66 -18.214 21.379 -18.597 QT
22.098 -18.979 22.957 -18.979 QT
23.567 -18.979 24.184 -18.722 QT
24.801 -18.464 25.192 -17.979 QT
25.582 -17.495 25.582 -16.854 QT
25.582 -13.479 L
25.582 -13.182 25.707 -12.94 QT
25.832 -12.698 26.098 -12.698 QT
26.348 -12.698 26.465 -12.948 QT
26.582 -13.198 26.582 -13.479 QT
26.582 -14.432 L
27.02 -14.432 L
27.02 -13.479 L
27.02 -13.136 26.848 -12.831 QT
26.676 -12.526 26.379 -12.347 QT
26.082 -12.167 25.738 -12.167 QT
25.301 -12.167 24.981 -12.511 QT
24.66 -12.854 24.629 -13.323 QT
24.348 -12.761 23.809 -12.425 QT
23.27 -12.089 22.645 -12.089 QT
22.082 -12.089 21.528 -12.261 QT
20.973 -12.432 20.598 -12.792 QT
20.223 -13.151 20.223 -13.729 QT
cp
21.442 -13.729 M
21.442 -13.198 21.832 -12.847 QT
22.223 -12.495 22.754 -12.495 QT
23.238 -12.495 23.629 -12.729 QT
24.02 -12.964 24.254 -13.386 QT
24.488 -13.807 24.488 -14.261 QT
24.488 -15.823 L
23.817 -15.823 23.098 -15.604 QT
22.379 -15.386 21.91 -14.909 QT
21.442 -14.432 21.442 -13.729 QT
cp
f
GR
GS
[0.75 0 0 0.75 217.50018 24.94358] CT
N
27.431 -12.261 M
27.431 -12.792 L
27.931 -12.792 28.267 -12.87 QT
28.603 -12.948 28.603 -13.261 QT
28.603 -21.136 L
28.603 -21.542 28.478 -21.722 QT
28.353 -21.901 28.126 -21.94 QT
27.9 -21.979 27.431 -21.979 QT
27.431 -22.511 L
29.65 -22.667 L
29.65 -13.261 L
29.65 -12.948 29.978 -12.87 QT
30.306 -12.792 30.822 -12.792 QT
30.822 -12.261 L
27.431 -12.261 L
cp
f
GR
GS
[0.75 0 0 0.75 217.50018 24.94358] CT
N
31.505 -12.261 M
31.505 -12.792 L
32.005 -12.792 32.341 -12.87 QT
32.677 -12.948 32.677 -13.261 QT
32.677 -17.354 L
32.677 -17.932 32.451 -18.065 QT
32.224 -18.198 31.568 -18.198 QT
31.568 -18.729 L
33.724 -18.886 L
33.724 -13.261 L
33.724 -12.948 34.013 -12.87 QT
34.302 -12.792 34.771 -12.792 QT
34.771 -12.261 L
31.505 -12.261 L
cp
32.13 -21.464 M
32.13 -21.792 32.38 -22.042 QT
32.63 -22.292 32.958 -22.292 QT
33.162 -22.292 33.365 -22.182 QT
33.568 -22.073 33.677 -21.878 QT
33.787 -21.682 33.787 -21.464 QT
33.787 -21.151 33.537 -20.901 QT
33.287 -20.651 32.958 -20.651 QT
32.63 -20.651 32.38 -20.901 QT
32.13 -21.151 32.13 -21.464 QT
cp
f
GR
GS
[0.75 0 0 0.75 217.50018 24.94358] CT
N
36.642 -14.057 M
36.642 -18.198 L
35.392 -18.198 L
35.392 -18.589 L
36.376 -18.589 36.837 -19.503 QT
37.298 -20.417 37.298 -21.495 QT
37.736 -21.495 L
37.736 -18.729 L
39.845 -18.729 L
39.845 -18.198 L
37.736 -18.198 L
37.736 -14.089 L
37.736 -13.464 37.947 -12.995 QT
38.157 -12.526 38.689 -12.526 QT
39.204 -12.526 39.431 -13.026 QT
39.657 -13.526 39.657 -14.089 QT
39.657 -14.979 L
40.095 -14.979 L
40.095 -14.057 L
40.095 -13.589 39.923 -13.136 QT
39.751 -12.682 39.415 -12.386 QT
39.079 -12.089 38.595 -12.089 QT
37.689 -12.089 37.165 -12.628 QT
36.642 -13.167 36.642 -14.057 QT
cp
f
GR
GS
[0.75 0 0 0.75 217.50018 24.94358] CT
N
42.33 -21.526 M
42.33 -21.839 42.557 -22.065 QT
42.783 -22.292 43.111 -22.292 QT
43.439 -22.292 43.666 -22.065 QT
43.892 -21.839 43.892 -21.526 QT
43.892 -21.182 43.666 -20.956 QT
43.439 -20.729 43.111 -20.729 QT
42.783 -20.729 42.557 -20.964 QT
42.33 -21.198 42.33 -21.526 QT
cp
45.221 -21.526 M
45.221 -21.839 45.447 -22.065 QT
45.674 -22.292 46.002 -22.292 QT
46.33 -22.292 46.557 -22.065 QT
46.783 -21.839 46.783 -21.526 QT
46.783 -21.182 46.557 -20.956 QT
46.33 -20.729 46.002 -20.729 QT
45.674 -20.729 45.447 -20.964 QT
45.221 -21.198 45.221 -21.526 QT
cp
f
GR
GS
[0.75 0 0 0.75 217.50018 24.94358] CT
N
41.408 -13.729 M
41.408 -14.62 42.111 -15.182 QT
42.814 -15.745 43.807 -15.979 QT
44.799 -16.214 45.674 -16.214 QT
45.674 -16.823 L
45.674 -17.261 45.486 -17.667 QT
45.299 -18.073 44.939 -18.331 QT
44.58 -18.589 44.142 -18.589 QT
43.158 -18.589 42.627 -18.136 QT
42.924 -18.136 43.103 -17.925 QT
43.283 -17.714 43.283 -17.417 QT
43.283 -17.12 43.072 -16.909 QT
42.861 -16.698 42.58 -16.698 QT
42.267 -16.698 42.057 -16.909 QT
41.846 -17.12 41.846 -17.417 QT
41.846 -18.214 42.564 -18.597 QT
43.283 -18.979 44.142 -18.979 QT
44.752 -18.979 45.369 -18.722 QT
45.986 -18.464 46.377 -17.979 QT
46.767 -17.495 46.767 -16.854 QT
46.767 -13.479 L
46.767 -13.182 46.892 -12.94 QT
47.017 -12.698 47.283 -12.698 QT
47.533 -12.698 47.65 -12.948 QT
47.767 -13.198 47.767 -13.479 QT
47.767 -14.432 L
48.205 -14.432 L
48.205 -13.479 L
48.205 -13.136 48.033 -12.831 QT
47.861 -12.526 47.564 -12.347 QT
47.267 -12.167 46.924 -12.167 QT
46.486 -12.167 46.166 -12.511 QT
45.846 -12.854 45.814 -13.323 QT
45.533 -12.761 44.994 -12.425 QT
44.455 -12.089 43.83 -12.089 QT
43.267 -12.089 42.713 -12.261 QT
42.158 -12.432 41.783 -12.792 QT
41.408 -13.151 41.408 -13.729 QT
cp
42.627 -13.729 M
42.627 -13.198 43.017 -12.847 QT
43.408 -12.495 43.939 -12.495 QT
44.424 -12.495 44.814 -12.729 QT
45.205 -12.964 45.439 -13.386 QT
45.674 -13.807 45.674 -14.261 QT
45.674 -15.823 L
45.002 -15.823 44.283 -15.604 QT
43.564 -15.386 43.096 -14.909 QT
42.627 -14.432 42.627 -13.729 QT
cp
f
GR
GS
[0.75 0 0 0.75 217.50018 24.94358] CT
N
49.679 -14.057 M
49.679 -18.198 L
48.429 -18.198 L
48.429 -18.589 L
49.413 -18.589 49.874 -19.503 QT
50.335 -20.417 50.335 -21.495 QT
50.773 -21.495 L
50.773 -18.729 L
52.882 -18.729 L
52.882 -18.198 L
50.773 -18.198 L
50.773 -14.089 L
50.773 -13.464 50.984 -12.995 QT
51.195 -12.526 51.726 -12.526 QT
52.241 -12.526 52.468 -13.026 QT
52.695 -13.526 52.695 -14.089 QT
52.695 -14.979 L
53.132 -14.979 L
53.132 -14.057 L
53.132 -13.589 52.96 -13.136 QT
52.788 -12.682 52.452 -12.386 QT
52.116 -12.089 51.632 -12.089 QT
50.726 -12.089 50.202 -12.628 QT
49.679 -13.167 49.679 -14.057 QT
cp
f
GR
GS
[0.75 0 0 0.75 217.50018 24.94358] CT
N
55.117 -13.089 M
55.117 -13.432 55.367 -13.667 QT
55.617 -13.901 55.945 -13.901 QT
56.148 -13.901 56.344 -13.792 QT
56.539 -13.682 56.648 -13.487 QT
56.758 -13.292 56.758 -13.089 QT
56.758 -12.761 56.515 -12.511 QT
56.273 -12.261 55.945 -12.261 QT
55.617 -12.261 55.367 -12.511 QT
55.117 -12.761 55.117 -13.089 QT
cp
55.117 -17.901 M
55.117 -18.12 55.226 -18.307 QT
55.336 -18.495 55.531 -18.612 QT
55.726 -18.729 55.945 -18.729 QT
56.148 -18.729 56.344 -18.612 QT
56.539 -18.495 56.648 -18.307 QT
56.758 -18.12 56.758 -17.901 QT
56.758 -17.557 56.523 -17.315 QT
56.289 -17.073 55.945 -17.073 QT
55.601 -17.073 55.359 -17.315 QT
55.117 -17.557 55.117 -17.901 QT
cp
f
GR
GS
[0.75 0 0 0.75 217.50018 24.94358] CT
N
66.954 -22.183 M
66.954 -22.589 L
66.954 -22.62 66.985 -22.667 QT
69.313 -25.245 L
69.845 -25.823 70.173 -26.206 QT
70.501 -26.589 70.821 -27.097 QT
71.141 -27.605 71.329 -28.128 QT
71.516 -28.651 71.516 -29.23 QT
71.516 -29.855 71.29 -30.417 QT
71.063 -30.98 70.61 -31.316 QT
70.157 -31.651 69.516 -31.651 QT
68.876 -31.651 68.352 -31.253 QT
67.829 -30.855 67.61 -30.245 QT
67.673 -30.261 67.782 -30.261 QT
68.11 -30.261 68.352 -30.034 QT
68.595 -29.808 68.595 -29.448 QT
68.595 -29.105 68.352 -28.862 QT
68.11 -28.62 67.782 -28.62 QT
67.423 -28.62 67.188 -28.862 QT
66.954 -29.105 66.954 -29.448 QT
66.954 -30.011 67.165 -30.503 QT
67.376 -30.995 67.774 -31.378 QT
68.173 -31.761 68.673 -31.964 QT
69.173 -32.167 69.735 -32.167 QT
70.595 -32.167 71.337 -31.808 QT
72.079 -31.448 72.509 -30.784 QT
72.938 -30.12 72.938 -29.23 QT
72.938 -28.589 72.657 -28.003 QT
72.376 -27.417 71.931 -26.933 QT
71.485 -26.448 70.782 -25.839 QT
70.079 -25.23 69.86 -25.026 QT
68.173 -23.401 L
69.61 -23.401 L
70.673 -23.401 71.384 -23.417 QT
72.095 -23.433 72.141 -23.48 QT
72.313 -23.667 72.501 -24.855 QT
72.938 -24.855 L
72.516 -22.183 L
66.954 -22.183 L
cp
f
GR
GS
[0.75 0 0 0.75 217.50018 24.94358] CT
N
74.694 -22.433 M
74.694 -22.526 74.709 -22.573 QT
75.834 -27.042 L
75.944 -27.464 75.944 -27.776 QT
75.944 -28.417 75.506 -28.417 QT
75.037 -28.417 74.811 -27.862 QT
74.584 -27.308 74.365 -26.448 QT
74.365 -26.401 74.319 -26.378 QT
74.272 -26.355 74.24 -26.355 QT
74.069 -26.355 L
74.006 -26.355 73.975 -26.409 QT
73.944 -26.464 73.944 -26.511 QT
74.1 -27.151 74.248 -27.605 QT
74.397 -28.058 74.717 -28.433 QT
75.037 -28.808 75.522 -28.808 QT
76.037 -28.808 76.428 -28.511 QT
76.819 -28.214 76.912 -27.714 QT
77.287 -28.214 77.78 -28.511 QT
78.272 -28.808 78.85 -28.808 QT
79.319 -28.808 79.686 -28.534 QT
80.053 -28.261 80.053 -27.776 QT
80.053 -27.401 79.811 -27.12 QT
79.569 -26.839 79.178 -26.839 QT
78.928 -26.839 78.764 -26.987 QT
78.6 -27.136 78.6 -27.37 QT
78.6 -27.698 78.842 -27.964 QT
79.084 -28.23 79.397 -28.23 QT
79.162 -28.417 78.819 -28.417 QT
78.178 -28.417 77.701 -27.964 QT
77.225 -27.511 76.834 -26.808 QT
75.772 -22.511 L
75.725 -22.308 75.545 -22.159 QT
75.365 -22.011 75.147 -22.011 QT
74.959 -22.011 74.826 -22.128 QT
74.694 -22.245 74.694 -22.433 QT
cp
f
GR
GS
[0.75 0 0 0.75 217.50018 24.94358] CT
N
80.936 -20.701 M
80.936 -20.889 81.014 -21.092 QT
81.826 -23.248 L
81.951 -23.608 81.951 -23.842 QT
81.951 -24.139 81.732 -24.139 QT
81.342 -24.139 81.084 -23.733 QT
80.826 -23.326 80.701 -22.826 QT
80.686 -22.764 80.623 -22.764 QT
80.514 -22.764 L
80.42 -22.764 80.42 -22.858 QT
80.42 -22.889 L
80.592 -23.483 80.92 -23.944 QT
81.248 -24.405 81.764 -24.405 QT
82.107 -24.405 82.357 -24.17 QT
82.607 -23.936 82.607 -23.576 QT
82.607 -23.389 82.529 -23.186 QT
81.717 -21.03 L
81.576 -20.701 81.576 -20.436 QT
81.576 -20.139 81.811 -20.139 QT
82.201 -20.139 82.459 -20.553 QT
82.717 -20.967 82.826 -21.451 QT
82.842 -21.514 82.904 -21.514 QT
83.029 -21.514 L
83.061 -21.514 83.084 -21.483 QT
83.107 -21.451 83.107 -21.42 QT
83.107 -21.42 83.107 -21.389 QT
82.967 -20.826 82.631 -20.35 QT
82.295 -19.873 81.779 -19.873 QT
81.436 -19.873 81.186 -20.116 QT
80.936 -20.358 80.936 -20.701 QT
cp
82.061 -26.045 M
82.061 -26.248 82.24 -26.42 QT
82.42 -26.592 82.623 -26.592 QT
82.795 -26.592 82.904 -26.491 QT
83.014 -26.389 83.014 -26.217 QT
83.014 -25.998 82.834 -25.826 QT
82.654 -25.655 82.451 -25.655 QT
82.279 -25.655 82.17 -25.772 QT
82.061 -25.889 82.061 -26.045 QT
cp
f
GR
GS
[0.75 0 0 0.75 217.50018 24.94358] CT
N
84.457 -20.155 M
84.457 -20.217 84.473 -20.248 QT
85.223 -23.233 L
85.301 -23.498 85.301 -23.717 QT
85.301 -24.139 85.004 -24.139 QT
84.691 -24.139 84.535 -23.764 QT
84.379 -23.389 84.238 -22.826 QT
84.238 -22.795 84.215 -22.78 QT
84.191 -22.764 84.16 -22.764 QT
84.051 -22.764 L
84.004 -22.764 83.98 -22.803 QT
83.957 -22.842 83.957 -22.858 QT
84.066 -23.295 84.168 -23.6 QT
84.269 -23.905 84.48 -24.155 QT
84.691 -24.405 85.004 -24.405 QT
85.379 -24.405 85.668 -24.17 QT
85.957 -23.936 85.957 -23.561 QT
86.254 -23.951 86.66 -24.178 QT
87.066 -24.405 87.504 -24.405 QT
87.863 -24.405 88.121 -24.28 QT
88.379 -24.155 88.527 -23.912 QT
88.676 -23.67 88.676 -23.326 QT
88.676 -22.92 88.488 -22.334 QT
88.301 -21.748 88.035 -21.03 QT
87.894 -20.701 87.894 -20.436 QT
87.894 -20.139 88.113 -20.139 QT
88.504 -20.139 88.769 -20.553 QT
89.035 -20.967 89.144 -21.451 QT
89.16 -21.514 89.223 -21.514 QT
89.348 -21.514 L
89.379 -21.514 89.41 -21.491 QT
89.441 -21.467 89.441 -21.42 QT
89.441 -21.42 89.426 -21.389 QT
89.285 -20.826 88.949 -20.35 QT
88.613 -19.873 88.098 -19.873 QT
87.754 -19.873 87.504 -20.116 QT
87.254 -20.358 87.254 -20.701 QT
87.254 -20.889 87.332 -21.092 QT
87.457 -21.42 87.621 -21.873 QT
87.785 -22.326 87.887 -22.741 QT
87.988 -23.155 87.988 -23.467 QT
87.988 -23.748 87.879 -23.944 QT
87.769 -24.139 87.488 -24.139 QT
87.129 -24.139 86.816 -23.983 QT
86.504 -23.826 86.277 -23.561 QT
86.051 -23.295 85.863 -22.92 QT
85.176 -20.201 L
85.144 -20.061 85.027 -19.967 QT
84.91 -19.873 84.754 -19.873 QT
84.644 -19.873 84.551 -19.951 QT
84.457 -20.03 84.457 -20.155 QT
cp
f
GR
GS
[0.75 0 0 0.75 217.50018 24.94358] CT
N
66.204 -16.221 24.383 0.587 re
f
GR
GS
[0.75 0 0 0.75 217.50018 24.94358] CT
N
68.596 -2.45 M
68.596 -2.544 68.612 -2.591 QT
69.737 -7.059 L
69.846 -7.481 69.846 -7.794 QT
69.846 -8.434 69.409 -8.434 QT
68.94 -8.434 68.713 -7.88 QT
68.487 -7.325 68.268 -6.466 QT
68.268 -6.419 68.221 -6.395 QT
68.174 -6.372 68.143 -6.372 QT
67.971 -6.372 L
67.909 -6.372 67.877 -6.427 QT
67.846 -6.481 67.846 -6.528 QT
68.002 -7.169 68.151 -7.622 QT
68.299 -8.075 68.619 -8.45 QT
68.94 -8.825 69.424 -8.825 QT
69.94 -8.825 70.33 -8.528 QT
70.721 -8.231 70.815 -7.731 QT
71.19 -8.231 71.682 -8.528 QT
72.174 -8.825 72.752 -8.825 QT
73.221 -8.825 73.588 -8.552 QT
73.955 -8.278 73.955 -7.794 QT
73.955 -7.419 73.713 -7.137 QT
73.471 -6.856 73.08 -6.856 QT
72.83 -6.856 72.666 -7.005 QT
72.502 -7.153 72.502 -7.387 QT
72.502 -7.716 72.744 -7.981 QT
72.987 -8.247 73.299 -8.247 QT
73.065 -8.434 72.721 -8.434 QT
72.08 -8.434 71.604 -7.981 QT
71.127 -7.528 70.737 -6.825 QT
69.674 -2.528 L
69.627 -2.325 69.448 -2.177 QT
69.268 -2.028 69.049 -2.028 QT
68.862 -2.028 68.729 -2.145 QT
68.596 -2.263 68.596 -2.45 QT
cp
f
GR
GS
[0.75 0 0 0.75 217.50018 24.94358] CT
N
76.072 0.109 M
75.588 0.109 75.221 -0.117 QT
74.854 -0.344 74.658 -0.719 QT
74.463 -1.094 74.463 -1.578 QT
74.463 -2.266 74.838 -2.93 QT
75.213 -3.594 75.838 -4.008 QT
76.463 -4.422 77.151 -4.422 QT
77.526 -4.422 77.815 -4.297 QT
78.104 -4.172 78.322 -3.938 QT
78.541 -3.703 78.658 -3.398 QT
78.776 -3.094 78.776 -2.734 QT
78.776 -2.203 78.549 -1.703 QT
78.322 -1.203 77.94 -0.789 QT
77.557 -0.375 77.065 -0.133 QT
76.572 0.109 76.072 0.109 QT
cp
76.088 -0.156 M
76.526 -0.156 76.901 -0.453 QT
77.276 -0.75 77.51 -1.219 QT
77.744 -1.688 77.869 -2.195 QT
77.994 -2.703 77.994 -3.125 QT
77.994 -3.563 77.776 -3.859 QT
77.557 -4.156 77.135 -4.156 QT
76.557 -4.156 76.111 -3.656 QT
75.666 -3.156 75.447 -2.461 QT
75.229 -1.766 75.229 -1.188 QT
75.229 -0.75 75.447 -0.453 QT
75.666 -0.156 76.088 -0.156 QT
cp
f
GR
GS
[0.75 0 0 0.75 217.50018 24.94358] CT
N
80.096 -1.094 M
80.096 -1.422 80.182 -1.766 QT
80.268 -2.109 80.424 -2.531 QT
80.58 -2.953 80.705 -3.266 QT
80.83 -3.625 80.83 -3.859 QT
80.83 -4.156 80.611 -4.156 QT
80.221 -4.156 79.963 -3.75 QT
79.705 -3.344 79.58 -2.844 QT
79.565 -2.781 79.502 -2.781 QT
79.393 -2.781 L
79.299 -2.781 79.299 -2.875 QT
79.299 -2.906 L
79.471 -3.5 79.799 -3.961 QT
80.127 -4.422 80.643 -4.422 QT
80.986 -4.422 81.236 -4.188 QT
81.486 -3.953 81.486 -3.594 QT
81.486 -3.406 81.408 -3.203 QT
81.361 -3.078 81.205 -2.664 QT
81.049 -2.25 80.963 -1.984 QT
80.877 -1.719 80.822 -1.461 QT
80.768 -1.203 80.768 -0.938 QT
80.768 -0.609 80.908 -0.383 QT
81.049 -0.156 81.377 -0.156 QT
82.018 -0.156 82.502 -0.938 QT
82.502 -0.984 82.51 -1.023 QT
82.518 -1.063 82.518 -1.094 QT
83.236 -3.984 L
83.283 -4.125 83.4 -4.219 QT
83.518 -4.313 83.658 -4.313 QT
83.783 -4.313 83.877 -4.234 QT
83.971 -4.156 83.971 -4.031 QT
83.971 -3.969 83.955 -3.953 QT
83.236 -1.063 L
83.158 -0.766 83.158 -0.578 QT
83.158 -0.156 83.455 -0.156 QT
83.768 -0.156 83.932 -0.555 QT
84.096 -0.953 84.205 -1.469 QT
84.221 -1.531 84.283 -1.531 QT
84.408 -1.531 L
84.44 -1.531 84.463 -1.492 QT
84.486 -1.453 84.486 -1.438 QT
84.393 -1 84.291 -0.695 QT
84.19 -0.391 83.971 -0.141 QT
83.752 0.109 83.44 0.109 QT
83.111 0.109 82.861 -0.063 QT
82.611 -0.234 82.518 -0.531 QT
82.299 -0.234 81.994 -0.063 QT
81.69 0.109 81.346 0.109 QT
80.783 0.109 80.44 -0.203 QT
80.096 -0.516 80.096 -1.094 QT
cp
f
GR
GS
[0.75 0 0 0.75 217.50018 24.94358] CT
N
85.536 -0.813 M
85.536 -0.953 85.567 -1.094 QT
86.286 -3.953 L
85.239 -3.953 L
85.129 -3.953 85.129 -4.094 QT
85.176 -4.313 85.27 -4.313 QT
86.364 -4.313 L
86.77 -5.938 L
86.817 -6.078 86.934 -6.172 QT
87.051 -6.266 87.192 -6.266 QT
87.317 -6.266 87.403 -6.188 QT
87.489 -6.109 87.489 -5.984 QT
87.489 -5.953 87.489 -5.938 QT
87.489 -5.922 87.473 -5.906 QT
87.082 -4.313 L
88.114 -4.313 L
88.207 -4.313 88.207 -4.188 QT
88.207 -4.156 88.192 -4.094 QT
88.176 -4.031 88.153 -3.992 QT
88.129 -3.953 88.082 -3.953 QT
86.989 -3.953 L
86.27 -1.063 L
86.207 -0.781 86.207 -0.578 QT
86.207 -0.156 86.489 -0.156 QT
86.926 -0.156 87.27 -0.57 QT
87.614 -0.984 87.786 -1.469 QT
87.832 -1.531 87.864 -1.531 QT
87.989 -1.531 L
88.036 -1.531 88.059 -1.5 QT
88.082 -1.469 88.082 -1.438 QT
88.082 -1.422 88.067 -1.406 QT
87.848 -0.813 87.426 -0.352 QT
87.004 0.109 86.473 0.109 QT
86.067 0.109 85.801 -0.148 QT
85.536 -0.406 85.536 -0.813 QT
cp
f
GR
GS
[0.75 0 0 0.75 0 0] CT
0.4 0.668 0.845 RC
N
428.091 373.812 M
426.118 373.812 L
426.118 374 L
428.091 374 L
430.064 374 L
430.064 373.812 L
cp
435.982 374 M
435.982 373.624 L
434.009 373.624 L
434.009 374 L
cp
437.955 374 M
437.955 373.437 L
435.982 373.437 L
435.982 374 L
cp
439.927 374 M
439.927 372.686 L
437.955 372.686 L
437.955 374 L
cp
441.9 374 M
441.9 373.437 L
439.927 373.437 L
439.927 374 L
cp
443.873 374 M
443.873 372.686 L
441.9 372.686 L
441.9 374 L
cp
445.845 374 M
445.845 372.31 L
443.873 372.31 L
443.873 374 L
cp
447.818 374 M
447.818 371.934 L
445.845 371.934 L
445.845 374 L
cp
449.791 374 M
449.791 370.432 L
447.818 370.432 L
447.818 374 L
cp
451.764 374 M
451.764 369.681 L
449.791 369.681 L
449.791 374 L
cp
453.736 374 M
453.736 368.93 L
451.764 368.93 L
451.764 374 L
cp
455.709 374 M
455.709 369.493 L
453.736 369.493 L
453.736 374 L
cp
457.682 374 M
457.682 369.118 L
455.709 369.118 L
455.709 374 L
cp
459.655 374 M
459.655 366.677 L
457.682 366.677 L
457.682 374 L
cp
461.627 374 M
461.627 366.113 L
459.655 366.113 L
459.655 374 L
cp
463.6 374 M
463.6 364.987 L
461.627 364.987 L
461.627 374 L
cp
465.573 374 M
465.573 362.546 L
463.6 362.546 L
463.6 374 L
cp
467.545 374 M
467.545 359.541 L
465.573 359.541 L
465.573 374 L
cp
469.518 374 M
469.518 356.537 L
467.545 356.537 L
467.545 374 L
cp
471.491 374 M
471.491 357.476 L
469.518 357.476 L
469.518 374 L
cp
473.464 374 M
473.464 352.781 L
471.491 352.781 L
471.491 374 L
cp
475.436 374 M
475.436 347.899 L
473.464 347.899 L
473.464 374 L
cp
477.409 374 M
477.409 340.576 L
475.436 340.576 L
475.436 374 L
cp
479.382 374 M
479.382 327.431 L
477.409 327.431 L
477.409 374 L
cp
481.355 374 M
481.355 318.23 L
479.382 318.23 L
479.382 374 L
cp
483.327 374 M
483.327 285.181 L
481.355 285.181 L
481.355 374 L
cp
485.3 374 M
485.3 236.359 L
483.327 236.359 L
483.327 374 L
cp
487.273 374 M
487.273 102.849 L
485.3 102.849 L
485.3 374 L
cp
f
GR
GS
[0.75 0 0 0.75 0 0] CT
2 setlinecap
10.0 ML
0.667 LW
N
426.118 374 M
426.118 373.812 L
428.091 373.812 L
428.091 374 L
428.091 374 L
S
GR
GS
[0.75 0 0 0.75 0 0] CT
2 setlinecap
10.0 ML
0.667 LW
N
428.091 373.812 M
430.064 373.812 L
430.064 374 L
430.064 374 L
S
GR
GS
[0.75 0 0 0.75 0 0] CT
2 setlinecap
10.0 ML
0.667 LW
N
430.064 374 M
432.036 374 L
432.036 374 L
432.036 374 L
S
GR
GS
[0.75 0 0 0.75 0 0] CT
2 setlinecap
10.0 ML
0.667 LW
N
432.036 374 M
434.009 374 L
S
GR
GS
[0.75 0 0 0.75 0 0] CT
2 setlinecap
10.0 ML
0.667 LW
N
434.009 374 M
434.009 374 L
434.009 373.624 L
435.982 373.624 L
S
GR
GS
[0.75 0 0 0.75 0 0] CT
2 setlinecap
10.0 ML
0.667 LW
N
435.982 374 M
435.982 374 L
435.982 373.437 L
437.955 373.437 L
S
GR
GS
[0.75 0 0 0.75 0 0] CT
2 setlinecap
10.0 ML
0.667 LW
N
437.955 374 M
437.955 374 L
437.955 372.686 L
439.927 372.686 L
439.927 374 L
439.927 374 L
S
GR
GS
[0.75 0 0 0.75 0 0] CT
2 setlinecap
10.0 ML
0.667 LW
N
439.927 373.437 M
441.9 373.437 L
S
GR
GS
[0.75 0 0 0.75 0 0] CT
2 setlinecap
10.0 ML
0.667 LW
N
441.9 374 M
441.9 374 L
441.9 372.686 L
443.873 372.686 L
S
GR
GS
[0.75 0 0 0.75 0 0] CT
2 setlinecap
10.0 ML
0.667 LW
N
443.873 374 M
443.873 374 L
443.873 372.31 L
445.845 372.31 L
S
GR
GS
[0.75 0 0 0.75 0 0] CT
2 setlinecap
10.0 ML
0.667 LW
N
445.845 374 M
445.845 374 L
445.845 371.934 L
447.818 371.934 L
S
GR
GS
[0.75 0 0 0.75 0 0] CT
2 setlinecap
10.0 ML
0.667 LW
N
447.818 374 M
447.818 374 L
447.818 370.432 L
449.791 370.432 L
S
GR
GS
[0.75 0 0 0.75 0 0] CT
2 setlinecap
10.0 ML
0.667 LW
N
449.791 374 M
449.791 374 L
449.791 369.681 L
451.764 369.681 L
S
GR
GS
[0.75 0 0 0.75 0 0] CT
2 setlinecap
10.0 ML
0.667 LW
N
451.764 374 M
451.764 374 L
451.764 368.93 L
453.736 368.93 L
453.736 374 L
453.736 374 L
S
GR
GS
[0.75 0 0 0.75 0 0] CT
2 setlinecap
10.0 ML
0.667 LW
N
453.736 369.493 M
455.709 369.493 L
S
GR
GS
[0.75 0 0 0.75 0 0] CT
2 setlinecap
10.0 ML
0.667 LW
N
455.709 374 M
455.709 374 L
455.709 369.118 L
457.682 369.118 L
S
GR
GS
[0.75 0 0 0.75 0 0] CT
2 setlinecap
10.0 ML
0.667 LW
N
457.682 374 M
457.682 374 L
457.682 366.677 L
459.655 366.677 L
S
GR
GS
[0.75 0 0 0.75 0 0] CT
2 setlinecap
10.0 ML
0.667 LW
N
459.655 374 M
459.655 374 L
459.655 366.113 L
461.627 366.113 L
S
GR
GS
[0.75 0 0 0.75 0 0] CT
2 setlinecap
10.0 ML
0.667 LW
N
461.627 374 M
461.627 374 L
461.627 364.987 L
463.6 364.987 L
S
GR
GS
[0.75 0 0 0.75 0 0] CT
2 setlinecap
10.0 ML
0.667 LW
N
463.6 374 M
463.6 374 L
463.6 362.546 L
465.573 362.546 L
S
GR
GS
[0.75 0 0 0.75 0 0] CT
2 setlinecap
10.0 ML
0.667 LW
N
465.573 374 M
465.573 374 L
465.573 359.541 L
467.545 359.541 L
S
GR
GS
[0.75 0 0 0.75 0 0] CT
2 setlinecap
10.0 ML
0.667 LW
N
467.545 374 M
467.545 374 L
467.545 356.537 L
469.518 356.537 L
469.518 374 L
469.518 374 L
S
GR
GS
[0.75 0 0 0.75 0 0] CT
2 setlinecap
10.0 ML
0.667 LW
N
469.518 357.476 M
471.491 357.476 L
S
GR
GS
[0.75 0 0 0.75 0 0] CT
2 setlinecap
10.0 ML
0.667 LW
N
471.491 374 M
471.491 374 L
471.491 352.781 L
473.464 352.781 L
S
GR
GS
[0.75 0 0 0.75 0 0] CT
2 setlinecap
10.0 ML
0.667 LW
N
473.464 374 M
473.464 374 L
473.464 347.899 L
475.436 347.899 L
S
GR
GS
[0.75 0 0 0.75 0 0] CT
2 setlinecap
10.0 ML
0.667 LW
N
475.436 374 M
475.436 374 L
475.436 340.576 L
477.409 340.576 L
S
GR
GS
[0.75 0 0 0.75 0 0] CT
2 setlinecap
10.0 ML
0.667 LW
N
477.409 374 M
477.409 374 L
477.409 327.431 L
479.382 327.431 L
S
GR
GS
[0.75 0 0 0.75 0 0] CT
2 setlinecap
10.0 ML
0.667 LW
N
479.382 374 M
479.382 374 L
479.382 318.23 L
481.355 318.23 L
S
GR
GS
[0.75 0 0 0.75 0 0] CT
2 setlinecap
10.0 ML
0.667 LW
N
481.355 374 M
481.355 374 L
481.355 285.181 L
483.327 285.181 L
S
GR
GS
[0.75 0 0 0.75 0 0] CT
2 setlinecap
10.0 ML
0.667 LW
N
483.327 374 M
483.327 374 L
483.327 236.359 L
485.3 236.359 L
S
GR
GS
[0.75 0 0 0.75 0 0] CT
2 setlinecap
10.0 ML
0.667 LW
N
485.3 374 M
485.3 374 L
485.3 102.849 L
487.273 102.849 L
487.273 374 L
S
GR
GS
[0.75 0 0 0.75 0 0] CT
0.911 0.595 0.459 RC
N
434.009 374 M
434.009 373.812 L
432.036 373.812 L
432.036 374 L
cp
439.927 374 M
439.927 373.812 L
437.955 373.812 L
437.955 374 L
cp
443.873 374 M
443.873 373.249 L
441.9 373.249 L
441.9 374 L
cp
445.845 373.624 M
443.873 373.624 L
443.873 374 L
445.845 374 L
447.818 374 L
447.818 373.624 L
cp
449.791 374 M
449.791 371.934 L
447.818 371.934 L
447.818 374 L
cp
451.764 374 M
451.764 371.559 L
449.791 371.559 L
449.791 374 L
cp
453.736 374 M
453.736 371.747 L
451.764 371.747 L
451.764 374 L
cp
455.709 374 M
455.709 372.122 L
453.736 372.122 L
453.736 374 L
cp
457.682 374 M
457.682 369.306 L
455.709 369.306 L
455.709 374 L
cp
459.655 374 M
459.655 367.803 L
457.682 367.803 L
457.682 374 L
cp
461.627 374 M
461.627 365.738 L
459.655 365.738 L
459.655 374 L
cp
463.6 374 M
463.6 363.484 L
461.627 363.484 L
461.627 374 L
cp
465.573 374 M
465.573 364.611 L
463.6 364.611 L
463.6 374 L
cp
467.545 374 M
467.545 363.297 L
465.573 363.297 L
465.573 374 L
cp
469.518 374 M
469.518 361.982 L
467.545 361.982 L
467.545 374 L
cp
471.491 374 M
471.491 355.222 L
469.518 355.222 L
469.518 374 L
cp
473.464 374 M
473.464 355.41 L
471.491 355.41 L
471.491 374 L
cp
475.436 374 M
475.436 353.532 L
473.464 353.532 L
473.464 374 L
cp
477.409 374 M
477.409 341.702 L
475.436 341.702 L
475.436 374 L
cp
479.382 374 M
479.382 333.628 L
477.409 333.628 L
477.409 374 L
cp
481.355 374 M
481.355 320.296 L
479.382 320.296 L
479.382 374 L
cp
483.327 374 M
483.327 299.264 L
481.355 299.264 L
481.355 374 L
cp
485.3 374 M
485.3 247.062 L
483.327 247.062 L
483.327 374 L
cp
487.273 374 M
487.273 36.751 L
485.3 36.751 L
485.3 374 L
cp
f
GR
GS
[0.75 0 0 0.75 0 0] CT
2 setlinecap
10.0 ML
0.667 LW
N
432.036 374 M
432.036 373.812 L
434.009 373.812 L
434.009 374 L
434.009 374 L
S
GR
GS
[0.75 0 0 0.75 0 0] CT
2 setlinecap
10.0 ML
0.667 LW
N
434.009 374 M
435.982 374 L
435.982 374 L
435.982 374 L
S
GR
GS
[0.75 0 0 0.75 0 0] CT
2 setlinecap
10.0 ML
0.667 LW
N
435.982 374 M
437.955 374 L
S
GR
GS
[0.75 0 0 0.75 0 0] CT
2 setlinecap
10.0 ML
0.667 LW
N
437.955 374 M
437.955 374 L
437.955 373.812 L
439.927 373.812 L
439.927 374 L
439.927 374 L
S
GR
GS
[0.75 0 0 0.75 0 0] CT
2 setlinecap
10.0 ML
0.667 LW
N
439.927 374 M
441.9 374 L
S
GR
GS
[0.75 0 0 0.75 0 0] CT
2 setlinecap
10.0 ML
0.667 LW
N
441.9 374 M
441.9 374 L
441.9 373.249 L
443.873 373.249 L
443.873 374 L
443.873 374 L
S
GR
GS
[0.75 0 0 0.75 0 0] CT
2 setlinecap
10.0 ML
0.667 LW
N
443.873 373.624 M
445.845 373.624 L
445.845 374 L
445.845 374 L
S
GR
GS
[0.75 0 0 0.75 0 0] CT
2 setlinecap
10.0 ML
0.667 LW
N
445.845 373.624 M
447.818 373.624 L
S
GR
GS
[0.75 0 0 0.75 0 0] CT
2 setlinecap
10.0 ML
0.667 LW
N
447.818 374 M
447.818 374 L
447.818 371.934 L
449.791 371.934 L
S
GR
GS
[0.75 0 0 0.75 0 0] CT
2 setlinecap
10.0 ML
0.667 LW
N
449.791 374 M
449.791 374 L
449.791 371.559 L
451.764 371.559 L
451.764 374 L
451.764 374 L
S
GR
GS
[0.75 0 0 0.75 0 0] CT
2 setlinecap
10.0 ML
0.667 LW
N
451.764 371.747 M
453.736 371.747 L
453.736 374 L
453.736 374 L
S
GR
GS
[0.75 0 0 0.75 0 0] CT
2 setlinecap
10.0 ML
0.667 LW
N
453.736 372.122 M
455.709 372.122 L
S
GR
GS
[0.75 0 0 0.75 0 0] CT
2 setlinecap
10.0 ML
0.667 LW
N
455.709 374 M
455.709 374 L
455.709 369.306 L
457.682 369.306 L
S
GR
GS
[0.75 0 0 0.75 0 0] CT
2 setlinecap
10.0 ML
0.667 LW
N
457.682 374 M
457.682 374 L
457.682 367.803 L
459.655 367.803 L
S
GR
GS
[0.75 0 0 0.75 0 0] CT
2 setlinecap
10.0 ML
0.667 LW
N
459.655 374 M
459.655 374 L
459.655 365.738 L
461.627 365.738 L
S
GR
GS
[0.75 0 0 0.75 0 0] CT
2 setlinecap
10.0 ML
0.667 LW
N
461.627 374 M
461.627 374 L
461.627 363.484 L
463.6 363.484 L
463.6 374 L
463.6 374 L
S
GR
GS
[0.75 0 0 0.75 0 0] CT
2 setlinecap
10.0 ML
0.667 LW
N
463.6 364.611 M
465.573 364.611 L
S
GR
GS
[0.75 0 0 0.75 0 0] CT
2 setlinecap
10.0 ML
0.667 LW
N
465.573 374 M
465.573 374 L
465.573 363.297 L
467.545 363.297 L
S
GR
GS
[0.75 0 0 0.75 0 0] CT
2 setlinecap
10.0 ML
0.667 LW
N
467.545 374 M
467.545 374 L
467.545 361.982 L
469.518 361.982 L
S
GR
GS
[0.75 0 0 0.75 0 0] CT
2 setlinecap
10.0 ML
0.667 LW
N
469.518 374 M
469.518 374 L
469.518 355.222 L
471.491 355.222 L
471.491 374 L
471.491 374 L
S
GR
GS
[0.75 0 0 0.75 0 0] CT
2 setlinecap
10.0 ML
0.667 LW
N
471.491 355.41 M
473.464 355.41 L
S
GR
GS
[0.75 0 0 0.75 0 0] CT
2 setlinecap
10.0 ML
0.667 LW
N
473.464 374 M
473.464 374 L
473.464 353.532 L
475.436 353.532 L
S
GR
GS
[0.75 0 0 0.75 0 0] CT
2 setlinecap
10.0 ML
0.667 LW
N
475.436 374 M
475.436 374 L
475.436 341.702 L
477.409 341.702 L
S
GR
GS
[0.75 0 0 0.75 0 0] CT
2 setlinecap
10.0 ML
0.667 LW
N
477.409 374 M
477.409 374 L
477.409 333.628 L
479.382 333.628 L
S
GR
GS
[0.75 0 0 0.75 0 0] CT
2 setlinecap
10.0 ML
0.667 LW
N
479.382 374 M
479.382 374 L
479.382 320.296 L
481.355 320.296 L
S
GR
GS
[0.75 0 0 0.75 0 0] CT
2 setlinecap
10.0 ML
0.667 LW
N
481.355 374 M
481.355 374 L
481.355 299.264 L
483.327 299.264 L
S
GR
GS
[0.75 0 0 0.75 0 0] CT
2 setlinecap
10.0 ML
0.667 LW
N
483.327 374 M
483.327 374 L
483.327 247.062 L
485.3 247.062 L
S
GR
GS
[0.75 0 0 0.75 0 0] CT
2 setlinecap
10.0 ML
0.667 LW
N
485.3 374 M
485.3 374 L
485.3 36.751 L
487.273 36.751 L
487.273 374 L
S
GR
GS
[0.75 0 0 0.75 0 0] CT
0.958 0.816 0.475 RC
N
94.7 374 M
94.7 369.869 L
92.727 369.869 L
92.727 374 L
cp
96.673 374 M
96.673 372.686 L
94.7 372.686 L
94.7 374 L
cp
98.645 374 M
98.645 372.873 L
96.673 372.873 L
96.673 374 L
cp
100.618 374 M
100.618 373.624 L
98.645 373.624 L
98.645 374 L
cp
102.591 374 M
102.591 373.249 L
100.618 373.249 L
100.618 374 L
cp
104.564 374 M
104.564 373.437 L
102.591 373.437 L
102.591 374 L
cp
106.536 374 M
106.536 373.624 L
104.564 373.624 L
104.564 374 L
cp
108.509 374 M
108.509 373.437 L
106.536 373.437 L
106.536 374 L
cp
112.455 374 M
112.455 373.812 L
110.482 373.812 L
110.482 374 L
cp
114.427 373.624 M
112.455 373.624 L
112.455 374 L
114.427 374 L
116.4 374 L
116.4 373.624 L
cp
118.373 374 M
118.373 373.812 L
116.4 373.812 L
116.4 374 L
cp
120.345 373.624 M
118.373 373.624 L
118.373 374 L
120.345 374 L
122.318 374 L
122.318 373.624 L
cp
124.291 374 M
124.291 373.812 L
122.318 373.812 L
122.318 374 L
cp
126.264 374 M
126.264 373.624 L
124.291 373.624 L
124.291 374 L
cp
128.236 374 M
128.236 373.812 L
126.264 373.812 L
126.264 374 L
cp
130.209 373.624 M
128.236 373.624 L
128.236 374 L
130.209 374 L
132.182 374 L
134.155 374 L
134.155 373.624 L
132.182 373.624 L
cp
138.1 374 M
138.1 373.812 L
136.127 373.812 L
136.127 374 L
cp
140.073 374 M
140.073 373.624 L
138.1 373.624 L
138.1 374 L
cp
142.045 374 M
142.045 373.812 L
140.073 373.812 L
140.073 374 L
cp
144.018 374 M
144.018 373.624 L
142.045 373.624 L
142.045 374 L
cp
145.991 373.812 M
144.018 373.812 L
144.018 374 L
145.991 374 L
147.964 374 L
147.964 373.812 L
cp
151.909 374 M
151.909 373.812 L
149.936 373.812 L
149.936 374 L
cp
153.882 374 M
153.882 373.249 L
151.909 373.249 L
151.909 374 L
cp
157.827 374 M
157.827 373.812 L
155.855 373.812 L
155.855 374 L
cp
161.773 374 M
161.773 373.812 L
159.8 373.812 L
159.8 374 L
cp
163.745 373.437 M
161.773 373.437 L
161.773 374 L
163.745 374 L
165.718 374 L
165.718 373.437 L
cp
167.691 374 M
167.691 373.812 L
165.718 373.812 L
165.718 374 L
cp
169.664 374 M
169.664 373.624 L
167.691 373.624 L
167.691 374 L
cp
173.609 374 M
173.609 373.624 L
171.636 373.624 L
171.636 374 L
cp
175.582 374 M
175.582 373.812 L
173.609 373.812 L
173.609 374 L
cp
177.555 374 M
177.555 373.437 L
175.582 373.437 L
175.582 374 L
cp
179.527 374 M
179.527 373.812 L
177.555 373.812 L
177.555 374 L
cp
181.5 374 M
181.5 373.624 L
179.527 373.624 L
179.527 374 L
cp
183.473 374 M
183.473 373.437 L
181.5 373.437 L
181.5 374 L
cp
185.445 374 M
185.445 373.249 L
183.473 373.249 L
183.473 374 L
cp
187.418 374 M
187.418 373.812 L
185.445 373.812 L
185.445 374 L
cp
191.364 374 M
191.364 373.812 L
189.391 373.812 L
189.391 374 L
cp
193.336 374 M
193.336 373.624 L
191.364 373.624 L
191.364 374 L
cp
195.309 374 M
195.309 373.812 L
193.336 373.812 L
193.336 374 L
cp
197.282 374 M
197.282 372.873 L
195.309 372.873 L
195.309 374 L
cp
199.255 374 M
199.255 373.624 L
197.282 373.624 L
197.282 374 L
cp
201.227 374 M
201.227 373.249 L
199.255 373.249 L
199.255 374 L
cp
203.2 374 M
203.2 373.061 L
201.227 373.061 L
201.227 374 L
cp
205.173 373.624 M
203.2 373.624 L
203.2 374 L
205.173 374 L
207.145 374 L
207.145 373.624 L
cp
209.118 374 M
209.118 373.437 L
207.145 373.437 L
207.145 374 L
cp
211.091 374 M
211.091 373.624 L
209.118 373.624 L
209.118 374 L
cp
213.064 374 M
213.064 373.249 L
211.091 373.249 L
211.091 374 L
cp
215.036 374 M
215.036 372.873 L
213.064 372.873 L
213.064 374 L
cp
217.009 374 M
217.009 373.061 L
215.036 373.061 L
215.036 374 L
cp
218.982 374 M
218.982 373.249 L
217.009 373.249 L
217.009 374 L
cp
220.955 374 M
220.955 373.437 L
218.982 373.437 L
218.982 374 L
cp
222.927 374 M
222.927 373.061 L
220.955 373.061 L
220.955 374 L
cp
224.9 374 M
224.9 372.873 L
222.927 372.873 L
222.927 374 L
cp
226.873 374 M
226.873 373.061 L
224.9 373.061 L
224.9 374 L
cp
228.845 374 M
228.845 373.437 L
226.873 373.437 L
226.873 374 L
cp
230.818 374 M
230.818 373.624 L
228.845 373.624 L
228.845 374 L
cp
232.791 374 M
232.791 373.249 L
230.818 373.249 L
230.818 374 L
cp
234.764 374 M
234.764 373.624 L
232.791 373.624 L
232.791 374 L
cp
236.736 374 M
236.736 372.873 L
234.764 372.873 L
234.764 374 L
cp
238.709 374 M
238.709 372.686 L
236.736 372.686 L
236.736 374 L
cp
240.682 374 M
240.682 373.249 L
238.709 373.249 L
238.709 374 L
cp
242.655 374 M
242.655 372.686 L
240.682 372.686 L
240.682 374 L
cp
244.627 374 M
244.627 373.624 L
242.655 373.624 L
242.655 374 L
cp
246.6 374 M
246.6 373.437 L
244.627 373.437 L
244.627 374 L
cp
248.573 374 M
248.573 373.249 L
246.6 373.249 L
246.6 374 L
cp
250.545 374 M
250.545 372.873 L
248.573 372.873 L
248.573 374 L
cp
252.518 373.061 M
250.545 373.061 L
250.545 374 L
252.518 374 L
254.491 374 L
254.491 373.061 L
cp
256.464 374 M
256.464 373.249 L
254.491 373.249 L
254.491 374 L
cp
258.436 374 M
258.436 373.437 L
256.464 373.437 L
256.464 374 L
cp
260.409 374 M
260.409 373.061 L
258.436 373.061 L
258.436 374 L
cp
262.382 374 M
262.382 373.249 L
260.409 373.249 L
260.409 374 L
cp
264.355 374 M
264.355 372.686 L
262.382 372.686 L
262.382 374 L
cp
266.327 374 M
266.327 373.061 L
264.355 373.061 L
264.355 374 L
cp
268.3 374 M
268.3 371.183 L
266.327 371.183 L
266.327 374 L
cp
270.273 374 M
270.273 371.747 L
268.3 371.747 L
268.3 374 L
cp
272.245 374 M
272.245 372.498 L
270.273 372.498 L
270.273 374 L
cp
274.218 374 M
274.218 372.31 L
272.245 372.31 L
272.245 374 L
cp
276.191 374 M
276.191 372.686 L
274.218 372.686 L
274.218 374 L
cp
278.164 374 M
278.164 372.498 L
276.191 372.498 L
276.191 374 L
cp
280.136 374 M
280.136 372.686 L
278.164 372.686 L
278.164 374 L
cp
282.109 374 M
282.109 371.183 L
280.136 371.183 L
280.136 374 L
cp
284.082 374 M
284.082 372.498 L
282.109 372.498 L
282.109 374 L
cp
286.055 374 M
286.055 371.934 L
284.082 371.934 L
284.082 374 L
cp
288.027 374 M
288.027 370.808 L
286.055 370.808 L
286.055 374 L
cp
290 374 M
290 371.371 L
288.027 371.371 L
288.027 374 L
cp
291.973 374 M
291.973 371.559 L
290 371.559 L
290 374 L
cp
293.945 374 M
293.945 372.31 L
291.973 372.31 L
291.973 374 L
cp
295.918 374 M
295.918 371.559 L
293.945 371.559 L
293.945 374 L
cp
297.891 374 M
297.891 370.808 L
295.918 370.808 L
295.918 374 L
cp
299.864 374 M
299.864 371.747 L
297.891 371.747 L
297.891 374 L
cp
301.836 374 M
301.836 371.183 L
299.864 371.183 L
299.864 374 L
cp
303.809 374 M
303.809 371.559 L
301.836 371.559 L
301.836 374 L
cp
305.782 374 M
305.782 370.62 L
303.809 370.62 L
303.809 374 L
cp
307.755 374 M
307.755 370.057 L
305.782 370.057 L
305.782 374 L
cp
309.727 374 M
309.727 370.62 L
307.755 370.62 L
307.755 374 L
cp
311.7 374 M
311.7 370.057 L
309.727 370.057 L
309.727 374 L
cp
313.673 374 M
313.673 370.62 L
311.7 370.62 L
311.7 374 L
cp
315.645 374 M
315.645 370.996 L
313.673 370.996 L
313.673 374 L
cp
317.618 374 M
317.618 370.432 L
315.645 370.432 L
315.645 374 L
cp
319.591 374 M
319.591 369.493 L
317.618 369.493 L
317.618 374 L
cp
321.564 374 M
321.564 370.996 L
319.591 370.996 L
319.591 374 L
cp
323.536 374 M
323.536 369.869 L
321.564 369.869 L
321.564 374 L
cp
325.509 374 M
325.509 371.559 L
323.536 371.559 L
323.536 374 L
cp
327.482 374 M
327.482 369.118 L
325.509 369.118 L
325.509 374 L
cp
329.455 374 M
329.455 370.432 L
327.482 370.432 L
327.482 374 L
cp
331.427 374 M
331.427 369.118 L
329.455 369.118 L
329.455 374 L
cp
333.4 374 M
333.4 369.869 L
331.427 369.869 L
331.427 374 L
cp
335.373 374 M
335.373 370.808 L
333.4 370.808 L
333.4 374 L
cp
337.345 374 M
337.345 369.869 L
335.373 369.869 L
335.373 374 L
cp
339.318 374 M
339.318 369.493 L
337.345 369.493 L
337.345 374 L
cp
341.291 374 M
341.291 370.057 L
339.318 370.057 L
339.318 374 L
cp
343.264 374 M
343.264 368.554 L
341.291 368.554 L
341.291 374 L
cp
345.236 374 M
345.236 369.118 L
343.264 369.118 L
343.264 374 L
cp
347.209 374 M
347.209 369.681 L
345.236 369.681 L
345.236 374 L
cp
349.182 374 M
349.182 368.93 L
347.209 368.93 L
347.209 374 L
cp
351.155 374 M
351.155 370.432 L
349.182 370.432 L
349.182 374 L
cp
353.127 374 M
353.127 371.371 L
351.155 371.371 L
351.155 374 L
cp
355.1 374 M
355.1 370.996 L
353.127 370.996 L
353.127 374 L
cp
357.073 374 M
357.073 368.554 L
355.1 368.554 L
355.1 374 L
cp
359.045 374 M
359.045 370.244 L
357.073 370.244 L
357.073 374 L
cp
361.018 374 M
361.018 370.057 L
359.045 370.057 L
359.045 374 L
cp
362.991 374 M
362.991 369.306 L
361.018 369.306 L
361.018 374 L
cp
364.964 374 M
364.964 368.554 L
362.991 368.554 L
362.991 374 L
cp
366.936 374 M
366.936 370.808 L
364.964 370.808 L
364.964 374 L
cp
368.909 374 M
368.909 371.559 L
366.936 371.559 L
366.936 374 L
cp
370.882 374 M
370.882 370.244 L
368.909 370.244 L
368.909 374 L
cp
372.855 374 M
372.855 369.118 L
370.882 369.118 L
370.882 374 L
cp
374.827 374 M
374.827 368.179 L
372.855 368.179 L
372.855 374 L
cp
376.8 374 M
376.8 369.493 L
374.827 369.493 L
374.827 374 L
cp
378.773 368.742 M
376.8 368.742 L
376.8 374 L
378.773 374 L
380.745 374 L
380.745 368.742 L
cp
382.718 374 M
382.718 370.432 L
380.745 370.432 L
380.745 374 L
cp
384.691 374 M
384.691 369.306 L
382.718 369.306 L
382.718 374 L
cp
386.664 370.057 M
384.691 370.057 L
384.691 374 L
386.664 374 L
388.636 374 L
388.636 370.057 L
cp
390.609 374 M
390.609 371.183 L
388.636 371.183 L
388.636 374 L
cp
392.582 374 M
392.582 369.493 L
390.609 369.493 L
390.609 374 L
cp
394.555 374 M
394.555 370.432 L
392.582 370.432 L
392.582 374 L
cp
396.527 374 M
396.527 368.742 L
394.555 368.742 L
394.555 374 L
cp
398.5 374 M
398.5 369.869 L
396.527 369.869 L
396.527 374 L
cp
400.473 374 M
400.473 369.493 L
398.5 369.493 L
398.5 374 L
cp
402.445 374 M
402.445 370.057 L
400.473 370.057 L
400.473 374 L
cp
404.418 374 M
404.418 369.869 L
402.445 369.869 L
402.445 374 L
cp
406.391 374 M
406.391 370.432 L
404.418 370.432 L
404.418 374 L
cp
408.364 374 M
408.364 370.244 L
406.391 370.244 L
406.391 374 L
cp
410.336 374 M
410.336 371.183 L
408.364 371.183 L
408.364 374 L
cp
412.309 374 M
412.309 369.118 L
410.336 369.118 L
410.336 374 L
cp
414.282 374 M
414.282 370.432 L
412.309 370.432 L
412.309 374 L
cp
416.255 374 M
416.255 368.367 L
414.282 368.367 L
414.282 374 L
cp
418.227 374 M
418.227 369.306 L
416.255 369.306 L
416.255 374 L
cp
420.2 374 M
420.2 369.869 L
418.227 369.869 L
418.227 374 L
cp
422.173 374 M
422.173 368.179 L
420.2 368.179 L
420.2 374 L
cp
424.145 374 M
424.145 369.118 L
422.173 369.118 L
422.173 374 L
cp
426.118 374 M
426.118 370.432 L
424.145 370.432 L
424.145 374 L
cp
428.091 374 M
428.091 368.93 L
426.118 368.93 L
426.118 374 L
cp
430.064 374 M
430.064 369.681 L
428.091 369.681 L
428.091 374 L
cp
432.036 374 M
432.036 369.493 L
430.064 369.493 L
430.064 374 L
cp
434.009 374 M
434.009 366.864 L
432.036 366.864 L
432.036 374 L
cp
435.982 374 M
435.982 369.681 L
434.009 369.681 L
434.009 374 L
cp
437.955 374 M
437.955 370.244 L
435.982 370.244 L
435.982 374 L
cp
439.927 374 M
439.927 367.052 L
437.955 367.052 L
437.955 374 L
cp
441.9 374 M
441.9 369.869 L
439.927 369.869 L
439.927 374 L
cp
443.873 374 M
443.873 368.367 L
441.9 368.367 L
441.9 374 L
cp
445.845 374 M
445.845 367.24 L
443.873 367.24 L
443.873 374 L
cp
447.818 374 M
447.818 367.052 L
445.845 367.052 L
445.845 374 L
cp
449.791 374 M
449.791 365.926 L
447.818 365.926 L
447.818 374 L
cp
451.764 374 M
451.764 367.616 L
449.791 367.616 L
449.791 374 L
cp
453.736 374 M
453.736 366.301 L
451.764 366.301 L
451.764 374 L
cp
455.709 374 M
455.709 366.864 L
453.736 366.864 L
453.736 374 L
cp
457.682 374 M
457.682 365.738 L
455.709 365.738 L
455.709 374 L
cp
459.655 374 M
459.655 365.55 L
457.682 365.55 L
457.682 374 L
cp
461.627 364.799 M
459.655 364.799 L
459.655 374 L
461.627 374 L
463.6 374 L
463.6 364.799 L
cp
465.573 374 M
465.573 361.231 L
463.6 361.231 L
463.6 374 L
cp
467.545 374 M
467.545 360.48 L
465.573 360.48 L
465.573 374 L
cp
469.518 374 M
469.518 359.541 L
467.545 359.541 L
467.545 374 L
cp
471.491 374 M
471.491 360.668 L
469.518 360.668 L
469.518 374 L
cp
473.464 374 M
473.464 360.292 L
471.491 360.292 L
471.491 374 L
cp
475.436 374 M
475.436 358.978 L
473.464 358.978 L
473.464 374 L
cp
477.409 374 M
477.409 356.724 L
475.436 356.724 L
475.436 374 L
cp
479.382 374 M
479.382 352.03 L
477.409 352.03 L
477.409 374 L
cp
481.355 346.584 M
479.382 346.584 L
479.382 374 L
481.355 374 L
483.327 374 L
483.327 346.584 L
cp
485.3 374 M
485.3 326.117 L
483.327 326.117 L
483.327 374 L
cp
487.273 374 M
487.273 274.666 L
485.3 274.666 L
485.3 374 L
cp
f
GR
GS
[0.75 0 0 0.75 0 0] CT
2 setlinecap
10.0 ML
0.667 LW
N
92.727 374 M
92.727 369.869 L
94.7 369.869 L
94.7 374 L
94.7 374 L
S
GR
GS
[0.75 0 0 0.75 0 0] CT
2 setlinecap
10.0 ML
0.667 LW
N
94.7 372.686 M
96.673 372.686 L
96.673 374 L
96.673 374 L
S
GR
GS
[0.75 0 0 0.75 0 0] CT
2 setlinecap
10.0 ML
0.667 LW
N
96.673 372.873 M
98.645 372.873 L
98.645 374 L
98.645 374 L
S
GR
GS
[0.75 0 0 0.75 0 0] CT
2 setlinecap
10.0 ML
0.667 LW
N
98.645 373.624 M
100.618 373.624 L
S
GR
GS
[0.75 0 0 0.75 0 0] CT
2 setlinecap
10.0 ML
0.667 LW
N
100.618 374 M
100.618 374 L
100.618 373.249 L
102.591 373.249 L
102.591 374 L
102.591 374 L
S
GR
GS
[0.75 0 0 0.75 0 0] CT
2 setlinecap
10.0 ML
0.667 LW
N
102.591 373.437 M
104.564 373.437 L
104.564 374 L
104.564 374 L
S
GR
GS
[0.75 0 0 0.75 0 0] CT
2 setlinecap
10.0 ML
0.667 LW
N
104.564 373.624 M
106.536 373.624 L
S
GR
GS
[0.75 0 0 0.75 0 0] CT
2 setlinecap
10.0 ML
0.667 LW
N
106.536 374 M
106.536 374 L
106.536 373.437 L
108.509 373.437 L
108.509 374 L
108.509 374 L
S
GR
GS
[0.75 0 0 0.75 0 0] CT
2 setlinecap
10.0 ML
0.667 LW
N
108.509 374 M
110.482 374 L
S
GR
GS
[0.75 0 0 0.75 0 0] CT
2 setlinecap
10.0 ML
0.667 LW
N
110.482 374 M
110.482 374 L
110.482 373.812 L
112.455 373.812 L
S
GR
GS
[0.75 0 0 0.75 0 0] CT
2 setlinecap
10.0 ML
0.667 LW
N
112.455 374 M
112.455 374 L
112.455 373.624 L
114.427 373.624 L
114.427 374 L
114.427 374 L
S
GR
GS
[0.75 0 0 0.75 0 0] CT
2 setlinecap
10.0 ML
0.667 LW
N
114.427 373.624 M
116.4 373.624 L
116.4 374 L
116.4 374 L
S
GR
GS
[0.75 0 0 0.75 0 0] CT
2 setlinecap
10.0 ML
0.667 LW
N
116.4 373.812 M
118.373 373.812 L
S
GR
GS
[0.75 0 0 0.75 0 0] CT
2 setlinecap
10.0 ML
0.667 LW
N
118.373 374 M
118.373 374 L
118.373 373.624 L
120.345 373.624 L
120.345 374 L
120.345 374 L
S
GR
GS
[0.75 0 0 0.75 0 0] CT
2 setlinecap
10.0 ML
0.667 LW
N
120.345 373.624 M
122.318 373.624 L
122.318 374 L
122.318 374 L
S
GR
GS
[0.75 0 0 0.75 0 0] CT
2 setlinecap
10.0 ML
0.667 LW
N
122.318 373.812 M
124.291 373.812 L
S
GR
GS
[0.75 0 0 0.75 0 0] CT
2 setlinecap
10.0 ML
0.667 LW
N
124.291 374 M
124.291 374 L
124.291 373.624 L
126.264 373.624 L
126.264 374 L
126.264 374 L
S
GR
GS
[0.75 0 0 0.75 0 0] CT
2 setlinecap
10.0 ML
0.667 LW
N
126.264 373.812 M
128.236 373.812 L
S
GR
GS
[0.75 0 0 0.75 0 0] CT
2 setlinecap
10.0 ML
0.667 LW
N
128.236 374 M
128.236 374 L
128.236 373.624 L
130.209 373.624 L
130.209 374 L
130.209 374 L
S
GR
GS
[0.75 0 0 0.75 0 0] CT
2 setlinecap
10.0 ML
0.667 LW
N
130.209 373.624 M
132.182 373.624 L
132.182 374 L
132.182 374 L
S
GR
GS
[0.75 0 0 0.75 0 0] CT
2 setlinecap
10.0 ML
0.667 LW
N
132.182 373.624 M
134.155 373.624 L
134.155 374 L
134.155 374 L
S
GR
GS
[0.75 0 0 0.75 0 0] CT
2 setlinecap
10.0 ML
0.667 LW
N
134.155 374 M
136.127 374 L
S
GR
GS
[0.75 0 0 0.75 0 0] CT
2 setlinecap
10.0 ML
0.667 LW
N
136.127 374 M
136.127 374 L
136.127 373.812 L
138.1 373.812 L
S
GR
GS
[0.75 0 0 0.75 0 0] CT
2 setlinecap
10.0 ML
0.667 LW
N
138.1 374 M
138.1 374 L
138.1 373.624 L
140.073 373.624 L
140.073 374 L
140.073 374 L
S
GR
GS
[0.75 0 0 0.75 0 0] CT
2 setlinecap
10.0 ML
0.667 LW
N
140.073 373.812 M
142.045 373.812 L
S
GR
GS
[0.75 0 0 0.75 0 0] CT
2 setlinecap
10.0 ML
0.667 LW
N
142.045 374 M
142.045 374 L
142.045 373.624 L
144.018 373.624 L
144.018 374 L
144.018 374 L
S
GR
GS
[0.75 0 0 0.75 0 0] CT
2 setlinecap
10.0 ML
0.667 LW
N
144.018 373.812 M
145.991 373.812 L
145.991 374 L
145.991 374 L
S
GR
GS
[0.75 0 0 0.75 0 0] CT
2 setlinecap
10.0 ML
0.667 LW
N
145.991 373.812 M
147.964 373.812 L
147.964 374 L
147.964 374 L
S
GR
GS
[0.75 0 0 0.75 0 0] CT
2 setlinecap
10.0 ML
0.667 LW
N
147.964 374 M
149.936 374 L
S
GR
GS
[0.75 0 0 0.75 0 0] CT
2 setlinecap
10.0 ML
0.667 LW
N
149.936 374 M
149.936 374 L
149.936 373.812 L
151.909 373.812 L
S
GR
GS
[0.75 0 0 0.75 0 0] CT
2 setlinecap
10.0 ML
0.667 LW
N
151.909 374 M
151.909 374 L
151.909 373.249 L
153.882 373.249 L
153.882 374 L
153.882 374 L
S
GR
GS
[0.75 0 0 0.75 0 0] CT
2 setlinecap
10.0 ML
0.667 LW
N
153.882 374 M
155.855 374 L
S
GR
GS
[0.75 0 0 0.75 0 0] CT
2 setlinecap
10.0 ML
0.667 LW
N
155.855 374 M
155.855 374 L
155.855 373.812 L
157.827 373.812 L
157.827 374 L
157.827 374 L
S
GR
GS
[0.75 0 0 0.75 0 0] CT
2 setlinecap
10.0 ML
0.667 LW
N
157.827 374 M
159.8 374 L
S
GR
GS
[0.75 0 0 0.75 0 0] CT
2 setlinecap
10.0 ML
0.667 LW
N
159.8 374 M
159.8 374 L
159.8 373.812 L
161.773 373.812 L
S
GR
GS
[0.75 0 0 0.75 0 0] CT
2 setlinecap
10.0 ML
0.667 LW
N
161.773 374 M
161.773 374 L
161.773 373.437 L
163.745 373.437 L
163.745 374 L
163.745 374 L
S
GR
GS
[0.75 0 0 0.75 0 0] CT
2 setlinecap
10.0 ML
0.667 LW
N
163.745 373.437 M
165.718 373.437 L
165.718 374 L
165.718 374 L
S
GR
GS
[0.75 0 0 0.75 0 0] CT
2 setlinecap
10.0 ML
0.667 LW
N
165.718 373.812 M
167.691 373.812 L
S
GR
GS
[0.75 0 0 0.75 0 0] CT
2 setlinecap
10.0 ML
0.667 LW
N
167.691 374 M
167.691 374 L
167.691 373.624 L
169.664 373.624 L
169.664 374 L
169.664 374 L
S
GR
GS
[0.75 0 0 0.75 0 0] CT
2 setlinecap
10.0 ML
0.667 LW
N
169.664 374 M
171.636 374 L
S
GR
GS
[0.75 0 0 0.75 0 0] CT
2 setlinecap
10.0 ML
0.667 LW
N
171.636 374 M
171.636 374 L
171.636 373.624 L
173.609 373.624 L
173.609 374 L
173.609 374 L
S
GR
GS
[0.75 0 0 0.75 0 0] CT
2 setlinecap
10.0 ML
0.667 LW
N
173.609 373.812 M
175.582 373.812 L
S
GR
GS
[0.75 0 0 0.75 0 0] CT
2 setlinecap
10.0 ML
0.667 LW
N
175.582 374 M
175.582 374 L
175.582 373.437 L
177.555 373.437 L
177.555 374 L
177.555 374 L
S
GR
GS
[0.75 0 0 0.75 0 0] CT
2 setlinecap
10.0 ML
0.667 LW
N
177.555 373.812 M
179.527 373.812 L
S
GR
GS
[0.75 0 0 0.75 0 0] CT
2 setlinecap
10.0 ML
0.667 LW
N
179.527 374 M
179.527 374 L
179.527 373.624 L
181.5 373.624 L
S
GR
GS
[0.75 0 0 0.75 0 0] CT
2 setlinecap
10.0 ML
0.667 LW
N
181.5 374 M
181.5 374 L
181.5 373.437 L
183.473 373.437 L
S
GR
GS
[0.75 0 0 0.75 0 0] CT
2 setlinecap
10.0 ML
0.667 LW
N
183.473 374 M
183.473 374 L
183.473 373.249 L
185.445 373.249 L
185.445 374 L
185.445 374 L
S
GR
GS
[0.75 0 0 0.75 0 0] CT
2 setlinecap
10.0 ML
0.667 LW
N
185.445 373.812 M
187.418 373.812 L
187.418 374 L
187.418 374 L
S
GR
GS
[0.75 0 0 0.75 0 0] CT
2 setlinecap
10.0 ML
0.667 LW
N
187.418 374 M
189.391 374 L
S
GR
GS
[0.75 0 0 0.75 0 0] CT
2 setlinecap
10.0 ML
0.667 LW
N
189.391 374 M
189.391 374 L
189.391 373.812 L
191.364 373.812 L
S
GR
GS
[0.75 0 0 0.75 0 0] CT
2 setlinecap
10.0 ML
0.667 LW
N
191.364 374 M
191.364 374 L
191.364 373.624 L
193.336 373.624 L
193.336 374 L
193.336 374 L
S
GR
GS
[0.75 0 0 0.75 0 0] CT
2 setlinecap
10.0 ML
0.667 LW
N
193.336 373.812 M
195.309 373.812 L
S
GR
GS
[0.75 0 0 0.75 0 0] CT
2 setlinecap
10.0 ML
0.667 LW
N
195.309 374 M
195.309 374 L
195.309 372.873 L
197.282 372.873 L
197.282 374 L
197.282 374 L
S
GR
GS
[0.75 0 0 0.75 0 0] CT
2 setlinecap
10.0 ML
0.667 LW
N
197.282 373.624 M
199.255 373.624 L
S
GR
GS
[0.75 0 0 0.75 0 0] CT
2 setlinecap
10.0 ML
0.667 LW
N
199.255 374 M
199.255 374 L
199.255 373.249 L
201.227 373.249 L
S
GR
GS
[0.75 0 0 0.75 0 0] CT
2 setlinecap
10.0 ML
0.667 LW
N
201.227 374 M
201.227 374 L
201.227 373.061 L
203.2 373.061 L
203.2 374 L
203.2 374 L
S
GR
GS
[0.75 0 0 0.75 0 0] CT
2 setlinecap
10.0 ML
0.667 LW
N
203.2 373.624 M
205.173 373.624 L
205.173 374 L
205.173 374 L
S
GR
GS
[0.75 0 0 0.75 0 0] CT
2 setlinecap
10.0 ML
0.667 LW
N
205.173 373.624 M
207.145 373.624 L
S
GR
GS
[0.75 0 0 0.75 0 0] CT
2 setlinecap
10.0 ML
0.667 LW
N
207.145 374 M
207.145 374 L
207.145 373.437 L
209.118 373.437 L
209.118 374 L
209.118 374 L
S
GR
GS
[0.75 0 0 0.75 0 0] CT
2 setlinecap
10.0 ML
0.667 LW
N
209.118 373.624 M
211.091 373.624 L
S
GR
GS
[0.75 0 0 0.75 0 0] CT
2 setlinecap
10.0 ML
0.667 LW
N
211.091 374 M
211.091 374 L
211.091 373.249 L
213.064 373.249 L
S
GR
GS
[0.75 0 0 0.75 0 0] CT
2 setlinecap
10.0 ML
0.667 LW
N
213.064 374 M
213.064 374 L
213.064 372.873 L
215.036 372.873 L
215.036 374 L
215.036 374 L
S
GR
GS
[0.75 0 0 0.75 0 0] CT
2 setlinecap
10.0 ML
0.667 LW
N
215.036 373.061 M
217.009 373.061 L
217.009 374 L
217.009 374 L
S
GR
GS
[0.75 0 0 0.75 0 0] CT
2 setlinecap
10.0 ML
0.667 LW
N
217.009 373.249 M
218.982 373.249 L
218.982 374 L
218.982 374 L
S
GR
GS
[0.75 0 0 0.75 0 0] CT
2 setlinecap
10.0 ML
0.667 LW
N
218.982 373.437 M
220.955 373.437 L
S
GR
GS
[0.75 0 0 0.75 0 0] CT
2 setlinecap
10.0 ML
0.667 LW
N
220.955 374 M
220.955 374 L
220.955 373.061 L
222.927 373.061 L
S
GR
GS
[0.75 0 0 0.75 0 0] CT
2 setlinecap
10.0 ML
0.667 LW
N
222.927 374 M
222.927 374 L
222.927 372.873 L
224.9 372.873 L
224.9 374 L
224.9 374 L
S
GR
GS
[0.75 0 0 0.75 0 0] CT
2 setlinecap
10.0 ML
0.667 LW
N
224.9 373.061 M
226.873 373.061 L
226.873 374 L
226.873 374 L
S
GR
GS
[0.75 0 0 0.75 0 0] CT
2 setlinecap
10.0 ML
0.667 LW
N
226.873 373.437 M
228.845 373.437 L
228.845 374 L
228.845 374 L
S
GR
GS
[0.75 0 0 0.75 0 0] CT
2 setlinecap
10.0 ML
0.667 LW
N
228.845 373.624 M
230.818 373.624 L
S
GR
GS
[0.75 0 0 0.75 0 0] CT
2 setlinecap
10.0 ML
0.667 LW
N
230.818 374 M
230.818 374 L
230.818 373.249 L
232.791 373.249 L
232.791 374 L
232.791 374 L
S
GR
GS
[0.75 0 0 0.75 0 0] CT
2 setlinecap
10.0 ML
0.667 LW
N
232.791 373.624 M
234.764 373.624 L
S
GR
GS
[0.75 0 0 0.75 0 0] CT
2 setlinecap
10.0 ML
0.667 LW
N
234.764 374 M
234.764 374 L
234.764 372.873 L
236.736 372.873 L
S
GR
GS
[0.75 0 0 0.75 0 0] CT
2 setlinecap
10.0 ML
0.667 LW
N
236.736 374 M
236.736 374 L
236.736 372.686 L
238.709 372.686 L
238.709 374 L
238.709 374 L
S
GR
GS
[0.75 0 0 0.75 0 0] CT
2 setlinecap
10.0 ML
0.667 LW
N
238.709 373.249 M
240.682 373.249 L
S
GR
GS
[0.75 0 0 0.75 0 0] CT
2 setlinecap
10.0 ML
0.667 LW
N
240.682 374 M
240.682 374 L
240.682 372.686 L
242.655 372.686 L
242.655 374 L
242.655 374 L
S
GR
GS
[0.75 0 0 0.75 0 0] CT
2 setlinecap
10.0 ML
0.667 LW
N
242.655 373.624 M
244.627 373.624 L
S
GR
GS
[0.75 0 0 0.75 0 0] CT
2 setlinecap
10.0 ML
0.667 LW
N
244.627 374 M
244.627 374 L
244.627 373.437 L
246.6 373.437 L
S
GR
GS
[0.75 0 0 0.75 0 0] CT
2 setlinecap
10.0 ML
0.667 LW
N
246.6 374 M
246.6 374 L
246.6 373.249 L
248.573 373.249 L
S
GR
GS
[0.75 0 0 0.75 0 0] CT
2 setlinecap
10.0 ML
0.667 LW
N
248.573 374 M
248.573 374 L
248.573 372.873 L
250.545 372.873 L
250.545 374 L
250.545 374 L
S
GR
GS
[0.75 0 0 0.75 0 0] CT
2 setlinecap
10.0 ML
0.667 LW
N
250.545 373.061 M
252.518 373.061 L
252.518 374 L
252.518 374 L
S
GR
GS
[0.75 0 0 0.75 0 0] CT
2 setlinecap
10.0 ML
0.667 LW
N
252.518 373.061 M
254.491 373.061 L
254.491 374 L
254.491 374 L
S
GR
GS
[0.75 0 0 0.75 0 0] CT
2 setlinecap
10.0 ML
0.667 LW
N
254.491 373.249 M
256.464 373.249 L
256.464 374 L
256.464 374 L
S
GR
GS
[0.75 0 0 0.75 0 0] CT
2 setlinecap
10.0 ML
0.667 LW
N
256.464 373.437 M
258.436 373.437 L
S
GR
GS
[0.75 0 0 0.75 0 0] CT
2 setlinecap
10.0 ML
0.667 LW
N
258.436 374 M
258.436 374 L
258.436 373.061 L
260.409 373.061 L
260.409 374 L
260.409 374 L
S
GR
GS
[0.75 0 0 0.75 0 0] CT
2 setlinecap
10.0 ML
0.667 LW
N
260.409 373.249 M
262.382 373.249 L
S
GR
GS
[0.75 0 0 0.75 0 0] CT
2 setlinecap
10.0 ML
0.667 LW
N
262.382 374 M
262.382 374 L
262.382 372.686 L
264.355 372.686 L
264.355 374 L
264.355 374 L
S
GR
GS
[0.75 0 0 0.75 0 0] CT
2 setlinecap
10.0 ML
0.667 LW
N
264.355 373.061 M
266.327 373.061 L
S
GR
GS
[0.75 0 0 0.75 0 0] CT
2 setlinecap
10.0 ML
0.667 LW
N
266.327 374 M
266.327 374 L
266.327 371.183 L
268.3 371.183 L
268.3 374 L
268.3 374 L
S
GR
GS
[0.75 0 0 0.75 0 0] CT
2 setlinecap
10.0 ML
0.667 LW
N
268.3 371.747 M
270.273 371.747 L
270.273 374 L
270.273 374 L
S
GR
GS
[0.75 0 0 0.75 0 0] CT
2 setlinecap
10.0 ML
0.667 LW
N
270.273 372.498 M
272.245 372.498 L
S
GR
GS
[0.75 0 0 0.75 0 0] CT
2 setlinecap
10.0 ML
0.667 LW
N
272.245 374 M
272.245 374 L
272.245 372.31 L
274.218 372.31 L
274.218 374 L
274.218 374 L
S
GR
GS
[0.75 0 0 0.75 0 0] CT
2 setlinecap
10.0 ML
0.667 LW
N
274.218 372.686 M
276.191 372.686 L
S
GR
GS
[0.75 0 0 0.75 0 0] CT
2 setlinecap
10.0 ML
0.667 LW
N
276.191 374 M
276.191 374 L
276.191 372.498 L
278.164 372.498 L
278.164 374 L
278.164 374 L
S
GR
GS
[0.75 0 0 0.75 0 0] CT
2 setlinecap
10.0 ML
0.667 LW
N
278.164 372.686 M
280.136 372.686 L
S
GR
GS
[0.75 0 0 0.75 0 0] CT
2 setlinecap
10.0 ML
0.667 LW
N
280.136 374 M
280.136 374 L
280.136 371.183 L
282.109 371.183 L
282.109 374 L
282.109 374 L
S
GR
GS
[0.75 0 0 0.75 0 0] CT
2 setlinecap
10.0 ML
0.667 LW
N
282.109 372.498 M
284.082 372.498 L
S
GR
GS
[0.75 0 0 0.75 0 0] CT
2 setlinecap
10.0 ML
0.667 LW
N
284.082 374 M
284.082 374 L
284.082 371.934 L
286.055 371.934 L
S
GR
GS
[0.75 0 0 0.75 0 0] CT
2 setlinecap
10.0 ML
0.667 LW
N
286.055 374 M
286.055 374 L
286.055 370.808 L
288.027 370.808 L
288.027 374 L
288.027 374 L
S
GR
GS
[0.75 0 0 0.75 0 0] CT
2 setlinecap
10.0 ML
0.667 LW
N
288.027 371.371 M
290 371.371 L
290 374 L
290 374 L
S
GR
GS
[0.75 0 0 0.75 0 0] CT
2 setlinecap
10.0 ML
0.667 LW
N
290 371.559 M
291.973 371.559 L
291.973 374 L
291.973 374 L
S
GR
GS
[0.75 0 0 0.75 0 0] CT
2 setlinecap
10.0 ML
0.667 LW
N
291.973 372.31 M
293.945 372.31 L
S
GR
GS
[0.75 0 0 0.75 0 0] CT
2 setlinecap
10.0 ML
0.667 LW
N
293.945 374 M
293.945 374 L
293.945 371.559 L
295.918 371.559 L
S
GR
GS
[0.75 0 0 0.75 0 0] CT
2 setlinecap
10.0 ML
0.667 LW
N
295.918 374 M
295.918 374 L
295.918 370.808 L
297.891 370.808 L
297.891 374 L
297.891 374 L
S
GR
GS
[0.75 0 0 0.75 0 0] CT
2 setlinecap
10.0 ML
0.667 LW
N
297.891 371.747 M
299.864 371.747 L
S
GR
GS
[0.75 0 0 0.75 0 0] CT
2 setlinecap
10.0 ML
0.667 LW
N
299.864 374 M
299.864 374 L
299.864 371.183 L
301.836 371.183 L
301.836 374 L
301.836 374 L
S
GR
GS
[0.75 0 0 0.75 0 0] CT
2 setlinecap
10.0 ML
0.667 LW
N
301.836 371.559 M
303.809 371.559 L
S
GR
GS
[0.75 0 0 0.75 0 0] CT
2 setlinecap
10.0 ML
0.667 LW
N
303.809 374 M
303.809 374 L
303.809 370.62 L
305.782 370.62 L
S
GR
GS
[0.75 0 0 0.75 0 0] CT
2 setlinecap
10.0 ML
0.667 LW
N
305.782 374 M
305.782 374 L
305.782 370.057 L
307.755 370.057 L
307.755 374 L
307.755 374 L
S
GR
GS
[0.75 0 0 0.75 0 0] CT
2 setlinecap
10.0 ML
0.667 LW
N
307.755 370.62 M
309.727 370.62 L
S
GR
GS
[0.75 0 0 0.75 0 0] CT
2 setlinecap
10.0 ML
0.667 LW
N
309.727 374 M
309.727 374 L
309.727 370.057 L
311.7 370.057 L
311.7 374 L
311.7 374 L
S
GR
GS
[0.75 0 0 0.75 0 0] CT
2 setlinecap
10.0 ML
0.667 LW
N
311.7 370.62 M
313.673 370.62 L
313.673 374 L
313.673 374 L
S
GR
GS
[0.75 0 0 0.75 0 0] CT
2 setlinecap
10.0 ML
0.667 LW
N
313.673 370.996 M
315.645 370.996 L
S
GR
GS
[0.75 0 0 0.75 0 0] CT
2 setlinecap
10.0 ML
0.667 LW
N
315.645 374 M
315.645 374 L
315.645 370.432 L
317.618 370.432 L
S
GR
GS
[0.75 0 0 0.75 0 0] CT
2 setlinecap
10.0 ML
0.667 LW
N
317.618 374 M
317.618 374 L
317.618 369.493 L
319.591 369.493 L
319.591 374 L
319.591 374 L
S
GR
GS
[0.75 0 0 0.75 0 0] CT
2 setlinecap
10.0 ML
0.667 LW
N
319.591 370.996 M
321.564 370.996 L
S
GR
GS
[0.75 0 0 0.75 0 0] CT
2 setlinecap
10.0 ML
0.667 LW
N
321.564 374 M
321.564 374 L
321.564 369.869 L
323.536 369.869 L
323.536 374 L
323.536 374 L
S
GR
GS
[0.75 0 0 0.75 0 0] CT
2 setlinecap
10.0 ML
0.667 LW
N
323.536 371.559 M
325.509 371.559 L
S
GR
GS
[0.75 0 0 0.75 0 0] CT
2 setlinecap
10.0 ML
0.667 LW
N
325.509 374 M
325.509 374 L
325.509 369.118 L
327.482 369.118 L
327.482 374 L
327.482 374 L
S
GR
GS
[0.75 0 0 0.75 0 0] CT
2 setlinecap
10.0 ML
0.667 LW
N
327.482 370.432 M
329.455 370.432 L
S
GR
GS
[0.75 0 0 0.75 0 0] CT
2 setlinecap
10.0 ML
0.667 LW
N
329.455 374 M
329.455 374 L
329.455 369.118 L
331.427 369.118 L
331.427 374 L
331.427 374 L
S
GR
GS
[0.75 0 0 0.75 0 0] CT
2 setlinecap
10.0 ML
0.667 LW
N
331.427 369.869 M
333.4 369.869 L
333.4 374 L
333.4 374 L
S
GR
GS
[0.75 0 0 0.75 0 0] CT
2 setlinecap
10.0 ML
0.667 LW
N
333.4 370.808 M
335.373 370.808 L
S
GR
GS
[0.75 0 0 0.75 0 0] CT
2 setlinecap
10.0 ML
0.667 LW
N
335.373 374 M
335.373 374 L
335.373 369.869 L
337.345 369.869 L
S
GR
GS
[0.75 0 0 0.75 0 0] CT
2 setlinecap
10.0 ML
0.667 LW
N
337.345 374 M
337.345 374 L
337.345 369.493 L
339.318 369.493 L
339.318 374 L
339.318 374 L
S
GR
GS
[0.75 0 0 0.75 0 0] CT
2 setlinecap
10.0 ML
0.667 LW
N
339.318 370.057 M
341.291 370.057 L
S
GR
GS
[0.75 0 0 0.75 0 0] CT
2 setlinecap
10.0 ML
0.667 LW
N
341.291 374 M
341.291 374 L
341.291 368.554 L
343.264 368.554 L
343.264 374 L
343.264 374 L
S
GR
GS
[0.75 0 0 0.75 0 0] CT
2 setlinecap
10.0 ML
0.667 LW
N
343.264 369.118 M
345.236 369.118 L
345.236 374 L
345.236 374 L
S
GR
GS
[0.75 0 0 0.75 0 0] CT
2 setlinecap
10.0 ML
0.667 LW
N
345.236 369.681 M
347.209 369.681 L
S
GR
GS
[0.75 0 0 0.75 0 0] CT
2 setlinecap
10.0 ML
0.667 LW
N
347.209 374 M
347.209 374 L
347.209 368.93 L
349.182 368.93 L
349.182 374 L
349.182 374 L
S
GR
GS
[0.75 0 0 0.75 0 0] CT
2 setlinecap
10.0 ML
0.667 LW
N
349.182 370.432 M
351.155 370.432 L
351.155 374 L
351.155 374 L
S
GR
GS
[0.75 0 0 0.75 0 0] CT
2 setlinecap
10.0 ML
0.667 LW
N
351.155 371.371 M
353.127 371.371 L
S
GR
GS
[0.75 0 0 0.75 0 0] CT
2 setlinecap
10.0 ML
0.667 LW
N
353.127 374 M
353.127 374 L
353.127 370.996 L
355.1 370.996 L
S
GR
GS
[0.75 0 0 0.75 0 0] CT
2 setlinecap
10.0 ML
0.667 LW
N
355.1 374 M
355.1 374 L
355.1 368.554 L
357.073 368.554 L
357.073 374 L
357.073 374 L
S
GR
GS
[0.75 0 0 0.75 0 0] CT
2 setlinecap
10.0 ML
0.667 LW
N
357.073 370.244 M
359.045 370.244 L
S
GR
GS
[0.75 0 0 0.75 0 0] CT
2 setlinecap
10.0 ML
0.667 LW
N
359.045 374 M
359.045 374 L
359.045 370.057 L
361.018 370.057 L
S
GR
GS
[0.75 0 0 0.75 0 0] CT
2 setlinecap
10.0 ML
0.667 LW
N
361.018 374 M
361.018 374 L
361.018 369.306 L
362.991 369.306 L
S
GR
GS
[0.75 0 0 0.75 0 0] CT
2 setlinecap
10.0 ML
0.667 LW
N
362.991 374 M
362.991 374 L
362.991 368.554 L
364.964 368.554 L
364.964 374 L
364.964 374 L
S
GR
GS
[0.75 0 0 0.75 0 0] CT
2 setlinecap
10.0 ML
0.667 LW
N
364.964 370.808 M
366.936 370.808 L
366.936 374 L
366.936 374 L
S
GR
GS
[0.75 0 0 0.75 0 0] CT
2 setlinecap
10.0 ML
0.667 LW
N
366.936 371.559 M
368.909 371.559 L
S
GR
GS
[0.75 0 0 0.75 0 0] CT
2 setlinecap
10.0 ML
0.667 LW
N
368.909 374 M
368.909 374 L
368.909 370.244 L
370.882 370.244 L
S
GR
GS
[0.75 0 0 0.75 0 0] CT
2 setlinecap
10.0 ML
0.667 LW
N
370.882 374 M
370.882 374 L
370.882 369.118 L
372.855 369.118 L
S
GR
GS
[0.75 0 0 0.75 0 0] CT
2 setlinecap
10.0 ML
0.667 LW
N
372.855 374 M
372.855 374 L
372.855 368.179 L
374.827 368.179 L
374.827 374 L
374.827 374 L
S
GR
GS
[0.75 0 0 0.75 0 0] CT
2 setlinecap
10.0 ML
0.667 LW
N
374.827 369.493 M
376.8 369.493 L
S
GR
GS
[0.75 0 0 0.75 0 0] CT
2 setlinecap
10.0 ML
0.667 LW
N
376.8 374 M
376.8 374 L
376.8 368.742 L
378.773 368.742 L
378.773 374 L
378.773 374 L
S
GR
GS
[0.75 0 0 0.75 0 0] CT
2 setlinecap
10.0 ML
0.667 LW
N
378.773 368.742 M
380.745 368.742 L
380.745 374 L
380.745 374 L
S
GR
GS
[0.75 0 0 0.75 0 0] CT
2 setlinecap
10.0 ML
0.667 LW
N
380.745 370.432 M
382.718 370.432 L
S
GR
GS
[0.75 0 0 0.75 0 0] CT
2 setlinecap
10.0 ML
0.667 LW
N
382.718 374 M
382.718 374 L
382.718 369.306 L
384.691 369.306 L
384.691 374 L
384.691 374 L
S
GR
GS
[0.75 0 0 0.75 0 0] CT
2 setlinecap
10.0 ML
0.667 LW
N
384.691 370.057 M
386.664 370.057 L
386.664 374 L
386.664 374 L
S
GR
GS
[0.75 0 0 0.75 0 0] CT
2 setlinecap
10.0 ML
0.667 LW
N
386.664 370.057 M
388.636 370.057 L
388.636 374 L
388.636 374 L
S
GR
GS
[0.75 0 0 0.75 0 0] CT
2 setlinecap
10.0 ML
0.667 LW
N
388.636 371.183 M
390.609 371.183 L
S
GR
GS
[0.75 0 0 0.75 0 0] CT
2 setlinecap
10.0 ML
0.667 LW
N
390.609 374 M
390.609 374 L
390.609 369.493 L
392.582 369.493 L
392.582 374 L
392.582 374 L
S
GR
GS
[0.75 0 0 0.75 0 0] CT
2 setlinecap
10.0 ML
0.667 LW
N
392.582 370.432 M
394.555 370.432 L
S
GR
GS
[0.75 0 0 0.75 0 0] CT
2 setlinecap
10.0 ML
0.667 LW
N
394.555 374 M
394.555 374 L
394.555 368.742 L
396.527 368.742 L
396.527 374 L
396.527 374 L
S
GR
GS
[0.75 0 0 0.75 0 0] CT
2 setlinecap
10.0 ML
0.667 LW
N
396.527 369.869 M
398.5 369.869 L
S
GR
GS
[0.75 0 0 0.75 0 0] CT
2 setlinecap
10.0 ML
0.667 LW
N
398.5 374 M
398.5 374 L
398.5 369.493 L
400.473 369.493 L
400.473 374 L
400.473 374 L
S
GR
GS
[0.75 0 0 0.75 0 0] CT
2 setlinecap
10.0 ML
0.667 LW
N
400.473 370.057 M
402.445 370.057 L
S
GR
GS
[0.75 0 0 0.75 0 0] CT
2 setlinecap
10.0 ML
0.667 LW
N
402.445 374 M
402.445 374 L
402.445 369.869 L
404.418 369.869 L
404.418 374 L
404.418 374 L
S
GR
GS
[0.75 0 0 0.75 0 0] CT
2 setlinecap
10.0 ML
0.667 LW
N
404.418 370.432 M
406.391 370.432 L
S
GR
GS
[0.75 0 0 0.75 0 0] CT
2 setlinecap
10.0 ML
0.667 LW
N
406.391 374 M
406.391 374 L
406.391 370.244 L
408.364 370.244 L
408.364 374 L
408.364 374 L
S
GR
GS
[0.75 0 0 0.75 0 0] CT
2 setlinecap
10.0 ML
0.667 LW
N
408.364 371.183 M
410.336 371.183 L
S
GR
GS
[0.75 0 0 0.75 0 0] CT
2 setlinecap
10.0 ML
0.667 LW
N
410.336 374 M
410.336 374 L
410.336 369.118 L
412.309 369.118 L
412.309 374 L
412.309 374 L
S
GR
GS
[0.75 0 0 0.75 0 0] CT
2 setlinecap
10.0 ML
0.667 LW
N
412.309 370.432 M
414.282 370.432 L
S
GR
GS
[0.75 0 0 0.75 0 0] CT
2 setlinecap
10.0 ML
0.667 LW
N
414.282 374 M
414.282 374 L
414.282 368.367 L
416.255 368.367 L
416.255 374 L
416.255 374 L
S
GR
GS
[0.75 0 0 0.75 0 0] CT
2 setlinecap
10.0 ML
0.667 LW
N
416.255 369.306 M
418.227 369.306 L
418.227 374 L
418.227 374 L
S
GR
GS
[0.75 0 0 0.75 0 0] CT
2 setlinecap
10.0 ML
0.667 LW
N
418.227 369.869 M
420.2 369.869 L
S
GR
GS
[0.75 0 0 0.75 0 0] CT
2 setlinecap
10.0 ML
0.667 LW
N
420.2 374 M
420.2 374 L
420.2 368.179 L
422.173 368.179 L
422.173 374 L
422.173 374 L
S
GR
GS
[0.75 0 0 0.75 0 0] CT
2 setlinecap
10.0 ML
0.667 LW
N
422.173 369.118 M
424.145 369.118 L
424.145 374 L
424.145 374 L
S
GR
GS
[0.75 0 0 0.75 0 0] CT
2 setlinecap
10.0 ML
0.667 LW
N
424.145 370.432 M
426.118 370.432 L
S
GR
GS
[0.75 0 0 0.75 0 0] CT
2 setlinecap
10.0 ML
0.667 LW
N
426.118 374 M
426.118 374 L
426.118 368.93 L
428.091 368.93 L
428.091 374 L
428.091 374 L
S
GR
GS
[0.75 0 0 0.75 0 0] CT
2 setlinecap
10.0 ML
0.667 LW
N
428.091 369.681 M
430.064 369.681 L
S
GR
GS
[0.75 0 0 0.75 0 0] CT
2 setlinecap
10.0 ML
0.667 LW
N
430.064 374 M
430.064 374 L
430.064 369.493 L
432.036 369.493 L
S
GR
GS
[0.75 0 0 0.75 0 0] CT
2 setlinecap
10.0 ML
0.667 LW
N
432.036 374 M
432.036 374 L
432.036 366.864 L
434.009 366.864 L
434.009 374 L
434.009 374 L
S
GR
GS
[0.75 0 0 0.75 0 0] CT
2 setlinecap
10.0 ML
0.667 LW
N
434.009 369.681 M
435.982 369.681 L
435.982 374 L
435.982 374 L
S
GR
GS
[0.75 0 0 0.75 0 0] CT
2 setlinecap
10.0 ML
0.667 LW
N
435.982 370.244 M
437.955 370.244 L
S
GR
GS
[0.75 0 0 0.75 0 0] CT
2 setlinecap
10.0 ML
0.667 LW
N
437.955 374 M
437.955 374 L
437.955 367.052 L
439.927 367.052 L
439.927 374 L
439.927 374 L
S
GR
GS
[0.75 0 0 0.75 0 0] CT
2 setlinecap
10.0 ML
0.667 LW
N
439.927 369.869 M
441.9 369.869 L
S
GR
GS
[0.75 0 0 0.75 0 0] CT
2 setlinecap
10.0 ML
0.667 LW
N
441.9 374 M
441.9 374 L
441.9 368.367 L
443.873 368.367 L
S
GR
GS
[0.75 0 0 0.75 0 0] CT
2 setlinecap
10.0 ML
0.667 LW
N
443.873 374 M
443.873 374 L
443.873 367.24 L
445.845 367.24 L
S
GR
GS
[0.75 0 0 0.75 0 0] CT
2 setlinecap
10.0 ML
0.667 LW
N
445.845 374 M
445.845 374 L
445.845 367.052 L
447.818 367.052 L
S
GR
GS
[0.75 0 0 0.75 0 0] CT
2 setlinecap
10.0 ML
0.667 LW
N
447.818 374 M
447.818 374 L
447.818 365.926 L
449.791 365.926 L
449.791 374 L
449.791 374 L
S
GR
GS
[0.75 0 0 0.75 0 0] CT
2 setlinecap
10.0 ML
0.667 LW
N
449.791 367.616 M
451.764 367.616 L
S
GR
GS
[0.75 0 0 0.75 0 0] CT
2 setlinecap
10.0 ML
0.667 LW
N
451.764 374 M
451.764 374 L
451.764 366.301 L
453.736 366.301 L
453.736 374 L
453.736 374 L
S
GR
GS
[0.75 0 0 0.75 0 0] CT
2 setlinecap
10.0 ML
0.667 LW
N
453.736 366.864 M
455.709 366.864 L
S
GR
GS
[0.75 0 0 0.75 0 0] CT
2 setlinecap
10.0 ML
0.667 LW
N
455.709 374 M
455.709 374 L
455.709 365.738 L
457.682 365.738 L
S
GR
GS
[0.75 0 0 0.75 0 0] CT
2 setlinecap
10.0 ML
0.667 LW
N
457.682 374 M
457.682 374 L
457.682 365.55 L
459.655 365.55 L
S
GR
GS
[0.75 0 0 0.75 0 0] CT
2 setlinecap
10.0 ML
0.667 LW
N
459.655 374 M
459.655 374 L
459.655 364.799 L
461.627 364.799 L
461.627 374 L
461.627 374 L
S
GR
GS
[0.75 0 0 0.75 0 0] CT
2 setlinecap
10.0 ML
0.667 LW
N
461.627 364.799 M
463.6 364.799 L
S
GR
GS
[0.75 0 0 0.75 0 0] CT
2 setlinecap
10.0 ML
0.667 LW
N
463.6 374 M
463.6 374 L
463.6 361.231 L
465.573 361.231 L
S
GR
GS
[0.75 0 0 0.75 0 0] CT
2 setlinecap
10.0 ML
0.667 LW
N
465.573 374 M
465.573 374 L
465.573 360.48 L
467.545 360.48 L
S
GR
GS
[0.75 0 0 0.75 0 0] CT
2 setlinecap
10.0 ML
0.667 LW
N
467.545 374 M
467.545 374 L
467.545 359.541 L
469.518 359.541 L
469.518 374 L
469.518 374 L
S
GR
GS
[0.75 0 0 0.75 0 0] CT
2 setlinecap
10.0 ML
0.667 LW
N
469.518 360.668 M
471.491 360.668 L
S
GR
GS
[0.75 0 0 0.75 0 0] CT
2 setlinecap
10.0 ML
0.667 LW
N
471.491 374 M
471.491 374 L
471.491 360.292 L
473.464 360.292 L
S
GR
GS
[0.75 0 0 0.75 0 0] CT
2 setlinecap
10.0 ML
0.667 LW
N
473.464 374 M
473.464 374 L
473.464 358.978 L
475.436 358.978 L
S
GR
GS
[0.75 0 0 0.75 0 0] CT
2 setlinecap
10.0 ML
0.667 LW
N
475.436 374 M
475.436 374 L
475.436 356.724 L
477.409 356.724 L
S
GR
GS
[0.75 0 0 0.75 0 0] CT
2 setlinecap
10.0 ML
0.667 LW
N
477.409 374 M
477.409 374 L
477.409 352.03 L
479.382 352.03 L
S
GR
GS
[0.75 0 0 0.75 0 0] CT
2 setlinecap
10.0 ML
0.667 LW
N
479.382 374 M
479.382 374 L
479.382 346.584 L
481.355 346.584 L
481.355 374 L
481.355 374 L
S
GR
GS
[0.75 0 0 0.75 0 0] CT
2 setlinecap
10.0 ML
0.667 LW
N
481.355 346.584 M
483.327 346.584 L
S
GR
GS
[0.75 0 0 0.75 0 0] CT
2 setlinecap
10.0 ML
0.667 LW
N
483.327 374 M
483.327 374 L
483.327 326.117 L
485.3 326.117 L
S
GR
GS
[0.75 0 0 0.75 0 0] CT
2 setlinecap
10.0 ML
0.667 LW
N
485.3 374 M
485.3 374 L
485.3 274.666 L
487.273 274.666 L
487.273 374 L
S
GR
GS
[0.75 0 0 0.75 0 0] CT
0.149 GC
2 setlinecap
1 LJ
0.667 LW
N
73 374 M
507 374 L
S
GR
GS
[0.75 0 0 0.75 0 0] CT
0.149 GC
2 setlinecap
1 LJ
0.667 LW
N
73 36 M
507 36 L
S
GR
GS
[0.75 0 0 0.75 0 0] CT
0.149 GC
2 setlinecap
1 LJ
0.667 LW
N
92.727 374 M
92.727 369.66 L
S
GR
GS
[0.75 0 0 0.75 0 0] CT
0.149 GC
2 setlinecap
1 LJ
0.667 LW
N
132.182 374 M
132.182 369.66 L
S
GR
GS
[0.75 0 0 0.75 0 0] CT
0.149 GC
2 setlinecap
1 LJ
0.667 LW
N
171.636 374 M
171.636 369.66 L
S
GR
GS
[0.75 0 0 0.75 0 0] CT
0.149 GC
2 setlinecap
1 LJ
0.667 LW
N
211.091 374 M
211.091 369.66 L
S
GR
GS
[0.75 0 0 0.75 0 0] CT
0.149 GC
2 setlinecap
1 LJ
0.667 LW
N
250.545 374 M
250.545 369.66 L
S
GR
GS
[0.75 0 0 0.75 0 0] CT
0.149 GC
2 setlinecap
1 LJ
0.667 LW
N
290 374 M
290 369.66 L
S
GR
GS
[0.75 0 0 0.75 0 0] CT
0.149 GC
2 setlinecap
1 LJ
0.667 LW
N
329.455 374 M
329.455 369.66 L
S
GR
GS
[0.75 0 0 0.75 0 0] CT
0.149 GC
2 setlinecap
1 LJ
0.667 LW
N
368.909 374 M
368.909 369.66 L
S
GR
GS
[0.75 0 0 0.75 0 0] CT
0.149 GC
2 setlinecap
1 LJ
0.667 LW
N
408.364 374 M
408.364 369.66 L
S
GR
GS
[0.75 0 0 0.75 0 0] CT
0.149 GC
2 setlinecap
1 LJ
0.667 LW
N
447.818 374 M
447.818 369.66 L
S
GR
GS
[0.75 0 0 0.75 0 0] CT
0.149 GC
2 setlinecap
1 LJ
0.667 LW
N
487.273 374 M
487.273 369.66 L
S
GR
GS
[0.75 0 0 0.75 0 0] CT
0.149 GC
2 setlinecap
1 LJ
0.667 LW
N
92.727 36 M
92.727 40.34 L
S
GR
GS
[0.75 0 0 0.75 0 0] CT
0.149 GC
2 setlinecap
1 LJ
0.667 LW
N
132.182 36 M
132.182 40.34 L
S
GR
GS
[0.75 0 0 0.75 0 0] CT
0.149 GC
2 setlinecap
1 LJ
0.667 LW
N
171.636 36 M
171.636 40.34 L
S
GR
GS
[0.75 0 0 0.75 0 0] CT
0.149 GC
2 setlinecap
1 LJ
0.667 LW
N
211.091 36 M
211.091 40.34 L
S
GR
GS
[0.75 0 0 0.75 0 0] CT
0.149 GC
2 setlinecap
1 LJ
0.667 LW
N
250.545 36 M
250.545 40.34 L
S
GR
GS
[0.75 0 0 0.75 0 0] CT
0.149 GC
2 setlinecap
1 LJ
0.667 LW
N
290 36 M
290 40.34 L
S
GR
GS
[0.75 0 0 0.75 0 0] CT
0.149 GC
2 setlinecap
1 LJ
0.667 LW
N
329.455 36 M
329.455 40.34 L
S
GR
GS
[0.75 0 0 0.75 0 0] CT
0.149 GC
2 setlinecap
1 LJ
0.667 LW
N
368.909 36 M
368.909 40.34 L
S
GR
GS
[0.75 0 0 0.75 0 0] CT
0.149 GC
2 setlinecap
1 LJ
0.667 LW
N
408.364 36 M
408.364 40.34 L
S
GR
GS
[0.75 0 0 0.75 0 0] CT
0.149 GC
2 setlinecap
1 LJ
0.667 LW
N
447.818 36 M
447.818 40.34 L
S
GR
GS
[0.75 0 0 0.75 0 0] CT
0.149 GC
2 setlinecap
1 LJ
0.667 LW
N
487.273 36 M
487.273 40.34 L
S
GR
GS
[0.75 0 0 0.75 69.54545 284.50001] CT
0.149 GC
/Helvetica 13.333 F
GS
[1 0 0 1 0 0] CT
-4 14 moveto 
1 -1 scale
(0) t 
GR
GR
GS
[0.75 0 0 0.75 99.13637 284.50001] CT
0.149 GC
/Helvetica 13.333 F
GS
[1 0 0 1 0 0] CT
-9.5 14 moveto 
1 -1 scale
(0.1) t 
GR
GR
GS
[0.75 0 0 0.75 128.72728 284.50001] CT
0.149 GC
/Helvetica 13.333 F
GS
[1 0 0 1 0 0] CT
-9.5 14 moveto 
1 -1 scale
(0.2) t 
GR
GR
GS
[0.75 0 0 0.75 158.31818 284.50001] CT
0.149 GC
/Helvetica 13.333 F
GS
[1 0 0 1 0 0] CT
-9.5 14 moveto 
1 -1 scale
(0.3) t 
GR
GR
GS
[0.75 0 0 0.75 187.90909 284.50001] CT
0.149 GC
/Helvetica 13.333 F
GS
[1 0 0 1 0 0] CT
-9.5 14 moveto 
1 -1 scale
(0.4) t 
GR
GR
GS
[0.75 0 0 0.75 217.5 284.50001] CT
0.149 GC
/Helvetica 13.333 F
GS
[1 0 0 1 0 0] CT
-9.5 14 moveto 
1 -1 scale
(0.5) t 
GR
GR
GS
[0.75 0 0 0.75 247.09092 284.50001] CT
0.149 GC
/Helvetica 13.333 F
GS
[1 0 0 1 0 0] CT
-9.5 14 moveto 
1 -1 scale
(0.6) t 
GR
GR
GS
[0.75 0 0 0.75 276.68182 284.50001] CT
0.149 GC
/Helvetica 13.333 F
GS
[1 0 0 1 0 0] CT
-9.5 14 moveto 
1 -1 scale
(0.7) t 
GR
GR
GS
[0.75 0 0 0.75 306.27274 284.50001] CT
0.149 GC
/Helvetica 13.333 F
GS
[1 0 0 1 0 0] CT
-9.5 14 moveto 
1 -1 scale
(0.8) t 
GR
GR
GS
[0.75 0 0 0.75 335.86363 284.50001] CT
0.149 GC
/Helvetica 13.333 F
GS
[1 0 0 1 0 0] CT
-9.5 14 moveto 
1 -1 scale
(0.9) t 
GR
GR
GS
[0.75 0 0 0.75 365.45455 284.50001] CT
0.149 GC
/Helvetica 13.333 F
GS
[1 0 0 1 0 0] CT
-4 14 moveto 
1 -1 scale
(1) t 
GR
GR
GS
[0.75 0 0 0.75 0 0] CT
0.149 GC
2 setlinecap
1 LJ
0.667 LW
N
73 374 M
73 36 L
S
GR
GS
[0.75 0 0 0.75 0 0] CT
0.149 GC
2 setlinecap
1 LJ
0.667 LW
N
507 374 M
507 36 L
S
GR
GS
[0.75 0 0 0.75 0 0] CT
0.149 GC
2 setlinecap
1 LJ
0.667 LW
N
73 374 M
77.34 374 L
S
GR
GS
[0.75 0 0 0.75 0 0] CT
0.149 GC
2 setlinecap
1 LJ
0.667 LW
N
73 336.444 M
77.34 336.444 L
S
GR
GS
[0.75 0 0 0.75 0 0] CT
0.149 GC
2 setlinecap
1 LJ
0.667 LW
N
73 298.889 M
77.34 298.889 L
S
GR
GS
[0.75 0 0 0.75 0 0] CT
0.149 GC
2 setlinecap
1 LJ
0.667 LW
N
73 261.333 M
77.34 261.333 L
S
GR
GS
[0.75 0 0 0.75 0 0] CT
0.149 GC
2 setlinecap
1 LJ
0.667 LW
N
73 223.778 M
77.34 223.778 L
S
GR
GS
[0.75 0 0 0.75 0 0] CT
0.149 GC
2 setlinecap
1 LJ
0.667 LW
N
73 186.222 M
77.34 186.222 L
S
GR
GS
[0.75 0 0 0.75 0 0] CT
0.149 GC
2 setlinecap
1 LJ
0.667 LW
N
73 148.667 M
77.34 148.667 L
S
GR
GS
[0.75 0 0 0.75 0 0] CT
0.149 GC
2 setlinecap
1 LJ
0.667 LW
N
73 111.111 M
77.34 111.111 L
S
GR
GS
[0.75 0 0 0.75 0 0] CT
0.149 GC
2 setlinecap
1 LJ
0.667 LW
N
73 73.556 M
77.34 73.556 L
S
GR
GS
[0.75 0 0 0.75 0 0] CT
0.149 GC
2 setlinecap
1 LJ
0.667 LW
N
73 36 M
77.34 36 L
S
GR
GS
[0.75 0 0 0.75 0 0] CT
0.149 GC
2 setlinecap
1 LJ
0.667 LW
N
507 374 M
502.66 374 L
S
GR
GS
[0.75 0 0 0.75 0 0] CT
0.149 GC
2 setlinecap
1 LJ
0.667 LW
N
507 336.444 M
502.66 336.444 L
S
GR
GS
[0.75 0 0 0.75 0 0] CT
0.149 GC
2 setlinecap
1 LJ
0.667 LW
N
507 298.889 M
502.66 298.889 L
S
GR
GS
[0.75 0 0 0.75 0 0] CT
0.149 GC
2 setlinecap
1 LJ
0.667 LW
N
507 261.333 M
502.66 261.333 L
S
GR
GS
[0.75 0 0 0.75 0 0] CT
0.149 GC
2 setlinecap
1 LJ
0.667 LW
N
507 223.778 M
502.66 223.778 L
S
GR
GS
[0.75 0 0 0.75 0 0] CT
0.149 GC
2 setlinecap
1 LJ
0.667 LW
N
507 186.222 M
502.66 186.222 L
S
GR
GS
[0.75 0 0 0.75 0 0] CT
0.149 GC
2 setlinecap
1 LJ
0.667 LW
N
507 148.667 M
502.66 148.667 L
S
GR
GS
[0.75 0 0 0.75 0 0] CT
0.149 GC
2 setlinecap
1 LJ
0.667 LW
N
507 111.111 M
502.66 111.111 L
S
GR
GS
[0.75 0 0 0.75 0 0] CT
0.149 GC
2 setlinecap
1 LJ
0.667 LW
N
507 73.556 M
502.66 73.556 L
S
GR
GS
[0.75 0 0 0.75 0 0] CT
0.149 GC
2 setlinecap
1 LJ
0.667 LW
N
507 36 M
502.66 36 L
S
GR
GS
[0.75 0 0 0.75 50.75 280.5] CT
0.149 GC
/Helvetica 13.333 F
GS
[1 0 0 1 0 0] CT
-8 5.5 moveto 
1 -1 scale
(0) t 
GR
GR
GS
[0.75 0 0 0.75 50.75 252.33334] CT
0.149 GC
/Helvetica 13.333 F
GS
[1 0 0 1 0 0] CT
-23 5.5 moveto 
1 -1 scale
(200) t 
GR
GR
GS
[0.75 0 0 0.75 50.75 224.16666] CT
0.149 GC
/Helvetica 13.333 F
GS
[1 0 0 1 0 0] CT
-23 5.5 moveto 
1 -1 scale
(400) t 
GR
GR
GS
[0.75 0 0 0.75 50.75 196.00001] CT
0.149 GC
/Helvetica 13.333 F
GS
[1 0 0 1 0 0] CT
-23 5.5 moveto 
1 -1 scale
(600) t 
GR
GR
GS
[0.75 0 0 0.75 50.75 167.83333] CT
0.149 GC
/Helvetica 13.333 F
GS
[1 0 0 1 0 0] CT
-23 5.5 moveto 
1 -1 scale
(800) t 
GR
GR
GS
[0.75 0 0 0.75 50.75 139.66667] CT
0.149 GC
/Helvetica 13.333 F
GS
[1 0 0 1 0 0] CT
-30 5.5 moveto 
1 -1 scale
(1000) t 
GR
GR
GS
[0.75 0 0 0.75 50.75 111.5] CT
0.149 GC
/Helvetica 13.333 F
GS
[1 0 0 1 0 0] CT
-30 5.5 moveto 
1 -1 scale
(1200) t 
GR
GR
GS
[0.75 0 0 0.75 50.75 83.33334] CT
0.149 GC
/Helvetica 13.333 F
GS
[1 0 0 1 0 0] CT
-30 5.5 moveto 
1 -1 scale
(1400) t 
GR
GR
GS
[0.75 0 0 0.75 50.75 55.16667] CT
0.149 GC
/Helvetica 13.333 F
GS
[1 0 0 1 0 0] CT
-30 5.5 moveto 
1 -1 scale
(1600) t 
GR
GR
GS
[0.75 0 0 0.75 50.75 27] CT
0.149 GC
/Helvetica 13.333 F
GS
[1 0 0 1 0 0] CT
-30 5.5 moveto 
1 -1 scale
(1800) t 
GR
GR
GS
[0 -0.75 0.75 0 25.25 153.74987] CT
0.149 GC
/Helvetica 14.667 F
GS
[1 0 0 1 0 0] CT
-53.5 -4 moveto 
1 -1 scale
(Anzahl Dreiecke) t 
GR
GR
GS
[0.75 0 0 0.75 0 0] CT
1 GC
N
496 99 M
496 46 L
346 46 L
346 99 L
cp
f
GR
GS
[0.75 0 0 0.75 294.75 42] CT
/Helvetica 12 F
GS
[1 0 0 1 0 0] CT
0 5 moveto 
1 -1 scale
(Anfang) t 
GR
GR
GS
[0.75 0 0 0.75 0 0] CT
0.4 0.668 0.845 RC
N
390 62 M
390 50 L
350 50 L
350 62 L
cp
f
GR
GS
[0.75 0 0 0.75 0 0] CT
10.0 ML
0.667 LW
N
350 62 M
350 50 L
390 50 L
390 62 L
cp
S
GR
GS
[0.75 0 0 0.75 294.75 54.375] CT
/Helvetica 12 F
GS
[1 0 0 1 0 0] CT
0 5 moveto 
1 -1 scale
(Ale Ergebnis) t 
GR
GR
GS
[0.75 0 0 0.75 0 0] CT
0.911 0.595 0.459 RC
N
390 78.5 M
390 66.5 L
350 66.5 L
350 78.5 L
cp
f
GR
GS
[0.75 0 0 0.75 0 0] CT
10.0 ML
0.667 LW
N
350 78.5 M
350 66.5 L
390 66.5 L
390 78.5 L
cp
S
GR
GS
[0.75 0 0 0.75 294.75 66.75] CT
/Helvetica 12 F
GS
[1 0 0 1 0 0] CT
0 5 moveto 
1 -1 scale
(Ergebnis ohne Ale) t 
GR
GR
GS
[0.75 0 0 0.75 0 0] CT
0.958 0.816 0.475 RC
N
390 95 M
390 83 L
350 83 L
350 95 L
cp
f
GR
GS
[0.75 0 0 0.75 0 0] CT
10.0 ML
0.667 LW
N
350 95 M
350 83 L
390 83 L
390 95 L
cp
S
GR
GS
[0.75 0 0 0.75 0 0] CT
0.149 GC
10.0 ML
0.667 LW
N
346 99 M
346 46 L
496 46 L
496 99 L
cp
S
GR
%%Trailer
%%Pages: 1
%%EOF
