%!PS-Adobe-3.0 EPSF-3.0
%%Creator: (MATLAB, The Mathworks, Inc. Version 9.7.0.1319299 \(R2019b\) Update 5. Operating System: Windows 10)
%%Title: Plots_Quality/Dziuk_Dumbbell_Time.eps
%%CreationDate: 2020-12-17T16:34:29
%%Pages: (atend)
%%BoundingBox:    39     5   385   315
%%LanguageLevel: 2
%%EndComments
%%BeginProlog
%%BeginResource: procset (Apache XML Graphics Std ProcSet) 1.2 0
%%Version: 1.2 0
%%Copyright: (Copyright 2001-2003,2010 The Apache Software Foundation. License terms: http://www.apache.org/licenses/LICENSE-2.0)
/bd{bind def}bind def
/ld{load def}bd
/GR/grestore ld
/GS/gsave ld
/RM/rmoveto ld
/C/curveto ld
/t/show ld
/L/lineto ld
/ML/setmiterlimit ld
/CT/concat ld
/f/fill ld
/N/newpath ld
/S/stroke ld
/CC/setcmykcolor ld
/A/ashow ld
/cp/closepath ld
/RC/setrgbcolor ld
/LJ/setlinejoin ld
/GC/setgray ld
/LW/setlinewidth ld
/M/moveto ld
/re {4 2 roll M
1 index 0 rlineto
0 exch rlineto
neg 0 rlineto
cp } bd
/_ctm matrix def
/_tm matrix def
/BT { _ctm currentmatrix pop matrix _tm copy pop 0 0 moveto } bd
/ET { _ctm setmatrix } bd
/iTm { _ctm setmatrix _tm concat } bd
/Tm { _tm astore pop iTm 0 0 moveto } bd
/ux 0.0 def
/uy 0.0 def
/F {
  /Tp exch def
  /Tf exch def
  Tf findfont Tp scalefont setfont
  /cf Tf def  /cs Tp def
} bd
/ULS {currentpoint /uy exch def /ux exch def} bd
/ULE {
  /Tcx currentpoint pop def
  gsave
  newpath
  cf findfont cs scalefont dup
  /FontMatrix get 0 get /Ts exch def /FontInfo get dup
  /UnderlinePosition get Ts mul /To exch def
  /UnderlineThickness get Ts mul /Tt exch def
  ux uy To add moveto  Tcx uy To add lineto
  Tt setlinewidth stroke
  grestore
} bd
/OLE {
  /Tcx currentpoint pop def
  gsave
  newpath
  cf findfont cs scalefont dup
  /FontMatrix get 0 get /Ts exch def /FontInfo get dup
  /UnderlinePosition get Ts mul /To exch def
  /UnderlineThickness get Ts mul /Tt exch def
  ux uy To add cs add moveto Tcx uy To add cs add lineto
  Tt setlinewidth stroke
  grestore
} bd
/SOE {
  /Tcx currentpoint pop def
  gsave
  newpath
  cf findfont cs scalefont dup
  /FontMatrix get 0 get /Ts exch def /FontInfo get dup
  /UnderlinePosition get Ts mul /To exch def
  /UnderlineThickness get Ts mul /Tt exch def
  ux uy To add cs 10 mul 26 idiv add moveto Tcx uy To add cs 10 mul 26 idiv add lineto
  Tt setlinewidth stroke
  grestore
} bd
/QT {
/Y22 exch store
/X22 exch store
/Y21 exch store
/X21 exch store
currentpoint
/Y21 load 2 mul add 3 div exch
/X21 load 2 mul add 3 div exch
/X21 load 2 mul /X22 load add 3 div
/Y21 load 2 mul /Y22 load add 3 div
/X22 load /Y22 load curveto
} bd
/SSPD {
dup length /d exch dict def
{
/v exch def
/k exch def
currentpagedevice k known {
/cpdv currentpagedevice k get def
v cpdv ne {
/upd false def
/nullv v type /nulltype eq def
/nullcpdv cpdv type /nulltype eq def
nullv nullcpdv or
{
/upd true def
} {
/sametype v type cpdv type eq def
sametype {
v type /arraytype eq {
/vlen v length def
/cpdvlen cpdv length def
vlen cpdvlen eq {
0 1 vlen 1 sub {
/i exch def
/obj v i get def
/cpdobj cpdv i get def
obj cpdobj ne {
/upd true def
exit
} if
} for
} {
/upd true def
} ifelse
} {
v type /dicttype eq {
v {
/dv exch def
/dk exch def
/cpddv cpdv dk get def
dv cpddv ne {
/upd true def
exit
} if
} forall
} {
/upd true def
} ifelse
} ifelse
} if
} ifelse
upd true eq {
d k v put
} if
} if
} if
} forall
d length 0 gt {
d setpagedevice
} if
} bd
/RE { % /NewFontName [NewEncodingArray] /FontName RE -
  findfont dup length dict begin
  {
    1 index /FID ne
    {def} {pop pop} ifelse
  } forall
  /Encoding exch def
  /FontName 1 index def
  currentdict definefont pop
  end
} bind def
%%EndResource
%%BeginResource: procset (Apache XML Graphics EPS ProcSet) 1.0 0
%%Version: 1.0 0
%%Copyright: (Copyright 2002-2003 The Apache Software Foundation. License terms: http://www.apache.org/licenses/LICENSE-2.0)
/BeginEPSF { %def
/b4_Inc_state save def         % Save state for cleanup
/dict_count countdictstack def % Count objects on dict stack
/op_count count 1 sub def      % Count objects on operand stack
userdict begin                 % Push userdict on dict stack
/showpage { } def              % Redefine showpage, { } = null proc
0 setgray 0 setlinecap         % Prepare graphics state
1 setlinewidth 0 setlinejoin
10 setmiterlimit [ ] 0 setdash newpath
/languagelevel where           % If level not equal to 1 then
{pop languagelevel             % set strokeadjust and
1 ne                           % overprint to their defaults.
{false setstrokeadjust false setoverprint
} if
} if
} bd
/EndEPSF { %def
count op_count sub {pop} repeat            % Clean up stacks
countdictstack dict_count sub {end} repeat
b4_Inc_state restore
} bd
%%EndResource
%FOPBeginFontDict
%%IncludeResource: font Courier-Oblique
%%IncludeResource: font Courier-BoldOblique
%%IncludeResource: font Courier-Bold
%%IncludeResource: font ZapfDingbats
%%IncludeResource: font Symbol
%%IncludeResource: font Helvetica
%%IncludeResource: font Helvetica-Oblique
%%IncludeResource: font Helvetica-Bold
%%IncludeResource: font Helvetica-BoldOblique
%%IncludeResource: font Times-Roman
%%IncludeResource: font Times-Italic
%%IncludeResource: font Times-Bold
%%IncludeResource: font Times-BoldItalic
%%IncludeResource: font Courier
%FOPEndFontDict
%%BeginResource: encoding WinAnsiEncoding
/WinAnsiEncoding [
/.notdef /.notdef /.notdef /.notdef /.notdef
/.notdef /.notdef /.notdef /.notdef /.notdef
/.notdef /.notdef /.notdef /.notdef /.notdef
/.notdef /.notdef /.notdef /.notdef /.notdef
/.notdef /.notdef /.notdef /.notdef /.notdef
/.notdef /.notdef /.notdef /.notdef /.notdef
/.notdef /.notdef /space /exclam /quotedbl
/numbersign /dollar /percent /ampersand /quotesingle
/parenleft /parenright /asterisk /plus /comma
/hyphen /period /slash /zero /one
/two /three /four /five /six
/seven /eight /nine /colon /semicolon
/less /equal /greater /question /at
/A /B /C /D /E
/F /G /H /I /J
/K /L /M /N /O
/P /Q /R /S /T
/U /V /W /X /Y
/Z /bracketleft /backslash /bracketright /asciicircum
/underscore /quoteleft /a /b /c
/d /e /f /g /h
/i /j /k /l /m
/n /o /p /q /r
/s /t /u /v /w
/x /y /z /braceleft /bar
/braceright /asciitilde /bullet /Euro /bullet
/quotesinglbase /florin /quotedblbase /ellipsis /dagger
/daggerdbl /circumflex /perthousand /Scaron /guilsinglleft
/OE /bullet /Zcaron /bullet /bullet
/quoteleft /quoteright /quotedblleft /quotedblright /bullet
/endash /emdash /asciitilde /trademark /scaron
/guilsinglright /oe /bullet /zcaron /Ydieresis
/space /exclamdown /cent /sterling /currency
/yen /brokenbar /section /dieresis /copyright
/ordfeminine /guillemotleft /logicalnot /sfthyphen /registered
/macron /degree /plusminus /twosuperior /threesuperior
/acute /mu /paragraph /middot /cedilla
/onesuperior /ordmasculine /guillemotright /onequarter /onehalf
/threequarters /questiondown /Agrave /Aacute /Acircumflex
/Atilde /Adieresis /Aring /AE /Ccedilla
/Egrave /Eacute /Ecircumflex /Edieresis /Igrave
/Iacute /Icircumflex /Idieresis /Eth /Ntilde
/Ograve /Oacute /Ocircumflex /Otilde /Odieresis
/multiply /Oslash /Ugrave /Uacute /Ucircumflex
/Udieresis /Yacute /Thorn /germandbls /agrave
/aacute /acircumflex /atilde /adieresis /aring
/ae /ccedilla /egrave /eacute /ecircumflex
/edieresis /igrave /iacute /icircumflex /idieresis
/eth /ntilde /ograve /oacute /ocircumflex
/otilde /odieresis /divide /oslash /ugrave
/uacute /ucircumflex /udieresis /yacute /thorn
/ydieresis
] def
%%EndResource
%FOPBeginFontReencode
/Courier-Oblique findfont
dup length dict begin
  {1 index /FID ne {def} {pop pop} ifelse} forall
  /Encoding WinAnsiEncoding def
  currentdict
end
/Courier-Oblique exch definefont pop
/Courier-BoldOblique findfont
dup length dict begin
  {1 index /FID ne {def} {pop pop} ifelse} forall
  /Encoding WinAnsiEncoding def
  currentdict
end
/Courier-BoldOblique exch definefont pop
/Courier-Bold findfont
dup length dict begin
  {1 index /FID ne {def} {pop pop} ifelse} forall
  /Encoding WinAnsiEncoding def
  currentdict
end
/Courier-Bold exch definefont pop
/Helvetica findfont
dup length dict begin
  {1 index /FID ne {def} {pop pop} ifelse} forall
  /Encoding WinAnsiEncoding def
  currentdict
end
/Helvetica exch definefont pop
/Helvetica-Oblique findfont
dup length dict begin
  {1 index /FID ne {def} {pop pop} ifelse} forall
  /Encoding WinAnsiEncoding def
  currentdict
end
/Helvetica-Oblique exch definefont pop
/Helvetica-Bold findfont
dup length dict begin
  {1 index /FID ne {def} {pop pop} ifelse} forall
  /Encoding WinAnsiEncoding def
  currentdict
end
/Helvetica-Bold exch definefont pop
/Helvetica-BoldOblique findfont
dup length dict begin
  {1 index /FID ne {def} {pop pop} ifelse} forall
  /Encoding WinAnsiEncoding def
  currentdict
end
/Helvetica-BoldOblique exch definefont pop
/Times-Roman findfont
dup length dict begin
  {1 index /FID ne {def} {pop pop} ifelse} forall
  /Encoding WinAnsiEncoding def
  currentdict
end
/Times-Roman exch definefont pop
/Times-Italic findfont
dup length dict begin
  {1 index /FID ne {def} {pop pop} ifelse} forall
  /Encoding WinAnsiEncoding def
  currentdict
end
/Times-Italic exch definefont pop
/Times-Bold findfont
dup length dict begin
  {1 index /FID ne {def} {pop pop} ifelse} forall
  /Encoding WinAnsiEncoding def
  currentdict
end
/Times-Bold exch definefont pop
/Times-BoldItalic findfont
dup length dict begin
  {1 index /FID ne {def} {pop pop} ifelse} forall
  /Encoding WinAnsiEncoding def
  currentdict
end
/Times-BoldItalic exch definefont pop
/Courier findfont
dup length dict begin
  {1 index /FID ne {def} {pop pop} ifelse} forall
  /Encoding WinAnsiEncoding def
  currentdict
end
/Courier exch definefont pop
%FOPEndFontReencode
%%EndProlog
%%Page: 1 1
%%PageBoundingBox: 0 0 420 315
%%BeginPageSetup
[1 0 0 -1 0 315] CT
%%EndPageSetup
GS
[0.75 0 0 0.75 0 0] CT
1 GC
N
0 0 560 420 re
f
GR
GS
[0.75 0 0 0.75 0 0] CT
1 GC
N
0 0 560 420 re
f
GR
GS
[0.75 0 0 0.75 0 0] CT
1 GC
N
73 374 M
507 374 L
507 37 L
73 37 L
cp
f
GR
GS
[0.75 0 0 0.75 0 0] CT
0.149 GC
2 setlinecap
1 LJ
0.667 LW
N
73 374 M
507 374 L
S
GR
GS
[0.75 0 0 0.75 0 0] CT
0.149 GC
2 setlinecap
1 LJ
0.667 LW
N
73 37 M
507 37 L
S
GR
GS
[0.75 0 0 0.75 0 0] CT
0.149 GC
2 setlinecap
1 LJ
0.667 LW
N
73 374 M
73 369.66 L
S
GR
GS
[0.75 0 0 0.75 0 0] CT
0.149 GC
2 setlinecap
1 LJ
0.667 LW
N
145.333 374 M
145.333 369.66 L
S
GR
GS
[0.75 0 0 0.75 0 0] CT
0.149 GC
2 setlinecap
1 LJ
0.667 LW
N
217.667 374 M
217.667 369.66 L
S
GR
GS
[0.75 0 0 0.75 0 0] CT
0.149 GC
2 setlinecap
1 LJ
0.667 LW
N
290 374 M
290 369.66 L
S
GR
GS
[0.75 0 0 0.75 0 0] CT
0.149 GC
2 setlinecap
1 LJ
0.667 LW
N
362.333 374 M
362.333 369.66 L
S
GR
GS
[0.75 0 0 0.75 0 0] CT
0.149 GC
2 setlinecap
1 LJ
0.667 LW
N
434.667 374 M
434.667 369.66 L
S
GR
GS
[0.75 0 0 0.75 0 0] CT
0.149 GC
2 setlinecap
1 LJ
0.667 LW
N
507 374 M
507 369.66 L
S
GR
GS
[0.75 0 0 0.75 0 0] CT
0.149 GC
2 setlinecap
1 LJ
0.667 LW
N
73 37 M
73 41.34 L
S
GR
GS
[0.75 0 0 0.75 0 0] CT
0.149 GC
2 setlinecap
1 LJ
0.667 LW
N
145.333 37 M
145.333 41.34 L
S
GR
GS
[0.75 0 0 0.75 0 0] CT
0.149 GC
2 setlinecap
1 LJ
0.667 LW
N
217.667 37 M
217.667 41.34 L
S
GR
GS
[0.75 0 0 0.75 0 0] CT
0.149 GC
2 setlinecap
1 LJ
0.667 LW
N
290 37 M
290 41.34 L
S
GR
GS
[0.75 0 0 0.75 0 0] CT
0.149 GC
2 setlinecap
1 LJ
0.667 LW
N
362.333 37 M
362.333 41.34 L
S
GR
GS
[0.75 0 0 0.75 0 0] CT
0.149 GC
2 setlinecap
1 LJ
0.667 LW
N
434.667 37 M
434.667 41.34 L
S
GR
GS
[0.75 0 0 0.75 0 0] CT
0.149 GC
2 setlinecap
1 LJ
0.667 LW
N
507 37 M
507 41.34 L
S
GR
GS
[0.75 0 0 0.75 54.75 284.50001] CT
0.149 GC
/Helvetica 13.333 F
GS
[1 0 0 1 0 0] CT
-4 14 moveto 
1 -1 scale
(0) t 
GR
GR
GS
[0.75 0 0 0.75 109 284.50001] CT
0.149 GC
/Helvetica 13.333 F
GS
[1 0 0 1 0 0] CT
-4 14 moveto 
1 -1 scale
(5) t 
GR
GR
GS
[0.75 0 0 0.75 163.25 284.50001] CT
0.149 GC
/Helvetica 13.333 F
GS
[1 0 0 1 0 0] CT
-7.5 14 moveto 
1 -1 scale
(10) t 
GR
GR
GS
[0.75 0 0 0.75 217.5 284.50001] CT
0.149 GC
/Helvetica 13.333 F
GS
[1 0 0 1 0 0] CT
-7.5 14 moveto 
1 -1 scale
(15) t 
GR
GR
GS
[0.75 0 0 0.75 271.75001 284.50001] CT
0.149 GC
/Helvetica 13.333 F
GS
[1 0 0 1 0 0] CT
-7.5 14 moveto 
1 -1 scale
(20) t 
GR
GR
GS
[0.75 0 0 0.75 325.99999 284.50001] CT
0.149 GC
/Helvetica 13.333 F
GS
[1 0 0 1 0 0] CT
-7.5 14 moveto 
1 -1 scale
(25) t 
GR
GR
GS
[0.75 0 0 0.75 380.25 284.50001] CT
0.149 GC
/Helvetica 13.333 F
GS
[1 0 0 1 0 0] CT
-7.5 14 moveto 
1 -1 scale
(30) t 
GR
GR
GS
[0.75 0 0 0.75 217.50016 298.24999] CT
0.149 GC
/Helvetica 14.667 F
GS
[1 0 0 1 0 0] CT
-36 15 moveto 
1 -1 scale
(Zeitschritte) t 
GR
GR
GS
[0.75 0 0 0.75 0 0] CT
0.149 GC
2 setlinecap
1 LJ
0.667 LW
N
73 374 M
73 37 L
S
GR
GS
[0.75 0 0 0.75 0 0] CT
0.149 GC
2 setlinecap
1 LJ
0.667 LW
N
507 374 M
507 37 L
S
GR
GS
[0.75 0 0 0.75 0 0] CT
0.149 GC
2 setlinecap
1 LJ
0.667 LW
N
73 374 M
77.34 374 L
S
GR
GS
[0.75 0 0 0.75 0 0] CT
0.149 GC
2 setlinecap
1 LJ
0.667 LW
N
73 331.875 M
77.34 331.875 L
S
GR
GS
[0.75 0 0 0.75 0 0] CT
0.149 GC
2 setlinecap
1 LJ
0.667 LW
N
73 289.75 M
77.34 289.75 L
S
GR
GS
[0.75 0 0 0.75 0 0] CT
0.149 GC
2 setlinecap
1 LJ
0.667 LW
N
73 247.625 M
77.34 247.625 L
S
GR
GS
[0.75 0 0 0.75 0 0] CT
0.149 GC
2 setlinecap
1 LJ
0.667 LW
N
73 205.5 M
77.34 205.5 L
S
GR
GS
[0.75 0 0 0.75 0 0] CT
0.149 GC
2 setlinecap
1 LJ
0.667 LW
N
73 163.375 M
77.34 163.375 L
S
GR
GS
[0.75 0 0 0.75 0 0] CT
0.149 GC
2 setlinecap
1 LJ
0.667 LW
N
73 121.25 M
77.34 121.25 L
S
GR
GS
[0.75 0 0 0.75 0 0] CT
0.149 GC
2 setlinecap
1 LJ
0.667 LW
N
73 79.125 M
77.34 79.125 L
S
GR
GS
[0.75 0 0 0.75 0 0] CT
0.149 GC
2 setlinecap
1 LJ
0.667 LW
N
73 37 M
77.34 37 L
S
GR
GS
[0.75 0 0 0.75 0 0] CT
0.149 GC
2 setlinecap
1 LJ
0.667 LW
N
507 374 M
502.66 374 L
S
GR
GS
[0.75 0 0 0.75 0 0] CT
0.149 GC
2 setlinecap
1 LJ
0.667 LW
N
507 331.875 M
502.66 331.875 L
S
GR
GS
[0.75 0 0 0.75 0 0] CT
0.149 GC
2 setlinecap
1 LJ
0.667 LW
N
507 289.75 M
502.66 289.75 L
S
GR
GS
[0.75 0 0 0.75 0 0] CT
0.149 GC
2 setlinecap
1 LJ
0.667 LW
N
507 247.625 M
502.66 247.625 L
S
GR
GS
[0.75 0 0 0.75 0 0] CT
0.149 GC
2 setlinecap
1 LJ
0.667 LW
N
507 205.5 M
502.66 205.5 L
S
GR
GS
[0.75 0 0 0.75 0 0] CT
0.149 GC
2 setlinecap
1 LJ
0.667 LW
N
507 163.375 M
502.66 163.375 L
S
GR
GS
[0.75 0 0 0.75 0 0] CT
0.149 GC
2 setlinecap
1 LJ
0.667 LW
N
507 121.25 M
502.66 121.25 L
S
GR
GS
[0.75 0 0 0.75 0 0] CT
0.149 GC
2 setlinecap
1 LJ
0.667 LW
N
507 79.125 M
502.66 79.125 L
S
GR
GS
[0.75 0 0 0.75 0 0] CT
0.149 GC
2 setlinecap
1 LJ
0.667 LW
N
507 37 M
502.66 37 L
S
GR
GS
[0.75 0 0 0.75 50.75 280.5] CT
0.149 GC
/Helvetica 13.333 F
GS
[1 0 0 1 0 0] CT
-8 5.5 moveto 
1 -1 scale
(0) t 
GR
GR
GS
[0.75 0 0 0.75 50.75 248.90625] CT
0.149 GC
/Helvetica 13.333 F
GS
[1 0 0 1 0 0] CT
-15 5.5 moveto 
1 -1 scale
(10) t 
GR
GR
GS
[0.75 0 0 0.75 50.75 217.3125] CT
0.149 GC
/Helvetica 13.333 F
GS
[1 0 0 1 0 0] CT
-15 5.5 moveto 
1 -1 scale
(20) t 
GR
GR
GS
[0.75 0 0 0.75 50.75 185.71875] CT
0.149 GC
/Helvetica 13.333 F
GS
[1 0 0 1 0 0] CT
-15 5.5 moveto 
1 -1 scale
(30) t 
GR
GR
GS
[0.75 0 0 0.75 50.75 154.125] CT
0.149 GC
/Helvetica 13.333 F
GS
[1 0 0 1 0 0] CT
-15 5.5 moveto 
1 -1 scale
(40) t 
GR
GR
GS
[0.75 0 0 0.75 50.75 122.53125] CT
0.149 GC
/Helvetica 13.333 F
GS
[1 0 0 1 0 0] CT
-15 5.5 moveto 
1 -1 scale
(50) t 
GR
GR
GS
[0.75 0 0 0.75 50.75 90.9375] CT
0.149 GC
/Helvetica 13.333 F
GS
[1 0 0 1 0 0] CT
-15 5.5 moveto 
1 -1 scale
(60) t 
GR
GR
GS
[0.75 0 0 0.75 50.75 59.34375] CT
0.149 GC
/Helvetica 13.333 F
GS
[1 0 0 1 0 0] CT
-15 5.5 moveto 
1 -1 scale
(70) t 
GR
GR
GS
[0.75 0 0 0.75 50.75 27.75] CT
0.149 GC
/Helvetica 13.333 F
GS
[1 0 0 1 0 0] CT
-15 5.5 moveto 
1 -1 scale
(80) t 
GR
GR
GS
[0.75 0 0 0.75 217.50021 25.68751] CT
N
-51.182 -12.261 M
-51.182 -12.792 L
-49.635 -12.792 -49.635 -13.261 QT
-49.635 -21.511 L
-49.635 -21.979 -51.182 -21.979 QT
-51.182 -22.511 L
-45.65 -22.511 L
-44.635 -22.511 -43.783 -22.065 QT
-42.932 -21.62 -42.33 -20.878 QT
-41.728 -20.136 -41.4 -19.198 QT
-41.072 -18.261 -41.072 -17.292 QT
-41.072 -16.339 -41.4 -15.44 QT
-41.728 -14.542 -42.353 -13.815 QT
-42.978 -13.089 -43.822 -12.675 QT
-44.666 -12.261 -45.65 -12.261 QT
-51.182 -12.261 L
cp
-48.291 -13.261 M
-48.291 -12.948 -48.111 -12.87 QT
-47.932 -12.792 -47.525 -12.792 QT
-46.041 -12.792 L
-45.275 -12.792 -44.58 -13.12 QT
-43.885 -13.448 -43.432 -14.042 QT
-42.963 -14.682 -42.799 -15.464 QT
-42.635 -16.245 -42.635 -17.292 QT
-42.635 -18.37 -42.799 -19.19 QT
-42.963 -20.011 -43.432 -20.667 QT
-43.885 -21.292 -44.572 -21.636 QT
-45.26 -21.979 -46.041 -21.979 QT
-47.525 -21.979 L
-47.807 -21.979 -47.955 -21.956 QT
-48.103 -21.932 -48.197 -21.831 QT
-48.291 -21.729 -48.291 -21.511 QT
-48.291 -13.261 L
cp
f
GR
GS
[0.75 0 0 0.75 217.50021 25.68751] CT
N
-39.884 -12.261 M
-40.056 -12.261 -40.056 -12.432 QT
-40.056 -12.542 L
-40.056 -12.604 -40.009 -12.651 QT
-35.822 -18.339 L
-37.181 -18.339 L
-37.806 -18.339 -38.22 -18.253 QT
-38.634 -18.167 -38.908 -17.948 QT
-39.181 -17.729 -39.298 -17.339 QT
-39.415 -16.948 -39.415 -16.245 QT
-39.853 -16.245 L
-39.681 -18.729 L
-34.65 -18.729 L
-34.587 -18.729 -34.54 -18.682 QT
-34.494 -18.636 -34.494 -18.557 QT
-34.494 -18.479 L
-34.494 -18.432 -34.525 -18.37 QT
-38.712 -12.698 L
-37.29 -12.698 L
-36.634 -12.698 -36.197 -12.776 QT
-35.759 -12.854 -35.447 -13.167 QT
-35.165 -13.448 -35.064 -13.932 QT
-34.962 -14.417 -34.9 -15.12 QT
-34.462 -15.12 L
-34.728 -12.261 L
-39.884 -12.261 L
cp
f
GR
GS
[0.75 0 0 0.75 217.50021 25.68751] CT
N
-33.491 -12.261 M
-33.491 -12.792 L
-32.991 -12.792 -32.655 -12.87 QT
-32.319 -12.948 -32.319 -13.261 QT
-32.319 -17.354 L
-32.319 -17.932 -32.545 -18.065 QT
-32.772 -18.198 -33.428 -18.198 QT
-33.428 -18.729 L
-31.272 -18.886 L
-31.272 -13.261 L
-31.272 -12.948 -30.983 -12.87 QT
-30.694 -12.792 -30.225 -12.792 QT
-30.225 -12.261 L
-33.491 -12.261 L
cp
-32.866 -21.464 M
-32.866 -21.792 -32.616 -22.042 QT
-32.366 -22.292 -32.037 -22.292 QT
-31.834 -22.292 -31.631 -22.182 QT
-31.428 -22.073 -31.319 -21.878 QT
-31.209 -21.682 -31.209 -21.464 QT
-31.209 -21.151 -31.459 -20.901 QT
-31.709 -20.651 -32.037 -20.651 QT
-32.366 -20.651 -32.616 -20.901 QT
-32.866 -21.151 -32.866 -21.464 QT
cp
f
GR
GS
[0.75 0 0 0.75 217.50021 25.68751] CT
N
-28.26 -14.042 M
-28.26 -17.354 L
-28.26 -17.761 -28.385 -17.94 QT
-28.51 -18.12 -28.737 -18.159 QT
-28.963 -18.198 -29.432 -18.198 QT
-29.432 -18.729 L
-27.167 -18.886 L
-27.167 -14.042 L
-27.167 -13.464 -27.081 -13.136 QT
-26.995 -12.807 -26.721 -12.651 QT
-26.448 -12.495 -25.854 -12.495 QT
-25.042 -12.495 -24.565 -13.167 QT
-24.088 -13.839 -24.088 -14.698 QT
-24.088 -17.354 L
-24.088 -17.761 -24.213 -17.94 QT
-24.338 -18.12 -24.565 -18.159 QT
-24.792 -18.198 -25.26 -18.198 QT
-25.26 -18.729 L
-22.995 -18.886 L
-22.995 -13.62 L
-22.995 -13.229 -22.877 -13.05 QT
-22.76 -12.87 -22.534 -12.831 QT
-22.307 -12.792 -21.823 -12.792 QT
-21.823 -12.261 L
-24.042 -12.089 L
-24.042 -13.354 L
-24.323 -12.792 -24.823 -12.44 QT
-25.323 -12.089 -25.917 -12.089 QT
-26.995 -12.089 -27.627 -12.55 QT
-28.26 -13.011 -28.26 -14.042 QT
cp
f
GR
GS
[0.75 0 0 0.75 217.50021 25.68751] CT
N
-21.346 -12.261 M
-21.346 -12.792 L
-20.831 -12.792 -20.503 -12.87 QT
-20.175 -12.948 -20.175 -13.261 QT
-20.175 -21.136 L
-20.175 -21.542 -20.3 -21.722 QT
-20.425 -21.901 -20.651 -21.94 QT
-20.878 -21.979 -21.346 -21.979 QT
-21.346 -22.511 L
-19.128 -22.667 L
-19.128 -15.542 L
-17.112 -17.307 L
-16.815 -17.604 -16.815 -17.839 QT
-16.815 -18.011 -16.94 -18.104 QT
-17.065 -18.198 -17.237 -18.198 QT
-17.237 -18.729 L
-14.425 -18.729 L
-14.425 -18.198 L
-15.44 -18.198 -16.456 -17.307 QT
-17.518 -16.386 L
-15.612 -13.667 L
-15.221 -13.104 -14.956 -12.948 QT
-14.69 -12.792 -14.065 -12.792 QT
-14.065 -12.261 L
-17.05 -12.261 L
-17.05 -12.792 L
-16.55 -12.792 -16.55 -13.104 QT
-16.55 -13.323 -16.815 -13.667 QT
-18.253 -15.729 L
-19.175 -14.932 L
-19.175 -13.261 L
-19.175 -12.948 -18.839 -12.87 QT
-18.503 -12.792 -18.003 -12.792 QT
-18.003 -12.261 L
-21.346 -12.261 L
cp
f
GR
GS
[0.75 0 0 0.75 217.50021 25.68751] CT
N
-12.731 -13.089 M
-12.731 -13.432 -12.481 -13.667 QT
-12.231 -13.901 -11.903 -13.901 QT
-11.699 -13.901 -11.504 -13.792 QT
-11.309 -13.682 -11.199 -13.487 QT
-11.09 -13.292 -11.09 -13.089 QT
-11.09 -12.761 -11.332 -12.511 QT
-11.574 -12.261 -11.903 -12.261 QT
-12.231 -12.261 -12.481 -12.511 QT
-12.731 -12.761 -12.731 -13.089 QT
cp
-12.731 -17.901 M
-12.731 -18.12 -12.621 -18.307 QT
-12.512 -18.495 -12.317 -18.612 QT
-12.121 -18.729 -11.903 -18.729 QT
-11.699 -18.729 -11.504 -18.612 QT
-11.309 -18.495 -11.199 -18.307 QT
-11.09 -18.12 -11.09 -17.901 QT
-11.09 -17.557 -11.324 -17.315 QT
-11.559 -17.073 -11.903 -17.073 QT
-12.246 -17.073 -12.489 -17.315 QT
-12.731 -17.557 -12.731 -17.901 QT
cp
f
GR
GS
[0.75 0 0 0.75 217.50021 25.68751] CT
N
-0.487 -22.433 M
-0.487 -22.526 -0.472 -22.573 QT
0.653 -27.042 L
0.763 -27.464 0.763 -27.776 QT
0.763 -28.417 0.325 -28.417 QT
-0.144 -28.417 -0.37 -27.862 QT
-0.597 -27.308 -0.816 -26.448 QT
-0.816 -26.401 -0.862 -26.378 QT
-0.909 -26.355 -0.941 -26.355 QT
-1.112 -26.355 L
-1.175 -26.355 -1.206 -26.409 QT
-1.237 -26.464 -1.237 -26.511 QT
-1.081 -27.151 -0.933 -27.605 QT
-0.784 -28.058 -0.464 -28.433 QT
-0.144 -28.808 0.341 -28.808 QT
0.903 -28.808 1.333 -28.456 QT
1.763 -28.105 1.763 -27.558 QT
2.216 -28.136 2.809 -28.472 QT
3.403 -28.808 4.091 -28.808 QT
4.794 -28.808 5.309 -28.448 QT
5.825 -28.089 5.825 -27.417 QT
6.294 -28.073 6.911 -28.441 QT
7.528 -28.808 8.263 -28.808 QT
9.028 -28.808 9.505 -28.386 QT
9.981 -27.964 9.981 -27.198 QT
9.981 -26.573 9.708 -25.706 QT
9.434 -24.839 9.028 -23.761 QT
8.809 -23.245 8.809 -22.855 QT
8.809 -22.417 9.153 -22.417 QT
9.747 -22.417 10.138 -23.042 QT
10.528 -23.667 10.684 -24.386 QT
10.731 -24.48 10.809 -24.48 QT
10.981 -24.48 L
11.044 -24.48 11.083 -24.441 QT
11.122 -24.401 11.122 -24.339 QT
11.122 -24.323 11.106 -24.292 QT
10.903 -23.448 10.395 -22.73 QT
9.888 -22.011 9.122 -22.011 QT
8.591 -22.011 8.223 -22.378 QT
7.856 -22.745 7.856 -23.261 QT
7.856 -23.526 7.966 -23.839 QT
8.403 -24.98 8.684 -25.862 QT
8.966 -26.745 8.966 -27.417 QT
8.966 -27.839 8.794 -28.128 QT
8.622 -28.417 8.231 -28.417 QT
7.403 -28.417 6.809 -27.917 QT
6.216 -27.417 5.763 -26.589 QT
5.747 -26.448 5.731 -26.37 QT
4.763 -22.511 L
4.7 -22.308 4.52 -22.159 QT
4.341 -22.011 4.122 -22.011 QT
3.95 -22.011 3.817 -22.128 QT
3.684 -22.245 3.684 -22.433 QT
3.684 -22.526 3.7 -22.573 QT
4.653 -26.401 L
4.809 -27.011 4.809 -27.417 QT
4.809 -27.839 4.638 -28.128 QT
4.466 -28.417 4.059 -28.417 QT
3.513 -28.417 3.044 -28.175 QT
2.575 -27.933 2.231 -27.534 QT
1.888 -27.136 1.606 -26.589 QT
0.591 -22.511 L
0.544 -22.308 0.364 -22.159 QT
0.184 -22.011 -0.034 -22.011 QT
-0.222 -22.011 -0.355 -22.128 QT
-0.487 -22.245 -0.487 -22.433 QT
cp
f
GR
GS
[0.75 0 0 0.75 217.50021 25.68751] CT
N
13.843 -22.011 M
12.89 -22.011 12.351 -22.73 QT
11.812 -23.448 11.812 -24.417 QT
11.812 -25.37 12.304 -26.409 QT
12.796 -27.448 13.648 -28.128 QT
14.499 -28.808 15.468 -28.808 QT
15.921 -28.808 16.273 -28.566 QT
16.624 -28.323 16.812 -27.917 QT
16.984 -28.511 17.468 -28.511 QT
17.671 -28.511 17.796 -28.394 QT
17.921 -28.276 17.921 -28.089 QT
17.921 -28.042 17.921 -28.026 QT
17.921 -28.011 17.906 -27.98 QT
16.859 -23.792 L
16.749 -23.339 16.749 -23.058 QT
16.749 -22.417 17.187 -22.417 QT
17.656 -22.417 17.906 -23.011 QT
18.156 -23.605 18.312 -24.386 QT
18.343 -24.48 18.437 -24.48 QT
18.624 -24.48 L
18.671 -24.48 18.71 -24.425 QT
18.749 -24.37 18.749 -24.323 QT
18.484 -23.276 18.171 -22.644 QT
17.859 -22.011 17.156 -22.011 QT
16.656 -22.011 16.265 -22.308 QT
15.874 -22.605 15.781 -23.105 QT
14.812 -22.011 13.843 -22.011 QT
cp
13.859 -22.417 M
14.406 -22.417 14.913 -22.823 QT
15.421 -23.23 15.781 -23.776 QT
15.796 -23.792 15.796 -23.823 QT
16.609 -27.073 L
16.624 -27.12 L
16.531 -27.651 16.234 -28.034 QT
15.937 -28.417 15.437 -28.417 QT
14.921 -28.417 14.484 -28.003 QT
14.046 -27.589 13.749 -27.026 QT
13.468 -26.433 13.195 -25.386 QT
12.921 -24.339 12.921 -23.761 QT
12.921 -23.245 13.148 -22.831 QT
13.374 -22.417 13.859 -22.417 QT
cp
f
GR
GS
[0.75 0 0 0.75 217.50021 25.68751] CT
N
20.158 -22.62 M
20.424 -22.417 20.908 -22.417 QT
21.377 -22.417 21.736 -22.862 QT
22.096 -23.308 22.221 -23.839 QT
22.908 -26.511 L
23.065 -27.23 23.065 -27.495 QT
23.065 -27.87 22.854 -28.144 QT
22.643 -28.417 22.268 -28.417 QT
21.799 -28.417 21.385 -28.12 QT
20.971 -27.823 20.682 -27.37 QT
20.393 -26.917 20.283 -26.448 QT
20.252 -26.355 20.158 -26.355 QT
19.971 -26.355 L
19.861 -26.355 19.861 -26.495 QT
19.861 -26.526 L
20.002 -27.089 20.354 -27.62 QT
20.705 -28.151 21.213 -28.48 QT
21.721 -28.808 22.299 -28.808 QT
22.861 -28.808 23.299 -28.519 QT
23.736 -28.23 23.924 -27.714 QT
24.174 -28.183 24.572 -28.495 QT
24.971 -28.808 25.455 -28.808 QT
25.783 -28.808 26.119 -28.698 QT
26.455 -28.589 26.666 -28.355 QT
26.877 -28.12 26.877 -27.761 QT
26.877 -27.386 26.627 -27.112 QT
26.377 -26.839 26.002 -26.839 QT
25.768 -26.839 25.604 -26.987 QT
25.44 -27.136 25.44 -27.37 QT
25.44 -27.698 25.658 -27.933 QT
25.877 -28.167 26.174 -28.214 QT
25.908 -28.417 25.424 -28.417 QT
24.94 -28.417 24.588 -27.972 QT
24.236 -27.526 24.08 -26.98 QT
23.424 -24.323 L
23.268 -23.73 23.268 -23.339 QT
23.268 -22.964 23.479 -22.691 QT
23.69 -22.417 24.049 -22.417 QT
24.752 -22.417 25.307 -23.034 QT
25.861 -23.651 26.033 -24.386 QT
26.065 -24.48 26.158 -24.48 QT
26.346 -24.48 L
26.393 -24.48 26.432 -24.441 QT
26.471 -24.401 26.471 -24.339 QT
26.471 -24.323 26.455 -24.292 QT
26.252 -23.401 25.565 -22.706 QT
24.877 -22.011 24.033 -22.011 QT
23.471 -22.011 23.033 -22.308 QT
22.596 -22.605 22.408 -23.12 QT
22.174 -22.667 21.76 -22.339 QT
21.346 -22.011 20.877 -22.011 QT
20.549 -22.011 20.213 -22.128 QT
19.877 -22.245 19.666 -22.48 QT
19.455 -22.714 19.455 -23.073 QT
19.455 -23.417 19.697 -23.706 QT
19.94 -23.995 20.299 -23.995 QT
20.549 -23.995 20.721 -23.847 QT
20.893 -23.698 20.893 -23.464 QT
20.893 -23.136 20.682 -22.901 QT
20.471 -22.667 20.158 -22.62 QT
cp
f
GR
GS
[0.75 0 0 0.75 217.50021 25.68751] CT
N
32.025 -18.464 M
31.181 -19.12 30.58 -19.972 QT
29.978 -20.823 29.595 -21.792 QT
29.213 -22.761 29.017 -23.816 QT
28.822 -24.87 28.822 -25.933 QT
28.822 -27.011 29.017 -28.066 QT
29.213 -29.12 29.603 -30.097 QT
29.994 -31.073 30.603 -31.917 QT
31.213 -32.761 32.025 -33.401 QT
32.025 -33.433 32.088 -33.433 QT
32.228 -33.433 L
32.275 -33.433 32.314 -33.394 QT
32.353 -33.355 32.353 -33.308 QT
32.353 -33.23 32.322 -33.198 QT
31.588 -32.495 31.103 -31.675 QT
30.619 -30.855 30.322 -29.925 QT
30.025 -28.995 29.892 -28.003 QT
29.759 -27.011 29.759 -25.933 QT
29.759 -21.167 32.306 -18.683 QT
32.353 -18.651 32.353 -18.558 QT
32.353 -18.526 32.314 -18.48 QT
32.275 -18.433 32.228 -18.433 QT
32.088 -18.433 L
32.025 -18.433 32.025 -18.464 QT
cp
f
GR
GS
[0.75 0 0 0.75 217.50021 25.68751] CT
N
34.369 -23.105 M
34.776 -22.417 35.994 -22.417 QT
36.526 -22.417 37.002 -22.597 QT
37.479 -22.776 37.791 -23.128 QT
38.104 -23.48 38.104 -23.995 QT
38.104 -24.386 37.823 -24.636 QT
37.541 -24.886 37.135 -24.98 QT
36.323 -25.136 L
35.776 -25.276 35.416 -25.659 QT
35.057 -26.042 35.057 -26.573 QT
35.057 -27.245 35.416 -27.761 QT
35.776 -28.276 36.369 -28.542 QT
36.963 -28.808 37.604 -28.808 QT
38.276 -28.808 38.815 -28.487 QT
39.354 -28.167 39.354 -27.526 QT
39.354 -27.183 39.158 -26.917 QT
38.963 -26.651 38.619 -26.651 QT
38.432 -26.651 38.283 -26.776 QT
38.135 -26.901 38.135 -27.105 QT
38.135 -27.276 38.237 -27.441 QT
38.338 -27.605 38.502 -27.706 QT
38.666 -27.808 38.838 -27.808 QT
38.713 -28.136 38.354 -28.276 QT
37.994 -28.417 37.573 -28.417 QT
37.182 -28.417 36.807 -28.269 QT
36.432 -28.12 36.198 -27.823 QT
35.963 -27.526 35.963 -27.12 QT
35.963 -26.855 36.158 -26.644 QT
36.354 -26.433 36.619 -26.355 QT
37.494 -26.167 L
37.916 -26.089 38.26 -25.862 QT
38.604 -25.636 38.807 -25.3 QT
39.01 -24.964 39.01 -24.526 QT
39.01 -23.964 38.698 -23.425 QT
38.385 -22.886 37.932 -22.558 QT
37.135 -22.011 35.979 -22.011 QT
35.182 -22.011 34.518 -22.378 QT
33.854 -22.745 33.854 -23.48 QT
33.854 -23.886 34.088 -24.191 QT
34.323 -24.495 34.729 -24.495 QT
34.979 -24.495 35.143 -24.347 QT
35.307 -24.198 35.307 -23.948 QT
35.307 -23.605 35.049 -23.355 QT
34.791 -23.105 34.448 -23.105 QT
34.369 -23.105 L
cp
f
GR
GS
[0.75 0 0 0.75 217.50021 25.68751] CT
N
40.729 -20.701 M
40.729 -20.889 40.807 -21.092 QT
41.619 -23.248 L
41.744 -23.608 41.744 -23.842 QT
41.744 -24.139 41.526 -24.139 QT
41.135 -24.139 40.877 -23.733 QT
40.619 -23.326 40.494 -22.826 QT
40.479 -22.764 40.416 -22.764 QT
40.307 -22.764 L
40.213 -22.764 40.213 -22.858 QT
40.213 -22.889 L
40.385 -23.483 40.713 -23.944 QT
41.041 -24.405 41.557 -24.405 QT
41.901 -24.405 42.151 -24.17 QT
42.401 -23.936 42.401 -23.576 QT
42.401 -23.389 42.323 -23.186 QT
41.51 -21.03 L
41.369 -20.701 41.369 -20.436 QT
41.369 -20.139 41.604 -20.139 QT
41.994 -20.139 42.252 -20.553 QT
42.51 -20.967 42.619 -21.451 QT
42.635 -21.514 42.698 -21.514 QT
42.823 -21.514 L
42.854 -21.514 42.877 -21.483 QT
42.901 -21.451 42.901 -21.42 QT
42.901 -21.42 42.901 -21.389 QT
42.76 -20.826 42.424 -20.35 QT
42.088 -19.873 41.573 -19.873 QT
41.229 -19.873 40.979 -20.116 QT
40.729 -20.358 40.729 -20.701 QT
cp
41.854 -26.045 M
41.854 -26.248 42.033 -26.42 QT
42.213 -26.592 42.416 -26.592 QT
42.588 -26.592 42.698 -26.491 QT
42.807 -26.389 42.807 -26.217 QT
42.807 -25.998 42.627 -25.826 QT
42.448 -25.655 42.244 -25.655 QT
42.073 -25.655 41.963 -25.772 QT
41.854 -25.889 41.854 -26.045 QT
cp
f
GR
GS
[0.75 0 0 0.75 217.50021 25.68751] CT
N
45.187 -18.433 M
45.062 -18.433 45.062 -18.558 QT
45.062 -18.636 45.093 -18.667 QT
47.655 -21.167 47.655 -25.933 QT
47.655 -30.698 45.124 -33.183 QT
45.062 -33.214 45.062 -33.308 QT
45.062 -33.355 45.101 -33.394 QT
45.14 -33.433 45.187 -33.433 QT
45.327 -33.433 L
45.374 -33.433 45.405 -33.401 QT
46.484 -32.558 47.202 -31.339 QT
47.921 -30.12 48.249 -28.745 QT
48.577 -27.37 48.577 -25.933 QT
48.577 -24.87 48.398 -23.839 QT
48.218 -22.808 47.827 -21.808 QT
47.437 -20.808 46.835 -19.964 QT
46.234 -19.12 45.405 -18.464 QT
45.374 -18.433 45.327 -18.433 QT
45.187 -18.433 L
cp
f
GR
GS
[0.75 0 0 0.75 217.50021 25.68751] CT
N
-1.644 -16.221 51.565 0.587 re
f
GR
GS
[0.75 0 0 0.75 217.50021 25.68751] CT
N
16.77 -2.45 M
16.77 -2.544 16.786 -2.591 QT
17.911 -7.059 L
18.02 -7.481 18.02 -7.794 QT
18.02 -8.434 17.583 -8.434 QT
17.114 -8.434 16.888 -7.88 QT
16.661 -7.325 16.442 -6.466 QT
16.442 -6.419 16.395 -6.395 QT
16.348 -6.372 16.317 -6.372 QT
16.145 -6.372 L
16.083 -6.372 16.052 -6.427 QT
16.02 -6.481 16.02 -6.528 QT
16.177 -7.169 16.325 -7.622 QT
16.473 -8.075 16.794 -8.45 QT
17.114 -8.825 17.598 -8.825 QT
18.114 -8.825 18.505 -8.528 QT
18.895 -8.231 18.989 -7.731 QT
19.364 -8.231 19.856 -8.528 QT
20.348 -8.825 20.927 -8.825 QT
21.395 -8.825 21.763 -8.552 QT
22.13 -8.278 22.13 -7.794 QT
22.13 -7.419 21.888 -7.137 QT
21.645 -6.856 21.255 -6.856 QT
21.005 -6.856 20.841 -7.005 QT
20.677 -7.153 20.677 -7.387 QT
20.677 -7.716 20.919 -7.981 QT
21.161 -8.247 21.473 -8.247 QT
21.239 -8.434 20.895 -8.434 QT
20.255 -8.434 19.778 -7.981 QT
19.302 -7.528 18.911 -6.825 QT
17.848 -2.528 L
17.802 -2.325 17.622 -2.177 QT
17.442 -2.028 17.223 -2.028 QT
17.036 -2.028 16.903 -2.145 QT
16.77 -2.263 16.77 -2.45 QT
cp
f
GR
GS
[0.75 0 0 0.75 217.50021 25.68751] CT
N
23.012 -0.719 M
23.012 -0.906 23.09 -1.109 QT
23.903 -3.266 L
24.028 -3.625 24.028 -3.859 QT
24.028 -4.156 23.809 -4.156 QT
23.419 -4.156 23.161 -3.75 QT
22.903 -3.344 22.778 -2.844 QT
22.762 -2.781 22.7 -2.781 QT
22.59 -2.781 L
22.497 -2.781 22.497 -2.875 QT
22.497 -2.906 L
22.669 -3.5 22.997 -3.961 QT
23.325 -4.422 23.84 -4.422 QT
24.184 -4.422 24.434 -4.188 QT
24.684 -3.953 24.684 -3.594 QT
24.684 -3.406 24.606 -3.203 QT
23.794 -1.047 L
23.653 -0.719 23.653 -0.453 QT
23.653 -0.156 23.887 -0.156 QT
24.278 -0.156 24.536 -0.57 QT
24.794 -0.984 24.903 -1.469 QT
24.919 -1.531 24.981 -1.531 QT
25.106 -1.531 L
25.137 -1.531 25.161 -1.5 QT
25.184 -1.469 25.184 -1.438 QT
25.184 -1.438 25.184 -1.406 QT
25.044 -0.844 24.708 -0.367 QT
24.372 0.109 23.856 0.109 QT
23.512 0.109 23.262 -0.133 QT
23.012 -0.375 23.012 -0.719 QT
cp
24.137 -6.063 M
24.137 -6.266 24.317 -6.438 QT
24.497 -6.609 24.7 -6.609 QT
24.872 -6.609 24.981 -6.508 QT
25.09 -6.406 25.09 -6.234 QT
25.09 -6.016 24.911 -5.844 QT
24.731 -5.672 24.528 -5.672 QT
24.356 -5.672 24.247 -5.789 QT
24.137 -5.906 24.137 -6.063 QT
cp
f
GR
GS
[0.75 0 0 0.75 217.50021 25.68751] CT
N
26.534 -0.172 M
26.534 -0.234 26.549 -0.266 QT
27.299 -3.25 L
27.377 -3.516 27.377 -3.734 QT
27.377 -4.156 27.081 -4.156 QT
26.768 -4.156 26.612 -3.781 QT
26.456 -3.406 26.315 -2.844 QT
26.315 -2.813 26.292 -2.797 QT
26.268 -2.781 26.237 -2.781 QT
26.127 -2.781 L
26.081 -2.781 26.057 -2.82 QT
26.034 -2.859 26.034 -2.875 QT
26.143 -3.313 26.245 -3.617 QT
26.346 -3.922 26.557 -4.172 QT
26.768 -4.422 27.081 -4.422 QT
27.456 -4.422 27.745 -4.188 QT
28.034 -3.953 28.034 -3.578 QT
28.331 -3.969 28.737 -4.195 QT
29.143 -4.422 29.581 -4.422 QT
29.94 -4.422 30.198 -4.297 QT
30.456 -4.172 30.604 -3.93 QT
30.752 -3.688 30.752 -3.344 QT
30.752 -2.938 30.565 -2.352 QT
30.377 -1.766 30.112 -1.047 QT
29.971 -0.719 29.971 -0.453 QT
29.971 -0.156 30.19 -0.156 QT
30.581 -0.156 30.846 -0.57 QT
31.112 -0.984 31.221 -1.469 QT
31.237 -1.531 31.299 -1.531 QT
31.424 -1.531 L
31.456 -1.531 31.487 -1.508 QT
31.518 -1.484 31.518 -1.438 QT
31.518 -1.438 31.502 -1.406 QT
31.362 -0.844 31.026 -0.367 QT
30.69 0.109 30.174 0.109 QT
29.831 0.109 29.581 -0.133 QT
29.331 -0.375 29.331 -0.719 QT
29.331 -0.906 29.409 -1.109 QT
29.534 -1.438 29.698 -1.891 QT
29.862 -2.344 29.963 -2.758 QT
30.065 -3.172 30.065 -3.484 QT
30.065 -3.766 29.956 -3.961 QT
29.846 -4.156 29.565 -4.156 QT
29.206 -4.156 28.893 -4 QT
28.581 -3.844 28.354 -3.578 QT
28.127 -3.313 27.94 -2.938 QT
27.252 -0.219 L
27.221 -0.078 27.104 0.016 QT
26.987 0.109 26.831 0.109 QT
26.721 0.109 26.627 0.031 QT
26.534 -0.047 26.534 -0.172 QT
cp
f
GR
GS
[0.75 0 0 0.75 0 0] CT
0 0.447 0.741 RC
[10 6] 0 setdash
2 LJ
0.667 LW
N
87.467 368.817 M
101.933 368.782 L
116.4 368.734 L
130.867 368.867 L
145.333 368.853 L
159.8 368.812 L
174.267 368.811 L
188.733 368.75 L
203.2 368.68 L
217.667 368.642 L
232.133 368.594 L
246.6 368.586 L
261.067 368.563 L
275.533 368.501 L
290 368.478 L
304.467 368.4 L
318.933 368.365 L
333.4 368.302 L
347.867 368.236 L
362.333 368.19 L
376.8 368.168 L
391.267 368.076 L
405.733 367.915 L
420.2 367.765 L
434.667 367.722 L
449.133 367.446 L
463.6 367.787 L
S
GR
GS
[0.75 0 0 0.75 65.6 276.61311] CT
0 0.447 0.741 RC
10.0 ML
0.667 LW
N
-3 -3 M
-3 3 L
3 3 L
3 -3 L
cp
S
GR
GS
[0.75 0 0 0.75 76.45 276.58617] CT
0 0.447 0.741 RC
10.0 ML
0.667 LW
N
-3 -3 M
-3 3 L
3 3 L
3 -3 L
cp
S
GR
GS
[0.75 0 0 0.75 87.3 276.55058] CT
0 0.447 0.741 RC
10.0 ML
0.667 LW
N
-3 -3 M
-3 3 L
3 3 L
3 -3 L
cp
S
GR
GS
[0.75 0 0 0.75 98.15 276.65039] CT
0 0.447 0.741 RC
10.0 ML
0.667 LW
N
-3 -3 M
-3 3 L
3 3 L
3 -3 L
cp
S
GR
GS
[0.75 0 0 0.75 109 276.63995] CT
0 0.447 0.741 RC
10.0 ML
0.667 LW
N
-3 -3 M
-3 3 L
3 3 L
3 -3 L
cp
S
GR
GS
[0.75 0 0 0.75 119.85 276.60876] CT
0 0.447 0.741 RC
10.0 ML
0.667 LW
N
-3 -3 M
-3 3 L
3 3 L
3 -3 L
cp
S
GR
GS
[0.75 0 0 0.75 130.7 276.60807] CT
0 0.447 0.741 RC
10.0 ML
0.667 LW
N
-3 -3 M
-3 3 L
3 3 L
3 -3 L
cp
S
GR
GS
[0.75 0 0 0.75 141.55 276.56236] CT
0 0.447 0.741 RC
10.0 ML
0.667 LW
N
-3 -3 M
-3 3 L
3 3 L
3 -3 L
cp
S
GR
GS
[0.75 0 0 0.75 152.4 276.51015] CT
0 0.447 0.741 RC
10.0 ML
0.667 LW
N
-3 -3 M
-3 3 L
3 3 L
3 -3 L
cp
S
GR
GS
[0.75 0 0 0.75 163.25 276.48127] CT
0 0.447 0.741 RC
10.0 ML
0.667 LW
N
-3 -3 M
-3 3 L
3 3 L
3 -3 L
cp
S
GR
GS
[0.75 0 0 0.75 174.1 276.44568] CT
0 0.447 0.741 RC
10.0 ML
0.667 LW
N
-3 -3 M
-3 3 L
3 3 L
3 -3 L
cp
S
GR
GS
[0.75 0 0 0.75 184.95 276.43959] CT
0 0.447 0.741 RC
10.0 ML
0.667 LW
N
-3 -3 M
-3 3 L
3 3 L
3 -3 L
cp
S
GR
GS
[0.75 0 0 0.75 195.80001 276.42238] CT
0 0.447 0.741 RC
10.0 ML
0.667 LW
N
-3 -3 M
-3 3 L
3 3 L
3 -3 L
cp
S
GR
GS
[0.75 0 0 0.75 206.64999 276.37576] CT
0 0.447 0.741 RC
10.0 ML
0.667 LW
N
-3 -3 M
-3 3 L
3 3 L
3 -3 L
cp
S
GR
GS
[0.75 0 0 0.75 217.5 276.35882] CT
0 0.447 0.741 RC
10.0 ML
0.667 LW
N
-3 -3 M
-3 3 L
3 3 L
3 -3 L
cp
S
GR
GS
[0.75 0 0 0.75 228.35001 276.30013] CT
0 0.447 0.741 RC
10.0 ML
0.667 LW
N
-3 -3 M
-3 3 L
3 3 L
3 -3 L
cp
S
GR
GS
[0.75 0 0 0.75 239.19999 276.27374] CT
0 0.447 0.741 RC
10.0 ML
0.667 LW
N
-3 -3 M
-3 3 L
3 3 L
3 -3 L
cp
S
GR
GS
[0.75 0 0 0.75 250.05 276.2265] CT
0 0.447 0.741 RC
10.0 ML
0.667 LW
N
-3 -3 M
-3 3 L
3 3 L
3 -3 L
cp
S
GR
GS
[0.75 0 0 0.75 260.9 276.1767] CT
0 0.447 0.741 RC
10.0 ML
0.667 LW
N
-3 -3 M
-3 3 L
3 3 L
3 -3 L
cp
S
GR
GS
[0.75 0 0 0.75 271.75001 276.14287] CT
0 0.447 0.741 RC
10.0 ML
0.667 LW
N
-3 -3 M
-3 3 L
3 3 L
3 -3 L
cp
S
GR
GS
[0.75 0 0 0.75 282.59999 276.12563] CT
0 0.447 0.741 RC
10.0 ML
0.667 LW
N
-3 -3 M
-3 3 L
3 3 L
3 -3 L
cp
S
GR
GS
[0.75 0 0 0.75 293.45 276.05733] CT
0 0.447 0.741 RC
10.0 ML
0.667 LW
N
-3 -3 M
-3 3 L
3 3 L
3 -3 L
cp
S
GR
GS
[0.75 0 0 0.75 304.3 275.93628] CT
0 0.447 0.741 RC
10.0 ML
0.667 LW
N
-3 -3 M
-3 3 L
3 3 L
3 -3 L
cp
S
GR
GS
[0.75 0 0 0.75 315.15001 275.82385] CT
0 0.447 0.741 RC
10.0 ML
0.667 LW
N
-3 -3 M
-3 3 L
3 3 L
3 -3 L
cp
S
GR
GS
[0.75 0 0 0.75 325.99999 275.79176] CT
0 0.447 0.741 RC
10.0 ML
0.667 LW
N
-3 -3 M
-3 3 L
3 3 L
3 -3 L
cp
S
GR
GS
[0.75 0 0 0.75 336.85 275.58419] CT
0 0.447 0.741 RC
10.0 ML
0.667 LW
N
-3 -3 M
-3 3 L
3 3 L
3 -3 L
cp
S
GR
GS
[0.75 0 0 0.75 347.7 275.84056] CT
0 0.447 0.741 RC
10.0 ML
0.667 LW
N
-3 -3 M
-3 3 L
3 3 L
3 -3 L
cp
S
GR
GS
[0.75 0 0 0.75 0 0] CT
0.851 0.325 0.098 RC
[10 6] 0 setdash
2 LJ
0.667 LW
N
87.467 368.817 M
101.933 368.782 L
116.4 368.734 L
130.867 368.562 L
145.333 368.318 L
159.8 368.077 L
174.267 367.834 L
188.733 367.592 L
203.2 367.33 L
217.667 367.091 L
232.133 366.837 L
246.6 366.588 L
261.067 366.341 L
275.533 366.107 L
290 365.701 L
304.467 365.252 L
318.933 364.752 L
333.4 364.172 L
347.867 363.483 L
362.333 362.629 L
376.8 361.598 L
391.267 358.939 L
405.733 353.778 L
420.2 340.799 L
434.667 274.692 L
449.133 324.161 L
463.6 323.154 L
S
GR
GS
[0.75 0 0 0.75 65.6 276.61311] CT
0.851 0.325 0.098 RC
10.0 ML
0.667 LW
N
-3 -3 M
-3 3 L
3 3 L
3 -3 L
cp
S
GR
GS
[0.75 0 0 0.75 76.45 276.58617] CT
0.851 0.325 0.098 RC
10.0 ML
0.667 LW
N
-3 -3 M
-3 3 L
3 3 L
3 -3 L
cp
S
GR
GS
[0.75 0 0 0.75 87.3 276.55058] CT
0.851 0.325 0.098 RC
10.0 ML
0.667 LW
N
-3 -3 M
-3 3 L
3 3 L
3 -3 L
cp
S
GR
GS
[0.75 0 0 0.75 98.15 276.42128] CT
0.851 0.325 0.098 RC
10.0 ML
0.667 LW
N
-3 -3 M
-3 3 L
3 3 L
3 -3 L
cp
S
GR
GS
[0.75 0 0 0.75 109 276.23847] CT
0.851 0.325 0.098 RC
10.0 ML
0.667 LW
N
-3 -3 M
-3 3 L
3 3 L
3 -3 L
cp
S
GR
GS
[0.75 0 0 0.75 119.85 276.05779] CT
0.851 0.325 0.098 RC
10.0 ML
0.667 LW
N
-3 -3 M
-3 3 L
3 3 L
3 -3 L
cp
S
GR
GS
[0.75 0 0 0.75 130.7 275.87553] CT
0.851 0.325 0.098 RC
10.0 ML
0.667 LW
N
-3 -3 M
-3 3 L
3 3 L
3 -3 L
cp
S
GR
GS
[0.75 0 0 0.75 141.55 275.69373] CT
0.851 0.325 0.098 RC
10.0 ML
0.667 LW
N
-3 -3 M
-3 3 L
3 3 L
3 -3 L
cp
S
GR
GS
[0.75 0 0 0.75 152.4 275.49783] CT
0.851 0.325 0.098 RC
10.0 ML
0.667 LW
N
-3 -3 M
-3 3 L
3 3 L
3 -3 L
cp
S
GR
GS
[0.75 0 0 0.75 163.25 275.3185] CT
0.851 0.325 0.098 RC
10.0 ML
0.667 LW
N
-3 -3 M
-3 3 L
3 3 L
3 -3 L
cp
S
GR
GS
[0.75 0 0 0.75 174.1 275.12764] CT
0.851 0.325 0.098 RC
10.0 ML
0.667 LW
N
-3 -3 M
-3 3 L
3 3 L
3 -3 L
cp
S
GR
GS
[0.75 0 0 0.75 184.95 274.94069] CT
0.851 0.325 0.098 RC
10.0 ML
0.667 LW
N
-3 -3 M
-3 3 L
3 3 L
3 -3 L
cp
S
GR
GS
[0.75 0 0 0.75 195.80001 274.75598] CT
0.851 0.325 0.098 RC
10.0 ML
0.667 LW
N
-3 -3 M
-3 3 L
3 3 L
3 -3 L
cp
S
GR
GS
[0.75 0 0 0.75 206.64999 274.58059] CT
0.851 0.325 0.098 RC
10.0 ML
0.667 LW
N
-3 -3 M
-3 3 L
3 3 L
3 -3 L
cp
S
GR
GS
[0.75 0 0 0.75 217.5 274.27599] CT
0.851 0.325 0.098 RC
10.0 ML
0.667 LW
N
-3 -3 M
-3 3 L
3 3 L
3 -3 L
cp
S
GR
GS
[0.75 0 0 0.75 228.35001 273.93908] CT
0.851 0.325 0.098 RC
10.0 ML
0.667 LW
N
-3 -3 M
-3 3 L
3 3 L
3 -3 L
cp
S
GR
GS
[0.75 0 0 0.75 239.19999 273.56424] CT
0.851 0.325 0.098 RC
10.0 ML
0.667 LW
N
-3 -3 M
-3 3 L
3 3 L
3 -3 L
cp
S
GR
GS
[0.75 0 0 0.75 250.05 273.12893] CT
0.851 0.325 0.098 RC
10.0 ML
0.667 LW
N
-3 -3 M
-3 3 L
3 3 L
3 -3 L
cp
S
GR
GS
[0.75 0 0 0.75 260.9 272.61241] CT
0.851 0.325 0.098 RC
10.0 ML
0.667 LW
N
-3 -3 M
-3 3 L
3 3 L
3 -3 L
cp
S
GR
GS
[0.75 0 0 0.75 271.75001 271.972] CT
0.851 0.325 0.098 RC
10.0 ML
0.667 LW
N
-3 -3 M
-3 3 L
3 3 L
3 -3 L
cp
S
GR
GS
[0.75 0 0 0.75 282.59999 271.19872] CT
0.851 0.325 0.098 RC
10.0 ML
0.667 LW
N
-3 -3 M
-3 3 L
3 3 L
3 -3 L
cp
S
GR
GS
[0.75 0 0 0.75 293.45 269.20425] CT
0.851 0.325 0.098 RC
10.0 ML
0.667 LW
N
-3 -3 M
-3 3 L
3 3 L
3 -3 L
cp
S
GR
GS
[0.75 0 0 0.75 304.3 265.33315] CT
0.851 0.325 0.098 RC
10.0 ML
0.667 LW
N
-3 -3 M
-3 3 L
3 3 L
3 -3 L
cp
S
GR
GS
[0.75 0 0 0.75 315.15001 255.59924] CT
0.851 0.325 0.098 RC
10.0 ML
0.667 LW
N
-3 -3 M
-3 3 L
3 3 L
3 -3 L
cp
S
GR
GS
[0.75 0 0 0.75 325.99999 206.01913] CT
0.851 0.325 0.098 RC
10.0 ML
0.667 LW
N
-3 -3 M
-3 3 L
3 3 L
3 -3 L
cp
S
GR
GS
[0.75 0 0 0.75 336.85 243.12051] CT
0.851 0.325 0.098 RC
10.0 ML
0.667 LW
N
-3 -3 M
-3 3 L
3 3 L
3 -3 L
cp
S
GR
GS
[0.75 0 0 0.75 347.7 242.36563] CT
0.851 0.325 0.098 RC
10.0 ML
0.667 LW
N
-3 -3 M
-3 3 L
3 3 L
3 -3 L
cp
S
GR
GS
[0.75 0 0 0.75 0 0] CT
0.929 0.694 0.125 RC
[1 3] 0 setdash
2 LJ
0.667 LW
N
87.467 358.445 M
101.933 358.335 L
116.4 358.199 L
130.867 358.595 L
145.333 358.556 L
159.8 358.429 L
174.267 358.42 L
188.733 358.235 L
203.2 358.02 L
217.667 357.907 L
232.133 357.777 L
246.6 357.735 L
261.067 357.684 L
275.533 357.473 L
290 357.413 L
304.467 357.177 L
318.933 357.076 L
333.4 356.879 L
347.867 356.673 L
362.333 356.538 L
376.8 356.471 L
391.267 356.204 L
405.733 355.727 L
420.2 355.271 L
434.667 355.083 L
449.133 354.297 L
463.6 355.354 L
S
GR
GS
[0.75 0 0 0.75 65.6 268.83371] CT
0.929 0.694 0.125 RC
N
0 -3.667 M
2.025 -3.667 3.667 -2.025 3.667 0 C
3.667 0 L
3.667 2.025 2.025 3.667 0 3.667 C
-2.025 3.667 -3.667 2.025 -3.667 0 C
-3.667 -2.025 -2.025 -3.667 0 -3.667 C
cp
0 -4.333 M
-2.393 -4.333 -4.333 -2.393 -4.333 0 C
-4.333 2.393 -2.393 4.333 0 4.333 C
2.393 4.333 4.333 2.393 4.333 0 C
4.333 0 L
4.333 -2.393 2.393 -4.333 0 -4.333 C
cp
f
GR
GS
[0.75 0 0 0.75 76.45 268.75159] CT
0.929 0.694 0.125 RC
N
/f-862814258{0 -3.667 M
2.025 -3.667 3.667 -2.025 3.667 0 C
3.667 0 L
3.667 2.025 2.025 3.667 0 3.667 C
-2.025 3.667 -3.667 2.025 -3.667 0 C
-3.667 -2.025 -2.025 -3.667 0 -3.667 C
cp
0 -4.333 M
-2.393 -4.333 -4.333 -2.393 -4.333 0 C
-4.333 2.393 -2.393 4.333 0 4.333 C
2.393 4.333 4.333 2.393 4.333 0 C
4.333 0 L
4.333 -2.393 2.393 -4.333 0 -4.333 C
cp}def
f-862814258
f
GR
GS
[0.75 0 0 0.75 87.3 268.64941] CT
0.929 0.694 0.125 RC
N
f-862814258
f
GR
GS
[0.75 0 0 0.75 98.15 268.94604] CT
0.929 0.694 0.125 RC
N
f-862814258
f
GR
GS
[0.75 0 0 0.75 109 268.9173] CT
0.929 0.694 0.125 RC
N
f-862814258
f
GR
GS
[0.75 0 0 0.75 119.85 268.82146] CT
0.929 0.694 0.125 RC
N
f-862814258
f
GR
GS
[0.75 0 0 0.75 130.7 268.81499] CT
0.929 0.694 0.125 RC
N
f-862814258
f
GR
GS
[0.75 0 0 0.75 141.55 268.67606] CT
0.929 0.694 0.125 RC
N
f-862814258
f
GR
GS
[0.75 0 0 0.75 152.4 268.51508] CT
0.929 0.694 0.125 RC
N
f-862814258
f
GR
GS
[0.75 0 0 0.75 163.25 268.43056] CT
0.929 0.694 0.125 RC
N
f-862814258
f
GR
GS
[0.75 0 0 0.75 174.1 268.3331] CT
0.929 0.694 0.125 RC
N
f-862814258
f
GR
GS
[0.75 0 0 0.75 184.95 268.30108] CT
0.929 0.694 0.125 RC
N
f-862814258
f
GR
GS
[0.75 0 0 0.75 195.80001 268.26297] CT
0.929 0.694 0.125 RC
N
f-862814258
f
GR
GS
[0.75 0 0 0.75 206.64999 268.10472] CT
0.929 0.694 0.125 RC
N
f-862814258
f
GR
GS
[0.75 0 0 0.75 217.5 268.05991] CT
0.929 0.694 0.125 RC
N
f-862814258
f
GR
GS
[0.75 0 0 0.75 228.35001 267.88261] CT
0.929 0.694 0.125 RC
N
f-862814258
f
GR
GS
[0.75 0 0 0.75 239.19999 267.80727] CT
0.929 0.694 0.125 RC
N
f-862814258
f
GR
GS
[0.75 0 0 0.75 250.05 267.65913] CT
0.929 0.694 0.125 RC
N
f-862814258
f
GR
GS
[0.75 0 0 0.75 260.9 267.50439] CT
0.929 0.694 0.125 RC
N
f-862814258
f
GR
GS
[0.75 0 0 0.75 271.75001 267.40329] CT
0.929 0.694 0.125 RC
N
f-862814258
f
GR
GS
[0.75 0 0 0.75 282.59999 267.3533] CT
0.929 0.694 0.125 RC
N
f-862814258
f
GR
GS
[0.75 0 0 0.75 293.45 267.15301] CT
0.929 0.694 0.125 RC
N
f-862814258
f
GR
GS
[0.75 0 0 0.75 304.3 266.79508] CT
0.929 0.694 0.125 RC
N
f-862814258
f
GR
GS
[0.75 0 0 0.75 315.15001 266.45295] CT
0.929 0.694 0.125 RC
N
f-862814258
f
GR
GS
[0.75 0 0 0.75 325.99999 266.31214] CT
0.929 0.694 0.125 RC
N
f-862814258
f
GR
GS
[0.75 0 0 0.75 336.85 265.72307] CT
0.929 0.694 0.125 RC
N
f-862814258
f
GR
GS
[0.75 0 0 0.75 347.7 266.51571] CT
0.929 0.694 0.125 RC
N
f-862814258
f
GR
GS
[0.75 0 0 0.75 0 0] CT
0.494 0.184 0.557 RC
[1 3] 0 setdash
2 LJ
0.667 LW
N
87.467 358.445 M
101.933 358.335 L
116.4 358.199 L
130.867 357.66 L
145.333 356.945 L
159.8 356.213 L
174.267 355.473 L
188.733 354.732 L
203.2 353.989 L
217.667 353.247 L
232.133 352.505 L
246.6 351.76 L
261.067 351.012 L
275.533 350.258 L
290 349.057 L
304.467 347.713 L
318.933 346.194 L
333.4 344.443 L
347.867 342.376 L
362.333 339.869 L
376.8 336.722 L
391.267 328.738 L
405.733 313.242 L
420.2 274.276 L
434.667 75.808 L
449.133 224.399 L
463.6 221.401 L
S
GR
GS
[0.75 0 0 0.75 65.6 268.83371] CT
0.494 0.184 0.557 RC
N
f-862814258
f
GR
GS
[0.75 0 0 0.75 76.45 268.75159] CT
0.494 0.184 0.557 RC
N
f-862814258
f
GR
GS
[0.75 0 0 0.75 87.3 268.64941] CT
0.494 0.184 0.557 RC
N
f-862814258
f
GR
GS
[0.75 0 0 0.75 98.15 268.24498] CT
0.494 0.184 0.557 RC
N
f-862814258
f
GR
GS
[0.75 0 0 0.75 109 267.7088] CT
0.494 0.184 0.557 RC
N
f-862814258
f
GR
GS
[0.75 0 0 0.75 119.85 267.15965] CT
0.494 0.184 0.557 RC
N
f-862814258
f
GR
GS
[0.75 0 0 0.75 130.7 266.60502] CT
0.494 0.184 0.557 RC
N
f-862814258
f
GR
GS
[0.75 0 0 0.75 141.55 266.04868] CT
0.494 0.184 0.557 RC
N
f-862814258
f
GR
GS
[0.75 0 0 0.75 152.4 265.4921] CT
0.494 0.184 0.557 RC
N
f-862814258
f
GR
GS
[0.75 0 0 0.75 163.25 264.93553] CT
0.494 0.184 0.557 RC
N
f-862814258
f
GR
GS
[0.75 0 0 0.75 174.1 264.37846] CT
0.494 0.184 0.557 RC
N
f-862814258
f
GR
GS
[0.75 0 0 0.75 184.95 263.81994] CT
0.494 0.184 0.557 RC
N
f-862814258
f
GR
GS
[0.75 0 0 0.75 195.80001 263.25879] CT
0.494 0.184 0.557 RC
N
f-862814258
f
GR
GS
[0.75 0 0 0.75 206.64999 262.6935] CT
0.494 0.184 0.557 RC
N
f-862814258
f
GR
GS
[0.75 0 0 0.75 217.5 261.79262] CT
0.494 0.184 0.557 RC
N
f-862814258
f
GR
GS
[0.75 0 0 0.75 228.35001 260.78499] CT
0.494 0.184 0.557 RC
N
f-862814258
f
GR
GS
[0.75 0 0 0.75 239.19999 259.64566] CT
0.494 0.184 0.557 RC
N
f-862814258
f
GR
GS
[0.75 0 0 0.75 250.05 258.33208] CT
0.494 0.184 0.557 RC
N
f-862814258
f
GR
GS
[0.75 0 0 0.75 260.9 256.78219] CT
0.494 0.184 0.557 RC
N
f-862814258
f
GR
GS
[0.75 0 0 0.75 271.75001 254.9019] CT
0.494 0.184 0.557 RC
N
f-862814258
f
GR
GS
[0.75 0 0 0.75 282.59999 252.54147] CT
0.494 0.184 0.557 RC
N
f-862814258
f
GR
GS
[0.75 0 0 0.75 293.45 246.55376] CT
0.494 0.184 0.557 RC
N
f-862814258
f
GR
GS
[0.75 0 0 0.75 304.3 234.93153] CT
0.494 0.184 0.557 RC
N
f-862814258
f
GR
GS
[0.75 0 0 0.75 315.15001 205.70712] CT
0.494 0.184 0.557 RC
N
f-862814258
f
GR
GS
[0.75 0 0 0.75 325.99999 56.85596] CT
0.494 0.184 0.557 RC
N
f-862814258
f
GR
GS
[0.75 0 0 0.75 336.85 168.29909] CT
0.494 0.184 0.557 RC
N
f-862814258
f
GR
GS
[0.75 0 0 0.75 347.7 166.05076] CT
0.494 0.184 0.557 RC
N
f-862814258
f
GR
GS
[0.75 0 0 0.75 0 0] CT
0.467 0.675 0.188 RC
[8 3 2 3] 0 setdash
2 LJ
0.667 LW
N
87.467 361.356 M
101.933 361.355 L
116.4 361.36 L
130.867 361.357 L
145.333 361.36 L
159.8 361.357 L
174.267 361.353 L
188.733 361.351 L
203.2 361.346 L
217.667 361.349 L
232.133 361.358 L
246.6 361.344 L
261.067 361.358 L
275.533 361.339 L
290 361.346 L
304.467 361.345 L
318.933 361.349 L
333.4 361.342 L
347.867 361.337 L
362.333 361.338 L
376.8 361.34 L
391.267 361.344 L
405.733 361.35 L
420.2 361.346 L
434.667 361.306 L
449.133 361.337 L
463.6 361.357 L
S
GR
GS
[0.75 0 0 0.75 65.6 271.01733] CT
0.467 0.675 0.188 RC
10.0 ML
0.667 LW
N
-4 0 M
0 5.32 L
4 0 L
0 -5.32 L
cp
S
GR
GS
[0.75 0 0 0.75 76.45 271.01628] CT
0.467 0.675 0.188 RC
10.0 ML
0.667 LW
N
-4 0 M
0 5.32 L
4 0 L
0 -5.32 L
cp
S
GR
GS
[0.75 0 0 0.75 87.3 271.01999] CT
0.467 0.675 0.188 RC
10.0 ML
0.667 LW
N
-4 0 M
0 5.32 L
4 0 L
0 -5.32 L
cp
S
GR
GS
[0.75 0 0 0.75 98.15 271.01768] CT
0.467 0.675 0.188 RC
10.0 ML
0.667 LW
N
-4 0 M
0 5.32 L
4 0 L
0 -5.32 L
cp
S
GR
GS
[0.75 0 0 0.75 109 271.01976] CT
0.467 0.675 0.188 RC
10.0 ML
0.667 LW
N
-4 0 M
0 5.32 L
4 0 L
0 -5.32 L
cp
S
GR
GS
[0.75 0 0 0.75 119.85 271.01797] CT
0.467 0.675 0.188 RC
10.0 ML
0.667 LW
N
-4 0 M
0 5.32 L
4 0 L
0 -5.32 L
cp
S
GR
GS
[0.75 0 0 0.75 130.7 271.0144] CT
0.467 0.675 0.188 RC
10.0 ML
0.667 LW
N
-4 0 M
0 5.32 L
4 0 L
0 -5.32 L
cp
S
GR
GS
[0.75 0 0 0.75 141.55 271.01299] CT
0.467 0.675 0.188 RC
10.0 ML
0.667 LW
N
-4 0 M
0 5.32 L
4 0 L
0 -5.32 L
cp
S
GR
GS
[0.75 0 0 0.75 152.4 271.00974] CT
0.467 0.675 0.188 RC
10.0 ML
0.667 LW
N
-4 0 M
0 5.32 L
4 0 L
0 -5.32 L
cp
S
GR
GS
[0.75 0 0 0.75 163.25 271.01143] CT
0.467 0.675 0.188 RC
10.0 ML
0.667 LW
N
-4 0 M
0 5.32 L
4 0 L
0 -5.32 L
cp
S
GR
GS
[0.75 0 0 0.75 174.1 271.01884] CT
0.467 0.675 0.188 RC
10.0 ML
0.667 LW
N
-4 0 M
0 5.32 L
4 0 L
0 -5.32 L
cp
S
GR
GS
[0.75 0 0 0.75 184.95 271.00811] CT
0.467 0.675 0.188 RC
10.0 ML
0.667 LW
N
-4 0 M
0 5.32 L
4 0 L
0 -5.32 L
cp
S
GR
GS
[0.75 0 0 0.75 195.80001 271.01866] CT
0.467 0.675 0.188 RC
10.0 ML
0.667 LW
N
-4 0 M
0 5.32 L
4 0 L
0 -5.32 L
cp
S
GR
GS
[0.75 0 0 0.75 206.64999 271.00459] CT
0.467 0.675 0.188 RC
10.0 ML
0.667 LW
N
-4 0 M
0 5.32 L
4 0 L
0 -5.32 L
cp
S
GR
GS
[0.75 0 0 0.75 217.5 271.00923] CT
0.467 0.675 0.188 RC
10.0 ML
0.667 LW
N
-4 0 M
0 5.32 L
4 0 L
0 -5.32 L
cp
S
GR
GS
[0.75 0 0 0.75 228.35001 271.0085] CT
0.467 0.675 0.188 RC
10.0 ML
0.667 LW
N
-4 0 M
0 5.32 L
4 0 L
0 -5.32 L
cp
S
GR
GS
[0.75 0 0 0.75 239.19999 271.01141] CT
0.467 0.675 0.188 RC
10.0 ML
0.667 LW
N
-4 0 M
0 5.32 L
4 0 L
0 -5.32 L
cp
S
GR
GS
[0.75 0 0 0.75 250.05 271.00681] CT
0.467 0.675 0.188 RC
10.0 ML
0.667 LW
N
-4 0 M
0 5.32 L
4 0 L
0 -5.32 L
cp
S
GR
GS
[0.75 0 0 0.75 260.9 271.0031] CT
0.467 0.675 0.188 RC
10.0 ML
0.667 LW
N
-4 0 M
0 5.32 L
4 0 L
0 -5.32 L
cp
S
GR
GS
[0.75 0 0 0.75 271.75001 271.00353] CT
0.467 0.675 0.188 RC
10.0 ML
0.667 LW
N
-4 0 M
0 5.32 L
4 0 L
0 -5.32 L
cp
S
GR
GS
[0.75 0 0 0.75 282.59999 271.00481] CT
0.467 0.675 0.188 RC
10.0 ML
0.667 LW
N
-4 0 M
0 5.32 L
4 0 L
0 -5.32 L
cp
S
GR
GS
[0.75 0 0 0.75 293.45 271.00834] CT
0.467 0.675 0.188 RC
10.0 ML
0.667 LW
N
-4 0 M
0 5.32 L
4 0 L
0 -5.32 L
cp
S
GR
GS
[0.75 0 0 0.75 304.3 271.01237] CT
0.467 0.675 0.188 RC
10.0 ML
0.667 LW
N
-4 0 M
0 5.32 L
4 0 L
0 -5.32 L
cp
S
GR
GS
[0.75 0 0 0.75 315.15001 271.00932] CT
0.467 0.675 0.188 RC
10.0 ML
0.667 LW
N
-4 0 M
0 5.32 L
4 0 L
0 -5.32 L
cp
S
GR
GS
[0.75 0 0 0.75 325.99999 270.97952] CT
0.467 0.675 0.188 RC
10.0 ML
0.667 LW
N
-4 0 M
0 5.32 L
4 0 L
0 -5.32 L
cp
S
GR
GS
[0.75 0 0 0.75 336.85 271.00291] CT
0.467 0.675 0.188 RC
10.0 ML
0.667 LW
N
-4 0 M
0 5.32 L
4 0 L
0 -5.32 L
cp
S
GR
GS
[0.75 0 0 0.75 347.7 271.01781] CT
0.467 0.675 0.188 RC
10.0 ML
0.667 LW
N
-4 0 M
0 5.32 L
4 0 L
0 -5.32 L
cp
S
GR
GS
[0.75 0 0 0.75 0 0] CT
0.302 0.745 0.933 RC
[8 3 2 3] 0 setdash
2 LJ
0.667 LW
N
87.467 361.356 M
101.933 361.355 L
116.4 361.36 L
130.867 361.343 L
145.333 361.356 L
159.8 361.349 L
174.267 361.343 L
188.733 361.334 L
203.2 361.361 L
217.667 361.346 L
232.133 361.359 L
246.6 361.361 L
261.067 361.356 L
275.533 361.328 L
290 361.339 L
304.467 361.342 L
318.933 361.334 L
333.4 361.331 L
347.867 361.333 L
362.333 361.356 L
376.8 361.338 L
391.267 361.341 L
405.733 361.344 L
420.2 361.347 L
434.667 361.351 L
449.133 361.355 L
463.6 361.357 L
S
GR
GS
[0.75 0 0 0.75 65.6 271.01733] CT
0.302 0.745 0.933 RC
10.0 ML
0.667 LW
N
-4 0 M
0 5.32 L
4 0 L
0 -5.32 L
cp
S
GR
GS
[0.75 0 0 0.75 76.45 271.01628] CT
0.302 0.745 0.933 RC
10.0 ML
0.667 LW
N
-4 0 M
0 5.32 L
4 0 L
0 -5.32 L
cp
S
GR
GS
[0.75 0 0 0.75 87.3 271.01999] CT
0.302 0.745 0.933 RC
10.0 ML
0.667 LW
N
-4 0 M
0 5.32 L
4 0 L
0 -5.32 L
cp
S
GR
GS
[0.75 0 0 0.75 98.15 271.00726] CT
0.302 0.745 0.933 RC
10.0 ML
0.667 LW
N
-4 0 M
0 5.32 L
4 0 L
0 -5.32 L
cp
S
GR
GS
[0.75 0 0 0.75 109 271.01699] CT
0.302 0.745 0.933 RC
10.0 ML
0.667 LW
N
-4 0 M
0 5.32 L
4 0 L
0 -5.32 L
cp
S
GR
GS
[0.75 0 0 0.75 119.85 271.01212] CT
0.302 0.745 0.933 RC
10.0 ML
0.667 LW
N
-4 0 M
0 5.32 L
4 0 L
0 -5.32 L
cp
S
GR
GS
[0.75 0 0 0.75 130.7 271.00713] CT
0.302 0.745 0.933 RC
10.0 ML
0.667 LW
N
-4 0 M
0 5.32 L
4 0 L
0 -5.32 L
cp
S
GR
GS
[0.75 0 0 0.75 141.55 271.00051] CT
0.302 0.745 0.933 RC
10.0 ML
0.667 LW
N
-4 0 M
0 5.32 L
4 0 L
0 -5.32 L
cp
S
GR
GS
[0.75 0 0 0.75 152.4 271.021] CT
0.302 0.745 0.933 RC
10.0 ML
0.667 LW
N
-4 0 M
0 5.32 L
4 0 L
0 -5.32 L
cp
S
GR
GS
[0.75 0 0 0.75 163.25 271.00971] CT
0.302 0.745 0.933 RC
10.0 ML
0.667 LW
N
-4 0 M
0 5.32 L
4 0 L
0 -5.32 L
cp
S
GR
GS
[0.75 0 0 0.75 174.1 271.01926] CT
0.302 0.745 0.933 RC
10.0 ML
0.667 LW
N
-4 0 M
0 5.32 L
4 0 L
0 -5.32 L
cp
S
GR
GS
[0.75 0 0 0.75 184.95 271.02065] CT
0.302 0.745 0.933 RC
10.0 ML
0.667 LW
N
-4 0 M
0 5.32 L
4 0 L
0 -5.32 L
cp
S
GR
GS
[0.75 0 0 0.75 195.80001 271.01685] CT
0.302 0.745 0.933 RC
10.0 ML
0.667 LW
N
-4 0 M
0 5.32 L
4 0 L
0 -5.32 L
cp
S
GR
GS
[0.75 0 0 0.75 206.64999 270.99609] CT
0.302 0.745 0.933 RC
10.0 ML
0.667 LW
N
-4 0 M
0 5.32 L
4 0 L
0 -5.32 L
cp
S
GR
GS
[0.75 0 0 0.75 217.5 271.00394] CT
0.302 0.745 0.933 RC
10.0 ML
0.667 LW
N
-4 0 M
0 5.32 L
4 0 L
0 -5.32 L
cp
S
GR
GS
[0.75 0 0 0.75 228.35001 271.00632] CT
0.302 0.745 0.933 RC
10.0 ML
0.667 LW
N
-4 0 M
0 5.32 L
4 0 L
0 -5.32 L
cp
S
GR
GS
[0.75 0 0 0.75 239.19999 271.00044] CT
0.302 0.745 0.933 RC
10.0 ML
0.667 LW
N
-4 0 M
0 5.32 L
4 0 L
0 -5.32 L
cp
S
GR
GS
[0.75 0 0 0.75 250.05 270.99841] CT
0.302 0.745 0.933 RC
10.0 ML
0.667 LW
N
-4 0 M
0 5.32 L
4 0 L
0 -5.32 L
cp
S
GR
GS
[0.75 0 0 0.75 260.9 270.99982] CT
0.302 0.745 0.933 RC
10.0 ML
0.667 LW
N
-4 0 M
0 5.32 L
4 0 L
0 -5.32 L
cp
S
GR
GS
[0.75 0 0 0.75 271.75001 271.01665] CT
0.302 0.745 0.933 RC
10.0 ML
0.667 LW
N
-4 0 M
0 5.32 L
4 0 L
0 -5.32 L
cp
S
GR
GS
[0.75 0 0 0.75 282.59999 271.00328] CT
0.302 0.745 0.933 RC
10.0 ML
0.667 LW
N
-4 0 M
0 5.32 L
4 0 L
0 -5.32 L
cp
S
GR
GS
[0.75 0 0 0.75 293.45 271.00539] CT
0.302 0.745 0.933 RC
10.0 ML
0.667 LW
N
-4 0 M
0 5.32 L
4 0 L
0 -5.32 L
cp
S
GR
GS
[0.75 0 0 0.75 304.3 271.00774] CT
0.302 0.745 0.933 RC
10.0 ML
0.667 LW
N
-4 0 M
0 5.32 L
4 0 L
0 -5.32 L
cp
S
GR
GS
[0.75 0 0 0.75 315.15001 271.01038] CT
0.302 0.745 0.933 RC
10.0 ML
0.667 LW
N
-4 0 M
0 5.32 L
4 0 L
0 -5.32 L
cp
S
GR
GS
[0.75 0 0 0.75 325.99999 271.01333] CT
0.302 0.745 0.933 RC
10.0 ML
0.667 LW
N
-4 0 M
0 5.32 L
4 0 L
0 -5.32 L
cp
S
GR
GS
[0.75 0 0 0.75 336.85 271.0166] CT
0.302 0.745 0.933 RC
10.0 ML
0.667 LW
N
-4 0 M
0 5.32 L
4 0 L
0 -5.32 L
cp
S
GR
GS
[0.75 0 0 0.75 347.7 271.01804] CT
0.302 0.745 0.933 RC
10.0 ML
0.667 LW
N
-4 0 M
0 5.32 L
4 0 L
0 -5.32 L
cp
S
GR
GS
[0.75 0 0 0.75 0 0] CT
1 GC
N
347 173 M
347 70 L
233 70 L
233 173 L
cp
f
GR
GS
[0.75 0 0 0.75 210 60.03659] CT
/Helvetica 12 F
GS
[1 0 0 1 0 0] CT
0 5 moveto 
1 -1 scale
(max/minAle) t 
GR
GR
GS
[0.75 0 0 0.75 0 0] CT
0 0.447 0.741 RC
[10 6] 0 setdash
2 LJ
0.667 LW
N
237 80.049 M
277 80.049 L
S
GR
GS
[0.75 0 0 0.75 192.75 60.03659] CT
0 0.447 0.741 RC
10.0 ML
0.667 LW
N
-3 -3 M
-3 3 L
3 3 L
3 -3 L
cp
S
GR
GS
[0.75 0 0 0.75 210 72.47195] CT
/Helvetica 12 F
GS
[1 0 0 1 0 0] CT
0 5 moveto 
1 -1 scale
(max/min) t 
GR
GR
GS
[0.75 0 0 0.75 0 0] CT
0.851 0.325 0.098 RC
[10 6] 0 setdash
2 LJ
0.667 LW
N
237 96.629 M
277 96.629 L
S
GR
GS
[0.75 0 0 0.75 192.75 72.47195] CT
0.851 0.325 0.098 RC
10.0 ML
0.667 LW
N
-3 -3 M
-3 3 L
3 3 L
3 -3 L
cp
S
GR
GS
[0.75 0 0 0.75 210 84.90732] CT
/Helvetica 12 F
GS
[1 0 0 1 0 0] CT
0 5 moveto 
1 -1 scale
(maxAle) t 
GR
GR
GS
[0.75 0 0 0.75 0 0] CT
0.929 0.694 0.125 RC
[1 3] 0 setdash
2 LJ
0.667 LW
N
237 113.21 M
277 113.21 L
S
GR
GS
[0.75 0 0 0.75 192.75 84.90732] CT
0.929 0.694 0.125 RC
N
f-862814258
f
GR
GS
[0.75 0 0 0.75 210 97.34269] CT
/Helvetica 12 F
GS
[1 0 0 1 0 0] CT
0 5 moveto 
1 -1 scale
(max) t 
GR
GR
GS
[0.75 0 0 0.75 0 0] CT
0.494 0.184 0.557 RC
[1 3] 0 setdash
2 LJ
0.667 LW
N
237 129.79 M
277 129.79 L
S
GR
GS
[0.75 0 0 0.75 192.75 97.34268] CT
0.494 0.184 0.557 RC
N
f-862814258
f
GR
GS
[0.75 0 0 0.75 210 109.77805] CT
/Helvetica 12 F
GS
[1 0 0 1 0 0] CT
0 5 moveto 
1 -1 scale
(minAle) t 
GR
GR
GS
[0.75 0 0 0.75 0 0] CT
0.467 0.675 0.188 RC
[8 3 2 3] 0 setdash
2 LJ
0.667 LW
N
237 146.371 M
277 146.371 L
S
GR
GS
[0.75 0 0 0.75 192.75 109.77805] CT
0.467 0.675 0.188 RC
10.0 ML
0.667 LW
N
-4 0 M
0 5.32 L
4 0 L
0 -5.32 L
cp
S
GR
GS
[0.75 0 0 0.75 210 122.21341] CT
/Helvetica 12 F
GS
[1 0 0 1 0 0] CT
0 5 moveto 
1 -1 scale
(min) t 
GR
GR
GS
[0.75 0 0 0.75 0 0] CT
0.302 0.745 0.933 RC
[8 3 2 3] 0 setdash
2 LJ
0.667 LW
N
237 162.951 M
277 162.951 L
S
GR
GS
[0.75 0 0 0.75 192.75 122.21341] CT
0.302 0.745 0.933 RC
10.0 ML
0.667 LW
N
-4 0 M
0 5.32 L
4 0 L
0 -5.32 L
cp
S
GR
GS
[0.75 0 0 0.75 0 0] CT
0.149 GC
10.0 ML
0.667 LW
N
233 173 M
233 70 L
347 70 L
347 173 L
cp
S
GR
%%Trailer
%%Pages: 1
%%EOF
