%!PS-Adobe-3.0 EPSF-3.0
%%Creator: (MATLAB, The Mathworks, Inc. Version 9.7.0.1319299 \(R2019b\) Update 5. Operating System: Windows 10)
%%Title: Plots_Quality/Kovacs_Dumbbell_Histogramm.eps
%%CreationDate: 2020-12-13T21:24:34
%%Pages: (atend)
%%BoundingBox:    14    19   381   315
%%LanguageLevel: 2
%%EndComments
%%BeginProlog
%%BeginResource: procset (Apache XML Graphics Std ProcSet) 1.2 0
%%Version: 1.2 0
%%Copyright: (Copyright 2001-2003,2010 The Apache Software Foundation. License terms: http://www.apache.org/licenses/LICENSE-2.0)
/bd{bind def}bind def
/ld{load def}bd
/GR/grestore ld
/GS/gsave ld
/RM/rmoveto ld
/C/curveto ld
/t/show ld
/L/lineto ld
/ML/setmiterlimit ld
/CT/concat ld
/f/fill ld
/N/newpath ld
/S/stroke ld
/CC/setcmykcolor ld
/A/ashow ld
/cp/closepath ld
/RC/setrgbcolor ld
/LJ/setlinejoin ld
/GC/setgray ld
/LW/setlinewidth ld
/M/moveto ld
/re {4 2 roll M
1 index 0 rlineto
0 exch rlineto
neg 0 rlineto
cp } bd
/_ctm matrix def
/_tm matrix def
/BT { _ctm currentmatrix pop matrix _tm copy pop 0 0 moveto } bd
/ET { _ctm setmatrix } bd
/iTm { _ctm setmatrix _tm concat } bd
/Tm { _tm astore pop iTm 0 0 moveto } bd
/ux 0.0 def
/uy 0.0 def
/F {
  /Tp exch def
  /Tf exch def
  Tf findfont Tp scalefont setfont
  /cf Tf def  /cs Tp def
} bd
/ULS {currentpoint /uy exch def /ux exch def} bd
/ULE {
  /Tcx currentpoint pop def
  gsave
  newpath
  cf findfont cs scalefont dup
  /FontMatrix get 0 get /Ts exch def /FontInfo get dup
  /UnderlinePosition get Ts mul /To exch def
  /UnderlineThickness get Ts mul /Tt exch def
  ux uy To add moveto  Tcx uy To add lineto
  Tt setlinewidth stroke
  grestore
} bd
/OLE {
  /Tcx currentpoint pop def
  gsave
  newpath
  cf findfont cs scalefont dup
  /FontMatrix get 0 get /Ts exch def /FontInfo get dup
  /UnderlinePosition get Ts mul /To exch def
  /UnderlineThickness get Ts mul /Tt exch def
  ux uy To add cs add moveto Tcx uy To add cs add lineto
  Tt setlinewidth stroke
  grestore
} bd
/SOE {
  /Tcx currentpoint pop def
  gsave
  newpath
  cf findfont cs scalefont dup
  /FontMatrix get 0 get /Ts exch def /FontInfo get dup
  /UnderlinePosition get Ts mul /To exch def
  /UnderlineThickness get Ts mul /Tt exch def
  ux uy To add cs 10 mul 26 idiv add moveto Tcx uy To add cs 10 mul 26 idiv add lineto
  Tt setlinewidth stroke
  grestore
} bd
/QT {
/Y22 exch store
/X22 exch store
/Y21 exch store
/X21 exch store
currentpoint
/Y21 load 2 mul add 3 div exch
/X21 load 2 mul add 3 div exch
/X21 load 2 mul /X22 load add 3 div
/Y21 load 2 mul /Y22 load add 3 div
/X22 load /Y22 load curveto
} bd
/SSPD {
dup length /d exch dict def
{
/v exch def
/k exch def
currentpagedevice k known {
/cpdv currentpagedevice k get def
v cpdv ne {
/upd false def
/nullv v type /nulltype eq def
/nullcpdv cpdv type /nulltype eq def
nullv nullcpdv or
{
/upd true def
} {
/sametype v type cpdv type eq def
sametype {
v type /arraytype eq {
/vlen v length def
/cpdvlen cpdv length def
vlen cpdvlen eq {
0 1 vlen 1 sub {
/i exch def
/obj v i get def
/cpdobj cpdv i get def
obj cpdobj ne {
/upd true def
exit
} if
} for
} {
/upd true def
} ifelse
} {
v type /dicttype eq {
v {
/dv exch def
/dk exch def
/cpddv cpdv dk get def
dv cpddv ne {
/upd true def
exit
} if
} forall
} {
/upd true def
} ifelse
} ifelse
} if
} ifelse
upd true eq {
d k v put
} if
} if
} if
} forall
d length 0 gt {
d setpagedevice
} if
} bd
/RE { % /NewFontName [NewEncodingArray] /FontName RE -
  findfont dup length dict begin
  {
    1 index /FID ne
    {def} {pop pop} ifelse
  } forall
  /Encoding exch def
  /FontName 1 index def
  currentdict definefont pop
  end
} bind def
%%EndResource
%%BeginResource: procset (Apache XML Graphics EPS ProcSet) 1.0 0
%%Version: 1.0 0
%%Copyright: (Copyright 2002-2003 The Apache Software Foundation. License terms: http://www.apache.org/licenses/LICENSE-2.0)
/BeginEPSF { %def
/b4_Inc_state save def         % Save state for cleanup
/dict_count countdictstack def % Count objects on dict stack
/op_count count 1 sub def      % Count objects on operand stack
userdict begin                 % Push userdict on dict stack
/showpage { } def              % Redefine showpage, { } = null proc
0 setgray 0 setlinecap         % Prepare graphics state
1 setlinewidth 0 setlinejoin
10 setmiterlimit [ ] 0 setdash newpath
/languagelevel where           % If level not equal to 1 then
{pop languagelevel             % set strokeadjust and
1 ne                           % overprint to their defaults.
{false setstrokeadjust false setoverprint
} if
} if
} bd
/EndEPSF { %def
count op_count sub {pop} repeat            % Clean up stacks
countdictstack dict_count sub {end} repeat
b4_Inc_state restore
} bd
%%EndResource
%FOPBeginFontDict
%%IncludeResource: font Courier-Oblique
%%IncludeResource: font Courier-BoldOblique
%%IncludeResource: font Courier-Bold
%%IncludeResource: font ZapfDingbats
%%IncludeResource: font Symbol
%%IncludeResource: font Helvetica
%%IncludeResource: font Helvetica-Oblique
%%IncludeResource: font Helvetica-Bold
%%IncludeResource: font Helvetica-BoldOblique
%%IncludeResource: font Times-Roman
%%IncludeResource: font Times-Italic
%%IncludeResource: font Times-Bold
%%IncludeResource: font Times-BoldItalic
%%IncludeResource: font Courier
%FOPEndFontDict
%%BeginResource: encoding WinAnsiEncoding
/WinAnsiEncoding [
/.notdef /.notdef /.notdef /.notdef /.notdef
/.notdef /.notdef /.notdef /.notdef /.notdef
/.notdef /.notdef /.notdef /.notdef /.notdef
/.notdef /.notdef /.notdef /.notdef /.notdef
/.notdef /.notdef /.notdef /.notdef /.notdef
/.notdef /.notdef /.notdef /.notdef /.notdef
/.notdef /.notdef /space /exclam /quotedbl
/numbersign /dollar /percent /ampersand /quotesingle
/parenleft /parenright /asterisk /plus /comma
/hyphen /period /slash /zero /one
/two /three /four /five /six
/seven /eight /nine /colon /semicolon
/less /equal /greater /question /at
/A /B /C /D /E
/F /G /H /I /J
/K /L /M /N /O
/P /Q /R /S /T
/U /V /W /X /Y
/Z /bracketleft /backslash /bracketright /asciicircum
/underscore /quoteleft /a /b /c
/d /e /f /g /h
/i /j /k /l /m
/n /o /p /q /r
/s /t /u /v /w
/x /y /z /braceleft /bar
/braceright /asciitilde /bullet /Euro /bullet
/quotesinglbase /florin /quotedblbase /ellipsis /dagger
/daggerdbl /circumflex /perthousand /Scaron /guilsinglleft
/OE /bullet /Zcaron /bullet /bullet
/quoteleft /quoteright /quotedblleft /quotedblright /bullet
/endash /emdash /asciitilde /trademark /scaron
/guilsinglright /oe /bullet /zcaron /Ydieresis
/space /exclamdown /cent /sterling /currency
/yen /brokenbar /section /dieresis /copyright
/ordfeminine /guillemotleft /logicalnot /sfthyphen /registered
/macron /degree /plusminus /twosuperior /threesuperior
/acute /mu /paragraph /middot /cedilla
/onesuperior /ordmasculine /guillemotright /onequarter /onehalf
/threequarters /questiondown /Agrave /Aacute /Acircumflex
/Atilde /Adieresis /Aring /AE /Ccedilla
/Egrave /Eacute /Ecircumflex /Edieresis /Igrave
/Iacute /Icircumflex /Idieresis /Eth /Ntilde
/Ograve /Oacute /Ocircumflex /Otilde /Odieresis
/multiply /Oslash /Ugrave /Uacute /Ucircumflex
/Udieresis /Yacute /Thorn /germandbls /agrave
/aacute /acircumflex /atilde /adieresis /aring
/ae /ccedilla /egrave /eacute /ecircumflex
/edieresis /igrave /iacute /icircumflex /idieresis
/eth /ntilde /ograve /oacute /ocircumflex
/otilde /odieresis /divide /oslash /ugrave
/uacute /ucircumflex /udieresis /yacute /thorn
/ydieresis
] def
%%EndResource
%FOPBeginFontReencode
/Courier-Oblique findfont
dup length dict begin
  {1 index /FID ne {def} {pop pop} ifelse} forall
  /Encoding WinAnsiEncoding def
  currentdict
end
/Courier-Oblique exch definefont pop
/Courier-BoldOblique findfont
dup length dict begin
  {1 index /FID ne {def} {pop pop} ifelse} forall
  /Encoding WinAnsiEncoding def
  currentdict
end
/Courier-BoldOblique exch definefont pop
/Courier-Bold findfont
dup length dict begin
  {1 index /FID ne {def} {pop pop} ifelse} forall
  /Encoding WinAnsiEncoding def
  currentdict
end
/Courier-Bold exch definefont pop
/Helvetica findfont
dup length dict begin
  {1 index /FID ne {def} {pop pop} ifelse} forall
  /Encoding WinAnsiEncoding def
  currentdict
end
/Helvetica exch definefont pop
/Helvetica-Oblique findfont
dup length dict begin
  {1 index /FID ne {def} {pop pop} ifelse} forall
  /Encoding WinAnsiEncoding def
  currentdict
end
/Helvetica-Oblique exch definefont pop
/Helvetica-Bold findfont
dup length dict begin
  {1 index /FID ne {def} {pop pop} ifelse} forall
  /Encoding WinAnsiEncoding def
  currentdict
end
/Helvetica-Bold exch definefont pop
/Helvetica-BoldOblique findfont
dup length dict begin
  {1 index /FID ne {def} {pop pop} ifelse} forall
  /Encoding WinAnsiEncoding def
  currentdict
end
/Helvetica-BoldOblique exch definefont pop
/Times-Roman findfont
dup length dict begin
  {1 index /FID ne {def} {pop pop} ifelse} forall
  /Encoding WinAnsiEncoding def
  currentdict
end
/Times-Roman exch definefont pop
/Times-Italic findfont
dup length dict begin
  {1 index /FID ne {def} {pop pop} ifelse} forall
  /Encoding WinAnsiEncoding def
  currentdict
end
/Times-Italic exch definefont pop
/Times-Bold findfont
dup length dict begin
  {1 index /FID ne {def} {pop pop} ifelse} forall
  /Encoding WinAnsiEncoding def
  currentdict
end
/Times-Bold exch definefont pop
/Times-BoldItalic findfont
dup length dict begin
  {1 index /FID ne {def} {pop pop} ifelse} forall
  /Encoding WinAnsiEncoding def
  currentdict
end
/Times-BoldItalic exch definefont pop
/Courier findfont
dup length dict begin
  {1 index /FID ne {def} {pop pop} ifelse} forall
  /Encoding WinAnsiEncoding def
  currentdict
end
/Courier exch definefont pop
%FOPEndFontReencode
%%EndProlog
%%Page: 1 1
%%PageBoundingBox: 0 0 420 315
%%BeginPageSetup
[1 0 0 -1 0 315] CT
%%EndPageSetup
GS
[0.75 0 0 0.75 0 0] CT
1 GC
N
0 0 560 420 re
f
GR
GS
[0.75 0 0 0.75 0 0] CT
1 GC
N
0 0 560 420 re
f
GR
GS
[0.75 0 0 0.75 0 0] CT
1 GC
N
73 374 M
507 374 L
507 36 L
73 36 L
cp
f
GR
GS
[0.75 0 0 0.75 217.50021 24.94359] CT
N
-112.595 -12.261 M
-112.595 -12.792 L
-111.064 -12.792 -111.064 -13.261 QT
-111.064 -21.511 L
-111.064 -21.979 -112.595 -21.979 QT
-112.595 -22.511 L
-108.111 -22.511 L
-108.111 -21.979 L
-109.658 -21.979 -109.658 -21.511 QT
-109.658 -16.636 L
-105.017 -21.089 L
-104.829 -21.292 -104.829 -21.511 QT
-104.829 -21.745 -105.033 -21.862 QT
-105.236 -21.979 -105.486 -21.979 QT
-105.486 -22.511 L
-102.236 -22.511 L
-102.236 -21.979 L
-103.454 -21.979 -104.392 -21.089 QT
-107.048 -18.542 L
-103.767 -13.667 L
-103.361 -13.089 -103.056 -12.94 QT
-102.751 -12.792 -102.033 -12.792 QT
-102.033 -12.261 L
-105.954 -12.261 L
-105.954 -12.792 L
-105.595 -12.792 -105.345 -12.862 QT
-105.095 -12.932 -105.095 -13.198 QT
-105.095 -13.386 -105.298 -13.667 QT
-107.986 -17.651 L
-109.658 -16.042 L
-109.658 -13.261 L
-109.658 -12.792 -108.111 -12.792 QT
-108.111 -12.261 L
-112.595 -12.261 L
cp
f
GR
GS
[0.75 0 0 0.75 217.50021 24.94359] CT
N
-97.906 -12.089 M
-98.813 -12.089 -99.578 -12.55 QT
-100.344 -13.011 -100.789 -13.776 QT
-101.234 -14.542 -101.234 -15.448 QT
-101.234 -16.136 -100.992 -16.776 QT
-100.75 -17.417 -100.289 -17.917 QT
-99.828 -18.417 -99.219 -18.698 QT
-98.609 -18.979 -97.906 -18.979 QT
-96.984 -18.979 -96.227 -18.495 QT
-95.469 -18.011 -95.031 -17.19 QT
-94.594 -16.37 -94.594 -15.448 QT
-94.594 -14.557 -95.039 -13.784 QT
-95.484 -13.011 -96.25 -12.55 QT
-97.016 -12.089 -97.906 -12.089 QT
cp
-97.906 -12.526 M
-96.703 -12.526 -96.305 -13.401 QT
-95.906 -14.276 -95.906 -15.62 QT
-95.906 -16.37 -95.984 -16.87 QT
-96.063 -17.37 -96.328 -17.776 QT
-96.5 -18.011 -96.758 -18.198 QT
-97.016 -18.386 -97.305 -18.487 QT
-97.594 -18.589 -97.906 -18.589 QT
-98.375 -18.589 -98.797 -18.378 QT
-99.219 -18.167 -99.5 -17.776 QT
-99.781 -17.339 -99.852 -16.831 QT
-99.922 -16.323 -99.922 -15.62 QT
-99.922 -14.776 -99.781 -14.104 QT
-99.641 -13.432 -99.195 -12.979 QT
-98.75 -12.526 -97.906 -12.526 QT
cp
f
GR
GS
[0.75 0 0 0.75 217.50021 24.94359] CT
N
-91.074 -12.261 M
-93.262 -17.776 L
-93.402 -18.042 -93.691 -18.12 QT
-93.98 -18.198 -94.449 -18.198 QT
-94.449 -18.729 L
-91.293 -18.729 L
-91.293 -18.198 L
-92.137 -18.198 -92.137 -17.839 QT
-92.137 -17.776 -92.121 -17.761 QT
-90.434 -13.526 L
-88.918 -17.339 L
-88.871 -17.464 -88.871 -17.589 QT
-88.871 -17.87 -89.09 -18.034 QT
-89.309 -18.198 -89.605 -18.198 QT
-89.605 -18.729 L
-87.105 -18.729 L
-87.105 -18.198 L
-87.574 -18.198 -87.926 -17.987 QT
-88.277 -17.776 -88.465 -17.354 QT
-90.48 -12.261 L
-90.543 -12.089 -90.73 -12.089 QT
-90.84 -12.089 L
-91.012 -12.089 -91.074 -12.261 QT
cp
f
GR
GS
[0.75 0 0 0.75 217.50021 24.94359] CT
N
-83.911 -20.198 M
-82.115 -22.511 L
-81.943 -22.729 -81.677 -22.729 QT
-81.443 -22.729 -81.279 -22.565 QT
-81.115 -22.401 -81.115 -22.167 QT
-81.115 -21.932 -81.318 -21.745 QT
-83.599 -19.886 L
-83.911 -20.198 L
cp
f
GR
GS
[0.75 0 0 0.75 217.50021 24.94359] CT
N
-86.396 -13.729 M
-86.396 -14.62 -85.693 -15.182 QT
-84.99 -15.745 -83.997 -15.979 QT
-83.005 -16.214 -82.13 -16.214 QT
-82.13 -16.823 L
-82.13 -17.261 -82.318 -17.667 QT
-82.505 -18.073 -82.865 -18.331 QT
-83.224 -18.589 -83.661 -18.589 QT
-84.646 -18.589 -85.177 -18.136 QT
-84.88 -18.136 -84.701 -17.925 QT
-84.521 -17.714 -84.521 -17.417 QT
-84.521 -17.12 -84.732 -16.909 QT
-84.943 -16.698 -85.224 -16.698 QT
-85.536 -16.698 -85.747 -16.909 QT
-85.958 -17.12 -85.958 -17.417 QT
-85.958 -18.214 -85.24 -18.597 QT
-84.521 -18.979 -83.661 -18.979 QT
-83.052 -18.979 -82.435 -18.722 QT
-81.818 -18.464 -81.427 -17.979 QT
-81.036 -17.495 -81.036 -16.854 QT
-81.036 -13.479 L
-81.036 -13.182 -80.911 -12.94 QT
-80.786 -12.698 -80.521 -12.698 QT
-80.271 -12.698 -80.154 -12.948 QT
-80.036 -13.198 -80.036 -13.479 QT
-80.036 -14.432 L
-79.599 -14.432 L
-79.599 -13.479 L
-79.599 -13.136 -79.771 -12.831 QT
-79.943 -12.526 -80.24 -12.347 QT
-80.536 -12.167 -80.88 -12.167 QT
-81.318 -12.167 -81.638 -12.511 QT
-81.958 -12.854 -81.99 -13.323 QT
-82.271 -12.761 -82.81 -12.425 QT
-83.349 -12.089 -83.974 -12.089 QT
-84.536 -12.089 -85.091 -12.261 QT
-85.646 -12.432 -86.021 -12.792 QT
-86.396 -13.151 -86.396 -13.729 QT
cp
-85.177 -13.729 M
-85.177 -13.198 -84.786 -12.847 QT
-84.396 -12.495 -83.865 -12.495 QT
-83.38 -12.495 -82.99 -12.729 QT
-82.599 -12.964 -82.365 -13.386 QT
-82.13 -13.807 -82.13 -14.261 QT
-82.13 -15.823 L
-82.802 -15.823 -83.521 -15.604 QT
-84.24 -15.386 -84.708 -14.909 QT
-85.177 -14.432 -85.177 -13.729 QT
cp
f
GR
GS
[0.75 0 0 0.75 217.50021 24.94359] CT
N
-75.922 -12.089 M
-76.828 -12.089 -77.57 -12.565 QT
-78.313 -13.042 -78.734 -13.823 QT
-79.156 -14.604 -79.156 -15.495 QT
-79.156 -16.386 -78.734 -17.198 QT
-78.313 -18.011 -77.57 -18.495 QT
-76.828 -18.979 -75.922 -18.979 QT
-75.047 -18.979 -74.32 -18.636 QT
-73.594 -18.292 -73.594 -17.511 QT
-73.594 -17.214 -73.805 -17.003 QT
-74.016 -16.792 -74.313 -16.792 QT
-74.609 -16.792 -74.82 -17.003 QT
-75.031 -17.214 -75.031 -17.511 QT
-75.031 -17.776 -74.867 -17.972 QT
-74.703 -18.167 -74.453 -18.214 QT
-74.969 -18.542 -75.906 -18.542 QT
-76.625 -18.542 -77.063 -18.065 QT
-77.5 -17.589 -77.68 -16.886 QT
-77.859 -16.182 -77.859 -15.495 QT
-77.859 -14.776 -77.641 -14.097 QT
-77.422 -13.417 -76.945 -12.972 QT
-76.469 -12.526 -75.734 -12.526 QT
-75.031 -12.526 -74.531 -12.964 QT
-74.031 -13.401 -73.844 -14.104 QT
-73.844 -14.198 -73.734 -14.198 QT
-73.547 -14.198 L
-73.5 -14.198 -73.469 -14.159 QT
-73.438 -14.12 -73.438 -14.057 QT
-73.438 -14.026 L
-73.656 -13.136 -74.328 -12.612 QT
-75 -12.089 -75.922 -12.089 QT
cp
f
GR
GS
[0.75 0 0 0.75 217.50021 24.94359] CT
N
-72.638 -12.214 M
-72.638 -14.667 L
-72.638 -14.776 -72.513 -14.776 QT
-72.325 -14.776 L
-72.231 -14.776 -72.2 -14.667 QT
-71.794 -12.495 -70.185 -12.495 QT
-69.481 -12.495 -68.997 -12.815 QT
-68.513 -13.136 -68.513 -13.807 QT
-68.513 -14.292 -68.888 -14.628 QT
-69.263 -14.964 -69.778 -15.089 QT
-70.778 -15.292 L
-71.278 -15.401 -71.692 -15.628 QT
-72.106 -15.854 -72.372 -16.229 QT
-72.638 -16.604 -72.638 -17.104 QT
-72.638 -17.776 -72.294 -18.19 QT
-71.95 -18.604 -71.388 -18.792 QT
-70.825 -18.979 -70.185 -18.979 QT
-69.419 -18.979 -68.841 -18.573 QT
-68.419 -18.948 L
-68.419 -18.979 -68.341 -18.979 QT
-68.231 -18.979 L
-68.185 -18.979 -68.146 -18.94 QT
-68.106 -18.901 -68.106 -18.854 QT
-68.106 -16.901 L
-68.106 -16.761 -68.231 -16.761 QT
-68.419 -16.761 L
-68.544 -16.761 -68.544 -16.901 QT
-68.544 -17.682 -68.981 -18.159 QT
-69.419 -18.636 -70.2 -18.636 QT
-70.872 -18.636 -71.364 -18.386 QT
-71.856 -18.136 -71.856 -17.526 QT
-71.856 -17.104 -71.505 -16.839 QT
-71.153 -16.573 -70.669 -16.464 QT
-69.653 -16.261 L
-69.153 -16.151 -68.708 -15.87 QT
-68.263 -15.589 -68.005 -15.167 QT
-67.747 -14.745 -67.747 -14.214 QT
-67.747 -13.667 -67.927 -13.268 QT
-68.106 -12.87 -68.442 -12.604 QT
-68.778 -12.339 -69.231 -12.214 QT
-69.685 -12.089 -70.185 -12.089 QT
-71.122 -12.089 -71.794 -12.729 QT
-72.341 -12.136 L
-72.341 -12.089 -72.419 -12.089 QT
-72.513 -12.089 L
-72.638 -12.089 -72.638 -12.214 QT
cp
f
GR
GS
[0.75 0 0 0.75 217.50021 24.94359] CT
N
-58.729 -12.089 M
-59.651 -12.089 -60.409 -12.573 QT
-61.167 -13.057 -61.604 -13.854 QT
-62.042 -14.651 -62.042 -15.542 QT
-62.042 -16.432 -61.643 -17.222 QT
-61.245 -18.011 -60.534 -18.495 QT
-59.823 -18.979 -58.948 -18.979 QT
-58.245 -18.979 -57.737 -18.753 QT
-57.229 -18.526 -56.901 -18.112 QT
-56.573 -17.698 -56.409 -17.143 QT
-56.245 -16.589 -56.245 -15.917 QT
-56.245 -15.729 -56.386 -15.729 QT
-60.729 -15.729 L
-60.729 -15.557 L
-60.729 -14.323 -60.229 -13.425 QT
-59.729 -12.526 -58.589 -12.526 QT
-58.136 -12.526 -57.745 -12.737 QT
-57.354 -12.948 -57.065 -13.307 QT
-56.776 -13.667 -56.667 -14.089 QT
-56.651 -14.136 -56.612 -14.182 QT
-56.573 -14.229 -56.526 -14.229 QT
-56.386 -14.229 L
-56.245 -14.229 -56.245 -14.026 QT
-56.448 -13.182 -57.151 -12.636 QT
-57.854 -12.089 -58.729 -12.089 QT
cp
-60.714 -16.104 M
-57.307 -16.104 L
-57.307 -16.667 -57.464 -17.245 QT
-57.62 -17.823 -57.987 -18.206 QT
-58.354 -18.589 -58.948 -18.589 QT
-59.792 -18.589 -60.253 -17.792 QT
-60.714 -16.995 -60.714 -16.104 QT
cp
f
GR
GS
[0.75 0 0 0.75 217.50021 24.94359] CT
N
-54.414 -14.057 M
-54.414 -18.198 L
-55.664 -18.198 L
-55.664 -18.589 L
-54.68 -18.589 -54.219 -19.503 QT
-53.758 -20.417 -53.758 -21.495 QT
-53.32 -21.495 L
-53.32 -18.729 L
-51.211 -18.729 L
-51.211 -18.198 L
-53.32 -18.198 L
-53.32 -14.089 L
-53.32 -13.464 -53.109 -12.995 QT
-52.898 -12.526 -52.367 -12.526 QT
-51.851 -12.526 -51.625 -13.026 QT
-51.398 -13.526 -51.398 -14.089 QT
-51.398 -14.979 L
-50.961 -14.979 L
-50.961 -14.057 L
-50.961 -13.589 -51.133 -13.136 QT
-51.305 -12.682 -51.64 -12.386 QT
-51.976 -12.089 -52.461 -12.089 QT
-53.367 -12.089 -53.89 -12.628 QT
-54.414 -13.167 -54.414 -14.057 QT
cp
f
GR
GS
[0.75 0 0 0.75 217.50021 24.94359] CT
N
-44.759 -13.729 M
-44.759 -14.62 -44.056 -15.182 QT
-43.353 -15.745 -42.36 -15.979 QT
-41.368 -16.214 -40.493 -16.214 QT
-40.493 -16.823 L
-40.493 -17.261 -40.681 -17.667 QT
-40.868 -18.073 -41.228 -18.331 QT
-41.587 -18.589 -42.024 -18.589 QT
-43.009 -18.589 -43.54 -18.136 QT
-43.243 -18.136 -43.063 -17.925 QT
-42.884 -17.714 -42.884 -17.417 QT
-42.884 -17.12 -43.095 -16.909 QT
-43.306 -16.698 -43.587 -16.698 QT
-43.899 -16.698 -44.11 -16.909 QT
-44.321 -17.12 -44.321 -17.417 QT
-44.321 -18.214 -43.603 -18.597 QT
-42.884 -18.979 -42.024 -18.979 QT
-41.415 -18.979 -40.798 -18.722 QT
-40.181 -18.464 -39.79 -17.979 QT
-39.399 -17.495 -39.399 -16.854 QT
-39.399 -13.479 L
-39.399 -13.182 -39.274 -12.94 QT
-39.149 -12.698 -38.884 -12.698 QT
-38.634 -12.698 -38.517 -12.948 QT
-38.399 -13.198 -38.399 -13.479 QT
-38.399 -14.432 L
-37.962 -14.432 L
-37.962 -13.479 L
-37.962 -13.136 -38.134 -12.831 QT
-38.306 -12.526 -38.603 -12.347 QT
-38.899 -12.167 -39.243 -12.167 QT
-39.681 -12.167 -40.001 -12.511 QT
-40.321 -12.854 -40.353 -13.323 QT
-40.634 -12.761 -41.173 -12.425 QT
-41.712 -12.089 -42.337 -12.089 QT
-42.899 -12.089 -43.454 -12.261 QT
-44.009 -12.432 -44.384 -12.792 QT
-44.759 -13.151 -44.759 -13.729 QT
cp
-43.54 -13.729 M
-43.54 -13.198 -43.149 -12.847 QT
-42.759 -12.495 -42.228 -12.495 QT
-41.743 -12.495 -41.353 -12.729 QT
-40.962 -12.964 -40.728 -13.386 QT
-40.493 -13.807 -40.493 -14.261 QT
-40.493 -15.823 L
-41.165 -15.823 -41.884 -15.604 QT
-42.603 -15.386 -43.071 -14.909 QT
-43.54 -14.432 -43.54 -13.729 QT
cp
f
GR
GS
[0.75 0 0 0.75 217.50021 24.94359] CT
N
-37.55 -12.261 M
-37.55 -12.792 L
-37.05 -12.792 -36.715 -12.87 QT
-36.379 -12.948 -36.379 -13.261 QT
-36.379 -21.136 L
-36.379 -21.542 -36.504 -21.722 QT
-36.629 -21.901 -36.855 -21.94 QT
-37.082 -21.979 -37.55 -21.979 QT
-37.55 -22.511 L
-35.332 -22.667 L
-35.332 -13.261 L
-35.332 -12.948 -35.004 -12.87 QT
-34.675 -12.792 -34.16 -12.792 QT
-34.16 -12.261 L
-37.55 -12.261 L
cp
f
GR
GS
[0.75 0 0 0.75 217.50021 24.94359] CT
N
-32.679 -13.089 M
-32.679 -13.432 -32.429 -13.667 QT
-32.179 -13.901 -31.851 -13.901 QT
-31.648 -13.901 -31.453 -13.792 QT
-31.258 -13.682 -31.148 -13.487 QT
-31.039 -13.292 -31.039 -13.089 QT
-31.039 -12.761 -31.281 -12.511 QT
-31.523 -12.261 -31.851 -12.261 QT
-32.179 -12.261 -32.429 -12.511 QT
-32.679 -12.761 -32.679 -13.089 QT
cp
f
GR
GS
[0.75 0 0 0.75 217.50021 24.94359] CT
N
-19.899 -13.87 M
-19.368 -13.198 -18.587 -12.831 QT
-17.806 -12.464 -16.946 -12.464 QT
-16.118 -12.464 -15.438 -12.886 QT
-14.759 -13.307 -14.759 -14.089 QT
-14.759 -15.354 L
-14.759 -15.823 -16.634 -15.823 QT
-16.634 -16.354 L
-12.337 -16.354 L
-12.337 -15.823 L
-12.806 -15.823 -13.087 -15.745 QT
-13.368 -15.667 -13.368 -15.354 QT
-13.368 -12.386 L
-13.368 -12.339 -13.407 -12.3 QT
-13.446 -12.261 -13.493 -12.261 QT
-13.634 -12.261 -13.962 -12.589 QT
-14.29 -12.917 -14.478 -13.182 QT
-14.837 -12.542 -15.626 -12.237 QT
-16.415 -11.932 -17.259 -11.932 QT
-18.728 -11.932 -19.923 -12.682 QT
-21.118 -13.432 -21.813 -14.69 QT
-22.509 -15.948 -22.509 -17.386 QT
-22.509 -18.448 -22.11 -19.456 QT
-21.712 -20.464 -20.985 -21.222 QT
-20.259 -21.979 -19.298 -22.409 QT
-18.337 -22.839 -17.259 -22.839 QT
-16.493 -22.839 -15.798 -22.503 QT
-15.103 -22.167 -14.556 -21.557 QT
-13.696 -22.792 L
-13.603 -22.839 -13.587 -22.839 QT
-13.478 -22.839 L
-13.431 -22.839 -13.399 -22.8 QT
-13.368 -22.761 -13.368 -22.714 QT
-13.368 -18.667 L
-13.368 -18.526 -13.478 -18.526 QT
-13.743 -18.526 L
-13.884 -18.526 -13.884 -18.667 QT
-13.884 -19.089 -14.056 -19.628 QT
-14.228 -20.167 -14.501 -20.643 QT
-14.774 -21.12 -15.118 -21.495 QT
-15.962 -22.307 -17.056 -22.307 QT
-17.884 -22.307 -18.649 -21.932 QT
-19.415 -21.557 -19.931 -20.901 QT
-20.478 -20.198 -20.688 -19.3 QT
-20.899 -18.401 -20.899 -17.386 QT
-20.899 -15.089 -19.899 -13.87 QT
cp
f
GR
GS
[0.75 0 0 0.75 217.50021 24.94359] CT
N
-11.374 -12.261 M
-11.374 -12.792 L
-10.874 -12.792 -10.539 -12.87 QT
-10.203 -12.948 -10.203 -13.261 QT
-10.203 -17.354 L
-10.203 -17.932 -10.429 -18.065 QT
-10.656 -18.198 -11.312 -18.198 QT
-11.312 -18.729 L
-9.156 -18.886 L
-9.156 -13.261 L
-9.156 -12.948 -8.867 -12.87 QT
-8.578 -12.792 -8.109 -12.792 QT
-8.109 -12.261 L
-11.374 -12.261 L
cp
-10.749 -21.464 M
-10.749 -21.792 -10.499 -22.042 QT
-10.249 -22.292 -9.921 -22.292 QT
-9.718 -22.292 -9.515 -22.182 QT
-9.312 -22.073 -9.203 -21.878 QT
-9.093 -21.682 -9.093 -21.464 QT
-9.093 -21.151 -9.343 -20.901 QT
-9.593 -20.651 -9.921 -20.651 QT
-10.249 -20.651 -10.499 -20.901 QT
-10.749 -21.151 -10.749 -21.464 QT
cp
f
GR
GS
[0.75 0 0 0.75 217.50021 24.94359] CT
N
-6.238 -14.057 M
-6.238 -18.198 L
-7.488 -18.198 L
-7.488 -18.589 L
-6.504 -18.589 -6.043 -19.503 QT
-5.582 -20.417 -5.582 -21.495 QT
-5.144 -21.495 L
-5.144 -18.729 L
-3.035 -18.729 L
-3.035 -18.198 L
-5.144 -18.198 L
-5.144 -14.089 L
-5.144 -13.464 -4.933 -12.995 QT
-4.722 -12.526 -4.191 -12.526 QT
-3.675 -12.526 -3.449 -13.026 QT
-3.222 -13.526 -3.222 -14.089 QT
-3.222 -14.979 L
-2.785 -14.979 L
-2.785 -14.057 L
-2.785 -13.589 -2.957 -13.136 QT
-3.129 -12.682 -3.464 -12.386 QT
-3.8 -12.089 -4.285 -12.089 QT
-5.191 -12.089 -5.714 -12.628 QT
-6.238 -13.167 -6.238 -14.057 QT
cp
f
GR
GS
[0.75 0 0 0.75 217.50021 24.94359] CT
N
-0.534 -14.057 M
-0.534 -18.198 L
-1.784 -18.198 L
-1.784 -18.589 L
-0.8 -18.589 -0.339 -19.503 QT
0.122 -20.417 0.122 -21.495 QT
0.56 -21.495 L
0.56 -18.729 L
2.669 -18.729 L
2.669 -18.198 L
0.56 -18.198 L
0.56 -14.089 L
0.56 -13.464 0.771 -12.995 QT
0.981 -12.526 1.513 -12.526 QT
2.028 -12.526 2.255 -13.026 QT
2.481 -13.526 2.481 -14.089 QT
2.481 -14.979 L
2.919 -14.979 L
2.919 -14.057 L
2.919 -13.589 2.747 -13.136 QT
2.575 -12.682 2.239 -12.386 QT
1.903 -12.089 1.419 -12.089 QT
0.513 -12.089 -0.011 -12.628 QT
-0.534 -13.167 -0.534 -14.057 QT
cp
f
GR
GS
[0.75 0 0 0.75 217.50021 24.94359] CT
N
7.373 -12.089 M
6.451 -12.089 5.693 -12.573 QT
4.935 -13.057 4.498 -13.854 QT
4.06 -14.651 4.06 -15.542 QT
4.06 -16.432 4.459 -17.222 QT
4.857 -18.011 5.568 -18.495 QT
6.279 -18.979 7.154 -18.979 QT
7.857 -18.979 8.365 -18.753 QT
8.873 -18.526 9.201 -18.112 QT
9.529 -17.698 9.693 -17.143 QT
9.857 -16.589 9.857 -15.917 QT
9.857 -15.729 9.716 -15.729 QT
5.373 -15.729 L
5.373 -15.557 L
5.373 -14.323 5.873 -13.425 QT
6.373 -12.526 7.513 -12.526 QT
7.966 -12.526 8.357 -12.737 QT
8.748 -12.948 9.037 -13.307 QT
9.326 -13.667 9.435 -14.089 QT
9.451 -14.136 9.49 -14.182 QT
9.529 -14.229 9.576 -14.229 QT
9.716 -14.229 L
9.857 -14.229 9.857 -14.026 QT
9.654 -13.182 8.951 -12.636 QT
8.248 -12.089 7.373 -12.089 QT
cp
5.388 -16.104 M
8.795 -16.104 L
8.795 -16.667 8.638 -17.245 QT
8.482 -17.823 8.115 -18.206 QT
7.748 -18.589 7.154 -18.589 QT
6.31 -18.589 5.849 -17.792 QT
5.388 -16.995 5.388 -16.104 QT
cp
f
GR
GS
[0.75 0 0 0.75 217.50021 24.94359] CT
N
10.547 -12.261 M
10.547 -12.792 L
11.063 -12.792 11.391 -12.87 QT
11.719 -12.948 11.719 -13.261 QT
11.719 -17.354 L
11.719 -17.761 11.594 -17.94 QT
11.469 -18.12 11.243 -18.159 QT
11.016 -18.198 10.547 -18.198 QT
10.547 -18.729 L
12.688 -18.886 L
12.688 -17.417 L
12.938 -18.073 13.383 -18.479 QT
13.829 -18.886 14.469 -18.886 QT
14.907 -18.886 15.258 -18.62 QT
15.61 -18.354 15.61 -17.932 QT
15.61 -17.651 15.415 -17.456 QT
15.219 -17.261 14.938 -17.261 QT
14.657 -17.261 14.461 -17.456 QT
14.266 -17.651 14.266 -17.932 QT
14.266 -18.339 14.547 -18.495 QT
14.469 -18.495 L
13.86 -18.495 13.477 -18.057 QT
13.094 -17.62 12.93 -16.972 QT
12.766 -16.323 12.766 -15.729 QT
12.766 -13.261 L
12.766 -12.792 14.219 -12.792 QT
14.219 -12.261 L
10.547 -12.261 L
cp
f
GR
GS
[0.75 0 0 0.75 217.50021 24.94359] CT
N
26.634 -11.932 M
25.196 -11.932 24.056 -12.69 QT
22.915 -13.448 22.275 -14.706 QT
21.634 -15.964 21.634 -17.339 QT
21.634 -18.37 22.001 -19.37 QT
22.368 -20.37 23.032 -21.151 QT
23.696 -21.932 24.626 -22.386 QT
25.556 -22.839 26.634 -22.839 QT
27.696 -22.839 28.626 -22.378 QT
29.556 -21.917 30.22 -21.136 QT
30.884 -20.354 31.243 -19.378 QT
31.603 -18.401 31.603 -17.339 QT
31.603 -16.307 31.243 -15.331 QT
30.884 -14.354 30.189 -13.573 QT
29.493 -12.792 28.571 -12.37 QT
28.868 -11.698 29.165 -11.331 QT
29.462 -10.964 29.993 -10.964 QT
30.556 -10.964 30.962 -11.347 QT
31.368 -11.729 31.368 -12.292 QT
31.368 -12.339 31.423 -12.386 QT
31.478 -12.432 31.525 -12.432 QT
31.696 -12.432 31.696 -12.229 QT
31.696 -11.151 31.275 -10.253 QT
30.853 -9.354 29.9 -9.354 QT
29.368 -9.354 29.025 -9.612 QT
28.681 -9.87 28.501 -10.268 QT
28.321 -10.667 28.22 -11.198 QT
28.118 -11.729 28.04 -12.151 QT
27.368 -11.932 26.634 -11.932 QT
cp
26.634 -12.37 M
27.306 -12.37 27.931 -12.714 QT
27.79 -13.354 27.501 -13.737 QT
27.212 -14.12 26.634 -14.12 QT
26.275 -14.12 26.025 -13.854 QT
25.775 -13.589 25.775 -13.229 QT
25.775 -12.854 26.009 -12.612 QT
26.243 -12.37 26.634 -12.37 QT
cp
25.384 -13.229 M
25.384 -13.557 25.548 -13.854 QT
25.712 -14.151 26.001 -14.331 QT
26.29 -14.511 26.634 -14.511 QT
27.275 -14.511 27.657 -14.089 QT
28.04 -13.667 28.337 -12.948 QT
28.837 -13.323 29.173 -13.831 QT
29.509 -14.339 29.696 -14.901 QT
29.884 -15.464 29.97 -16.089 QT
30.056 -16.714 30.056 -17.339 QT
30.056 -18.386 29.845 -19.3 QT
29.634 -20.214 29.134 -20.948 QT
28.696 -21.604 28.032 -22.003 QT
27.368 -22.401 26.634 -22.401 QT
25.868 -22.401 25.204 -22.011 QT
24.54 -21.62 24.103 -20.948 QT
23.603 -20.198 23.4 -19.284 QT
23.196 -18.37 23.196 -17.339 QT
23.196 -15.745 23.735 -14.44 QT
24.275 -13.136 25.54 -12.589 QT
25.384 -12.901 25.384 -13.229 QT
cp
f
GR
GS
[0.75 0 0 0.75 217.50021 24.94359] CT
N
33.823 -14.042 M
33.823 -17.354 L
33.823 -17.761 33.698 -17.94 QT
33.573 -18.12 33.346 -18.159 QT
33.119 -18.198 32.651 -18.198 QT
32.651 -18.729 L
34.916 -18.886 L
34.916 -14.042 L
34.916 -13.464 35.002 -13.136 QT
35.088 -12.807 35.362 -12.651 QT
35.635 -12.495 36.229 -12.495 QT
37.041 -12.495 37.518 -13.167 QT
37.994 -13.839 37.994 -14.698 QT
37.994 -17.354 L
37.994 -17.761 37.869 -17.94 QT
37.744 -18.12 37.518 -18.159 QT
37.291 -18.198 36.823 -18.198 QT
36.823 -18.729 L
39.088 -18.886 L
39.088 -13.62 L
39.088 -13.229 39.205 -13.05 QT
39.323 -12.87 39.549 -12.831 QT
39.776 -12.792 40.26 -12.792 QT
40.26 -12.261 L
38.041 -12.089 L
38.041 -13.354 L
37.76 -12.792 37.26 -12.44 QT
36.76 -12.089 36.166 -12.089 QT
35.088 -12.089 34.455 -12.55 QT
33.823 -13.011 33.823 -14.042 QT
cp
f
GR
GS
[0.75 0 0 0.75 217.50021 24.94359] CT
N
40.94 -13.729 M
40.94 -14.62 41.643 -15.182 QT
42.346 -15.745 43.338 -15.979 QT
44.33 -16.214 45.205 -16.214 QT
45.205 -16.823 L
45.205 -17.261 45.018 -17.667 QT
44.83 -18.073 44.471 -18.331 QT
44.111 -18.589 43.674 -18.589 QT
42.69 -18.589 42.158 -18.136 QT
42.455 -18.136 42.635 -17.925 QT
42.815 -17.714 42.815 -17.417 QT
42.815 -17.12 42.604 -16.909 QT
42.393 -16.698 42.111 -16.698 QT
41.799 -16.698 41.588 -16.909 QT
41.377 -17.12 41.377 -17.417 QT
41.377 -18.214 42.096 -18.597 QT
42.815 -18.979 43.674 -18.979 QT
44.283 -18.979 44.9 -18.722 QT
45.518 -18.464 45.908 -17.979 QT
46.299 -17.495 46.299 -16.854 QT
46.299 -13.479 L
46.299 -13.182 46.424 -12.94 QT
46.549 -12.698 46.815 -12.698 QT
47.065 -12.698 47.182 -12.948 QT
47.299 -13.198 47.299 -13.479 QT
47.299 -14.432 L
47.736 -14.432 L
47.736 -13.479 L
47.736 -13.136 47.565 -12.831 QT
47.393 -12.526 47.096 -12.347 QT
46.799 -12.167 46.455 -12.167 QT
46.018 -12.167 45.697 -12.511 QT
45.377 -12.854 45.346 -13.323 QT
45.065 -12.761 44.525 -12.425 QT
43.986 -12.089 43.361 -12.089 QT
42.799 -12.089 42.244 -12.261 QT
41.69 -12.432 41.315 -12.792 QT
40.94 -13.151 40.94 -13.729 QT
cp
42.158 -13.729 M
42.158 -13.198 42.549 -12.847 QT
42.94 -12.495 43.471 -12.495 QT
43.955 -12.495 44.346 -12.729 QT
44.736 -12.964 44.971 -13.386 QT
45.205 -13.807 45.205 -14.261 QT
45.205 -15.823 L
44.533 -15.823 43.815 -15.604 QT
43.096 -15.386 42.627 -14.909 QT
42.158 -14.432 42.158 -13.729 QT
cp
f
GR
GS
[0.75 0 0 0.75 217.50021 24.94359] CT
N
48.148 -12.261 M
48.148 -12.792 L
48.648 -12.792 48.984 -12.87 QT
49.32 -12.948 49.32 -13.261 QT
49.32 -21.136 L
49.32 -21.542 49.195 -21.722 QT
49.07 -21.901 48.843 -21.94 QT
48.617 -21.979 48.148 -21.979 QT
48.148 -22.511 L
50.367 -22.667 L
50.367 -13.261 L
50.367 -12.948 50.695 -12.87 QT
51.023 -12.792 51.538 -12.792 QT
51.538 -12.261 L
48.148 -12.261 L
cp
f
GR
GS
[0.75 0 0 0.75 217.50021 24.94359] CT
N
52.222 -12.261 M
52.222 -12.792 L
52.722 -12.792 53.058 -12.87 QT
53.394 -12.948 53.394 -13.261 QT
53.394 -17.354 L
53.394 -17.932 53.167 -18.065 QT
52.941 -18.198 52.284 -18.198 QT
52.284 -18.729 L
54.441 -18.886 L
54.441 -13.261 L
54.441 -12.948 54.73 -12.87 QT
55.019 -12.792 55.488 -12.792 QT
55.488 -12.261 L
52.222 -12.261 L
cp
52.847 -21.464 M
52.847 -21.792 53.097 -22.042 QT
53.347 -22.292 53.675 -22.292 QT
53.878 -22.292 54.081 -22.182 QT
54.284 -22.073 54.394 -21.878 QT
54.503 -21.682 54.503 -21.464 QT
54.503 -21.151 54.253 -20.901 QT
54.003 -20.651 53.675 -20.651 QT
53.347 -20.651 53.097 -20.901 QT
52.847 -21.151 52.847 -21.464 QT
cp
f
GR
GS
[0.75 0 0 0.75 217.50021 24.94359] CT
N
57.359 -14.057 M
57.359 -18.198 L
56.109 -18.198 L
56.109 -18.589 L
57.093 -18.589 57.554 -19.503 QT
58.015 -20.417 58.015 -21.495 QT
58.452 -21.495 L
58.452 -18.729 L
60.562 -18.729 L
60.562 -18.198 L
58.452 -18.198 L
58.452 -14.089 L
58.452 -13.464 58.663 -12.995 QT
58.874 -12.526 59.405 -12.526 QT
59.921 -12.526 60.148 -13.026 QT
60.374 -13.526 60.374 -14.089 QT
60.374 -14.979 L
60.812 -14.979 L
60.812 -14.057 L
60.812 -13.589 60.64 -13.136 QT
60.468 -12.682 60.132 -12.386 QT
59.796 -12.089 59.312 -12.089 QT
58.405 -12.089 57.882 -12.628 QT
57.359 -13.167 57.359 -14.057 QT
cp
f
GR
GS
[0.75 0 0 0.75 217.50021 24.94359] CT
N
63.047 -21.526 M
63.047 -21.839 63.273 -22.065 QT
63.5 -22.292 63.828 -22.292 QT
64.156 -22.292 64.383 -22.065 QT
64.609 -21.839 64.609 -21.526 QT
64.609 -21.182 64.383 -20.956 QT
64.156 -20.729 63.828 -20.729 QT
63.5 -20.729 63.273 -20.964 QT
63.047 -21.198 63.047 -21.526 QT
cp
65.937 -21.526 M
65.937 -21.839 66.164 -22.065 QT
66.39 -22.292 66.719 -22.292 QT
67.047 -22.292 67.273 -22.065 QT
67.5 -21.839 67.5 -21.526 QT
67.5 -21.182 67.273 -20.956 QT
67.047 -20.729 66.719 -20.729 QT
66.39 -20.729 66.164 -20.964 QT
65.937 -21.198 65.937 -21.526 QT
cp
f
GR
GS
[0.75 0 0 0.75 217.50021 24.94359] CT
N
62.125 -13.729 M
62.125 -14.62 62.828 -15.182 QT
63.531 -15.745 64.523 -15.979 QT
65.515 -16.214 66.39 -16.214 QT
66.39 -16.823 L
66.39 -17.261 66.203 -17.667 QT
66.015 -18.073 65.656 -18.331 QT
65.297 -18.589 64.859 -18.589 QT
63.875 -18.589 63.344 -18.136 QT
63.64 -18.136 63.82 -17.925 QT
64 -17.714 64 -17.417 QT
64 -17.12 63.789 -16.909 QT
63.578 -16.698 63.297 -16.698 QT
62.984 -16.698 62.773 -16.909 QT
62.562 -17.12 62.562 -17.417 QT
62.562 -18.214 63.281 -18.597 QT
64 -18.979 64.859 -18.979 QT
65.469 -18.979 66.086 -18.722 QT
66.703 -18.464 67.094 -17.979 QT
67.484 -17.495 67.484 -16.854 QT
67.484 -13.479 L
67.484 -13.182 67.609 -12.94 QT
67.734 -12.698 68 -12.698 QT
68.25 -12.698 68.367 -12.948 QT
68.484 -13.198 68.484 -13.479 QT
68.484 -14.432 L
68.922 -14.432 L
68.922 -13.479 L
68.922 -13.136 68.75 -12.831 QT
68.578 -12.526 68.281 -12.347 QT
67.984 -12.167 67.64 -12.167 QT
67.203 -12.167 66.883 -12.511 QT
66.562 -12.854 66.531 -13.323 QT
66.25 -12.761 65.711 -12.425 QT
65.172 -12.089 64.547 -12.089 QT
63.984 -12.089 63.429 -12.261 QT
62.875 -12.432 62.5 -12.792 QT
62.125 -13.151 62.125 -13.729 QT
cp
63.344 -13.729 M
63.344 -13.198 63.734 -12.847 QT
64.125 -12.495 64.656 -12.495 QT
65.14 -12.495 65.531 -12.729 QT
65.922 -12.964 66.156 -13.386 QT
66.39 -13.807 66.39 -14.261 QT
66.39 -15.823 L
65.719 -15.823 65 -15.604 QT
64.281 -15.386 63.812 -14.909 QT
63.344 -14.432 63.344 -13.729 QT
cp
f
GR
GS
[0.75 0 0 0.75 217.50021 24.94359] CT
N
70.396 -14.057 M
70.396 -18.198 L
69.146 -18.198 L
69.146 -18.589 L
70.13 -18.589 70.591 -19.503 QT
71.052 -20.417 71.052 -21.495 QT
71.489 -21.495 L
71.489 -18.729 L
73.599 -18.729 L
73.599 -18.198 L
71.489 -18.198 L
71.489 -14.089 L
71.489 -13.464 71.7 -12.995 QT
71.911 -12.526 72.442 -12.526 QT
72.958 -12.526 73.185 -13.026 QT
73.411 -13.526 73.411 -14.089 QT
73.411 -14.979 L
73.849 -14.979 L
73.849 -14.057 L
73.849 -13.589 73.677 -13.136 QT
73.505 -12.682 73.169 -12.386 QT
72.833 -12.089 72.349 -12.089 QT
71.442 -12.089 70.919 -12.628 QT
70.396 -13.167 70.396 -14.057 QT
cp
f
GR
GS
[0.75 0 0 0.75 217.50021 24.94359] CT
N
75.834 -13.089 M
75.834 -13.432 76.084 -13.667 QT
76.334 -13.901 76.662 -13.901 QT
76.865 -13.901 77.06 -13.792 QT
77.256 -13.682 77.365 -13.487 QT
77.474 -13.292 77.474 -13.089 QT
77.474 -12.761 77.232 -12.511 QT
76.99 -12.261 76.662 -12.261 QT
76.334 -12.261 76.084 -12.511 QT
75.834 -12.761 75.834 -13.089 QT
cp
75.834 -17.901 M
75.834 -18.12 75.943 -18.307 QT
76.052 -18.495 76.248 -18.612 QT
76.443 -18.729 76.662 -18.729 QT
76.865 -18.729 77.06 -18.612 QT
77.256 -18.495 77.365 -18.307 QT
77.474 -18.12 77.474 -17.901 QT
77.474 -17.557 77.24 -17.315 QT
77.006 -17.073 76.662 -17.073 QT
76.318 -17.073 76.076 -17.315 QT
75.834 -17.557 75.834 -17.901 QT
cp
f
GR
GS
[0.75 0 0 0.75 217.50021 24.94359] CT
N
87.671 -22.183 M
87.671 -22.589 L
87.671 -22.62 87.702 -22.667 QT
90.03 -25.245 L
90.561 -25.823 90.889 -26.206 QT
91.218 -26.589 91.538 -27.097 QT
91.858 -27.605 92.046 -28.128 QT
92.233 -28.651 92.233 -29.23 QT
92.233 -29.855 92.007 -30.417 QT
91.78 -30.98 91.327 -31.316 QT
90.874 -31.651 90.233 -31.651 QT
89.593 -31.651 89.069 -31.253 QT
88.546 -30.855 88.327 -30.245 QT
88.389 -30.261 88.499 -30.261 QT
88.827 -30.261 89.069 -30.034 QT
89.311 -29.808 89.311 -29.448 QT
89.311 -29.105 89.069 -28.862 QT
88.827 -28.62 88.499 -28.62 QT
88.139 -28.62 87.905 -28.862 QT
87.671 -29.105 87.671 -29.448 QT
87.671 -30.011 87.882 -30.503 QT
88.093 -30.995 88.491 -31.378 QT
88.889 -31.761 89.389 -31.964 QT
89.889 -32.167 90.452 -32.167 QT
91.311 -32.167 92.053 -31.808 QT
92.796 -31.448 93.225 -30.784 QT
93.655 -30.12 93.655 -29.23 QT
93.655 -28.589 93.374 -28.003 QT
93.093 -27.417 92.647 -26.933 QT
92.202 -26.448 91.499 -25.839 QT
90.796 -25.23 90.577 -25.026 QT
88.889 -23.401 L
90.327 -23.401 L
91.389 -23.401 92.1 -23.417 QT
92.811 -23.433 92.858 -23.48 QT
93.03 -23.667 93.218 -24.855 QT
93.655 -24.855 L
93.233 -22.183 L
87.671 -22.183 L
cp
f
GR
GS
[0.75 0 0 0.75 217.50021 24.94359] CT
N
95.41 -22.433 M
95.41 -22.526 95.426 -22.573 QT
96.551 -27.042 L
96.66 -27.464 96.66 -27.776 QT
96.66 -28.417 96.223 -28.417 QT
95.754 -28.417 95.527 -27.862 QT
95.301 -27.308 95.082 -26.448 QT
95.082 -26.401 95.035 -26.378 QT
94.988 -26.355 94.957 -26.355 QT
94.785 -26.355 L
94.723 -26.355 94.692 -26.409 QT
94.66 -26.464 94.66 -26.511 QT
94.817 -27.151 94.965 -27.605 QT
95.113 -28.058 95.434 -28.433 QT
95.754 -28.808 96.238 -28.808 QT
96.754 -28.808 97.145 -28.511 QT
97.535 -28.214 97.629 -27.714 QT
98.004 -28.214 98.496 -28.511 QT
98.988 -28.808 99.567 -28.808 QT
100.035 -28.808 100.402 -28.534 QT
100.77 -28.261 100.77 -27.776 QT
100.77 -27.401 100.527 -27.12 QT
100.285 -26.839 99.895 -26.839 QT
99.645 -26.839 99.481 -26.987 QT
99.317 -27.136 99.317 -27.37 QT
99.317 -27.698 99.559 -27.964 QT
99.801 -28.23 100.113 -28.23 QT
99.879 -28.417 99.535 -28.417 QT
98.895 -28.417 98.418 -27.964 QT
97.942 -27.511 97.551 -26.808 QT
96.488 -22.511 L
96.442 -22.308 96.262 -22.159 QT
96.082 -22.011 95.863 -22.011 QT
95.676 -22.011 95.543 -22.128 QT
95.41 -22.245 95.41 -22.433 QT
cp
f
GR
GS
[0.75 0 0 0.75 217.50021 24.94359] CT
N
101.652 -20.701 M
101.652 -20.889 101.73 -21.092 QT
102.543 -23.248 L
102.668 -23.608 102.668 -23.842 QT
102.668 -24.139 102.449 -24.139 QT
102.059 -24.139 101.801 -23.733 QT
101.543 -23.326 101.418 -22.826 QT
101.402 -22.764 101.34 -22.764 QT
101.23 -22.764 L
101.137 -22.764 101.137 -22.858 QT
101.137 -22.889 L
101.309 -23.483 101.637 -23.944 QT
101.965 -24.405 102.48 -24.405 QT
102.824 -24.405 103.074 -24.17 QT
103.324 -23.936 103.324 -23.576 QT
103.324 -23.389 103.246 -23.186 QT
102.434 -21.03 L
102.293 -20.701 102.293 -20.436 QT
102.293 -20.139 102.527 -20.139 QT
102.918 -20.139 103.176 -20.553 QT
103.434 -20.967 103.543 -21.451 QT
103.559 -21.514 103.621 -21.514 QT
103.746 -21.514 L
103.777 -21.514 103.801 -21.483 QT
103.824 -21.451 103.824 -21.42 QT
103.824 -21.42 103.824 -21.389 QT
103.684 -20.826 103.348 -20.35 QT
103.012 -19.873 102.496 -19.873 QT
102.152 -19.873 101.902 -20.116 QT
101.652 -20.358 101.652 -20.701 QT
cp
102.777 -26.045 M
102.777 -26.248 102.957 -26.42 QT
103.137 -26.592 103.34 -26.592 QT
103.512 -26.592 103.621 -26.491 QT
103.73 -26.389 103.73 -26.217 QT
103.73 -25.998 103.551 -25.826 QT
103.371 -25.655 103.168 -25.655 QT
102.996 -25.655 102.887 -25.772 QT
102.777 -25.889 102.777 -26.045 QT
cp
f
GR
GS
[0.75 0 0 0.75 217.50021 24.94359] CT
N
105.174 -20.155 M
105.174 -20.217 105.189 -20.248 QT
105.939 -23.233 L
106.017 -23.498 106.017 -23.717 QT
106.017 -24.139 105.721 -24.139 QT
105.408 -24.139 105.252 -23.764 QT
105.096 -23.389 104.955 -22.826 QT
104.955 -22.795 104.931 -22.78 QT
104.908 -22.764 104.877 -22.764 QT
104.767 -22.764 L
104.721 -22.764 104.697 -22.803 QT
104.674 -22.842 104.674 -22.858 QT
104.783 -23.295 104.885 -23.6 QT
104.986 -23.905 105.197 -24.155 QT
105.408 -24.405 105.721 -24.405 QT
106.096 -24.405 106.385 -24.17 QT
106.674 -23.936 106.674 -23.561 QT
106.971 -23.951 107.377 -24.178 QT
107.783 -24.405 108.221 -24.405 QT
108.58 -24.405 108.838 -24.28 QT
109.096 -24.155 109.244 -23.912 QT
109.392 -23.67 109.392 -23.326 QT
109.392 -22.92 109.205 -22.334 QT
109.017 -21.748 108.752 -21.03 QT
108.611 -20.701 108.611 -20.436 QT
108.611 -20.139 108.83 -20.139 QT
109.221 -20.139 109.486 -20.553 QT
109.752 -20.967 109.861 -21.451 QT
109.877 -21.514 109.939 -21.514 QT
110.064 -21.514 L
110.096 -21.514 110.127 -21.491 QT
110.158 -21.467 110.158 -21.42 QT
110.158 -21.42 110.142 -21.389 QT
110.002 -20.826 109.666 -20.35 QT
109.33 -19.873 108.814 -19.873 QT
108.471 -19.873 108.221 -20.116 QT
107.971 -20.358 107.971 -20.701 QT
107.971 -20.889 108.049 -21.092 QT
108.174 -21.42 108.338 -21.873 QT
108.502 -22.326 108.603 -22.741 QT
108.705 -23.155 108.705 -23.467 QT
108.705 -23.748 108.596 -23.944 QT
108.486 -24.139 108.205 -24.139 QT
107.846 -24.139 107.533 -23.983 QT
107.221 -23.826 106.994 -23.561 QT
106.767 -23.295 106.58 -22.92 QT
105.892 -20.201 L
105.861 -20.061 105.744 -19.967 QT
105.627 -19.873 105.471 -19.873 QT
105.361 -19.873 105.267 -19.951 QT
105.174 -20.03 105.174 -20.155 QT
cp
f
GR
GS
[0.75 0 0 0.75 217.50021 24.94359] CT
N
86.921 -16.221 24.383 0.587 re
f
GR
GS
[0.75 0 0 0.75 217.50021 24.94359] CT
N
89.313 -2.45 M
89.313 -2.544 89.328 -2.591 QT
90.453 -7.059 L
90.563 -7.481 90.563 -7.794 QT
90.563 -8.434 90.125 -8.434 QT
89.657 -8.434 89.43 -7.88 QT
89.203 -7.325 88.985 -6.466 QT
88.985 -6.419 88.938 -6.395 QT
88.891 -6.372 88.86 -6.372 QT
88.688 -6.372 L
88.625 -6.372 88.594 -6.427 QT
88.563 -6.481 88.563 -6.528 QT
88.719 -7.169 88.867 -7.622 QT
89.016 -8.075 89.336 -8.45 QT
89.657 -8.825 90.141 -8.825 QT
90.657 -8.825 91.047 -8.528 QT
91.438 -8.231 91.532 -7.731 QT
91.907 -8.231 92.399 -8.528 QT
92.891 -8.825 93.469 -8.825 QT
93.938 -8.825 94.305 -8.552 QT
94.672 -8.278 94.672 -7.794 QT
94.672 -7.419 94.43 -7.137 QT
94.188 -6.856 93.797 -6.856 QT
93.547 -6.856 93.383 -7.005 QT
93.219 -7.153 93.219 -7.387 QT
93.219 -7.716 93.461 -7.981 QT
93.703 -8.247 94.016 -8.247 QT
93.782 -8.434 93.438 -8.434 QT
92.797 -8.434 92.321 -7.981 QT
91.844 -7.528 91.453 -6.825 QT
90.391 -2.528 L
90.344 -2.325 90.164 -2.177 QT
89.985 -2.028 89.766 -2.028 QT
89.578 -2.028 89.446 -2.145 QT
89.313 -2.263 89.313 -2.45 QT
cp
f
GR
GS
[0.75 0 0 0.75 217.50021 24.94359] CT
N
96.789 0.109 M
96.305 0.109 95.938 -0.117 QT
95.57 -0.344 95.375 -0.719 QT
95.18 -1.094 95.18 -1.578 QT
95.18 -2.266 95.555 -2.93 QT
95.93 -3.594 96.555 -4.008 QT
97.18 -4.422 97.867 -4.422 QT
98.242 -4.422 98.531 -4.297 QT
98.82 -4.172 99.039 -3.938 QT
99.258 -3.703 99.375 -3.398 QT
99.492 -3.094 99.492 -2.734 QT
99.492 -2.203 99.266 -1.703 QT
99.039 -1.203 98.656 -0.789 QT
98.273 -0.375 97.781 -0.133 QT
97.289 0.109 96.789 0.109 QT
cp
96.805 -0.156 M
97.242 -0.156 97.617 -0.453 QT
97.992 -0.75 98.227 -1.219 QT
98.461 -1.688 98.586 -2.195 QT
98.711 -2.703 98.711 -3.125 QT
98.711 -3.563 98.492 -3.859 QT
98.273 -4.156 97.852 -4.156 QT
97.273 -4.156 96.828 -3.656 QT
96.383 -3.156 96.164 -2.461 QT
95.945 -1.766 95.945 -1.188 QT
95.945 -0.75 96.164 -0.453 QT
96.383 -0.156 96.805 -0.156 QT
cp
f
GR
GS
[0.75 0 0 0.75 217.50021 24.94359] CT
N
100.812 -1.094 M
100.812 -1.422 100.898 -1.766 QT
100.984 -2.109 101.141 -2.531 QT
101.297 -2.953 101.422 -3.266 QT
101.547 -3.625 101.547 -3.859 QT
101.547 -4.156 101.328 -4.156 QT
100.937 -4.156 100.68 -3.75 QT
100.422 -3.344 100.297 -2.844 QT
100.281 -2.781 100.219 -2.781 QT
100.109 -2.781 L
100.016 -2.781 100.016 -2.875 QT
100.016 -2.906 L
100.187 -3.5 100.516 -3.961 QT
100.844 -4.422 101.359 -4.422 QT
101.703 -4.422 101.953 -4.188 QT
102.203 -3.953 102.203 -3.594 QT
102.203 -3.406 102.125 -3.203 QT
102.078 -3.078 101.922 -2.664 QT
101.766 -2.25 101.68 -1.984 QT
101.594 -1.719 101.539 -1.461 QT
101.484 -1.203 101.484 -0.938 QT
101.484 -0.609 101.625 -0.383 QT
101.766 -0.156 102.094 -0.156 QT
102.734 -0.156 103.219 -0.938 QT
103.219 -0.984 103.227 -1.023 QT
103.234 -1.063 103.234 -1.094 QT
103.953 -3.984 L
104 -4.125 104.117 -4.219 QT
104.234 -4.313 104.375 -4.313 QT
104.5 -4.313 104.594 -4.234 QT
104.687 -4.156 104.687 -4.031 QT
104.687 -3.969 104.672 -3.953 QT
103.953 -1.063 L
103.875 -0.766 103.875 -0.578 QT
103.875 -0.156 104.172 -0.156 QT
104.484 -0.156 104.648 -0.555 QT
104.812 -0.953 104.922 -1.469 QT
104.937 -1.531 105 -1.531 QT
105.125 -1.531 L
105.156 -1.531 105.18 -1.492 QT
105.203 -1.453 105.203 -1.438 QT
105.109 -1 105.008 -0.695 QT
104.906 -0.391 104.687 -0.141 QT
104.469 0.109 104.156 0.109 QT
103.828 0.109 103.578 -0.063 QT
103.328 -0.234 103.234 -0.531 QT
103.016 -0.234 102.711 -0.063 QT
102.406 0.109 102.062 0.109 QT
101.5 0.109 101.156 -0.203 QT
100.812 -0.516 100.812 -1.094 QT
cp
f
GR
GS
[0.75 0 0 0.75 217.50021 24.94359] CT
N
106.252 -0.813 M
106.252 -0.953 106.283 -1.094 QT
107.002 -3.953 L
105.955 -3.953 L
105.846 -3.953 105.846 -4.094 QT
105.893 -4.313 105.987 -4.313 QT
107.08 -4.313 L
107.487 -5.938 L
107.533 -6.078 107.651 -6.172 QT
107.768 -6.266 107.908 -6.266 QT
108.033 -6.266 108.119 -6.188 QT
108.205 -6.109 108.205 -5.984 QT
108.205 -5.953 108.205 -5.938 QT
108.205 -5.922 108.19 -5.906 QT
107.799 -4.313 L
108.83 -4.313 L
108.924 -4.313 108.924 -4.188 QT
108.924 -4.156 108.908 -4.094 QT
108.893 -4.031 108.869 -3.992 QT
108.846 -3.953 108.799 -3.953 QT
107.705 -3.953 L
106.987 -1.063 L
106.924 -0.781 106.924 -0.578 QT
106.924 -0.156 107.205 -0.156 QT
107.643 -0.156 107.987 -0.57 QT
108.33 -0.984 108.502 -1.469 QT
108.549 -1.531 108.58 -1.531 QT
108.705 -1.531 L
108.752 -1.531 108.776 -1.5 QT
108.799 -1.469 108.799 -1.438 QT
108.799 -1.422 108.783 -1.406 QT
108.565 -0.813 108.143 -0.352 QT
107.721 0.109 107.19 0.109 QT
106.783 0.109 106.518 -0.148 QT
106.252 -0.406 106.252 -0.813 QT
cp
f
GR
GS
[0.75 0 0 0.75 0 0] CT
0.4 0.668 0.845 RC
N
400.966 373.718 M
397.884 373.718 L
397.884 374 L
400.966 374 L
404.048 374 L
404.048 373.718 L
cp
410.213 374 M
410.213 373.437 L
407.131 373.437 L
407.131 374 L
cp
416.378 374 M
416.378 373.155 L
413.295 373.155 L
413.295 374 L
cp
419.46 374 M
419.46 372.873 L
416.378 372.873 L
416.378 374 L
cp
422.543 372.592 M
419.46 372.592 L
419.46 374 L
422.543 374 L
425.625 374 L
425.625 372.592 L
cp
428.707 374 M
428.707 373.155 L
425.625 373.155 L
425.625 374 L
cp
431.79 374 M
431.79 372.873 L
428.707 372.873 L
428.707 374 L
cp
434.872 374 M
434.872 368.367 L
431.79 368.367 L
431.79 374 L
cp
437.955 374 M
437.955 371.747 L
434.872 371.747 L
434.872 374 L
cp
441.037 374 M
441.037 367.24 L
437.955 367.24 L
437.955 374 L
cp
444.119 374 M
444.119 368.085 L
441.037 368.085 L
441.037 374 L
cp
447.202 374 M
447.202 364.423 L
444.119 364.423 L
444.119 374 L
cp
450.284 374 M
450.284 367.522 L
447.202 367.522 L
447.202 374 L
cp
453.366 374 M
453.366 363.015 L
450.284 363.015 L
450.284 374 L
cp
456.449 374 M
456.449 362.17 L
453.366 362.17 L
453.366 374 L
cp
459.531 374 M
459.531 353.438 L
456.449 353.438 L
456.449 374 L
cp
462.614 374 M
462.614 352.312 L
459.531 352.312 L
459.531 374 L
cp
465.696 374 M
465.696 347.242 L
462.614 347.242 L
462.614 374 L
cp
468.778 374 M
468.778 345.552 L
465.696 345.552 L
465.696 374 L
cp
471.861 374 M
471.861 339.073 L
468.778 339.073 L
468.778 374 L
cp
474.943 374 M
474.943 316.54 L
471.861 316.54 L
471.861 374 L
cp
478.026 374 M
478.026 306.118 L
474.943 306.118 L
474.943 374 L
cp
481.108 374 M
481.108 286.12 L
478.026 286.12 L
478.026 374 L
cp
484.19 374 M
484.19 219.647 L
481.108 219.647 L
481.108 374 L
cp
487.273 374 M
487.273 78.25 L
484.19 78.25 L
484.19 374 L
cp
f
GR
GS
[0.75 0 0 0.75 0 0] CT
2 setlinecap
10.0 ML
0.667 LW
N
397.884 374 M
397.884 373.718 L
400.966 373.718 L
400.966 374 L
400.966 374 L
S
GR
GS
[0.75 0 0 0.75 0 0] CT
2 setlinecap
10.0 ML
0.667 LW
N
400.966 373.718 M
404.048 373.718 L
404.048 374 L
404.048 374 L
S
GR
GS
[0.75 0 0 0.75 0 0] CT
2 setlinecap
10.0 ML
0.667 LW
N
404.048 374 M
407.131 374 L
S
GR
GS
[0.75 0 0 0.75 0 0] CT
2 setlinecap
10.0 ML
0.667 LW
N
407.131 374 M
407.131 374 L
407.131 373.437 L
410.213 373.437 L
410.213 374 L
410.213 374 L
S
GR
GS
[0.75 0 0 0.75 0 0] CT
2 setlinecap
10.0 ML
0.667 LW
N
410.213 374 M
413.295 374 L
S
GR
GS
[0.75 0 0 0.75 0 0] CT
2 setlinecap
10.0 ML
0.667 LW
N
413.295 374 M
413.295 374 L
413.295 373.155 L
416.378 373.155 L
S
GR
GS
[0.75 0 0 0.75 0 0] CT
2 setlinecap
10.0 ML
0.667 LW
N
416.378 374 M
416.378 374 L
416.378 372.873 L
419.46 372.873 L
S
GR
GS
[0.75 0 0 0.75 0 0] CT
2 setlinecap
10.0 ML
0.667 LW
N
419.46 374 M
419.46 374 L
419.46 372.592 L
422.543 372.592 L
422.543 374 L
422.543 374 L
S
GR
GS
[0.75 0 0 0.75 0 0] CT
2 setlinecap
10.0 ML
0.667 LW
N
422.543 372.592 M
425.625 372.592 L
425.625 374 L
425.625 374 L
S
GR
GS
[0.75 0 0 0.75 0 0] CT
2 setlinecap
10.0 ML
0.667 LW
N
425.625 373.155 M
428.707 373.155 L
S
GR
GS
[0.75 0 0 0.75 0 0] CT
2 setlinecap
10.0 ML
0.667 LW
N
428.707 374 M
428.707 374 L
428.707 372.873 L
431.79 372.873 L
S
GR
GS
[0.75 0 0 0.75 0 0] CT
2 setlinecap
10.0 ML
0.667 LW
N
431.79 374 M
431.79 374 L
431.79 368.367 L
434.872 368.367 L
434.872 374 L
434.872 374 L
S
GR
GS
[0.75 0 0 0.75 0 0] CT
2 setlinecap
10.0 ML
0.667 LW
N
434.872 371.747 M
437.955 371.747 L
S
GR
GS
[0.75 0 0 0.75 0 0] CT
2 setlinecap
10.0 ML
0.667 LW
N
437.955 374 M
437.955 374 L
437.955 367.24 L
441.037 367.24 L
441.037 374 L
441.037 374 L
S
GR
GS
[0.75 0 0 0.75 0 0] CT
2 setlinecap
10.0 ML
0.667 LW
N
441.037 368.085 M
444.119 368.085 L
S
GR
GS
[0.75 0 0 0.75 0 0] CT
2 setlinecap
10.0 ML
0.667 LW
N
444.119 374 M
444.119 374 L
444.119 364.423 L
447.202 364.423 L
447.202 374 L
447.202 374 L
S
GR
GS
[0.75 0 0 0.75 0 0] CT
2 setlinecap
10.0 ML
0.667 LW
N
447.202 367.522 M
450.284 367.522 L
S
GR
GS
[0.75 0 0 0.75 0 0] CT
2 setlinecap
10.0 ML
0.667 LW
N
450.284 374 M
450.284 374 L
450.284 363.015 L
453.366 363.015 L
S
GR
GS
[0.75 0 0 0.75 0 0] CT
2 setlinecap
10.0 ML
0.667 LW
N
453.366 374 M
453.366 374 L
453.366 362.17 L
456.449 362.17 L
S
GR
GS
[0.75 0 0 0.75 0 0] CT
2 setlinecap
10.0 ML
0.667 LW
N
456.449 374 M
456.449 374 L
456.449 353.438 L
459.531 353.438 L
S
GR
GS
[0.75 0 0 0.75 0 0] CT
2 setlinecap
10.0 ML
0.667 LW
N
459.531 374 M
459.531 374 L
459.531 352.312 L
462.614 352.312 L
S
GR
GS
[0.75 0 0 0.75 0 0] CT
2 setlinecap
10.0 ML
0.667 LW
N
462.614 374 M
462.614 374 L
462.614 347.242 L
465.696 347.242 L
S
GR
GS
[0.75 0 0 0.75 0 0] CT
2 setlinecap
10.0 ML
0.667 LW
N
465.696 374 M
465.696 374 L
465.696 345.552 L
468.778 345.552 L
S
GR
GS
[0.75 0 0 0.75 0 0] CT
2 setlinecap
10.0 ML
0.667 LW
N
468.778 374 M
468.778 374 L
468.778 339.073 L
471.861 339.073 L
S
GR
GS
[0.75 0 0 0.75 0 0] CT
2 setlinecap
10.0 ML
0.667 LW
N
471.861 374 M
471.861 374 L
471.861 316.54 L
474.943 316.54 L
S
GR
GS
[0.75 0 0 0.75 0 0] CT
2 setlinecap
10.0 ML
0.667 LW
N
474.943 374 M
474.943 374 L
474.943 306.118 L
478.026 306.118 L
S
GR
GS
[0.75 0 0 0.75 0 0] CT
2 setlinecap
10.0 ML
0.667 LW
N
478.026 374 M
478.026 374 L
478.026 286.12 L
481.108 286.12 L
S
GR
GS
[0.75 0 0 0.75 0 0] CT
2 setlinecap
10.0 ML
0.667 LW
N
481.108 374 M
481.108 374 L
481.108 219.647 L
484.19 219.647 L
S
GR
GS
[0.75 0 0 0.75 0 0] CT
2 setlinecap
10.0 ML
0.667 LW
N
484.19 374 M
484.19 374 L
484.19 78.25 L
487.273 78.25 L
487.273 374 L
S
GR
GS
[0.75 0 0 0.75 0 0] CT
0.911 0.595 0.459 RC
N
234.517 374 M
234.517 373.718 L
231.435 373.718 L
231.435 374 L
cp
253.011 373.718 M
249.929 373.718 L
249.929 374 L
253.011 374 L
256.094 374 L
256.094 373.718 L
cp
265.341 373.718 M
262.259 373.718 L
262.259 374 L
265.341 374 L
268.423 374 L
268.423 373.718 L
cp
274.588 373.718 M
271.506 373.718 L
271.506 374 L
274.588 374 L
277.67 374 L
280.753 374 L
283.835 374 L
283.835 373.718 L
280.753 373.718 L
277.67 373.718 L
cp
290 374 M
290 373.718 L
286.918 373.718 L
286.918 374 L
cp
293.082 374 M
293.082 372.873 L
290 372.873 L
290 374 L
cp
302.33 374 M
302.33 373.155 L
299.247 373.155 L
299.247 374 L
cp
305.412 373.718 M
302.33 373.718 L
302.33 374 L
305.412 374 L
308.494 374 L
308.494 373.718 L
cp
311.577 374 M
311.577 373.155 L
308.494 373.155 L
308.494 374 L
cp
314.659 374 M
314.659 373.437 L
311.577 373.437 L
311.577 374 L
cp
317.741 372.873 M
314.659 372.873 L
314.659 374 L
317.741 374 L
320.824 374 L
323.906 374 L
323.906 372.873 L
320.824 372.873 L
cp
326.989 374 M
326.989 372.028 L
323.906 372.028 L
323.906 374 L
cp
330.071 374 M
330.071 372.592 L
326.989 372.592 L
326.989 374 L
cp
333.153 374 M
333.153 370.62 L
330.071 370.62 L
330.071 374 L
cp
336.236 374 M
336.236 372.31 L
333.153 372.31 L
333.153 374 L
cp
339.318 374 M
339.318 373.155 L
336.236 373.155 L
336.236 374 L
cp
342.401 374 M
342.401 373.718 L
339.318 373.718 L
339.318 374 L
cp
345.483 374 M
345.483 370.902 L
342.401 370.902 L
342.401 374 L
cp
348.565 371.183 M
345.483 371.183 L
345.483 374 L
348.565 374 L
351.648 374 L
351.648 371.183 L
cp
354.73 374 M
354.73 371.465 L
351.648 371.465 L
351.648 374 L
cp
357.813 374 M
357.813 372.028 L
354.73 372.028 L
354.73 374 L
cp
360.895 374 M
360.895 370.338 L
357.813 370.338 L
357.813 374 L
cp
363.977 374 M
363.977 370.057 L
360.895 370.057 L
360.895 374 L
cp
367.06 374 M
367.06 371.465 L
363.977 371.465 L
363.977 374 L
cp
370.142 374 M
370.142 371.183 L
367.06 371.183 L
367.06 374 L
cp
373.224 374 M
373.224 369.493 L
370.142 369.493 L
370.142 374 L
cp
376.307 374 M
376.307 368.085 L
373.224 368.085 L
373.224 374 L
cp
379.389 374 M
379.389 369.493 L
376.307 369.493 L
376.307 374 L
cp
382.472 374 M
382.472 369.775 L
379.389 369.775 L
379.389 374 L
cp
385.554 374 M
385.554 369.212 L
382.472 369.212 L
382.472 374 L
cp
388.636 374 M
388.636 367.803 L
385.554 367.803 L
385.554 374 L
cp
391.719 374 M
391.719 365.55 L
388.636 365.55 L
388.636 374 L
cp
394.801 374 M
394.801 367.803 L
391.719 367.803 L
391.719 374 L
cp
397.884 374 M
397.884 365.268 L
394.801 365.268 L
394.801 374 L
cp
400.966 374 M
400.966 366.395 L
397.884 366.395 L
397.884 374 L
cp
404.048 374 M
404.048 364.423 L
400.966 364.423 L
400.966 374 L
cp
407.131 374 M
407.131 364.142 L
404.048 364.142 L
404.048 374 L
cp
410.213 374 M
410.213 364.423 L
407.131 364.423 L
407.131 374 L
cp
413.295 374 M
413.295 362.733 L
410.213 362.733 L
410.213 374 L
cp
416.378 362.17 M
413.295 362.17 L
413.295 374 L
416.378 374 L
419.46 374 L
419.46 362.17 L
cp
422.543 358.508 M
419.46 358.508 L
419.46 374 L
422.543 374 L
425.625 374 L
425.625 358.508 L
cp
428.707 374 M
428.707 354.847 L
425.625 354.847 L
425.625 374 L
cp
431.79 374 M
431.79 357.1 L
428.707 357.1 L
428.707 374 L
cp
434.872 374 M
434.872 350.903 L
431.79 350.903 L
431.79 374 L
cp
437.955 374 M
437.955 345.27 L
434.872 345.27 L
434.872 374 L
cp
441.037 374 M
441.037 350.34 L
437.955 350.34 L
437.955 374 L
cp
444.119 374 M
444.119 345.552 L
441.037 345.552 L
441.037 374 L
cp
447.202 374 M
447.202 351.467 L
444.119 351.467 L
444.119 374 L
cp
450.284 374 M
450.284 336.82 L
447.202 336.82 L
447.202 374 L
cp
453.366 374 M
453.366 336.538 L
450.284 336.538 L
450.284 374 L
cp
456.449 374 M
456.449 335.13 L
453.366 335.13 L
453.366 374 L
cp
459.531 374 M
459.531 344.707 L
456.449 344.707 L
456.449 374 L
cp
462.614 374 M
462.614 339.918 L
459.531 339.918 L
459.531 374 L
cp
465.696 374 M
465.696 335.412 L
462.614 335.412 L
462.614 374 L
cp
468.778 374 M
468.778 335.693 L
465.696 335.693 L
465.696 374 L
cp
471.861 374 M
471.861 343.017 L
468.778 343.017 L
468.778 374 L
cp
474.943 374 M
474.943 336.82 L
471.861 336.82 L
471.861 374 L
cp
478.026 374 M
478.026 337.102 L
474.943 337.102 L
474.943 374 L
cp
481.108 374 M
481.108 336.538 L
478.026 336.538 L
478.026 374 L
cp
484.19 374 M
484.19 331.468 L
481.108 331.468 L
481.108 374 L
cp
487.273 374 M
487.273 314.287 L
484.19 314.287 L
484.19 374 L
cp
f
GR
GS
[0.75 0 0 0.75 0 0] CT
2 setlinecap
10.0 ML
0.667 LW
N
231.435 374 M
231.435 373.718 L
234.517 373.718 L
234.517 374 L
234.517 374 L
S
GR
GS
[0.75 0 0 0.75 0 0] CT
2 setlinecap
10.0 ML
0.667 LW
N
234.517 374 M
237.599 374 L
237.599 374 L
237.599 374 L
S
GR
GS
[0.75 0 0 0.75 0 0] CT
2 setlinecap
10.0 ML
0.667 LW
N
237.599 374 M
240.682 374 L
240.682 374 L
240.682 374 L
S
GR
GS
[0.75 0 0 0.75 0 0] CT
2 setlinecap
10.0 ML
0.667 LW
N
240.682 374 M
243.764 374 L
243.764 374 L
243.764 374 L
S
GR
GS
[0.75 0 0 0.75 0 0] CT
2 setlinecap
10.0 ML
0.667 LW
N
243.764 374 M
246.847 374 L
246.847 374 L
246.847 374 L
S
GR
GS
[0.75 0 0 0.75 0 0] CT
2 setlinecap
10.0 ML
0.667 LW
N
246.847 374 M
249.929 374 L
S
GR
GS
[0.75 0 0 0.75 0 0] CT
2 setlinecap
10.0 ML
0.667 LW
N
249.929 374 M
249.929 374 L
249.929 373.718 L
253.011 373.718 L
253.011 374 L
253.011 374 L
S
GR
GS
[0.75 0 0 0.75 0 0] CT
2 setlinecap
10.0 ML
0.667 LW
N
253.011 373.718 M
256.094 373.718 L
256.094 374 L
256.094 374 L
S
GR
GS
[0.75 0 0 0.75 0 0] CT
2 setlinecap
10.0 ML
0.667 LW
N
256.094 374 M
259.176 374 L
259.176 374 L
259.176 374 L
S
GR
GS
[0.75 0 0 0.75 0 0] CT
2 setlinecap
10.0 ML
0.667 LW
N
259.176 374 M
262.259 374 L
S
GR
GS
[0.75 0 0 0.75 0 0] CT
2 setlinecap
10.0 ML
0.667 LW
N
262.259 374 M
262.259 374 L
262.259 373.718 L
265.341 373.718 L
265.341 374 L
265.341 374 L
S
GR
GS
[0.75 0 0 0.75 0 0] CT
2 setlinecap
10.0 ML
0.667 LW
N
265.341 373.718 M
268.423 373.718 L
268.423 374 L
268.423 374 L
S
GR
GS
[0.75 0 0 0.75 0 0] CT
2 setlinecap
10.0 ML
0.667 LW
N
268.423 374 M
271.506 374 L
S
GR
GS
[0.75 0 0 0.75 0 0] CT
2 setlinecap
10.0 ML
0.667 LW
N
271.506 374 M
271.506 374 L
271.506 373.718 L
274.588 373.718 L
274.588 374 L
274.588 374 L
S
GR
GS
[0.75 0 0 0.75 0 0] CT
2 setlinecap
10.0 ML
0.667 LW
N
274.588 373.718 M
277.67 373.718 L
277.67 374 L
277.67 374 L
S
GR
GS
[0.75 0 0 0.75 0 0] CT
2 setlinecap
10.0 ML
0.667 LW
N
277.67 373.718 M
280.753 373.718 L
280.753 374 L
280.753 374 L
S
GR
GS
[0.75 0 0 0.75 0 0] CT
2 setlinecap
10.0 ML
0.667 LW
N
280.753 373.718 M
283.835 373.718 L
283.835 374 L
283.835 374 L
S
GR
GS
[0.75 0 0 0.75 0 0] CT
2 setlinecap
10.0 ML
0.667 LW
N
283.835 374 M
286.918 374 L
S
GR
GS
[0.75 0 0 0.75 0 0] CT
2 setlinecap
10.0 ML
0.667 LW
N
286.918 374 M
286.918 374 L
286.918 373.718 L
290 373.718 L
S
GR
GS
[0.75 0 0 0.75 0 0] CT
2 setlinecap
10.0 ML
0.667 LW
N
290 374 M
290 374 L
290 372.873 L
293.082 372.873 L
293.082 374 L
293.082 374 L
S
GR
GS
[0.75 0 0 0.75 0 0] CT
2 setlinecap
10.0 ML
0.667 LW
N
293.082 374 M
296.165 374 L
296.165 374 L
296.165 374 L
S
GR
GS
[0.75 0 0 0.75 0 0] CT
2 setlinecap
10.0 ML
0.667 LW
N
296.165 374 M
299.247 374 L
S
GR
GS
[0.75 0 0 0.75 0 0] CT
2 setlinecap
10.0 ML
0.667 LW
N
299.247 374 M
299.247 374 L
299.247 373.155 L
302.33 373.155 L
302.33 374 L
302.33 374 L
S
GR
GS
[0.75 0 0 0.75 0 0] CT
2 setlinecap
10.0 ML
0.667 LW
N
302.33 373.718 M
305.412 373.718 L
305.412 374 L
305.412 374 L
S
GR
GS
[0.75 0 0 0.75 0 0] CT
2 setlinecap
10.0 ML
0.667 LW
N
305.412 373.718 M
308.494 373.718 L
S
GR
GS
[0.75 0 0 0.75 0 0] CT
2 setlinecap
10.0 ML
0.667 LW
N
308.494 374 M
308.494 374 L
308.494 373.155 L
311.577 373.155 L
311.577 374 L
311.577 374 L
S
GR
GS
[0.75 0 0 0.75 0 0] CT
2 setlinecap
10.0 ML
0.667 LW
N
311.577 373.437 M
314.659 373.437 L
S
GR
GS
[0.75 0 0 0.75 0 0] CT
2 setlinecap
10.0 ML
0.667 LW
N
314.659 374 M
314.659 374 L
314.659 372.873 L
317.741 372.873 L
317.741 374 L
317.741 374 L
S
GR
GS
[0.75 0 0 0.75 0 0] CT
2 setlinecap
10.0 ML
0.667 LW
N
317.741 372.873 M
320.824 372.873 L
320.824 374 L
320.824 374 L
S
GR
GS
[0.75 0 0 0.75 0 0] CT
2 setlinecap
10.0 ML
0.667 LW
N
320.824 372.873 M
323.906 372.873 L
S
GR
GS
[0.75 0 0 0.75 0 0] CT
2 setlinecap
10.0 ML
0.667 LW
N
323.906 374 M
323.906 374 L
323.906 372.028 L
326.989 372.028 L
326.989 374 L
326.989 374 L
S
GR
GS
[0.75 0 0 0.75 0 0] CT
2 setlinecap
10.0 ML
0.667 LW
N
326.989 372.592 M
330.071 372.592 L
S
GR
GS
[0.75 0 0 0.75 0 0] CT
2 setlinecap
10.0 ML
0.667 LW
N
330.071 374 M
330.071 374 L
330.071 370.62 L
333.153 370.62 L
333.153 374 L
333.153 374 L
S
GR
GS
[0.75 0 0 0.75 0 0] CT
2 setlinecap
10.0 ML
0.667 LW
N
333.153 372.31 M
336.236 372.31 L
336.236 374 L
336.236 374 L
S
GR
GS
[0.75 0 0 0.75 0 0] CT
2 setlinecap
10.0 ML
0.667 LW
N
336.236 373.155 M
339.318 373.155 L
339.318 374 L
339.318 374 L
S
GR
GS
[0.75 0 0 0.75 0 0] CT
2 setlinecap
10.0 ML
0.667 LW
N
339.318 373.718 M
342.401 373.718 L
S
GR
GS
[0.75 0 0 0.75 0 0] CT
2 setlinecap
10.0 ML
0.667 LW
N
342.401 374 M
342.401 374 L
342.401 370.902 L
345.483 370.902 L
345.483 374 L
345.483 374 L
S
GR
GS
[0.75 0 0 0.75 0 0] CT
2 setlinecap
10.0 ML
0.667 LW
N
345.483 371.183 M
348.565 371.183 L
348.565 374 L
348.565 374 L
S
GR
GS
[0.75 0 0 0.75 0 0] CT
2 setlinecap
10.0 ML
0.667 LW
N
348.565 371.183 M
351.648 371.183 L
351.648 374 L
351.648 374 L
S
GR
GS
[0.75 0 0 0.75 0 0] CT
2 setlinecap
10.0 ML
0.667 LW
N
351.648 371.465 M
354.73 371.465 L
354.73 374 L
354.73 374 L
S
GR
GS
[0.75 0 0 0.75 0 0] CT
2 setlinecap
10.0 ML
0.667 LW
N
354.73 372.028 M
357.813 372.028 L
S
GR
GS
[0.75 0 0 0.75 0 0] CT
2 setlinecap
10.0 ML
0.667 LW
N
357.813 374 M
357.813 374 L
357.813 370.338 L
360.895 370.338 L
S
GR
GS
[0.75 0 0 0.75 0 0] CT
2 setlinecap
10.0 ML
0.667 LW
N
360.895 374 M
360.895 374 L
360.895 370.057 L
363.977 370.057 L
363.977 374 L
363.977 374 L
S
GR
GS
[0.75 0 0 0.75 0 0] CT
2 setlinecap
10.0 ML
0.667 LW
N
363.977 371.465 M
367.06 371.465 L
S
GR
GS
[0.75 0 0 0.75 0 0] CT
2 setlinecap
10.0 ML
0.667 LW
N
367.06 374 M
367.06 374 L
367.06 371.183 L
370.142 371.183 L
S
GR
GS
[0.75 0 0 0.75 0 0] CT
2 setlinecap
10.0 ML
0.667 LW
N
370.142 374 M
370.142 374 L
370.142 369.493 L
373.224 369.493 L
S
GR
GS
[0.75 0 0 0.75 0 0] CT
2 setlinecap
10.0 ML
0.667 LW
N
373.224 374 M
373.224 374 L
373.224 368.085 L
376.307 368.085 L
376.307 374 L
376.307 374 L
S
GR
GS
[0.75 0 0 0.75 0 0] CT
2 setlinecap
10.0 ML
0.667 LW
N
376.307 369.493 M
379.389 369.493 L
379.389 374 L
379.389 374 L
S
GR
GS
[0.75 0 0 0.75 0 0] CT
2 setlinecap
10.0 ML
0.667 LW
N
379.389 369.775 M
382.472 369.775 L
S
GR
GS
[0.75 0 0 0.75 0 0] CT
2 setlinecap
10.0 ML
0.667 LW
N
382.472 374 M
382.472 374 L
382.472 369.212 L
385.554 369.212 L
S
GR
GS
[0.75 0 0 0.75 0 0] CT
2 setlinecap
10.0 ML
0.667 LW
N
385.554 374 M
385.554 374 L
385.554 367.803 L
388.636 367.803 L
S
GR
GS
[0.75 0 0 0.75 0 0] CT
2 setlinecap
10.0 ML
0.667 LW
N
388.636 374 M
388.636 374 L
388.636 365.55 L
391.719 365.55 L
391.719 374 L
391.719 374 L
S
GR
GS
[0.75 0 0 0.75 0 0] CT
2 setlinecap
10.0 ML
0.667 LW
N
391.719 367.803 M
394.801 367.803 L
S
GR
GS
[0.75 0 0 0.75 0 0] CT
2 setlinecap
10.0 ML
0.667 LW
N
394.801 374 M
394.801 374 L
394.801 365.268 L
397.884 365.268 L
397.884 374 L
397.884 374 L
S
GR
GS
[0.75 0 0 0.75 0 0] CT
2 setlinecap
10.0 ML
0.667 LW
N
397.884 366.395 M
400.966 366.395 L
S
GR
GS
[0.75 0 0 0.75 0 0] CT
2 setlinecap
10.0 ML
0.667 LW
N
400.966 374 M
400.966 374 L
400.966 364.423 L
404.048 364.423 L
S
GR
GS
[0.75 0 0 0.75 0 0] CT
2 setlinecap
10.0 ML
0.667 LW
N
404.048 374 M
404.048 374 L
404.048 364.142 L
407.131 364.142 L
407.131 374 L
407.131 374 L
S
GR
GS
[0.75 0 0 0.75 0 0] CT
2 setlinecap
10.0 ML
0.667 LW
N
407.131 364.423 M
410.213 364.423 L
S
GR
GS
[0.75 0 0 0.75 0 0] CT
2 setlinecap
10.0 ML
0.667 LW
N
410.213 374 M
410.213 374 L
410.213 362.733 L
413.295 362.733 L
S
GR
GS
[0.75 0 0 0.75 0 0] CT
2 setlinecap
10.0 ML
0.667 LW
N
413.295 374 M
413.295 374 L
413.295 362.17 L
416.378 362.17 L
416.378 374 L
416.378 374 L
S
GR
GS
[0.75 0 0 0.75 0 0] CT
2 setlinecap
10.0 ML
0.667 LW
N
416.378 362.17 M
419.46 362.17 L
S
GR
GS
[0.75 0 0 0.75 0 0] CT
2 setlinecap
10.0 ML
0.667 LW
N
419.46 374 M
419.46 374 L
419.46 358.508 L
422.543 358.508 L
422.543 374 L
422.543 374 L
S
GR
GS
[0.75 0 0 0.75 0 0] CT
2 setlinecap
10.0 ML
0.667 LW
N
422.543 358.508 M
425.625 358.508 L
S
GR
GS
[0.75 0 0 0.75 0 0] CT
2 setlinecap
10.0 ML
0.667 LW
N
425.625 374 M
425.625 374 L
425.625 354.847 L
428.707 354.847 L
428.707 374 L
428.707 374 L
S
GR
GS
[0.75 0 0 0.75 0 0] CT
2 setlinecap
10.0 ML
0.667 LW
N
428.707 357.1 M
431.79 357.1 L
S
GR
GS
[0.75 0 0 0.75 0 0] CT
2 setlinecap
10.0 ML
0.667 LW
N
431.79 374 M
431.79 374 L
431.79 350.903 L
434.872 350.903 L
S
GR
GS
[0.75 0 0 0.75 0 0] CT
2 setlinecap
10.0 ML
0.667 LW
N
434.872 374 M
434.872 374 L
434.872 345.27 L
437.955 345.27 L
437.955 374 L
437.955 374 L
S
GR
GS
[0.75 0 0 0.75 0 0] CT
2 setlinecap
10.0 ML
0.667 LW
N
437.955 350.34 M
441.037 350.34 L
S
GR
GS
[0.75 0 0 0.75 0 0] CT
2 setlinecap
10.0 ML
0.667 LW
N
441.037 374 M
441.037 374 L
441.037 345.552 L
444.119 345.552 L
444.119 374 L
444.119 374 L
S
GR
GS
[0.75 0 0 0.75 0 0] CT
2 setlinecap
10.0 ML
0.667 LW
N
444.119 351.467 M
447.202 351.467 L
S
GR
GS
[0.75 0 0 0.75 0 0] CT
2 setlinecap
10.0 ML
0.667 LW
N
447.202 374 M
447.202 374 L
447.202 336.82 L
450.284 336.82 L
S
GR
GS
[0.75 0 0 0.75 0 0] CT
2 setlinecap
10.0 ML
0.667 LW
N
450.284 374 M
450.284 374 L
450.284 336.538 L
453.366 336.538 L
S
GR
GS
[0.75 0 0 0.75 0 0] CT
2 setlinecap
10.0 ML
0.667 LW
N
453.366 374 M
453.366 374 L
453.366 335.13 L
456.449 335.13 L
456.449 374 L
456.449 374 L
S
GR
GS
[0.75 0 0 0.75 0 0] CT
2 setlinecap
10.0 ML
0.667 LW
N
456.449 344.707 M
459.531 344.707 L
S
GR
GS
[0.75 0 0 0.75 0 0] CT
2 setlinecap
10.0 ML
0.667 LW
N
459.531 374 M
459.531 374 L
459.531 339.918 L
462.614 339.918 L
S
GR
GS
[0.75 0 0 0.75 0 0] CT
2 setlinecap
10.0 ML
0.667 LW
N
462.614 374 M
462.614 374 L
462.614 335.412 L
465.696 335.412 L
465.696 374 L
465.696 374 L
S
GR
GS
[0.75 0 0 0.75 0 0] CT
2 setlinecap
10.0 ML
0.667 LW
N
465.696 335.693 M
468.778 335.693 L
468.778 374 L
468.778 374 L
S
GR
GS
[0.75 0 0 0.75 0 0] CT
2 setlinecap
10.0 ML
0.667 LW
N
468.778 343.017 M
471.861 343.017 L
S
GR
GS
[0.75 0 0 0.75 0 0] CT
2 setlinecap
10.0 ML
0.667 LW
N
471.861 374 M
471.861 374 L
471.861 336.82 L
474.943 336.82 L
474.943 374 L
474.943 374 L
S
GR
GS
[0.75 0 0 0.75 0 0] CT
2 setlinecap
10.0 ML
0.667 LW
N
474.943 337.102 M
478.026 337.102 L
S
GR
GS
[0.75 0 0 0.75 0 0] CT
2 setlinecap
10.0 ML
0.667 LW
N
478.026 374 M
478.026 374 L
478.026 336.538 L
481.108 336.538 L
S
GR
GS
[0.75 0 0 0.75 0 0] CT
2 setlinecap
10.0 ML
0.667 LW
N
481.108 374 M
481.108 374 L
481.108 331.468 L
484.19 331.468 L
S
GR
GS
[0.75 0 0 0.75 0 0] CT
2 setlinecap
10.0 ML
0.667 LW
N
484.19 374 M
484.19 374 L
484.19 314.287 L
487.273 314.287 L
487.273 374 L
S
GR
GS
[0.75 0 0 0.75 0 0] CT
0.958 0.816 0.475 RC
N
95.81 374 M
95.81 373.718 L
92.727 373.718 L
92.727 374 L
cp
114.304 373.718 M
111.222 373.718 L
111.222 374 L
114.304 374 L
117.386 374 L
117.386 373.718 L
cp
126.634 374 M
126.634 373.437 L
123.551 373.437 L
123.551 374 L
cp
129.716 374 M
129.716 373.718 L
126.634 373.718 L
126.634 374 L
cp
132.798 374 M
132.798 373.437 L
129.716 373.437 L
129.716 374 L
cp
138.963 373.718 M
135.881 373.718 L
135.881 374 L
138.963 374 L
142.045 374 L
142.045 373.718 L
cp
145.128 374 M
145.128 373.437 L
142.045 373.437 L
142.045 374 L
cp
148.21 374 M
148.21 373.718 L
145.128 373.718 L
145.128 374 L
cp
151.293 374 M
151.293 373.155 L
148.21 373.155 L
148.21 374 L
cp
154.375 374 M
154.375 373.437 L
151.293 373.437 L
151.293 374 L
cp
157.457 374 M
157.457 373.155 L
154.375 373.155 L
154.375 374 L
cp
160.54 372.592 M
157.457 372.592 L
157.457 374 L
160.54 374 L
163.622 374 L
163.622 372.592 L
cp
166.705 374 M
166.705 373.155 L
163.622 373.155 L
163.622 374 L
cp
169.787 374 M
169.787 373.437 L
166.705 373.437 L
166.705 374 L
cp
172.869 374 M
172.869 372.592 L
169.787 372.592 L
169.787 374 L
cp
175.952 374 M
175.952 373.155 L
172.869 373.155 L
172.869 374 L
cp
179.034 374 M
179.034 372.592 L
175.952 372.592 L
175.952 374 L
cp
182.116 374 M
182.116 373.718 L
179.034 373.718 L
179.034 374 L
cp
185.199 374 M
185.199 372.592 L
182.116 372.592 L
182.116 374 L
cp
188.281 374 M
188.281 372.873 L
185.199 372.873 L
185.199 374 L
cp
191.364 374 M
191.364 371.747 L
188.281 371.747 L
188.281 374 L
cp
194.446 374 M
194.446 372.592 L
191.364 372.592 L
191.364 374 L
cp
197.528 374 M
197.528 372.028 L
194.446 372.028 L
194.446 374 L
cp
200.611 374 M
200.611 373.155 L
197.528 373.155 L
197.528 374 L
cp
203.693 374 M
203.693 372.592 L
200.611 372.592 L
200.611 374 L
cp
206.776 372.028 M
203.693 372.028 L
203.693 374 L
206.776 374 L
209.858 374 L
209.858 372.028 L
cp
212.94 371.747 M
209.858 371.747 L
209.858 374 L
212.94 374 L
216.023 374 L
216.023 371.747 L
cp
219.105 374 M
219.105 372.028 L
216.023 372.028 L
216.023 374 L
cp
222.188 374 M
222.188 371.747 L
219.105 371.747 L
219.105 374 L
cp
225.27 374 M
225.27 370.902 L
222.188 370.902 L
222.188 374 L
cp
228.352 374 M
228.352 372.028 L
225.27 372.028 L
225.27 374 L
cp
231.435 374 M
231.435 372.873 L
228.352 372.873 L
228.352 374 L
cp
234.517 374 M
234.517 370.338 L
231.435 370.338 L
231.435 374 L
cp
237.599 374 M
237.599 371.183 L
234.517 371.183 L
234.517 374 L
cp
240.682 374 M
240.682 370.057 L
237.599 370.057 L
237.599 374 L
cp
243.764 374 M
243.764 369.775 L
240.682 369.775 L
240.682 374 L
cp
246.847 374 M
246.847 370.902 L
243.764 370.902 L
243.764 374 L
cp
249.929 374 M
249.929 369.775 L
246.847 369.775 L
246.847 374 L
cp
253.011 374 M
253.011 369.493 L
249.929 369.493 L
249.929 374 L
cp
256.094 374 M
256.094 370.057 L
253.011 370.057 L
253.011 374 L
cp
259.176 374 M
259.176 370.338 L
256.094 370.338 L
256.094 374 L
cp
262.259 374 M
262.259 369.212 L
259.176 369.212 L
259.176 374 L
cp
265.341 374 M
265.341 370.62 L
262.259 370.62 L
262.259 374 L
cp
268.423 374 M
268.423 366.958 L
265.341 366.958 L
265.341 374 L
cp
271.506 374 M
271.506 370.057 L
268.423 370.057 L
268.423 374 L
cp
274.588 374 M
274.588 369.212 L
271.506 369.212 L
271.506 374 L
cp
277.67 368.085 M
274.588 368.085 L
274.588 374 L
277.67 374 L
280.753 374 L
280.753 368.085 L
cp
283.835 374 M
283.835 368.648 L
280.753 368.648 L
280.753 374 L
cp
286.918 374 M
286.918 366.395 L
283.835 366.395 L
283.835 374 L
cp
290 374 M
290 368.93 L
286.918 368.93 L
286.918 374 L
cp
293.082 374 M
293.082 368.648 L
290 368.648 L
290 374 L
cp
296.165 374 M
296.165 366.395 L
293.082 366.395 L
293.082 374 L
cp
299.247 374 M
299.247 369.212 L
296.165 369.212 L
296.165 374 L
cp
302.33 374 M
302.33 367.24 L
299.247 367.24 L
299.247 374 L
cp
305.412 374 M
305.412 364.705 L
302.33 364.705 L
302.33 374 L
cp
308.494 374 M
308.494 366.677 L
305.412 366.677 L
305.412 374 L
cp
311.577 374 M
311.577 368.367 L
308.494 368.367 L
308.494 374 L
cp
314.659 374 M
314.659 367.803 L
311.577 367.803 L
311.577 374 L
cp
317.741 374 M
317.741 366.113 L
314.659 366.113 L
314.659 374 L
cp
320.824 374 M
320.824 364.987 L
317.741 364.987 L
317.741 374 L
cp
323.906 374 M
323.906 364.423 L
320.824 364.423 L
320.824 374 L
cp
326.989 374 M
326.989 362.452 L
323.906 362.452 L
323.906 374 L
cp
330.071 374 M
330.071 364.987 L
326.989 364.987 L
326.989 374 L
cp
333.153 374 M
333.153 368.93 L
330.071 368.93 L
330.071 374 L
cp
336.236 374 M
336.236 366.395 L
333.153 366.395 L
333.153 374 L
cp
339.318 374 M
339.318 363.297 L
336.236 363.297 L
336.236 374 L
cp
342.401 374 M
342.401 365.55 L
339.318 365.55 L
339.318 374 L
cp
345.483 374 M
345.483 364.705 L
342.401 364.705 L
342.401 374 L
cp
348.565 374 M
348.565 365.832 L
345.483 365.832 L
345.483 374 L
cp
351.648 374 M
351.648 363.297 L
348.565 363.297 L
348.565 374 L
cp
354.73 374 M
354.73 366.677 L
351.648 366.677 L
351.648 374 L
cp
357.813 374 M
357.813 364.423 L
354.73 364.423 L
354.73 374 L
cp
360.895 374 M
360.895 366.113 L
357.813 366.113 L
357.813 374 L
cp
363.977 374 M
363.977 367.24 L
360.895 367.24 L
360.895 374 L
cp
367.06 374 M
367.06 366.395 L
363.977 366.395 L
363.977 374 L
cp
370.142 374 M
370.142 367.24 L
367.06 367.24 L
367.06 374 L
cp
373.224 374 M
373.224 364.142 L
370.142 364.142 L
370.142 374 L
cp
376.307 374 M
376.307 360.48 L
373.224 360.48 L
373.224 374 L
cp
379.389 374 M
379.389 365.832 L
376.307 365.832 L
376.307 374 L
cp
382.472 374 M
382.472 365.268 L
379.389 365.268 L
379.389 374 L
cp
385.554 374 M
385.554 366.395 L
382.472 366.395 L
382.472 374 L
cp
388.636 374 M
388.636 360.48 L
385.554 360.48 L
385.554 374 L
cp
391.719 374 M
391.719 365.832 L
388.636 365.832 L
388.636 374 L
cp
394.801 374 M
394.801 365.55 L
391.719 365.55 L
391.719 374 L
cp
397.884 374 M
397.884 364.705 L
394.801 364.705 L
394.801 374 L
cp
400.966 374 M
400.966 360.762 L
397.884 360.762 L
397.884 374 L
cp
404.048 374 M
404.048 366.958 L
400.966 366.958 L
400.966 374 L
cp
407.131 374 M
407.131 361.325 L
404.048 361.325 L
404.048 374 L
cp
410.213 374 M
410.213 365.832 L
407.131 365.832 L
407.131 374 L
cp
413.295 374 M
413.295 365.55 L
410.213 365.55 L
410.213 374 L
cp
416.378 374 M
416.378 365.268 L
413.295 365.268 L
413.295 374 L
cp
419.46 374 M
419.46 364.987 L
416.378 364.987 L
416.378 374 L
cp
422.543 374 M
422.543 363.297 L
419.46 363.297 L
419.46 374 L
cp
425.625 374 M
425.625 363.86 L
422.543 363.86 L
422.543 374 L
cp
428.707 374 M
428.707 366.113 L
425.625 366.113 L
425.625 374 L
cp
431.79 374 M
431.79 363.86 L
428.707 363.86 L
428.707 374 L
cp
434.872 374 M
434.872 365.55 L
431.79 365.55 L
431.79 374 L
cp
437.955 374 M
437.955 360.762 L
434.872 360.762 L
434.872 374 L
cp
441.037 374 M
441.037 360.48 L
437.955 360.48 L
437.955 374 L
cp
444.119 374 M
444.119 364.142 L
441.037 364.142 L
441.037 374 L
cp
447.202 360.48 M
444.119 360.48 L
444.119 374 L
447.202 374 L
450.284 374 L
450.284 360.48 L
cp
453.366 374 M
453.366 364.142 L
450.284 364.142 L
450.284 374 L
cp
456.449 374 M
456.449 357.382 L
453.366 357.382 L
453.366 374 L
cp
459.531 374 M
459.531 358.508 L
456.449 358.508 L
456.449 374 L
cp
462.614 374 M
462.614 359.635 L
459.531 359.635 L
459.531 374 L
cp
465.696 374 M
465.696 354.565 L
462.614 354.565 L
462.614 374 L
cp
468.778 374 M
468.778 350.058 L
465.696 350.058 L
465.696 374 L
cp
471.861 374 M
471.861 352.593 L
468.778 352.593 L
468.778 374 L
cp
474.943 374 M
474.943 354.002 L
471.861 354.002 L
471.861 374 L
cp
478.026 374 M
478.026 350.058 L
474.943 350.058 L
474.943 374 L
cp
481.108 374 M
481.108 347.805 L
478.026 347.805 L
478.026 374 L
cp
484.19 374 M
484.19 344.425 L
481.108 344.425 L
481.108 374 L
cp
487.273 374 M
487.273 334.567 L
484.19 334.567 L
484.19 374 L
cp
f
GR
GS
[0.75 0 0 0.75 0 0] CT
2 setlinecap
10.0 ML
0.667 LW
N
92.727 374 M
92.727 373.718 L
95.81 373.718 L
95.81 374 L
95.81 374 L
S
GR
GS
[0.75 0 0 0.75 0 0] CT
2 setlinecap
10.0 ML
0.667 LW
N
95.81 374 M
98.892 374 L
98.892 374 L
98.892 374 L
S
GR
GS
[0.75 0 0 0.75 0 0] CT
2 setlinecap
10.0 ML
0.667 LW
N
98.892 374 M
101.974 374 L
101.974 374 L
101.974 374 L
S
GR
GS
[0.75 0 0 0.75 0 0] CT
2 setlinecap
10.0 ML
0.667 LW
N
101.974 374 M
105.057 374 L
105.057 374 L
105.057 374 L
S
GR
GS
[0.75 0 0 0.75 0 0] CT
2 setlinecap
10.0 ML
0.667 LW
N
105.057 374 M
108.139 374 L
108.139 374 L
108.139 374 L
S
GR
GS
[0.75 0 0 0.75 0 0] CT
2 setlinecap
10.0 ML
0.667 LW
N
108.139 374 M
111.222 374 L
S
GR
GS
[0.75 0 0 0.75 0 0] CT
2 setlinecap
10.0 ML
0.667 LW
N
111.222 374 M
111.222 374 L
111.222 373.718 L
114.304 373.718 L
114.304 374 L
114.304 374 L
S
GR
GS
[0.75 0 0 0.75 0 0] CT
2 setlinecap
10.0 ML
0.667 LW
N
114.304 373.718 M
117.386 373.718 L
117.386 374 L
117.386 374 L
S
GR
GS
[0.75 0 0 0.75 0 0] CT
2 setlinecap
10.0 ML
0.667 LW
N
117.386 374 M
120.469 374 L
120.469 374 L
120.469 374 L
S
GR
GS
[0.75 0 0 0.75 0 0] CT
2 setlinecap
10.0 ML
0.667 LW
N
120.469 374 M
123.551 374 L
S
GR
GS
[0.75 0 0 0.75 0 0] CT
2 setlinecap
10.0 ML
0.667 LW
N
123.551 374 M
123.551 374 L
123.551 373.437 L
126.634 373.437 L
126.634 374 L
126.634 374 L
S
GR
GS
[0.75 0 0 0.75 0 0] CT
2 setlinecap
10.0 ML
0.667 LW
N
126.634 373.718 M
129.716 373.718 L
S
GR
GS
[0.75 0 0 0.75 0 0] CT
2 setlinecap
10.0 ML
0.667 LW
N
129.716 374 M
129.716 374 L
129.716 373.437 L
132.798 373.437 L
132.798 374 L
132.798 374 L
S
GR
GS
[0.75 0 0 0.75 0 0] CT
2 setlinecap
10.0 ML
0.667 LW
N
132.798 374 M
135.881 374 L
S
GR
GS
[0.75 0 0 0.75 0 0] CT
2 setlinecap
10.0 ML
0.667 LW
N
135.881 374 M
135.881 374 L
135.881 373.718 L
138.963 373.718 L
138.963 374 L
138.963 374 L
S
GR
GS
[0.75 0 0 0.75 0 0] CT
2 setlinecap
10.0 ML
0.667 LW
N
138.963 373.718 M
142.045 373.718 L
S
GR
GS
[0.75 0 0 0.75 0 0] CT
2 setlinecap
10.0 ML
0.667 LW
N
142.045 374 M
142.045 374 L
142.045 373.437 L
145.128 373.437 L
145.128 374 L
145.128 374 L
S
GR
GS
[0.75 0 0 0.75 0 0] CT
2 setlinecap
10.0 ML
0.667 LW
N
145.128 373.718 M
148.21 373.718 L
S
GR
GS
[0.75 0 0 0.75 0 0] CT
2 setlinecap
10.0 ML
0.667 LW
N
148.21 374 M
148.21 374 L
148.21 373.155 L
151.293 373.155 L
151.293 374 L
151.293 374 L
S
GR
GS
[0.75 0 0 0.75 0 0] CT
2 setlinecap
10.0 ML
0.667 LW
N
151.293 373.437 M
154.375 373.437 L
S
GR
GS
[0.75 0 0 0.75 0 0] CT
2 setlinecap
10.0 ML
0.667 LW
N
154.375 374 M
154.375 374 L
154.375 373.155 L
157.457 373.155 L
S
GR
GS
[0.75 0 0 0.75 0 0] CT
2 setlinecap
10.0 ML
0.667 LW
N
157.457 374 M
157.457 374 L
157.457 372.592 L
160.54 372.592 L
160.54 374 L
160.54 374 L
S
GR
GS
[0.75 0 0 0.75 0 0] CT
2 setlinecap
10.0 ML
0.667 LW
N
160.54 372.592 M
163.622 372.592 L
163.622 374 L
163.622 374 L
S
GR
GS
[0.75 0 0 0.75 0 0] CT
2 setlinecap
10.0 ML
0.667 LW
N
163.622 373.155 M
166.705 373.155 L
166.705 374 L
166.705 374 L
S
GR
GS
[0.75 0 0 0.75 0 0] CT
2 setlinecap
10.0 ML
0.667 LW
N
166.705 373.437 M
169.787 373.437 L
S
GR
GS
[0.75 0 0 0.75 0 0] CT
2 setlinecap
10.0 ML
0.667 LW
N
169.787 374 M
169.787 374 L
169.787 372.592 L
172.869 372.592 L
172.869 374 L
172.869 374 L
S
GR
GS
[0.75 0 0 0.75 0 0] CT
2 setlinecap
10.0 ML
0.667 LW
N
172.869 373.155 M
175.952 373.155 L
S
GR
GS
[0.75 0 0 0.75 0 0] CT
2 setlinecap
10.0 ML
0.667 LW
N
175.952 374 M
175.952 374 L
175.952 372.592 L
179.034 372.592 L
179.034 374 L
179.034 374 L
S
GR
GS
[0.75 0 0 0.75 0 0] CT
2 setlinecap
10.0 ML
0.667 LW
N
179.034 373.718 M
182.116 373.718 L
S
GR
GS
[0.75 0 0 0.75 0 0] CT
2 setlinecap
10.0 ML
0.667 LW
N
182.116 374 M
182.116 374 L
182.116 372.592 L
185.199 372.592 L
185.199 374 L
185.199 374 L
S
GR
GS
[0.75 0 0 0.75 0 0] CT
2 setlinecap
10.0 ML
0.667 LW
N
185.199 372.873 M
188.281 372.873 L
S
GR
GS
[0.75 0 0 0.75 0 0] CT
2 setlinecap
10.0 ML
0.667 LW
N
188.281 374 M
188.281 374 L
188.281 371.747 L
191.364 371.747 L
191.364 374 L
191.364 374 L
S
GR
GS
[0.75 0 0 0.75 0 0] CT
2 setlinecap
10.0 ML
0.667 LW
N
191.364 372.592 M
194.446 372.592 L
S
GR
GS
[0.75 0 0 0.75 0 0] CT
2 setlinecap
10.0 ML
0.667 LW
N
194.446 374 M
194.446 374 L
194.446 372.028 L
197.528 372.028 L
197.528 374 L
197.528 374 L
S
GR
GS
[0.75 0 0 0.75 0 0] CT
2 setlinecap
10.0 ML
0.667 LW
N
197.528 373.155 M
200.611 373.155 L
S
GR
GS
[0.75 0 0 0.75 0 0] CT
2 setlinecap
10.0 ML
0.667 LW
N
200.611 374 M
200.611 374 L
200.611 372.592 L
203.693 372.592 L
S
GR
GS
[0.75 0 0 0.75 0 0] CT
2 setlinecap
10.0 ML
0.667 LW
N
203.693 374 M
203.693 374 L
203.693 372.028 L
206.776 372.028 L
206.776 374 L
206.776 374 L
S
GR
GS
[0.75 0 0 0.75 0 0] CT
2 setlinecap
10.0 ML
0.667 LW
N
206.776 372.028 M
209.858 372.028 L
S
GR
GS
[0.75 0 0 0.75 0 0] CT
2 setlinecap
10.0 ML
0.667 LW
N
209.858 374 M
209.858 374 L
209.858 371.747 L
212.94 371.747 L
212.94 374 L
212.94 374 L
S
GR
GS
[0.75 0 0 0.75 0 0] CT
2 setlinecap
10.0 ML
0.667 LW
N
212.94 371.747 M
216.023 371.747 L
216.023 374 L
216.023 374 L
S
GR
GS
[0.75 0 0 0.75 0 0] CT
2 setlinecap
10.0 ML
0.667 LW
N
216.023 372.028 M
219.105 372.028 L
S
GR
GS
[0.75 0 0 0.75 0 0] CT
2 setlinecap
10.0 ML
0.667 LW
N
219.105 374 M
219.105 374 L
219.105 371.747 L
222.188 371.747 L
S
GR
GS
[0.75 0 0 0.75 0 0] CT
2 setlinecap
10.0 ML
0.667 LW
N
222.188 374 M
222.188 374 L
222.188 370.902 L
225.27 370.902 L
225.27 374 L
225.27 374 L
S
GR
GS
[0.75 0 0 0.75 0 0] CT
2 setlinecap
10.0 ML
0.667 LW
N
225.27 372.028 M
228.352 372.028 L
228.352 374 L
228.352 374 L
S
GR
GS
[0.75 0 0 0.75 0 0] CT
2 setlinecap
10.0 ML
0.667 LW
N
228.352 372.873 M
231.435 372.873 L
S
GR
GS
[0.75 0 0 0.75 0 0] CT
2 setlinecap
10.0 ML
0.667 LW
N
231.435 374 M
231.435 374 L
231.435 370.338 L
234.517 370.338 L
234.517 374 L
234.517 374 L
S
GR
GS
[0.75 0 0 0.75 0 0] CT
2 setlinecap
10.0 ML
0.667 LW
N
234.517 371.183 M
237.599 371.183 L
S
GR
GS
[0.75 0 0 0.75 0 0] CT
2 setlinecap
10.0 ML
0.667 LW
N
237.599 374 M
237.599 374 L
237.599 370.057 L
240.682 370.057 L
S
GR
GS
[0.75 0 0 0.75 0 0] CT
2 setlinecap
10.0 ML
0.667 LW
N
240.682 374 M
240.682 374 L
240.682 369.775 L
243.764 369.775 L
243.764 374 L
243.764 374 L
S
GR
GS
[0.75 0 0 0.75 0 0] CT
2 setlinecap
10.0 ML
0.667 LW
N
243.764 370.902 M
246.847 370.902 L
S
GR
GS
[0.75 0 0 0.75 0 0] CT
2 setlinecap
10.0 ML
0.667 LW
N
246.847 374 M
246.847 374 L
246.847 369.775 L
249.929 369.775 L
S
GR
GS
[0.75 0 0 0.75 0 0] CT
2 setlinecap
10.0 ML
0.667 LW
N
249.929 374 M
249.929 374 L
249.929 369.493 L
253.011 369.493 L
253.011 374 L
253.011 374 L
S
GR
GS
[0.75 0 0 0.75 0 0] CT
2 setlinecap
10.0 ML
0.667 LW
N
253.011 370.057 M
256.094 370.057 L
256.094 374 L
256.094 374 L
S
GR
GS
[0.75 0 0 0.75 0 0] CT
2 setlinecap
10.0 ML
0.667 LW
N
256.094 370.338 M
259.176 370.338 L
S
GR
GS
[0.75 0 0 0.75 0 0] CT
2 setlinecap
10.0 ML
0.667 LW
N
259.176 374 M
259.176 374 L
259.176 369.212 L
262.259 369.212 L
262.259 374 L
262.259 374 L
S
GR
GS
[0.75 0 0 0.75 0 0] CT
2 setlinecap
10.0 ML
0.667 LW
N
262.259 370.62 M
265.341 370.62 L
S
GR
GS
[0.75 0 0 0.75 0 0] CT
2 setlinecap
10.0 ML
0.667 LW
N
265.341 374 M
265.341 374 L
265.341 366.958 L
268.423 366.958 L
268.423 374 L
268.423 374 L
S
GR
GS
[0.75 0 0 0.75 0 0] CT
2 setlinecap
10.0 ML
0.667 LW
N
268.423 370.057 M
271.506 370.057 L
S
GR
GS
[0.75 0 0 0.75 0 0] CT
2 setlinecap
10.0 ML
0.667 LW
N
271.506 374 M
271.506 374 L
271.506 369.212 L
274.588 369.212 L
S
GR
GS
[0.75 0 0 0.75 0 0] CT
2 setlinecap
10.0 ML
0.667 LW
N
274.588 374 M
274.588 374 L
274.588 368.085 L
277.67 368.085 L
277.67 374 L
277.67 374 L
S
GR
GS
[0.75 0 0 0.75 0 0] CT
2 setlinecap
10.0 ML
0.667 LW
N
277.67 368.085 M
280.753 368.085 L
280.753 374 L
280.753 374 L
S
GR
GS
[0.75 0 0 0.75 0 0] CT
2 setlinecap
10.0 ML
0.667 LW
N
280.753 368.648 M
283.835 368.648 L
S
GR
GS
[0.75 0 0 0.75 0 0] CT
2 setlinecap
10.0 ML
0.667 LW
N
283.835 374 M
283.835 374 L
283.835 366.395 L
286.918 366.395 L
286.918 374 L
286.918 374 L
S
GR
GS
[0.75 0 0 0.75 0 0] CT
2 setlinecap
10.0 ML
0.667 LW
N
286.918 368.93 M
290 368.93 L
S
GR
GS
[0.75 0 0 0.75 0 0] CT
2 setlinecap
10.0 ML
0.667 LW
N
290 374 M
290 374 L
290 368.648 L
293.082 368.648 L
S
GR
GS
[0.75 0 0 0.75 0 0] CT
2 setlinecap
10.0 ML
0.667 LW
N
293.082 374 M
293.082 374 L
293.082 366.395 L
296.165 366.395 L
296.165 374 L
296.165 374 L
S
GR
GS
[0.75 0 0 0.75 0 0] CT
2 setlinecap
10.0 ML
0.667 LW
N
296.165 369.212 M
299.247 369.212 L
S
GR
GS
[0.75 0 0 0.75 0 0] CT
2 setlinecap
10.0 ML
0.667 LW
N
299.247 374 M
299.247 374 L
299.247 367.24 L
302.33 367.24 L
S
GR
GS
[0.75 0 0 0.75 0 0] CT
2 setlinecap
10.0 ML
0.667 LW
N
302.33 374 M
302.33 374 L
302.33 364.705 L
305.412 364.705 L
305.412 374 L
305.412 374 L
S
GR
GS
[0.75 0 0 0.75 0 0] CT
2 setlinecap
10.0 ML
0.667 LW
N
305.412 366.677 M
308.494 366.677 L
308.494 374 L
308.494 374 L
S
GR
GS
[0.75 0 0 0.75 0 0] CT
2 setlinecap
10.0 ML
0.667 LW
N
308.494 368.367 M
311.577 368.367 L
S
GR
GS
[0.75 0 0 0.75 0 0] CT
2 setlinecap
10.0 ML
0.667 LW
N
311.577 374 M
311.577 374 L
311.577 367.803 L
314.659 367.803 L
S
GR
GS
[0.75 0 0 0.75 0 0] CT
2 setlinecap
10.0 ML
0.667 LW
N
314.659 374 M
314.659 374 L
314.659 366.113 L
317.741 366.113 L
S
GR
GS
[0.75 0 0 0.75 0 0] CT
2 setlinecap
10.0 ML
0.667 LW
N
317.741 374 M
317.741 374 L
317.741 364.987 L
320.824 364.987 L
S
GR
GS
[0.75 0 0 0.75 0 0] CT
2 setlinecap
10.0 ML
0.667 LW
N
320.824 374 M
320.824 374 L
320.824 364.423 L
323.906 364.423 L
S
GR
GS
[0.75 0 0 0.75 0 0] CT
2 setlinecap
10.0 ML
0.667 LW
N
323.906 374 M
323.906 374 L
323.906 362.452 L
326.989 362.452 L
326.989 374 L
326.989 374 L
S
GR
GS
[0.75 0 0 0.75 0 0] CT
2 setlinecap
10.0 ML
0.667 LW
N
326.989 364.987 M
330.071 364.987 L
330.071 374 L
330.071 374 L
S
GR
GS
[0.75 0 0 0.75 0 0] CT
2 setlinecap
10.0 ML
0.667 LW
N
330.071 368.93 M
333.153 368.93 L
S
GR
GS
[0.75 0 0 0.75 0 0] CT
2 setlinecap
10.0 ML
0.667 LW
N
333.153 374 M
333.153 374 L
333.153 366.395 L
336.236 366.395 L
S
GR
GS
[0.75 0 0 0.75 0 0] CT
2 setlinecap
10.0 ML
0.667 LW
N
336.236 374 M
336.236 374 L
336.236 363.297 L
339.318 363.297 L
339.318 374 L
339.318 374 L
S
GR
GS
[0.75 0 0 0.75 0 0] CT
2 setlinecap
10.0 ML
0.667 LW
N
339.318 365.55 M
342.401 365.55 L
S
GR
GS
[0.75 0 0 0.75 0 0] CT
2 setlinecap
10.0 ML
0.667 LW
N
342.401 374 M
342.401 374 L
342.401 364.705 L
345.483 364.705 L
345.483 374 L
345.483 374 L
S
GR
GS
[0.75 0 0 0.75 0 0] CT
2 setlinecap
10.0 ML
0.667 LW
N
345.483 365.832 M
348.565 365.832 L
S
GR
GS
[0.75 0 0 0.75 0 0] CT
2 setlinecap
10.0 ML
0.667 LW
N
348.565 374 M
348.565 374 L
348.565 363.297 L
351.648 363.297 L
351.648 374 L
351.648 374 L
S
GR
GS
[0.75 0 0 0.75 0 0] CT
2 setlinecap
10.0 ML
0.667 LW
N
351.648 366.677 M
354.73 366.677 L
S
GR
GS
[0.75 0 0 0.75 0 0] CT
2 setlinecap
10.0 ML
0.667 LW
N
354.73 374 M
354.73 374 L
354.73 364.423 L
357.813 364.423 L
357.813 374 L
357.813 374 L
S
GR
GS
[0.75 0 0 0.75 0 0] CT
2 setlinecap
10.0 ML
0.667 LW
N
357.813 366.113 M
360.895 366.113 L
360.895 374 L
360.895 374 L
S
GR
GS
[0.75 0 0 0.75 0 0] CT
2 setlinecap
10.0 ML
0.667 LW
N
360.895 367.24 M
363.977 367.24 L
S
GR
GS
[0.75 0 0 0.75 0 0] CT
2 setlinecap
10.0 ML
0.667 LW
N
363.977 374 M
363.977 374 L
363.977 366.395 L
367.06 366.395 L
367.06 374 L
367.06 374 L
S
GR
GS
[0.75 0 0 0.75 0 0] CT
2 setlinecap
10.0 ML
0.667 LW
N
367.06 367.24 M
370.142 367.24 L
S
GR
GS
[0.75 0 0 0.75 0 0] CT
2 setlinecap
10.0 ML
0.667 LW
N
370.142 374 M
370.142 374 L
370.142 364.142 L
373.224 364.142 L
S
GR
GS
[0.75 0 0 0.75 0 0] CT
2 setlinecap
10.0 ML
0.667 LW
N
373.224 374 M
373.224 374 L
373.224 360.48 L
376.307 360.48 L
376.307 374 L
376.307 374 L
S
GR
GS
[0.75 0 0 0.75 0 0] CT
2 setlinecap
10.0 ML
0.667 LW
N
376.307 365.832 M
379.389 365.832 L
S
GR
GS
[0.75 0 0 0.75 0 0] CT
2 setlinecap
10.0 ML
0.667 LW
N
379.389 374 M
379.389 374 L
379.389 365.268 L
382.472 365.268 L
382.472 374 L
382.472 374 L
S
GR
GS
[0.75 0 0 0.75 0 0] CT
2 setlinecap
10.0 ML
0.667 LW
N
382.472 366.395 M
385.554 366.395 L
S
GR
GS
[0.75 0 0 0.75 0 0] CT
2 setlinecap
10.0 ML
0.667 LW
N
385.554 374 M
385.554 374 L
385.554 360.48 L
388.636 360.48 L
388.636 374 L
388.636 374 L
S
GR
GS
[0.75 0 0 0.75 0 0] CT
2 setlinecap
10.0 ML
0.667 LW
N
388.636 365.832 M
391.719 365.832 L
S
GR
GS
[0.75 0 0 0.75 0 0] CT
2 setlinecap
10.0 ML
0.667 LW
N
391.719 374 M
391.719 374 L
391.719 365.55 L
394.801 365.55 L
S
GR
GS
[0.75 0 0 0.75 0 0] CT
2 setlinecap
10.0 ML
0.667 LW
N
394.801 374 M
394.801 374 L
394.801 364.705 L
397.884 364.705 L
S
GR
GS
[0.75 0 0 0.75 0 0] CT
2 setlinecap
10.0 ML
0.667 LW
N
397.884 374 M
397.884 374 L
397.884 360.762 L
400.966 360.762 L
400.966 374 L
400.966 374 L
S
GR
GS
[0.75 0 0 0.75 0 0] CT
2 setlinecap
10.0 ML
0.667 LW
N
400.966 366.958 M
404.048 366.958 L
S
GR
GS
[0.75 0 0 0.75 0 0] CT
2 setlinecap
10.0 ML
0.667 LW
N
404.048 374 M
404.048 374 L
404.048 361.325 L
407.131 361.325 L
407.131 374 L
407.131 374 L
S
GR
GS
[0.75 0 0 0.75 0 0] CT
2 setlinecap
10.0 ML
0.667 LW
N
407.131 365.832 M
410.213 365.832 L
S
GR
GS
[0.75 0 0 0.75 0 0] CT
2 setlinecap
10.0 ML
0.667 LW
N
410.213 374 M
410.213 374 L
410.213 365.55 L
413.295 365.55 L
S
GR
GS
[0.75 0 0 0.75 0 0] CT
2 setlinecap
10.0 ML
0.667 LW
N
413.295 374 M
413.295 374 L
413.295 365.268 L
416.378 365.268 L
S
GR
GS
[0.75 0 0 0.75 0 0] CT
2 setlinecap
10.0 ML
0.667 LW
N
416.378 374 M
416.378 374 L
416.378 364.987 L
419.46 364.987 L
S
GR
GS
[0.75 0 0 0.75 0 0] CT
2 setlinecap
10.0 ML
0.667 LW
N
419.46 374 M
419.46 374 L
419.46 363.297 L
422.543 363.297 L
422.543 374 L
422.543 374 L
S
GR
GS
[0.75 0 0 0.75 0 0] CT
2 setlinecap
10.0 ML
0.667 LW
N
422.543 363.86 M
425.625 363.86 L
425.625 374 L
425.625 374 L
S
GR
GS
[0.75 0 0 0.75 0 0] CT
2 setlinecap
10.0 ML
0.667 LW
N
425.625 366.113 M
428.707 366.113 L
S
GR
GS
[0.75 0 0 0.75 0 0] CT
2 setlinecap
10.0 ML
0.667 LW
N
428.707 374 M
428.707 374 L
428.707 363.86 L
431.79 363.86 L
431.79 374 L
431.79 374 L
S
GR
GS
[0.75 0 0 0.75 0 0] CT
2 setlinecap
10.0 ML
0.667 LW
N
431.79 365.55 M
434.872 365.55 L
S
GR
GS
[0.75 0 0 0.75 0 0] CT
2 setlinecap
10.0 ML
0.667 LW
N
434.872 374 M
434.872 374 L
434.872 360.762 L
437.955 360.762 L
S
GR
GS
[0.75 0 0 0.75 0 0] CT
2 setlinecap
10.0 ML
0.667 LW
N
437.955 374 M
437.955 374 L
437.955 360.48 L
441.037 360.48 L
441.037 374 L
441.037 374 L
S
GR
GS
[0.75 0 0 0.75 0 0] CT
2 setlinecap
10.0 ML
0.667 LW
N
441.037 364.142 M
444.119 364.142 L
S
GR
GS
[0.75 0 0 0.75 0 0] CT
2 setlinecap
10.0 ML
0.667 LW
N
444.119 374 M
444.119 374 L
444.119 360.48 L
447.202 360.48 L
447.202 374 L
447.202 374 L
S
GR
GS
[0.75 0 0 0.75 0 0] CT
2 setlinecap
10.0 ML
0.667 LW
N
447.202 360.48 M
450.284 360.48 L
450.284 374 L
450.284 374 L
S
GR
GS
[0.75 0 0 0.75 0 0] CT
2 setlinecap
10.0 ML
0.667 LW
N
450.284 364.142 M
453.366 364.142 L
S
GR
GS
[0.75 0 0 0.75 0 0] CT
2 setlinecap
10.0 ML
0.667 LW
N
453.366 374 M
453.366 374 L
453.366 357.382 L
456.449 357.382 L
456.449 374 L
456.449 374 L
S
GR
GS
[0.75 0 0 0.75 0 0] CT
2 setlinecap
10.0 ML
0.667 LW
N
456.449 358.508 M
459.531 358.508 L
459.531 374 L
459.531 374 L
S
GR
GS
[0.75 0 0 0.75 0 0] CT
2 setlinecap
10.0 ML
0.667 LW
N
459.531 359.635 M
462.614 359.635 L
S
GR
GS
[0.75 0 0 0.75 0 0] CT
2 setlinecap
10.0 ML
0.667 LW
N
462.614 374 M
462.614 374 L
462.614 354.565 L
465.696 354.565 L
S
GR
GS
[0.75 0 0 0.75 0 0] CT
2 setlinecap
10.0 ML
0.667 LW
N
465.696 374 M
465.696 374 L
465.696 350.058 L
468.778 350.058 L
468.778 374 L
468.778 374 L
S
GR
GS
[0.75 0 0 0.75 0 0] CT
2 setlinecap
10.0 ML
0.667 LW
N
468.778 352.593 M
471.861 352.593 L
471.861 374 L
471.861 374 L
S
GR
GS
[0.75 0 0 0.75 0 0] CT
2 setlinecap
10.0 ML
0.667 LW
N
471.861 354.002 M
474.943 354.002 L
S
GR
GS
[0.75 0 0 0.75 0 0] CT
2 setlinecap
10.0 ML
0.667 LW
N
474.943 374 M
474.943 374 L
474.943 350.058 L
478.026 350.058 L
S
GR
GS
[0.75 0 0 0.75 0 0] CT
2 setlinecap
10.0 ML
0.667 LW
N
478.026 374 M
478.026 374 L
478.026 347.805 L
481.108 347.805 L
S
GR
GS
[0.75 0 0 0.75 0 0] CT
2 setlinecap
10.0 ML
0.667 LW
N
481.108 374 M
481.108 374 L
481.108 344.425 L
484.19 344.425 L
S
GR
GS
[0.75 0 0 0.75 0 0] CT
2 setlinecap
10.0 ML
0.667 LW
N
484.19 374 M
484.19 374 L
484.19 334.567 L
487.273 334.567 L
487.273 374 L
S
GR
GS
[0.75 0 0 0.75 0 0] CT
0.149 GC
2 setlinecap
1 LJ
0.667 LW
N
73 374 M
507 374 L
S
GR
GS
[0.75 0 0 0.75 0 0] CT
0.149 GC
2 setlinecap
1 LJ
0.667 LW
N
73 36 M
507 36 L
S
GR
GS
[0.75 0 0 0.75 0 0] CT
0.149 GC
2 setlinecap
1 LJ
0.667 LW
N
117.386 374 M
117.386 369.66 L
S
GR
GS
[0.75 0 0 0.75 0 0] CT
0.149 GC
2 setlinecap
1 LJ
0.667 LW
N
179.034 374 M
179.034 369.66 L
S
GR
GS
[0.75 0 0 0.75 0 0] CT
0.149 GC
2 setlinecap
1 LJ
0.667 LW
N
240.682 374 M
240.682 369.66 L
S
GR
GS
[0.75 0 0 0.75 0 0] CT
0.149 GC
2 setlinecap
1 LJ
0.667 LW
N
302.33 374 M
302.33 369.66 L
S
GR
GS
[0.75 0 0 0.75 0 0] CT
0.149 GC
2 setlinecap
1 LJ
0.667 LW
N
363.977 374 M
363.977 369.66 L
S
GR
GS
[0.75 0 0 0.75 0 0] CT
0.149 GC
2 setlinecap
1 LJ
0.667 LW
N
425.625 374 M
425.625 369.66 L
S
GR
GS
[0.75 0 0 0.75 0 0] CT
0.149 GC
2 setlinecap
1 LJ
0.667 LW
N
487.273 374 M
487.273 369.66 L
S
GR
GS
[0.75 0 0 0.75 0 0] CT
0.149 GC
2 setlinecap
1 LJ
0.667 LW
N
117.386 36 M
117.386 40.34 L
S
GR
GS
[0.75 0 0 0.75 0 0] CT
0.149 GC
2 setlinecap
1 LJ
0.667 LW
N
179.034 36 M
179.034 40.34 L
S
GR
GS
[0.75 0 0 0.75 0 0] CT
0.149 GC
2 setlinecap
1 LJ
0.667 LW
N
240.682 36 M
240.682 40.34 L
S
GR
GS
[0.75 0 0 0.75 0 0] CT
0.149 GC
2 setlinecap
1 LJ
0.667 LW
N
302.33 36 M
302.33 40.34 L
S
GR
GS
[0.75 0 0 0.75 0 0] CT
0.149 GC
2 setlinecap
1 LJ
0.667 LW
N
363.977 36 M
363.977 40.34 L
S
GR
GS
[0.75 0 0 0.75 0 0] CT
0.149 GC
2 setlinecap
1 LJ
0.667 LW
N
425.625 36 M
425.625 40.34 L
S
GR
GS
[0.75 0 0 0.75 0 0] CT
0.149 GC
2 setlinecap
1 LJ
0.667 LW
N
487.273 36 M
487.273 40.34 L
S
GR
GS
[0.75 0 0 0.75 88.03978 284.50001] CT
0.149 GC
/Helvetica 13.333 F
GS
[1 0 0 1 0 0] CT
-9.5 14 moveto 
1 -1 scale
(0.4) t 
GR
GR
GS
[0.75 0 0 0.75 134.27557 284.50001] CT
0.149 GC
/Helvetica 13.333 F
GS
[1 0 0 1 0 0] CT
-9.5 14 moveto 
1 -1 scale
(0.5) t 
GR
GR
GS
[0.75 0 0 0.75 180.51138 284.50001] CT
0.149 GC
/Helvetica 13.333 F
GS
[1 0 0 1 0 0] CT
-9.5 14 moveto 
1 -1 scale
(0.6) t 
GR
GR
GS
[0.75 0 0 0.75 226.74715 284.50001] CT
0.149 GC
/Helvetica 13.333 F
GS
[1 0 0 1 0 0] CT
-9.5 14 moveto 
1 -1 scale
(0.7) t 
GR
GR
GS
[0.75 0 0 0.75 272.98297 284.50001] CT
0.149 GC
/Helvetica 13.333 F
GS
[1 0 0 1 0 0] CT
-9.5 14 moveto 
1 -1 scale
(0.8) t 
GR
GR
GS
[0.75 0 0 0.75 319.21875 284.50001] CT
0.149 GC
/Helvetica 13.333 F
GS
[1 0 0 1 0 0] CT
-9.5 14 moveto 
1 -1 scale
(0.9) t 
GR
GR
GS
[0.75 0 0 0.75 365.45455 284.50001] CT
0.149 GC
/Helvetica 13.333 F
GS
[1 0 0 1 0 0] CT
-4 14 moveto 
1 -1 scale
(1) t 
GR
GR
GS
[0.75 0 0 0.75 0 0] CT
0.149 GC
2 setlinecap
1 LJ
0.667 LW
N
73 374 M
73 36 L
S
GR
GS
[0.75 0 0 0.75 0 0] CT
0.149 GC
2 setlinecap
1 LJ
0.667 LW
N
507 374 M
507 36 L
S
GR
GS
[0.75 0 0 0.75 0 0] CT
0.149 GC
2 setlinecap
1 LJ
0.667 LW
N
73 374 M
77.34 374 L
S
GR
GS
[0.75 0 0 0.75 0 0] CT
0.149 GC
2 setlinecap
1 LJ
0.667 LW
N
73 317.667 M
77.34 317.667 L
S
GR
GS
[0.75 0 0 0.75 0 0] CT
0.149 GC
2 setlinecap
1 LJ
0.667 LW
N
73 261.333 M
77.34 261.333 L
S
GR
GS
[0.75 0 0 0.75 0 0] CT
0.149 GC
2 setlinecap
1 LJ
0.667 LW
N
73 205 M
77.34 205 L
S
GR
GS
[0.75 0 0 0.75 0 0] CT
0.149 GC
2 setlinecap
1 LJ
0.667 LW
N
73 148.667 M
77.34 148.667 L
S
GR
GS
[0.75 0 0 0.75 0 0] CT
0.149 GC
2 setlinecap
1 LJ
0.667 LW
N
73 92.333 M
77.34 92.333 L
S
GR
GS
[0.75 0 0 0.75 0 0] CT
0.149 GC
2 setlinecap
1 LJ
0.667 LW
N
73 36 M
77.34 36 L
S
GR
GS
[0.75 0 0 0.75 0 0] CT
0.149 GC
2 setlinecap
1 LJ
0.667 LW
N
507 374 M
502.66 374 L
S
GR
GS
[0.75 0 0 0.75 0 0] CT
0.149 GC
2 setlinecap
1 LJ
0.667 LW
N
507 317.667 M
502.66 317.667 L
S
GR
GS
[0.75 0 0 0.75 0 0] CT
0.149 GC
2 setlinecap
1 LJ
0.667 LW
N
507 261.333 M
502.66 261.333 L
S
GR
GS
[0.75 0 0 0.75 0 0] CT
0.149 GC
2 setlinecap
1 LJ
0.667 LW
N
507 205 M
502.66 205 L
S
GR
GS
[0.75 0 0 0.75 0 0] CT
0.149 GC
2 setlinecap
1 LJ
0.667 LW
N
507 148.667 M
502.66 148.667 L
S
GR
GS
[0.75 0 0 0.75 0 0] CT
0.149 GC
2 setlinecap
1 LJ
0.667 LW
N
507 92.333 M
502.66 92.333 L
S
GR
GS
[0.75 0 0 0.75 0 0] CT
0.149 GC
2 setlinecap
1 LJ
0.667 LW
N
507 36 M
502.66 36 L
S
GR
GS
[0.75 0 0 0.75 50.75 280.5] CT
0.149 GC
/Helvetica 13.333 F
GS
[1 0 0 1 0 0] CT
-8 5.5 moveto 
1 -1 scale
(0) t 
GR
GR
GS
[0.75 0 0 0.75 50.75 238.24999] CT
0.149 GC
/Helvetica 13.333 F
GS
[1 0 0 1 0 0] CT
-23 5.5 moveto 
1 -1 scale
(200) t 
GR
GR
GS
[0.75 0 0 0.75 50.75 196.00001] CT
0.149 GC
/Helvetica 13.333 F
GS
[1 0 0 1 0 0] CT
-23 5.5 moveto 
1 -1 scale
(400) t 
GR
GR
GS
[0.75 0 0 0.75 50.75 153.75] CT
0.149 GC
/Helvetica 13.333 F
GS
[1 0 0 1 0 0] CT
-23 5.5 moveto 
1 -1 scale
(600) t 
GR
GR
GS
[0.75 0 0 0.75 50.75 111.5] CT
0.149 GC
/Helvetica 13.333 F
GS
[1 0 0 1 0 0] CT
-23 5.5 moveto 
1 -1 scale
(800) t 
GR
GR
GS
[0.75 0 0 0.75 50.75 69.25] CT
0.149 GC
/Helvetica 13.333 F
GS
[1 0 0 1 0 0] CT
-30 5.5 moveto 
1 -1 scale
(1000) t 
GR
GR
GS
[0.75 0 0 0.75 50.75 27] CT
0.149 GC
/Helvetica 13.333 F
GS
[1 0 0 1 0 0] CT
-30 5.5 moveto 
1 -1 scale
(1200) t 
GR
GR
GS
[0 -0.75 0.75 0 25.25001 153.74989] CT
0.149 GC
/Helvetica 14.667 F
GS
[1 0 0 1 0 0] CT
-53.5 -4 moveto 
1 -1 scale
(Anzahl Dreiecke) t 
GR
GR
GS
[0.75 0 0 0.75 0 0] CT
1 GC
N
496 99 M
496 46 L
346 46 L
346 99 L
cp
f
GR
GS
[0.75 0 0 0.75 294.75 42] CT
/Helvetica 12 F
GS
[1 0 0 1 0 0] CT
0 5 moveto 
1 -1 scale
(Anfang) t 
GR
GR
GS
[0.75 0 0 0.75 0 0] CT
0.4 0.668 0.845 RC
N
390 62 M
390 50 L
350 50 L
350 62 L
cp
f
GR
GS
[0.75 0 0 0.75 0 0] CT
10.0 ML
0.667 LW
N
350 62 M
350 50 L
390 50 L
390 62 L
cp
S
GR
GS
[0.75 0 0 0.75 294.75 54.375] CT
/Helvetica 12 F
GS
[1 0 0 1 0 0] CT
0 5 moveto 
1 -1 scale
(Ale Ergebnis) t 
GR
GR
GS
[0.75 0 0 0.75 0 0] CT
0.911 0.595 0.459 RC
N
390 78.5 M
390 66.5 L
350 66.5 L
350 78.5 L
cp
f
GR
GS
[0.75 0 0 0.75 0 0] CT
10.0 ML
0.667 LW
N
350 78.5 M
350 66.5 L
390 66.5 L
390 78.5 L
cp
S
GR
GS
[0.75 0 0 0.75 294.75 66.75] CT
/Helvetica 12 F
GS
[1 0 0 1 0 0] CT
0 5 moveto 
1 -1 scale
(Ergebnis ohne Ale) t 
GR
GR
GS
[0.75 0 0 0.75 0 0] CT
0.958 0.816 0.475 RC
N
390 95 M
390 83 L
350 83 L
350 95 L
cp
f
GR
GS
[0.75 0 0 0.75 0 0] CT
10.0 ML
0.667 LW
N
350 95 M
350 83 L
390 83 L
390 95 L
cp
S
GR
GS
[0.75 0 0 0.75 0 0] CT
0.149 GC
10.0 ML
0.667 LW
N
346 99 M
346 46 L
496 46 L
496 99 L
cp
S
GR
%%Trailer
%%Pages: 1
%%EOF
