%!PS-Adobe-3.0 EPSF-3.0
%%Creator: (MATLAB, The Mathworks, Inc. Version 9.7.0.1319299 \(R2019b\) Update 5. Operating System: Windows 10)
%%Title: Plots_Quality/Kovacs_Ellipsoid_Time.eps
%%CreationDate: 2020-12-17T16:34:53
%%Pages: (atend)
%%BoundingBox:    40     5   385   315
%%LanguageLevel: 2
%%EndComments
%%BeginProlog
%%BeginResource: procset (Apache XML Graphics Std ProcSet) 1.2 0
%%Version: 1.2 0
%%Copyright: (Copyright 2001-2003,2010 The Apache Software Foundation. License terms: http://www.apache.org/licenses/LICENSE-2.0)
/bd{bind def}bind def
/ld{load def}bd
/GR/grestore ld
/GS/gsave ld
/RM/rmoveto ld
/C/curveto ld
/t/show ld
/L/lineto ld
/ML/setmiterlimit ld
/CT/concat ld
/f/fill ld
/N/newpath ld
/S/stroke ld
/CC/setcmykcolor ld
/A/ashow ld
/cp/closepath ld
/RC/setrgbcolor ld
/LJ/setlinejoin ld
/GC/setgray ld
/LW/setlinewidth ld
/M/moveto ld
/re {4 2 roll M
1 index 0 rlineto
0 exch rlineto
neg 0 rlineto
cp } bd
/_ctm matrix def
/_tm matrix def
/BT { _ctm currentmatrix pop matrix _tm copy pop 0 0 moveto } bd
/ET { _ctm setmatrix } bd
/iTm { _ctm setmatrix _tm concat } bd
/Tm { _tm astore pop iTm 0 0 moveto } bd
/ux 0.0 def
/uy 0.0 def
/F {
  /Tp exch def
  /Tf exch def
  Tf findfont Tp scalefont setfont
  /cf Tf def  /cs Tp def
} bd
/ULS {currentpoint /uy exch def /ux exch def} bd
/ULE {
  /Tcx currentpoint pop def
  gsave
  newpath
  cf findfont cs scalefont dup
  /FontMatrix get 0 get /Ts exch def /FontInfo get dup
  /UnderlinePosition get Ts mul /To exch def
  /UnderlineThickness get Ts mul /Tt exch def
  ux uy To add moveto  Tcx uy To add lineto
  Tt setlinewidth stroke
  grestore
} bd
/OLE {
  /Tcx currentpoint pop def
  gsave
  newpath
  cf findfont cs scalefont dup
  /FontMatrix get 0 get /Ts exch def /FontInfo get dup
  /UnderlinePosition get Ts mul /To exch def
  /UnderlineThickness get Ts mul /Tt exch def
  ux uy To add cs add moveto Tcx uy To add cs add lineto
  Tt setlinewidth stroke
  grestore
} bd
/SOE {
  /Tcx currentpoint pop def
  gsave
  newpath
  cf findfont cs scalefont dup
  /FontMatrix get 0 get /Ts exch def /FontInfo get dup
  /UnderlinePosition get Ts mul /To exch def
  /UnderlineThickness get Ts mul /Tt exch def
  ux uy To add cs 10 mul 26 idiv add moveto Tcx uy To add cs 10 mul 26 idiv add lineto
  Tt setlinewidth stroke
  grestore
} bd
/QT {
/Y22 exch store
/X22 exch store
/Y21 exch store
/X21 exch store
currentpoint
/Y21 load 2 mul add 3 div exch
/X21 load 2 mul add 3 div exch
/X21 load 2 mul /X22 load add 3 div
/Y21 load 2 mul /Y22 load add 3 div
/X22 load /Y22 load curveto
} bd
/SSPD {
dup length /d exch dict def
{
/v exch def
/k exch def
currentpagedevice k known {
/cpdv currentpagedevice k get def
v cpdv ne {
/upd false def
/nullv v type /nulltype eq def
/nullcpdv cpdv type /nulltype eq def
nullv nullcpdv or
{
/upd true def
} {
/sametype v type cpdv type eq def
sametype {
v type /arraytype eq {
/vlen v length def
/cpdvlen cpdv length def
vlen cpdvlen eq {
0 1 vlen 1 sub {
/i exch def
/obj v i get def
/cpdobj cpdv i get def
obj cpdobj ne {
/upd true def
exit
} if
} for
} {
/upd true def
} ifelse
} {
v type /dicttype eq {
v {
/dv exch def
/dk exch def
/cpddv cpdv dk get def
dv cpddv ne {
/upd true def
exit
} if
} forall
} {
/upd true def
} ifelse
} ifelse
} if
} ifelse
upd true eq {
d k v put
} if
} if
} if
} forall
d length 0 gt {
d setpagedevice
} if
} bd
/RE { % /NewFontName [NewEncodingArray] /FontName RE -
  findfont dup length dict begin
  {
    1 index /FID ne
    {def} {pop pop} ifelse
  } forall
  /Encoding exch def
  /FontName 1 index def
  currentdict definefont pop
  end
} bind def
%%EndResource
%%BeginResource: procset (Apache XML Graphics EPS ProcSet) 1.0 0
%%Version: 1.0 0
%%Copyright: (Copyright 2002-2003 The Apache Software Foundation. License terms: http://www.apache.org/licenses/LICENSE-2.0)
/BeginEPSF { %def
/b4_Inc_state save def         % Save state for cleanup
/dict_count countdictstack def % Count objects on dict stack
/op_count count 1 sub def      % Count objects on operand stack
userdict begin                 % Push userdict on dict stack
/showpage { } def              % Redefine showpage, { } = null proc
0 setgray 0 setlinecap         % Prepare graphics state
1 setlinewidth 0 setlinejoin
10 setmiterlimit [ ] 0 setdash newpath
/languagelevel where           % If level not equal to 1 then
{pop languagelevel             % set strokeadjust and
1 ne                           % overprint to their defaults.
{false setstrokeadjust false setoverprint
} if
} if
} bd
/EndEPSF { %def
count op_count sub {pop} repeat            % Clean up stacks
countdictstack dict_count sub {end} repeat
b4_Inc_state restore
} bd
%%EndResource
%FOPBeginFontDict
%%IncludeResource: font Courier-Oblique
%%IncludeResource: font Courier-BoldOblique
%%IncludeResource: font Courier-Bold
%%IncludeResource: font ZapfDingbats
%%IncludeResource: font Symbol
%%IncludeResource: font Helvetica
%%IncludeResource: font Helvetica-Oblique
%%IncludeResource: font Helvetica-Bold
%%IncludeResource: font Helvetica-BoldOblique
%%IncludeResource: font Times-Roman
%%IncludeResource: font Times-Italic
%%IncludeResource: font Times-Bold
%%IncludeResource: font Times-BoldItalic
%%IncludeResource: font Courier
%FOPEndFontDict
%%BeginResource: encoding WinAnsiEncoding
/WinAnsiEncoding [
/.notdef /.notdef /.notdef /.notdef /.notdef
/.notdef /.notdef /.notdef /.notdef /.notdef
/.notdef /.notdef /.notdef /.notdef /.notdef
/.notdef /.notdef /.notdef /.notdef /.notdef
/.notdef /.notdef /.notdef /.notdef /.notdef
/.notdef /.notdef /.notdef /.notdef /.notdef
/.notdef /.notdef /space /exclam /quotedbl
/numbersign /dollar /percent /ampersand /quotesingle
/parenleft /parenright /asterisk /plus /comma
/hyphen /period /slash /zero /one
/two /three /four /five /six
/seven /eight /nine /colon /semicolon
/less /equal /greater /question /at
/A /B /C /D /E
/F /G /H /I /J
/K /L /M /N /O
/P /Q /R /S /T
/U /V /W /X /Y
/Z /bracketleft /backslash /bracketright /asciicircum
/underscore /quoteleft /a /b /c
/d /e /f /g /h
/i /j /k /l /m
/n /o /p /q /r
/s /t /u /v /w
/x /y /z /braceleft /bar
/braceright /asciitilde /bullet /Euro /bullet
/quotesinglbase /florin /quotedblbase /ellipsis /dagger
/daggerdbl /circumflex /perthousand /Scaron /guilsinglleft
/OE /bullet /Zcaron /bullet /bullet
/quoteleft /quoteright /quotedblleft /quotedblright /bullet
/endash /emdash /asciitilde /trademark /scaron
/guilsinglright /oe /bullet /zcaron /Ydieresis
/space /exclamdown /cent /sterling /currency
/yen /brokenbar /section /dieresis /copyright
/ordfeminine /guillemotleft /logicalnot /sfthyphen /registered
/macron /degree /plusminus /twosuperior /threesuperior
/acute /mu /paragraph /middot /cedilla
/onesuperior /ordmasculine /guillemotright /onequarter /onehalf
/threequarters /questiondown /Agrave /Aacute /Acircumflex
/Atilde /Adieresis /Aring /AE /Ccedilla
/Egrave /Eacute /Ecircumflex /Edieresis /Igrave
/Iacute /Icircumflex /Idieresis /Eth /Ntilde
/Ograve /Oacute /Ocircumflex /Otilde /Odieresis
/multiply /Oslash /Ugrave /Uacute /Ucircumflex
/Udieresis /Yacute /Thorn /germandbls /agrave
/aacute /acircumflex /atilde /adieresis /aring
/ae /ccedilla /egrave /eacute /ecircumflex
/edieresis /igrave /iacute /icircumflex /idieresis
/eth /ntilde /ograve /oacute /ocircumflex
/otilde /odieresis /divide /oslash /ugrave
/uacute /ucircumflex /udieresis /yacute /thorn
/ydieresis
] def
%%EndResource
%FOPBeginFontReencode
/Courier-Oblique findfont
dup length dict begin
  {1 index /FID ne {def} {pop pop} ifelse} forall
  /Encoding WinAnsiEncoding def
  currentdict
end
/Courier-Oblique exch definefont pop
/Courier-BoldOblique findfont
dup length dict begin
  {1 index /FID ne {def} {pop pop} ifelse} forall
  /Encoding WinAnsiEncoding def
  currentdict
end
/Courier-BoldOblique exch definefont pop
/Courier-Bold findfont
dup length dict begin
  {1 index /FID ne {def} {pop pop} ifelse} forall
  /Encoding WinAnsiEncoding def
  currentdict
end
/Courier-Bold exch definefont pop
/Helvetica findfont
dup length dict begin
  {1 index /FID ne {def} {pop pop} ifelse} forall
  /Encoding WinAnsiEncoding def
  currentdict
end
/Helvetica exch definefont pop
/Helvetica-Oblique findfont
dup length dict begin
  {1 index /FID ne {def} {pop pop} ifelse} forall
  /Encoding WinAnsiEncoding def
  currentdict
end
/Helvetica-Oblique exch definefont pop
/Helvetica-Bold findfont
dup length dict begin
  {1 index /FID ne {def} {pop pop} ifelse} forall
  /Encoding WinAnsiEncoding def
  currentdict
end
/Helvetica-Bold exch definefont pop
/Helvetica-BoldOblique findfont
dup length dict begin
  {1 index /FID ne {def} {pop pop} ifelse} forall
  /Encoding WinAnsiEncoding def
  currentdict
end
/Helvetica-BoldOblique exch definefont pop
/Times-Roman findfont
dup length dict begin
  {1 index /FID ne {def} {pop pop} ifelse} forall
  /Encoding WinAnsiEncoding def
  currentdict
end
/Times-Roman exch definefont pop
/Times-Italic findfont
dup length dict begin
  {1 index /FID ne {def} {pop pop} ifelse} forall
  /Encoding WinAnsiEncoding def
  currentdict
end
/Times-Italic exch definefont pop
/Times-Bold findfont
dup length dict begin
  {1 index /FID ne {def} {pop pop} ifelse} forall
  /Encoding WinAnsiEncoding def
  currentdict
end
/Times-Bold exch definefont pop
/Times-BoldItalic findfont
dup length dict begin
  {1 index /FID ne {def} {pop pop} ifelse} forall
  /Encoding WinAnsiEncoding def
  currentdict
end
/Times-BoldItalic exch definefont pop
/Courier findfont
dup length dict begin
  {1 index /FID ne {def} {pop pop} ifelse} forall
  /Encoding WinAnsiEncoding def
  currentdict
end
/Courier exch definefont pop
%FOPEndFontReencode
%%EndProlog
%%Page: 1 1
%%PageBoundingBox: 0 0 420 315
%%BeginPageSetup
[1 0 0 -1 0 315] CT
%%EndPageSetup
GS
[0.75 0 0 0.75 0 0] CT
1 GC
N
0 0 560 420 re
f
GR
GS
[0.75 0 0 0.75 0 0] CT
1 GC
N
0 0 560 420 re
f
GR
GS
[0.75 0 0 0.75 0 0] CT
1 GC
N
73 374 M
507 374 L
507 37 L
73 37 L
cp
f
GR
GS
[0.75 0 0 0.75 0 0] CT
0.149 GC
2 setlinecap
1 LJ
0.667 LW
N
73 374 M
507 374 L
S
GR
GS
[0.75 0 0 0.75 0 0] CT
0.149 GC
2 setlinecap
1 LJ
0.667 LW
N
73 37 M
507 37 L
S
GR
GS
[0.75 0 0 0.75 0 0] CT
0.149 GC
2 setlinecap
1 LJ
0.667 LW
N
73 374 M
73 369.66 L
S
GR
GS
[0.75 0 0 0.75 0 0] CT
0.149 GC
2 setlinecap
1 LJ
0.667 LW
N
159.8 374 M
159.8 369.66 L
S
GR
GS
[0.75 0 0 0.75 0 0] CT
0.149 GC
2 setlinecap
1 LJ
0.667 LW
N
246.6 374 M
246.6 369.66 L
S
GR
GS
[0.75 0 0 0.75 0 0] CT
0.149 GC
2 setlinecap
1 LJ
0.667 LW
N
333.4 374 M
333.4 369.66 L
S
GR
GS
[0.75 0 0 0.75 0 0] CT
0.149 GC
2 setlinecap
1 LJ
0.667 LW
N
420.2 374 M
420.2 369.66 L
S
GR
GS
[0.75 0 0 0.75 0 0] CT
0.149 GC
2 setlinecap
1 LJ
0.667 LW
N
507 374 M
507 369.66 L
S
GR
GS
[0.75 0 0 0.75 0 0] CT
0.149 GC
2 setlinecap
1 LJ
0.667 LW
N
73 37 M
73 41.34 L
S
GR
GS
[0.75 0 0 0.75 0 0] CT
0.149 GC
2 setlinecap
1 LJ
0.667 LW
N
159.8 37 M
159.8 41.34 L
S
GR
GS
[0.75 0 0 0.75 0 0] CT
0.149 GC
2 setlinecap
1 LJ
0.667 LW
N
246.6 37 M
246.6 41.34 L
S
GR
GS
[0.75 0 0 0.75 0 0] CT
0.149 GC
2 setlinecap
1 LJ
0.667 LW
N
333.4 37 M
333.4 41.34 L
S
GR
GS
[0.75 0 0 0.75 0 0] CT
0.149 GC
2 setlinecap
1 LJ
0.667 LW
N
420.2 37 M
420.2 41.34 L
S
GR
GS
[0.75 0 0 0.75 0 0] CT
0.149 GC
2 setlinecap
1 LJ
0.667 LW
N
507 37 M
507 41.34 L
S
GR
GS
[0.75 0 0 0.75 54.75 284.50001] CT
0.149 GC
/Helvetica 13.333 F
GS
[1 0 0 1 0 0] CT
-4 14 moveto 
1 -1 scale
(0) t 
GR
GR
GS
[0.75 0 0 0.75 119.85 284.50001] CT
0.149 GC
/Helvetica 13.333 F
GS
[1 0 0 1 0 0] CT
-4 14 moveto 
1 -1 scale
(5) t 
GR
GR
GS
[0.75 0 0 0.75 184.95 284.50001] CT
0.149 GC
/Helvetica 13.333 F
GS
[1 0 0 1 0 0] CT
-7.5 14 moveto 
1 -1 scale
(10) t 
GR
GR
GS
[0.75 0 0 0.75 250.05 284.50001] CT
0.149 GC
/Helvetica 13.333 F
GS
[1 0 0 1 0 0] CT
-7.5 14 moveto 
1 -1 scale
(15) t 
GR
GR
GS
[0.75 0 0 0.75 315.15001 284.50001] CT
0.149 GC
/Helvetica 13.333 F
GS
[1 0 0 1 0 0] CT
-7.5 14 moveto 
1 -1 scale
(20) t 
GR
GR
GS
[0.75 0 0 0.75 380.25 284.50001] CT
0.149 GC
/Helvetica 13.333 F
GS
[1 0 0 1 0 0] CT
-7.5 14 moveto 
1 -1 scale
(25) t 
GR
GR
GS
[0.75 0 0 0.75 217.50016 298.24999] CT
0.149 GC
/Helvetica 14.667 F
GS
[1 0 0 1 0 0] CT
-36 15 moveto 
1 -1 scale
(Zeitschritte) t 
GR
GR
GS
[0.75 0 0 0.75 0 0] CT
0.149 GC
2 setlinecap
1 LJ
0.667 LW
N
73 374 M
73 37 L
S
GR
GS
[0.75 0 0 0.75 0 0] CT
0.149 GC
2 setlinecap
1 LJ
0.667 LW
N
507 374 M
507 37 L
S
GR
GS
[0.75 0 0 0.75 0 0] CT
0.149 GC
2 setlinecap
1 LJ
0.667 LW
N
73 374 M
77.34 374 L
S
GR
GS
[0.75 0 0 0.75 0 0] CT
0.149 GC
2 setlinecap
1 LJ
0.667 LW
N
73 336.556 M
77.34 336.556 L
S
GR
GS
[0.75 0 0 0.75 0 0] CT
0.149 GC
2 setlinecap
1 LJ
0.667 LW
N
73 299.111 M
77.34 299.111 L
S
GR
GS
[0.75 0 0 0.75 0 0] CT
0.149 GC
2 setlinecap
1 LJ
0.667 LW
N
73 261.667 M
77.34 261.667 L
S
GR
GS
[0.75 0 0 0.75 0 0] CT
0.149 GC
2 setlinecap
1 LJ
0.667 LW
N
73 224.222 M
77.34 224.222 L
S
GR
GS
[0.75 0 0 0.75 0 0] CT
0.149 GC
2 setlinecap
1 LJ
0.667 LW
N
73 186.778 M
77.34 186.778 L
S
GR
GS
[0.75 0 0 0.75 0 0] CT
0.149 GC
2 setlinecap
1 LJ
0.667 LW
N
73 149.333 M
77.34 149.333 L
S
GR
GS
[0.75 0 0 0.75 0 0] CT
0.149 GC
2 setlinecap
1 LJ
0.667 LW
N
73 111.889 M
77.34 111.889 L
S
GR
GS
[0.75 0 0 0.75 0 0] CT
0.149 GC
2 setlinecap
1 LJ
0.667 LW
N
73 74.444 M
77.34 74.444 L
S
GR
GS
[0.75 0 0 0.75 0 0] CT
0.149 GC
2 setlinecap
1 LJ
0.667 LW
N
73 37 M
77.34 37 L
S
GR
GS
[0.75 0 0 0.75 0 0] CT
0.149 GC
2 setlinecap
1 LJ
0.667 LW
N
507 374 M
502.66 374 L
S
GR
GS
[0.75 0 0 0.75 0 0] CT
0.149 GC
2 setlinecap
1 LJ
0.667 LW
N
507 336.556 M
502.66 336.556 L
S
GR
GS
[0.75 0 0 0.75 0 0] CT
0.149 GC
2 setlinecap
1 LJ
0.667 LW
N
507 299.111 M
502.66 299.111 L
S
GR
GS
[0.75 0 0 0.75 0 0] CT
0.149 GC
2 setlinecap
1 LJ
0.667 LW
N
507 261.667 M
502.66 261.667 L
S
GR
GS
[0.75 0 0 0.75 0 0] CT
0.149 GC
2 setlinecap
1 LJ
0.667 LW
N
507 224.222 M
502.66 224.222 L
S
GR
GS
[0.75 0 0 0.75 0 0] CT
0.149 GC
2 setlinecap
1 LJ
0.667 LW
N
507 186.778 M
502.66 186.778 L
S
GR
GS
[0.75 0 0 0.75 0 0] CT
0.149 GC
2 setlinecap
1 LJ
0.667 LW
N
507 149.333 M
502.66 149.333 L
S
GR
GS
[0.75 0 0 0.75 0 0] CT
0.149 GC
2 setlinecap
1 LJ
0.667 LW
N
507 111.889 M
502.66 111.889 L
S
GR
GS
[0.75 0 0 0.75 0 0] CT
0.149 GC
2 setlinecap
1 LJ
0.667 LW
N
507 74.444 M
502.66 74.444 L
S
GR
GS
[0.75 0 0 0.75 0 0] CT
0.149 GC
2 setlinecap
1 LJ
0.667 LW
N
507 37 M
502.66 37 L
S
GR
GS
[0.75 0 0 0.75 50.75 280.5] CT
0.149 GC
/Helvetica 13.333 F
GS
[1 0 0 1 0 0] CT
-8 5.5 moveto 
1 -1 scale
(1) t 
GR
GR
GS
[0.75 0 0 0.75 50.75 252.41666] CT
0.149 GC
/Helvetica 13.333 F
GS
[1 0 0 1 0 0] CT
-8 5.5 moveto 
1 -1 scale
(2) t 
GR
GR
GS
[0.75 0 0 0.75 50.75 224.33334] CT
0.149 GC
/Helvetica 13.333 F
GS
[1 0 0 1 0 0] CT
-8 5.5 moveto 
1 -1 scale
(3) t 
GR
GR
GS
[0.75 0 0 0.75 50.75 196.24999] CT
0.149 GC
/Helvetica 13.333 F
GS
[1 0 0 1 0 0] CT
-8 5.5 moveto 
1 -1 scale
(4) t 
GR
GR
GS
[0.75 0 0 0.75 50.75 168.16667] CT
0.149 GC
/Helvetica 13.333 F
GS
[1 0 0 1 0 0] CT
-8 5.5 moveto 
1 -1 scale
(5) t 
GR
GR
GS
[0.75 0 0 0.75 50.75 140.08333] CT
0.149 GC
/Helvetica 13.333 F
GS
[1 0 0 1 0 0] CT
-8 5.5 moveto 
1 -1 scale
(6) t 
GR
GR
GS
[0.75 0 0 0.75 50.75 112] CT
0.149 GC
/Helvetica 13.333 F
GS
[1 0 0 1 0 0] CT
-8 5.5 moveto 
1 -1 scale
(7) t 
GR
GR
GS
[0.75 0 0 0.75 50.75 83.91666] CT
0.149 GC
/Helvetica 13.333 F
GS
[1 0 0 1 0 0] CT
-8 5.5 moveto 
1 -1 scale
(8) t 
GR
GR
GS
[0.75 0 0 0.75 50.75 55.83333] CT
0.149 GC
/Helvetica 13.333 F
GS
[1 0 0 1 0 0] CT
-8 5.5 moveto 
1 -1 scale
(9) t 
GR
GR
GS
[0.75 0 0 0.75 50.75 27.75] CT
0.149 GC
/Helvetica 13.333 F
GS
[1 0 0 1 0 0] CT
-15 5.5 moveto 
1 -1 scale
(10) t 
GR
GR
GS
[0.75 0 0 0.75 217.50021 25.68749] CT
N
-70.707 -12.261 M
-70.707 -12.792 L
-69.176 -12.792 -69.176 -13.261 QT
-69.176 -21.511 L
-69.176 -21.979 -70.707 -21.979 QT
-70.707 -22.511 L
-66.223 -22.511 L
-66.223 -21.979 L
-67.77 -21.979 -67.77 -21.511 QT
-67.77 -16.636 L
-63.129 -21.089 L
-62.942 -21.292 -62.942 -21.511 QT
-62.942 -21.745 -63.145 -21.862 QT
-63.348 -21.979 -63.598 -21.979 QT
-63.598 -22.511 L
-60.348 -22.511 L
-60.348 -21.979 L
-61.567 -21.979 -62.504 -21.089 QT
-65.16 -18.542 L
-61.879 -13.667 L
-61.473 -13.089 -61.168 -12.94 QT
-60.864 -12.792 -60.145 -12.792 QT
-60.145 -12.261 L
-64.067 -12.261 L
-64.067 -12.792 L
-63.707 -12.792 -63.457 -12.862 QT
-63.207 -12.932 -63.207 -13.198 QT
-63.207 -13.386 -63.41 -13.667 QT
-66.098 -17.651 L
-67.77 -16.042 L
-67.77 -13.261 L
-67.77 -12.792 -66.223 -12.792 QT
-66.223 -12.261 L
-70.707 -12.261 L
cp
f
GR
GS
[0.75 0 0 0.75 217.50021 25.68749] CT
N
-56.019 -12.089 M
-56.925 -12.089 -57.691 -12.55 QT
-58.456 -13.011 -58.901 -13.776 QT
-59.347 -14.542 -59.347 -15.448 QT
-59.347 -16.136 -59.105 -16.776 QT
-58.862 -17.417 -58.401 -17.917 QT
-57.941 -18.417 -57.331 -18.698 QT
-56.722 -18.979 -56.019 -18.979 QT
-55.097 -18.979 -54.339 -18.495 QT
-53.581 -18.011 -53.144 -17.19 QT
-52.706 -16.37 -52.706 -15.448 QT
-52.706 -14.557 -53.151 -13.784 QT
-53.597 -13.011 -54.362 -12.55 QT
-55.128 -12.089 -56.019 -12.089 QT
cp
-56.019 -12.526 M
-54.816 -12.526 -54.417 -13.401 QT
-54.019 -14.276 -54.019 -15.62 QT
-54.019 -16.37 -54.097 -16.87 QT
-54.175 -17.37 -54.441 -17.776 QT
-54.612 -18.011 -54.87 -18.198 QT
-55.128 -18.386 -55.417 -18.487 QT
-55.706 -18.589 -56.019 -18.589 QT
-56.487 -18.589 -56.909 -18.378 QT
-57.331 -18.167 -57.612 -17.776 QT
-57.894 -17.339 -57.964 -16.831 QT
-58.034 -16.323 -58.034 -15.62 QT
-58.034 -14.776 -57.894 -14.104 QT
-57.753 -13.432 -57.308 -12.979 QT
-56.862 -12.526 -56.019 -12.526 QT
cp
f
GR
GS
[0.75 0 0 0.75 217.50021 25.68749] CT
N
-49.186 -12.261 M
-51.374 -17.776 L
-51.515 -18.042 -51.804 -18.12 QT
-52.093 -18.198 -52.561 -18.198 QT
-52.561 -18.729 L
-49.405 -18.729 L
-49.405 -18.198 L
-50.249 -18.198 -50.249 -17.839 QT
-50.249 -17.776 -50.233 -17.761 QT
-48.546 -13.526 L
-47.03 -17.339 L
-46.983 -17.464 -46.983 -17.589 QT
-46.983 -17.87 -47.202 -18.034 QT
-47.421 -18.198 -47.718 -18.198 QT
-47.718 -18.729 L
-45.218 -18.729 L
-45.218 -18.198 L
-45.686 -18.198 -46.038 -17.987 QT
-46.39 -17.776 -46.577 -17.354 QT
-48.593 -12.261 L
-48.655 -12.089 -48.843 -12.089 QT
-48.952 -12.089 L
-49.124 -12.089 -49.186 -12.261 QT
cp
f
GR
GS
[0.75 0 0 0.75 217.50021 25.68749] CT
N
-42.024 -20.198 M
-40.227 -22.511 L
-40.055 -22.729 -39.789 -22.729 QT
-39.555 -22.729 -39.391 -22.565 QT
-39.227 -22.401 -39.227 -22.167 QT
-39.227 -21.932 -39.43 -21.745 QT
-41.711 -19.886 L
-42.024 -20.198 L
cp
f
GR
GS
[0.75 0 0 0.75 217.50021 25.68749] CT
N
-44.508 -13.729 M
-44.508 -14.62 -43.805 -15.182 QT
-43.102 -15.745 -42.11 -15.979 QT
-41.118 -16.214 -40.243 -16.214 QT
-40.243 -16.823 L
-40.243 -17.261 -40.43 -17.667 QT
-40.618 -18.073 -40.977 -18.331 QT
-41.336 -18.589 -41.774 -18.589 QT
-42.758 -18.589 -43.289 -18.136 QT
-42.993 -18.136 -42.813 -17.925 QT
-42.633 -17.714 -42.633 -17.417 QT
-42.633 -17.12 -42.844 -16.909 QT
-43.055 -16.698 -43.336 -16.698 QT
-43.649 -16.698 -43.86 -16.909 QT
-44.071 -17.12 -44.071 -17.417 QT
-44.071 -18.214 -43.352 -18.597 QT
-42.633 -18.979 -41.774 -18.979 QT
-41.164 -18.979 -40.547 -18.722 QT
-39.93 -18.464 -39.539 -17.979 QT
-39.149 -17.495 -39.149 -16.854 QT
-39.149 -13.479 L
-39.149 -13.182 -39.024 -12.94 QT
-38.899 -12.698 -38.633 -12.698 QT
-38.383 -12.698 -38.266 -12.948 QT
-38.149 -13.198 -38.149 -13.479 QT
-38.149 -14.432 L
-37.711 -14.432 L
-37.711 -13.479 L
-37.711 -13.136 -37.883 -12.831 QT
-38.055 -12.526 -38.352 -12.347 QT
-38.649 -12.167 -38.993 -12.167 QT
-39.43 -12.167 -39.75 -12.511 QT
-40.071 -12.854 -40.102 -13.323 QT
-40.383 -12.761 -40.922 -12.425 QT
-41.461 -12.089 -42.086 -12.089 QT
-42.649 -12.089 -43.203 -12.261 QT
-43.758 -12.432 -44.133 -12.792 QT
-44.508 -13.151 -44.508 -13.729 QT
cp
-43.289 -13.729 M
-43.289 -13.198 -42.899 -12.847 QT
-42.508 -12.495 -41.977 -12.495 QT
-41.493 -12.495 -41.102 -12.729 QT
-40.711 -12.964 -40.477 -13.386 QT
-40.243 -13.807 -40.243 -14.261 QT
-40.243 -15.823 L
-40.914 -15.823 -41.633 -15.604 QT
-42.352 -15.386 -42.821 -14.909 QT
-43.289 -14.432 -43.289 -13.729 QT
cp
f
GR
GS
[0.75 0 0 0.75 217.50021 25.68749] CT
N
-34.034 -12.089 M
-34.94 -12.089 -35.683 -12.565 QT
-36.425 -13.042 -36.847 -13.823 QT
-37.269 -14.604 -37.269 -15.495 QT
-37.269 -16.386 -36.847 -17.198 QT
-36.425 -18.011 -35.683 -18.495 QT
-34.94 -18.979 -34.034 -18.979 QT
-33.159 -18.979 -32.433 -18.636 QT
-31.706 -18.292 -31.706 -17.511 QT
-31.706 -17.214 -31.917 -17.003 QT
-32.128 -16.792 -32.425 -16.792 QT
-32.722 -16.792 -32.933 -17.003 QT
-33.144 -17.214 -33.144 -17.511 QT
-33.144 -17.776 -32.98 -17.972 QT
-32.815 -18.167 -32.565 -18.214 QT
-33.081 -18.542 -34.019 -18.542 QT
-34.737 -18.542 -35.175 -18.065 QT
-35.612 -17.589 -35.792 -16.886 QT
-35.972 -16.182 -35.972 -15.495 QT
-35.972 -14.776 -35.753 -14.097 QT
-35.534 -13.417 -35.058 -12.972 QT
-34.581 -12.526 -33.847 -12.526 QT
-33.144 -12.526 -32.644 -12.964 QT
-32.144 -13.401 -31.956 -14.104 QT
-31.956 -14.198 -31.847 -14.198 QT
-31.659 -14.198 L
-31.612 -14.198 -31.581 -14.159 QT
-31.55 -14.12 -31.55 -14.057 QT
-31.55 -14.026 L
-31.769 -13.136 -32.44 -12.612 QT
-33.112 -12.089 -34.034 -12.089 QT
cp
f
GR
GS
[0.75 0 0 0.75 217.50021 25.68749] CT
N
-30.75 -12.214 M
-30.75 -14.667 L
-30.75 -14.776 -30.625 -14.776 QT
-30.438 -14.776 L
-30.344 -14.776 -30.313 -14.667 QT
-29.906 -12.495 -28.297 -12.495 QT
-27.594 -12.495 -27.109 -12.815 QT
-26.625 -13.136 -26.625 -13.807 QT
-26.625 -14.292 -27 -14.628 QT
-27.375 -14.964 -27.891 -15.089 QT
-28.891 -15.292 L
-29.391 -15.401 -29.805 -15.628 QT
-30.219 -15.854 -30.484 -16.229 QT
-30.75 -16.604 -30.75 -17.104 QT
-30.75 -17.776 -30.406 -18.19 QT
-30.063 -18.604 -29.5 -18.792 QT
-28.938 -18.979 -28.297 -18.979 QT
-27.531 -18.979 -26.953 -18.573 QT
-26.531 -18.948 L
-26.531 -18.979 -26.453 -18.979 QT
-26.344 -18.979 L
-26.297 -18.979 -26.258 -18.94 QT
-26.219 -18.901 -26.219 -18.854 QT
-26.219 -16.901 L
-26.219 -16.761 -26.344 -16.761 QT
-26.531 -16.761 L
-26.656 -16.761 -26.656 -16.901 QT
-26.656 -17.682 -27.094 -18.159 QT
-27.531 -18.636 -28.313 -18.636 QT
-28.984 -18.636 -29.477 -18.386 QT
-29.969 -18.136 -29.969 -17.526 QT
-29.969 -17.104 -29.617 -16.839 QT
-29.266 -16.573 -28.781 -16.464 QT
-27.766 -16.261 L
-27.266 -16.151 -26.82 -15.87 QT
-26.375 -15.589 -26.117 -15.167 QT
-25.859 -14.745 -25.859 -14.214 QT
-25.859 -13.667 -26.039 -13.268 QT
-26.219 -12.87 -26.555 -12.604 QT
-26.891 -12.339 -27.344 -12.214 QT
-27.797 -12.089 -28.297 -12.089 QT
-29.234 -12.089 -29.906 -12.729 QT
-30.453 -12.136 L
-30.453 -12.089 -30.531 -12.089 QT
-30.625 -12.089 L
-30.75 -12.089 -30.75 -12.214 QT
cp
f
GR
GS
[0.75 0 0 0.75 217.50021 25.68749] CT
N
-16.842 -12.089 M
-17.763 -12.089 -18.521 -12.573 QT
-19.279 -13.057 -19.717 -13.854 QT
-20.154 -14.651 -20.154 -15.542 QT
-20.154 -16.432 -19.756 -17.222 QT
-19.357 -18.011 -18.646 -18.495 QT
-17.935 -18.979 -17.06 -18.979 QT
-16.357 -18.979 -15.849 -18.753 QT
-15.342 -18.526 -15.013 -18.112 QT
-14.685 -17.698 -14.521 -17.143 QT
-14.357 -16.589 -14.357 -15.917 QT
-14.357 -15.729 -14.498 -15.729 QT
-18.842 -15.729 L
-18.842 -15.557 L
-18.842 -14.323 -18.342 -13.425 QT
-17.842 -12.526 -16.701 -12.526 QT
-16.248 -12.526 -15.857 -12.737 QT
-15.467 -12.948 -15.178 -13.307 QT
-14.888 -13.667 -14.779 -14.089 QT
-14.763 -14.136 -14.724 -14.182 QT
-14.685 -14.229 -14.638 -14.229 QT
-14.498 -14.229 L
-14.357 -14.229 -14.357 -14.026 QT
-14.56 -13.182 -15.263 -12.636 QT
-15.967 -12.089 -16.842 -12.089 QT
cp
-18.826 -16.104 M
-15.42 -16.104 L
-15.42 -16.667 -15.576 -17.245 QT
-15.732 -17.823 -16.099 -18.206 QT
-16.467 -18.589 -17.06 -18.589 QT
-17.904 -18.589 -18.365 -17.792 QT
-18.826 -16.995 -18.826 -16.104 QT
cp
f
GR
GS
[0.75 0 0 0.75 217.50021 25.68749] CT
N
-12.526 -14.057 M
-12.526 -18.198 L
-13.776 -18.198 L
-13.776 -18.589 L
-12.792 -18.589 -12.331 -19.503 QT
-11.87 -20.417 -11.87 -21.495 QT
-11.432 -21.495 L
-11.432 -18.729 L
-9.323 -18.729 L
-9.323 -18.198 L
-11.432 -18.198 L
-11.432 -14.089 L
-11.432 -13.464 -11.222 -12.995 QT
-11.011 -12.526 -10.479 -12.526 QT
-9.964 -12.526 -9.737 -13.026 QT
-9.511 -13.526 -9.511 -14.089 QT
-9.511 -14.979 L
-9.073 -14.979 L
-9.073 -14.057 L
-9.073 -13.589 -9.245 -13.136 QT
-9.417 -12.682 -9.753 -12.386 QT
-10.089 -12.089 -10.573 -12.089 QT
-11.479 -12.089 -12.003 -12.628 QT
-12.526 -13.167 -12.526 -14.057 QT
cp
f
GR
GS
[0.75 0 0 0.75 217.50021 25.68749] CT
N
-2.871 -13.729 M
-2.871 -14.62 -2.168 -15.182 QT
-1.465 -15.745 -0.473 -15.979 QT
0.52 -16.214 1.395 -16.214 QT
1.395 -16.823 L
1.395 -17.261 1.207 -17.667 QT
1.02 -18.073 0.66 -18.331 QT
0.301 -18.589 -0.137 -18.589 QT
-1.121 -18.589 -1.652 -18.136 QT
-1.355 -18.136 -1.176 -17.925 QT
-0.996 -17.714 -0.996 -17.417 QT
-0.996 -17.12 -1.207 -16.909 QT
-1.418 -16.698 -1.699 -16.698 QT
-2.012 -16.698 -2.223 -16.909 QT
-2.434 -17.12 -2.434 -17.417 QT
-2.434 -18.214 -1.715 -18.597 QT
-0.996 -18.979 -0.137 -18.979 QT
0.473 -18.979 1.09 -18.722 QT
1.707 -18.464 2.098 -17.979 QT
2.488 -17.495 2.488 -16.854 QT
2.488 -13.479 L
2.488 -13.182 2.613 -12.94 QT
2.738 -12.698 3.004 -12.698 QT
3.254 -12.698 3.371 -12.948 QT
3.488 -13.198 3.488 -13.479 QT
3.488 -14.432 L
3.926 -14.432 L
3.926 -13.479 L
3.926 -13.136 3.754 -12.831 QT
3.582 -12.526 3.285 -12.347 QT
2.988 -12.167 2.645 -12.167 QT
2.207 -12.167 1.887 -12.511 QT
1.566 -12.854 1.535 -13.323 QT
1.254 -12.761 0.715 -12.425 QT
0.176 -12.089 -0.449 -12.089 QT
-1.012 -12.089 -1.566 -12.261 QT
-2.121 -12.432 -2.496 -12.792 QT
-2.871 -13.151 -2.871 -13.729 QT
cp
-1.652 -13.729 M
-1.652 -13.198 -1.262 -12.847 QT
-0.871 -12.495 -0.34 -12.495 QT
0.145 -12.495 0.535 -12.729 QT
0.926 -12.964 1.16 -13.386 QT
1.395 -13.807 1.395 -14.261 QT
1.395 -15.823 L
0.723 -15.823 0.004 -15.604 QT
-0.715 -15.386 -1.184 -14.909 QT
-1.652 -14.432 -1.652 -13.729 QT
cp
f
GR
GS
[0.75 0 0 0.75 217.50021 25.68749] CT
N
4.337 -12.261 M
4.337 -12.792 L
4.837 -12.792 5.173 -12.87 QT
5.509 -12.948 5.509 -13.261 QT
5.509 -21.136 L
5.509 -21.542 5.384 -21.722 QT
5.259 -21.901 5.033 -21.94 QT
4.806 -21.979 4.337 -21.979 QT
4.337 -22.511 L
6.556 -22.667 L
6.556 -13.261 L
6.556 -12.948 6.884 -12.87 QT
7.212 -12.792 7.728 -12.792 QT
7.728 -12.261 L
4.337 -12.261 L
cp
f
GR
GS
[0.75 0 0 0.75 217.50021 25.68749] CT
N
9.208 -13.089 M
9.208 -13.432 9.458 -13.667 QT
9.708 -13.901 10.036 -13.901 QT
10.239 -13.901 10.435 -13.792 QT
10.63 -13.682 10.739 -13.487 QT
10.849 -13.292 10.849 -13.089 QT
10.849 -12.761 10.607 -12.511 QT
10.364 -12.261 10.036 -12.261 QT
9.708 -12.261 9.458 -12.511 QT
9.208 -12.761 9.208 -13.089 QT
cp
f
GR
GS
[0.75 0 0 0.75 217.50021 25.68749] CT
N
13.282 -13.089 M
13.282 -13.432 13.532 -13.667 QT
13.782 -13.901 14.11 -13.901 QT
14.314 -13.901 14.509 -13.792 QT
14.704 -13.682 14.814 -13.487 QT
14.923 -13.292 14.923 -13.089 QT
14.923 -12.761 14.681 -12.511 QT
14.439 -12.261 14.11 -12.261 QT
13.782 -12.261 13.532 -12.511 QT
13.282 -12.761 13.282 -13.089 QT
cp
13.282 -17.901 M
13.282 -18.12 13.392 -18.307 QT
13.501 -18.495 13.696 -18.612 QT
13.892 -18.729 14.11 -18.729 QT
14.314 -18.729 14.509 -18.612 QT
14.704 -18.495 14.814 -18.307 QT
14.923 -18.12 14.923 -17.901 QT
14.923 -17.557 14.689 -17.315 QT
14.454 -17.073 14.11 -17.073 QT
13.767 -17.073 13.524 -17.315 QT
13.282 -17.557 13.282 -17.901 QT
cp
f
GR
GS
[0.75 0 0 0.75 217.50021 25.68749] CT
N
19.007 -22.433 M
19.007 -22.526 19.023 -22.573 QT
20.148 -27.042 L
20.257 -27.464 20.257 -27.776 QT
20.257 -28.417 19.819 -28.417 QT
19.351 -28.417 19.124 -27.862 QT
18.898 -27.308 18.679 -26.448 QT
18.679 -26.401 18.632 -26.378 QT
18.585 -26.355 18.554 -26.355 QT
18.382 -26.355 L
18.319 -26.355 18.288 -26.409 QT
18.257 -26.464 18.257 -26.511 QT
18.413 -27.151 18.562 -27.605 QT
18.71 -28.058 19.03 -28.433 QT
19.351 -28.808 19.835 -28.808 QT
20.398 -28.808 20.827 -28.456 QT
21.257 -28.105 21.257 -27.558 QT
21.71 -28.136 22.304 -28.472 QT
22.898 -28.808 23.585 -28.808 QT
24.288 -28.808 24.804 -28.448 QT
25.319 -28.089 25.319 -27.417 QT
25.788 -28.073 26.405 -28.441 QT
27.023 -28.808 27.757 -28.808 QT
28.523 -28.808 28.999 -28.386 QT
29.476 -27.964 29.476 -27.198 QT
29.476 -26.573 29.202 -25.706 QT
28.929 -24.839 28.523 -23.761 QT
28.304 -23.245 28.304 -22.855 QT
28.304 -22.417 28.648 -22.417 QT
29.241 -22.417 29.632 -23.042 QT
30.023 -23.667 30.179 -24.386 QT
30.226 -24.48 30.304 -24.48 QT
30.476 -24.48 L
30.538 -24.48 30.577 -24.441 QT
30.616 -24.401 30.616 -24.339 QT
30.616 -24.323 30.601 -24.292 QT
30.398 -23.448 29.89 -22.73 QT
29.382 -22.011 28.616 -22.011 QT
28.085 -22.011 27.718 -22.378 QT
27.351 -22.745 27.351 -23.261 QT
27.351 -23.526 27.46 -23.839 QT
27.898 -24.98 28.179 -25.862 QT
28.46 -26.745 28.46 -27.417 QT
28.46 -27.839 28.288 -28.128 QT
28.116 -28.417 27.726 -28.417 QT
26.898 -28.417 26.304 -27.917 QT
25.71 -27.417 25.257 -26.589 QT
25.241 -26.448 25.226 -26.37 QT
24.257 -22.511 L
24.194 -22.308 24.015 -22.159 QT
23.835 -22.011 23.616 -22.011 QT
23.444 -22.011 23.312 -22.128 QT
23.179 -22.245 23.179 -22.433 QT
23.179 -22.526 23.194 -22.573 QT
24.148 -26.401 L
24.304 -27.011 24.304 -27.417 QT
24.304 -27.839 24.132 -28.128 QT
23.96 -28.417 23.554 -28.417 QT
23.007 -28.417 22.538 -28.175 QT
22.069 -27.933 21.726 -27.534 QT
21.382 -27.136 21.101 -26.589 QT
20.085 -22.511 L
20.038 -22.308 19.859 -22.159 QT
19.679 -22.011 19.46 -22.011 QT
19.273 -22.011 19.14 -22.128 QT
19.007 -22.245 19.007 -22.433 QT
cp
f
GR
GS
[0.75 0 0 0.75 217.50021 25.68749] CT
N
33.338 -22.011 M
32.385 -22.011 31.845 -22.73 QT
31.306 -23.448 31.306 -24.417 QT
31.306 -25.37 31.799 -26.409 QT
32.291 -27.448 33.142 -28.128 QT
33.994 -28.808 34.963 -28.808 QT
35.416 -28.808 35.767 -28.566 QT
36.119 -28.323 36.306 -27.917 QT
36.478 -28.511 36.963 -28.511 QT
37.166 -28.511 37.291 -28.394 QT
37.416 -28.276 37.416 -28.089 QT
37.416 -28.042 37.416 -28.026 QT
37.416 -28.011 37.4 -27.98 QT
36.353 -23.792 L
36.244 -23.339 36.244 -23.058 QT
36.244 -22.417 36.681 -22.417 QT
37.15 -22.417 37.4 -23.011 QT
37.65 -23.605 37.806 -24.386 QT
37.838 -24.48 37.931 -24.48 QT
38.119 -24.48 L
38.166 -24.48 38.205 -24.425 QT
38.244 -24.37 38.244 -24.323 QT
37.978 -23.276 37.666 -22.644 QT
37.353 -22.011 36.65 -22.011 QT
36.15 -22.011 35.76 -22.308 QT
35.369 -22.605 35.275 -23.105 QT
34.306 -22.011 33.338 -22.011 QT
cp
33.353 -22.417 M
33.9 -22.417 34.408 -22.823 QT
34.916 -23.23 35.275 -23.776 QT
35.291 -23.792 35.291 -23.823 QT
36.103 -27.073 L
36.119 -27.12 L
36.025 -27.651 35.728 -28.034 QT
35.431 -28.417 34.931 -28.417 QT
34.416 -28.417 33.978 -28.003 QT
33.541 -27.589 33.244 -27.026 QT
32.963 -26.433 32.689 -25.386 QT
32.416 -24.339 32.416 -23.761 QT
32.416 -23.245 32.642 -22.831 QT
32.869 -22.417 33.353 -22.417 QT
cp
f
GR
GS
[0.75 0 0 0.75 217.50021 25.68749] CT
N
39.653 -22.62 M
39.918 -22.417 40.403 -22.417 QT
40.872 -22.417 41.231 -22.862 QT
41.59 -23.308 41.715 -23.839 QT
42.403 -26.511 L
42.559 -27.23 42.559 -27.495 QT
42.559 -27.87 42.348 -28.144 QT
42.137 -28.417 41.762 -28.417 QT
41.293 -28.417 40.879 -28.12 QT
40.465 -27.823 40.176 -27.37 QT
39.887 -26.917 39.778 -26.448 QT
39.747 -26.355 39.653 -26.355 QT
39.465 -26.355 L
39.356 -26.355 39.356 -26.495 QT
39.356 -26.526 L
39.497 -27.089 39.848 -27.62 QT
40.2 -28.151 40.707 -28.48 QT
41.215 -28.808 41.793 -28.808 QT
42.356 -28.808 42.793 -28.519 QT
43.231 -28.23 43.418 -27.714 QT
43.668 -28.183 44.067 -28.495 QT
44.465 -28.808 44.95 -28.808 QT
45.278 -28.808 45.614 -28.698 QT
45.95 -28.589 46.161 -28.355 QT
46.372 -28.12 46.372 -27.761 QT
46.372 -27.386 46.122 -27.112 QT
45.872 -26.839 45.497 -26.839 QT
45.262 -26.839 45.098 -26.987 QT
44.934 -27.136 44.934 -27.37 QT
44.934 -27.698 45.153 -27.933 QT
45.372 -28.167 45.668 -28.214 QT
45.403 -28.417 44.918 -28.417 QT
44.434 -28.417 44.082 -27.972 QT
43.731 -27.526 43.575 -26.98 QT
42.918 -24.323 L
42.762 -23.73 42.762 -23.339 QT
42.762 -22.964 42.973 -22.691 QT
43.184 -22.417 43.543 -22.417 QT
44.247 -22.417 44.801 -23.034 QT
45.356 -23.651 45.528 -24.386 QT
45.559 -24.48 45.653 -24.48 QT
45.84 -24.48 L
45.887 -24.48 45.926 -24.441 QT
45.965 -24.401 45.965 -24.339 QT
45.965 -24.323 45.95 -24.292 QT
45.747 -23.401 45.059 -22.706 QT
44.372 -22.011 43.528 -22.011 QT
42.965 -22.011 42.528 -22.308 QT
42.09 -22.605 41.903 -23.12 QT
41.668 -22.667 41.254 -22.339 QT
40.84 -22.011 40.372 -22.011 QT
40.043 -22.011 39.707 -22.128 QT
39.372 -22.245 39.161 -22.48 QT
38.95 -22.714 38.95 -23.073 QT
38.95 -23.417 39.192 -23.706 QT
39.434 -23.995 39.793 -23.995 QT
40.043 -23.995 40.215 -23.847 QT
40.387 -23.698 40.387 -23.464 QT
40.387 -23.136 40.176 -22.901 QT
39.965 -22.667 39.653 -22.62 QT
cp
f
GR
GS
[0.75 0 0 0.75 217.50021 25.68749] CT
N
51.52 -18.464 M
50.676 -19.12 50.074 -19.972 QT
49.473 -20.823 49.09 -21.792 QT
48.707 -22.761 48.512 -23.816 QT
48.316 -24.87 48.316 -25.933 QT
48.316 -27.011 48.512 -28.066 QT
48.707 -29.12 49.098 -30.097 QT
49.488 -31.073 50.098 -31.917 QT
50.707 -32.761 51.52 -33.401 QT
51.52 -33.433 51.582 -33.433 QT
51.723 -33.433 L
51.77 -33.433 51.809 -33.394 QT
51.848 -33.355 51.848 -33.308 QT
51.848 -33.23 51.816 -33.198 QT
51.082 -32.495 50.598 -31.675 QT
50.113 -30.855 49.816 -29.925 QT
49.52 -28.995 49.387 -28.003 QT
49.254 -27.011 49.254 -25.933 QT
49.254 -21.167 51.801 -18.683 QT
51.848 -18.651 51.848 -18.558 QT
51.848 -18.526 51.809 -18.48 QT
51.77 -18.433 51.723 -18.433 QT
51.582 -18.433 L
51.52 -18.433 51.52 -18.464 QT
cp
f
GR
GS
[0.75 0 0 0.75 217.50021 25.68749] CT
N
53.864 -23.105 M
54.27 -22.417 55.489 -22.417 QT
56.02 -22.417 56.497 -22.597 QT
56.973 -22.776 57.286 -23.128 QT
57.598 -23.48 57.598 -23.995 QT
57.598 -24.386 57.317 -24.636 QT
57.036 -24.886 56.63 -24.98 QT
55.817 -25.136 L
55.27 -25.276 54.911 -25.659 QT
54.551 -26.042 54.551 -26.573 QT
54.551 -27.245 54.911 -27.761 QT
55.27 -28.276 55.864 -28.542 QT
56.458 -28.808 57.098 -28.808 QT
57.77 -28.808 58.309 -28.487 QT
58.848 -28.167 58.848 -27.526 QT
58.848 -27.183 58.653 -26.917 QT
58.458 -26.651 58.114 -26.651 QT
57.926 -26.651 57.778 -26.776 QT
57.63 -26.901 57.63 -27.105 QT
57.63 -27.276 57.731 -27.441 QT
57.833 -27.605 57.997 -27.706 QT
58.161 -27.808 58.333 -27.808 QT
58.208 -28.136 57.848 -28.276 QT
57.489 -28.417 57.067 -28.417 QT
56.676 -28.417 56.301 -28.269 QT
55.926 -28.12 55.692 -27.823 QT
55.458 -27.526 55.458 -27.12 QT
55.458 -26.855 55.653 -26.644 QT
55.848 -26.433 56.114 -26.355 QT
56.989 -26.167 L
57.411 -26.089 57.755 -25.862 QT
58.098 -25.636 58.301 -25.3 QT
58.505 -24.964 58.505 -24.526 QT
58.505 -23.964 58.192 -23.425 QT
57.88 -22.886 57.426 -22.558 QT
56.63 -22.011 55.473 -22.011 QT
54.676 -22.011 54.012 -22.378 QT
53.348 -22.745 53.348 -23.48 QT
53.348 -23.886 53.583 -24.191 QT
53.817 -24.495 54.223 -24.495 QT
54.473 -24.495 54.637 -24.347 QT
54.801 -24.198 54.801 -23.948 QT
54.801 -23.605 54.544 -23.355 QT
54.286 -23.105 53.942 -23.105 QT
53.864 -23.105 L
cp
f
GR
GS
[0.75 0 0 0.75 217.50021 25.68749] CT
N
60.223 -20.701 M
60.223 -20.889 60.301 -21.092 QT
61.114 -23.248 L
61.239 -23.608 61.239 -23.842 QT
61.239 -24.139 61.02 -24.139 QT
60.63 -24.139 60.372 -23.733 QT
60.114 -23.326 59.989 -22.826 QT
59.973 -22.764 59.911 -22.764 QT
59.801 -22.764 L
59.708 -22.764 59.708 -22.858 QT
59.708 -22.889 L
59.88 -23.483 60.208 -23.944 QT
60.536 -24.405 61.051 -24.405 QT
61.395 -24.405 61.645 -24.17 QT
61.895 -23.936 61.895 -23.576 QT
61.895 -23.389 61.817 -23.186 QT
61.005 -21.03 L
60.864 -20.701 60.864 -20.436 QT
60.864 -20.139 61.098 -20.139 QT
61.489 -20.139 61.747 -20.553 QT
62.005 -20.967 62.114 -21.451 QT
62.13 -21.514 62.192 -21.514 QT
62.317 -21.514 L
62.348 -21.514 62.372 -21.483 QT
62.395 -21.451 62.395 -21.42 QT
62.395 -21.42 62.395 -21.389 QT
62.255 -20.826 61.919 -20.35 QT
61.583 -19.873 61.067 -19.873 QT
60.723 -19.873 60.473 -20.116 QT
60.223 -20.358 60.223 -20.701 QT
cp
61.348 -26.045 M
61.348 -26.248 61.528 -26.42 QT
61.708 -26.592 61.911 -26.592 QT
62.083 -26.592 62.192 -26.491 QT
62.301 -26.389 62.301 -26.217 QT
62.301 -25.998 62.122 -25.826 QT
61.942 -25.655 61.739 -25.655 QT
61.567 -25.655 61.458 -25.772 QT
61.348 -25.889 61.348 -26.045 QT
cp
f
GR
GS
[0.75 0 0 0.75 217.50021 25.68749] CT
N
64.681 -18.433 M
64.556 -18.433 64.556 -18.558 QT
64.556 -18.636 64.587 -18.667 QT
67.15 -21.167 67.15 -25.933 QT
67.15 -30.698 64.619 -33.183 QT
64.556 -33.214 64.556 -33.308 QT
64.556 -33.355 64.595 -33.394 QT
64.634 -33.433 64.681 -33.433 QT
64.822 -33.433 L
64.869 -33.433 64.9 -33.401 QT
65.978 -32.558 66.697 -31.339 QT
67.415 -30.12 67.744 -28.745 QT
68.072 -27.37 68.072 -25.933 QT
68.072 -24.87 67.892 -23.839 QT
67.712 -22.808 67.322 -21.808 QT
66.931 -20.808 66.33 -19.964 QT
65.728 -19.12 64.9 -18.464 QT
64.869 -18.433 64.822 -18.433 QT
64.681 -18.433 L
cp
f
GR
GS
[0.75 0 0 0.75 217.50021 25.68749] CT
N
17.851 -16.221 51.565 0.587 re
f
GR
GS
[0.75 0 0 0.75 217.50021 25.68749] CT
N
36.265 -2.45 M
36.265 -2.544 36.28 -2.591 QT
37.405 -7.059 L
37.515 -7.481 37.515 -7.794 QT
37.515 -8.434 37.077 -8.434 QT
36.609 -8.434 36.382 -7.88 QT
36.155 -7.325 35.937 -6.466 QT
35.937 -6.419 35.89 -6.395 QT
35.843 -6.372 35.812 -6.372 QT
35.64 -6.372 L
35.577 -6.372 35.546 -6.427 QT
35.515 -6.481 35.515 -6.528 QT
35.671 -7.169 35.819 -7.622 QT
35.968 -8.075 36.288 -8.45 QT
36.609 -8.825 37.093 -8.825 QT
37.609 -8.825 37.999 -8.528 QT
38.39 -8.231 38.484 -7.731 QT
38.859 -8.231 39.351 -8.528 QT
39.843 -8.825 40.421 -8.825 QT
40.89 -8.825 41.257 -8.552 QT
41.624 -8.278 41.624 -7.794 QT
41.624 -7.419 41.382 -7.137 QT
41.14 -6.856 40.749 -6.856 QT
40.499 -6.856 40.335 -7.005 QT
40.171 -7.153 40.171 -7.387 QT
40.171 -7.716 40.413 -7.981 QT
40.655 -8.247 40.968 -8.247 QT
40.734 -8.434 40.39 -8.434 QT
39.749 -8.434 39.273 -7.981 QT
38.796 -7.528 38.405 -6.825 QT
37.343 -2.528 L
37.296 -2.325 37.116 -2.177 QT
36.937 -2.028 36.718 -2.028 QT
36.53 -2.028 36.398 -2.145 QT
36.265 -2.263 36.265 -2.45 QT
cp
f
GR
GS
[0.75 0 0 0.75 217.50021 25.68749] CT
N
42.507 -0.719 M
42.507 -0.906 42.585 -1.109 QT
43.397 -3.266 L
43.522 -3.625 43.522 -3.859 QT
43.522 -4.156 43.304 -4.156 QT
42.913 -4.156 42.655 -3.75 QT
42.397 -3.344 42.272 -2.844 QT
42.257 -2.781 42.194 -2.781 QT
42.085 -2.781 L
41.991 -2.781 41.991 -2.875 QT
41.991 -2.906 L
42.163 -3.5 42.491 -3.961 QT
42.819 -4.422 43.335 -4.422 QT
43.679 -4.422 43.929 -4.188 QT
44.179 -3.953 44.179 -3.594 QT
44.179 -3.406 44.101 -3.203 QT
43.288 -1.047 L
43.147 -0.719 43.147 -0.453 QT
43.147 -0.156 43.382 -0.156 QT
43.772 -0.156 44.03 -0.57 QT
44.288 -0.984 44.397 -1.469 QT
44.413 -1.531 44.476 -1.531 QT
44.601 -1.531 L
44.632 -1.531 44.655 -1.5 QT
44.679 -1.469 44.679 -1.438 QT
44.679 -1.438 44.679 -1.406 QT
44.538 -0.844 44.202 -0.367 QT
43.866 0.109 43.351 0.109 QT
43.007 0.109 42.757 -0.133 QT
42.507 -0.375 42.507 -0.719 QT
cp
43.632 -6.063 M
43.632 -6.266 43.811 -6.438 QT
43.991 -6.609 44.194 -6.609 QT
44.366 -6.609 44.476 -6.508 QT
44.585 -6.406 44.585 -6.234 QT
44.585 -6.016 44.405 -5.844 QT
44.226 -5.672 44.022 -5.672 QT
43.851 -5.672 43.741 -5.789 QT
43.632 -5.906 43.632 -6.063 QT
cp
f
GR
GS
[0.75 0 0 0.75 217.50021 25.68749] CT
N
46.028 -0.172 M
46.028 -0.234 46.044 -0.266 QT
46.794 -3.25 L
46.872 -3.516 46.872 -3.734 QT
46.872 -4.156 46.575 -4.156 QT
46.263 -4.156 46.106 -3.781 QT
45.95 -3.406 45.809 -2.844 QT
45.809 -2.813 45.786 -2.797 QT
45.763 -2.781 45.731 -2.781 QT
45.622 -2.781 L
45.575 -2.781 45.552 -2.82 QT
45.528 -2.859 45.528 -2.875 QT
45.638 -3.313 45.739 -3.617 QT
45.841 -3.922 46.052 -4.172 QT
46.263 -4.422 46.575 -4.422 QT
46.95 -4.422 47.239 -4.188 QT
47.528 -3.953 47.528 -3.578 QT
47.825 -3.969 48.231 -4.195 QT
48.638 -4.422 49.075 -4.422 QT
49.434 -4.422 49.692 -4.297 QT
49.95 -4.172 50.098 -3.93 QT
50.247 -3.688 50.247 -3.344 QT
50.247 -2.938 50.059 -2.352 QT
49.872 -1.766 49.606 -1.047 QT
49.466 -0.719 49.466 -0.453 QT
49.466 -0.156 49.684 -0.156 QT
50.075 -0.156 50.341 -0.57 QT
50.606 -0.984 50.716 -1.469 QT
50.731 -1.531 50.794 -1.531 QT
50.919 -1.531 L
50.95 -1.531 50.981 -1.508 QT
51.013 -1.484 51.013 -1.438 QT
51.013 -1.438 50.997 -1.406 QT
50.856 -0.844 50.52 -0.367 QT
50.184 0.109 49.669 0.109 QT
49.325 0.109 49.075 -0.133 QT
48.825 -0.375 48.825 -0.719 QT
48.825 -0.906 48.903 -1.109 QT
49.028 -1.438 49.192 -1.891 QT
49.356 -2.344 49.458 -2.758 QT
49.559 -3.172 49.559 -3.484 QT
49.559 -3.766 49.45 -3.961 QT
49.341 -4.156 49.059 -4.156 QT
48.7 -4.156 48.388 -4 QT
48.075 -3.844 47.848 -3.578 QT
47.622 -3.313 47.434 -2.938 QT
46.747 -0.219 L
46.716 -0.078 46.598 0.016 QT
46.481 0.109 46.325 0.109 QT
46.216 0.109 46.122 0.031 QT
46.028 -0.047 46.028 -0.172 QT
cp
f
GR
GS
[0.75 0 0 0.75 0 0] CT
0 0.447 0.741 RC
[10 6] 0 setdash
2 LJ
0.667 LW
N
90.36 363.674 M
107.72 363.726 L
125.08 363.971 L
142.44 364.164 L
159.8 364.207 L
177.16 364.203 L
194.52 364.239 L
211.88 364.261 L
229.24 364.302 L
246.6 364.34 L
263.96 364.369 L
281.32 364.396 L
298.68 364.424 L
316.04 364.45 L
333.4 364.476 L
350.76 364.458 L
368.12 364.443 L
385.48 364.398 L
402.84 364.39 L
420.2 364.356 L
437.56 364.317 L
454.92 364.29 L
472.28 364.263 L
489.64 364.233 L
507 364.204 L
S
GR
GS
[0.75 0 0 0.75 67.77 272.75535] CT
0 0.447 0.741 RC
10.0 ML
0.667 LW
N
-3 -3 M
-3 3 L
3 3 L
3 -3 L
cp
S
GR
GS
[0.75 0 0 0.75 80.79 272.7943] CT
0 0.447 0.741 RC
10.0 ML
0.667 LW
N
-3 -3 M
-3 3 L
3 3 L
3 -3 L
cp
S
GR
GS
[0.75 0 0 0.75 93.81 272.97814] CT
0 0.447 0.741 RC
10.0 ML
0.667 LW
N
-3 -3 M
-3 3 L
3 3 L
3 -3 L
cp
S
GR
GS
[0.75 0 0 0.75 106.83 273.12268] CT
0 0.447 0.741 RC
10.0 ML
0.667 LW
N
-3 -3 M
-3 3 L
3 3 L
3 -3 L
cp
S
GR
GS
[0.75 0 0 0.75 119.85 273.15525] CT
0 0.447 0.741 RC
10.0 ML
0.667 LW
N
-3 -3 M
-3 3 L
3 3 L
3 -3 L
cp
S
GR
GS
[0.75 0 0 0.75 132.87 273.15202] CT
0 0.447 0.741 RC
10.0 ML
0.667 LW
N
-3 -3 M
-3 3 L
3 3 L
3 -3 L
cp
S
GR
GS
[0.75 0 0 0.75 145.89 273.17944] CT
0 0.447 0.741 RC
10.0 ML
0.667 LW
N
-3 -3 M
-3 3 L
3 3 L
3 -3 L
cp
S
GR
GS
[0.75 0 0 0.75 158.91 273.19585] CT
0 0.447 0.741 RC
10.0 ML
0.667 LW
N
-3 -3 M
-3 3 L
3 3 L
3 -3 L
cp
S
GR
GS
[0.75 0 0 0.75 171.93 273.22625] CT
0 0.447 0.741 RC
10.0 ML
0.667 LW
N
-3 -3 M
-3 3 L
3 3 L
3 -3 L
cp
S
GR
GS
[0.75 0 0 0.75 184.95 273.25491] CT
0 0.447 0.741 RC
10.0 ML
0.667 LW
N
-3 -3 M
-3 3 L
3 3 L
3 -3 L
cp
S
GR
GS
[0.75 0 0 0.75 197.96999 273.27688] CT
0 0.447 0.741 RC
10.0 ML
0.667 LW
N
-3 -3 M
-3 3 L
3 3 L
3 -3 L
cp
S
GR
GS
[0.75 0 0 0.75 210.99001 273.29729] CT
0 0.447 0.741 RC
10.0 ML
0.667 LW
N
-3 -3 M
-3 3 L
3 3 L
3 -3 L
cp
S
GR
GS
[0.75 0 0 0.75 224.00999 273.31803] CT
0 0.447 0.741 RC
10.0 ML
0.667 LW
N
-3 -3 M
-3 3 L
3 3 L
3 -3 L
cp
S
GR
GS
[0.75 0 0 0.75 237.03001 273.33778] CT
0 0.447 0.741 RC
10.0 ML
0.667 LW
N
-3 -3 M
-3 3 L
3 3 L
3 -3 L
cp
S
GR
GS
[0.75 0 0 0.75 250.05 273.35667] CT
0 0.447 0.741 RC
10.0 ML
0.667 LW
N
-3 -3 M
-3 3 L
3 3 L
3 -3 L
cp
S
GR
GS
[0.75 0 0 0.75 263.07001 273.3438] CT
0 0.447 0.741 RC
10.0 ML
0.667 LW
N
-3 -3 M
-3 3 L
3 3 L
3 -3 L
cp
S
GR
GS
[0.75 0 0 0.75 276.09 273.33213] CT
0 0.447 0.741 RC
10.0 ML
0.667 LW
N
-3 -3 M
-3 3 L
3 3 L
3 -3 L
cp
S
GR
GS
[0.75 0 0 0.75 289.11001 273.29881] CT
0 0.447 0.741 RC
10.0 ML
0.667 LW
N
-3 -3 M
-3 3 L
3 3 L
3 -3 L
cp
S
GR
GS
[0.75 0 0 0.75 302.13 273.29251] CT
0 0.447 0.741 RC
10.0 ML
0.667 LW
N
-3 -3 M
-3 3 L
3 3 L
3 -3 L
cp
S
GR
GS
[0.75 0 0 0.75 315.15001 273.26681] CT
0 0.447 0.741 RC
10.0 ML
0.667 LW
N
-3 -3 M
-3 3 L
3 3 L
3 -3 L
cp
S
GR
GS
[0.75 0 0 0.75 328.17 273.23795] CT
0 0.447 0.741 RC
10.0 ML
0.667 LW
N
-3 -3 M
-3 3 L
3 3 L
3 -3 L
cp
S
GR
GS
[0.75 0 0 0.75 341.19001 273.21778] CT
0 0.447 0.741 RC
10.0 ML
0.667 LW
N
-3 -3 M
-3 3 L
3 3 L
3 -3 L
cp
S
GR
GS
[0.75 0 0 0.75 354.21 273.19718] CT
0 0.447 0.741 RC
10.0 ML
0.667 LW
N
-3 -3 M
-3 3 L
3 3 L
3 -3 L
cp
S
GR
GS
[0.75 0 0 0.75 367.23001 273.17445] CT
0 0.447 0.741 RC
10.0 ML
0.667 LW
N
-3 -3 M
-3 3 L
3 3 L
3 -3 L
cp
S
GR
GS
[0.75 0 0 0.75 380.25 273.15296] CT
0 0.447 0.741 RC
10.0 ML
0.667 LW
N
-3 -3 M
-3 3 L
3 3 L
3 -3 L
cp
S
GR
GS
[0.75 0 0 0.75 0 0] CT
0.851 0.325 0.098 RC
[10 6] 0 setdash
2 LJ
0.667 LW
N
90.36 363.674 M
107.72 363.726 L
125.08 361.684 L
142.44 359.12 L
159.8 356.763 L
177.16 354.339 L
194.52 351.79 L
211.88 349.179 L
229.24 346.528 L
246.6 343.846 L
263.96 341.089 L
281.32 338.289 L
298.68 335.375 L
316.04 332.477 L
333.4 329.391 L
350.76 326.345 L
368.12 323.104 L
385.48 319.866 L
402.84 316.437 L
420.2 312.997 L
437.56 309.527 L
454.92 305.795 L
472.28 302.012 L
489.64 298.267 L
507 294.348 L
S
GR
GS
[0.75 0 0 0.75 67.77 272.75535] CT
0.851 0.325 0.098 RC
10.0 ML
0.667 LW
N
-3 -3 M
-3 3 L
3 3 L
3 -3 L
cp
S
GR
GS
[0.75 0 0 0.75 80.79 272.7943] CT
0.851 0.325 0.098 RC
10.0 ML
0.667 LW
N
-3 -3 M
-3 3 L
3 3 L
3 -3 L
cp
S
GR
GS
[0.75 0 0 0.75 93.81 271.2627] CT
0.851 0.325 0.098 RC
10.0 ML
0.667 LW
N
-3 -3 M
-3 3 L
3 3 L
3 -3 L
cp
S
GR
GS
[0.75 0 0 0.75 106.83 269.33988] CT
0.851 0.325 0.098 RC
10.0 ML
0.667 LW
N
-3 -3 M
-3 3 L
3 3 L
3 -3 L
cp
S
GR
GS
[0.75 0 0 0.75 119.85 267.5723] CT
0.851 0.325 0.098 RC
10.0 ML
0.667 LW
N
-3 -3 M
-3 3 L
3 3 L
3 -3 L
cp
S
GR
GS
[0.75 0 0 0.75 132.87 265.75388] CT
0.851 0.325 0.098 RC
10.0 ML
0.667 LW
N
-3 -3 M
-3 3 L
3 3 L
3 -3 L
cp
S
GR
GS
[0.75 0 0 0.75 145.89 263.8426] CT
0.851 0.325 0.098 RC
10.0 ML
0.667 LW
N
-3 -3 M
-3 3 L
3 3 L
3 -3 L
cp
S
GR
GS
[0.75 0 0 0.75 158.91 261.88419] CT
0.851 0.325 0.098 RC
10.0 ML
0.667 LW
N
-3 -3 M
-3 3 L
3 3 L
3 -3 L
cp
S
GR
GS
[0.75 0 0 0.75 171.93 259.89583] CT
0.851 0.325 0.098 RC
10.0 ML
0.667 LW
N
-3 -3 M
-3 3 L
3 3 L
3 -3 L
cp
S
GR
GS
[0.75 0 0 0.75 184.95 257.88483] CT
0.851 0.325 0.098 RC
10.0 ML
0.667 LW
N
-3 -3 M
-3 3 L
3 3 L
3 -3 L
cp
S
GR
GS
[0.75 0 0 0.75 197.96999 255.81695] CT
0.851 0.325 0.098 RC
10.0 ML
0.667 LW
N
-3 -3 M
-3 3 L
3 3 L
3 -3 L
cp
S
GR
GS
[0.75 0 0 0.75 210.99001 253.71691] CT
0.851 0.325 0.098 RC
10.0 ML
0.667 LW
N
-3 -3 M
-3 3 L
3 3 L
3 -3 L
cp
S
GR
GS
[0.75 0 0 0.75 224.00999 251.53118] CT
0.851 0.325 0.098 RC
10.0 ML
0.667 LW
N
-3 -3 M
-3 3 L
3 3 L
3 -3 L
cp
S
GR
GS
[0.75 0 0 0.75 237.03001 249.35742] CT
0.851 0.325 0.098 RC
10.0 ML
0.667 LW
N
-3 -3 M
-3 3 L
3 3 L
3 -3 L
cp
S
GR
GS
[0.75 0 0 0.75 250.05 247.0432] CT
0.851 0.325 0.098 RC
10.0 ML
0.667 LW
N
-3 -3 M
-3 3 L
3 3 L
3 -3 L
cp
S
GR
GS
[0.75 0 0 0.75 263.07001 244.75868] CT
0.851 0.325 0.098 RC
10.0 ML
0.667 LW
N
-3 -3 M
-3 3 L
3 3 L
3 -3 L
cp
S
GR
GS
[0.75 0 0 0.75 276.09 242.32796] CT
0.851 0.325 0.098 RC
10.0 ML
0.667 LW
N
-3 -3 M
-3 3 L
3 3 L
3 -3 L
cp
S
GR
GS
[0.75 0 0 0.75 289.11001 239.89959] CT
0.851 0.325 0.098 RC
10.0 ML
0.667 LW
N
-3 -3 M
-3 3 L
3 3 L
3 -3 L
cp
S
GR
GS
[0.75 0 0 0.75 302.13 237.32744] CT
0.851 0.325 0.098 RC
10.0 ML
0.667 LW
N
-3 -3 M
-3 3 L
3 3 L
3 -3 L
cp
S
GR
GS
[0.75 0 0 0.75 315.15001 234.74808] CT
0.851 0.325 0.098 RC
10.0 ML
0.667 LW
N
-3 -3 M
-3 3 L
3 3 L
3 -3 L
cp
S
GR
GS
[0.75 0 0 0.75 328.17 232.1451] CT
0.851 0.325 0.098 RC
10.0 ML
0.667 LW
N
-3 -3 M
-3 3 L
3 3 L
3 -3 L
cp
S
GR
GS
[0.75 0 0 0.75 341.19001 229.34631] CT
0.851 0.325 0.098 RC
10.0 ML
0.667 LW
N
-3 -3 M
-3 3 L
3 3 L
3 -3 L
cp
S
GR
GS
[0.75 0 0 0.75 354.21 226.50909] CT
0.851 0.325 0.098 RC
10.0 ML
0.667 LW
N
-3 -3 M
-3 3 L
3 3 L
3 -3 L
cp
S
GR
GS
[0.75 0 0 0.75 367.23001 223.70052] CT
0.851 0.325 0.098 RC
10.0 ML
0.667 LW
N
-3 -3 M
-3 3 L
3 3 L
3 -3 L
cp
S
GR
GS
[0.75 0 0 0.75 380.25 220.76083] CT
0.851 0.325 0.098 RC
10.0 ML
0.667 LW
N
-3 -3 M
-3 3 L
3 3 L
3 -3 L
cp
S
GR
GS
[0.75 0 0 0.75 0 0] CT
0.929 0.694 0.125 RC
[1 3] 0 setdash
2 LJ
0.667 LW
N
90.36 268.048 M
107.72 268.214 L
125.08 268.96 L
142.44 269.525 L
159.8 269.649 L
177.16 269.698 L
194.52 269.769 L
211.88 269.862 L
229.24 269.964 L
246.6 270.065 L
263.96 270.164 L
281.32 270.257 L
298.68 270.348 L
316.04 270.436 L
333.4 270.525 L
350.76 270.463 L
368.12 270.383 L
385.48 270.293 L
402.84 270.21 L
420.2 270.111 L
437.56 270.023 L
454.92 269.935 L
472.28 269.85 L
489.64 269.752 L
507 269.658 L
S
GR
GS
[0.75 0 0 0.75 67.77 201.03589] CT
0.929 0.694 0.125 RC
N
0 -3.667 M
2.025 -3.667 3.667 -2.025 3.667 0 C
3.667 0 L
3.667 2.025 2.025 3.667 0 3.667 C
-2.025 3.667 -3.667 2.025 -3.667 0 C
-3.667 -2.025 -2.025 -3.667 0 -3.667 C
cp
0 -4.333 M
-2.393 -4.333 -4.333 -2.393 -4.333 0 C
-4.333 2.393 -2.393 4.333 0 4.333 C
2.393 4.333 4.333 2.393 4.333 0 C
4.333 0 L
4.333 -2.393 2.393 -4.333 0 -4.333 C
cp
f
GR
GS
[0.75 0 0 0.75 80.79 201.16072] CT
0.929 0.694 0.125 RC
N
/f-862814258{0 -3.667 M
2.025 -3.667 3.667 -2.025 3.667 0 C
3.667 0 L
3.667 2.025 2.025 3.667 0 3.667 C
-2.025 3.667 -3.667 2.025 -3.667 0 C
-3.667 -2.025 -2.025 -3.667 0 -3.667 C
cp
0 -4.333 M
-2.393 -4.333 -4.333 -2.393 -4.333 0 C
-4.333 2.393 -2.393 4.333 0 4.333 C
2.393 4.333 4.333 2.393 4.333 0 C
4.333 0 L
4.333 -2.393 2.393 -4.333 0 -4.333 C
cp}def
f-862814258
f
GR
GS
[0.75 0 0 0.75 93.81 201.71972] CT
0.929 0.694 0.125 RC
N
f-862814258
f
GR
GS
[0.75 0 0 0.75 106.83 202.14411] CT
0.929 0.694 0.125 RC
N
f-862814258
f
GR
GS
[0.75 0 0 0.75 119.85 202.23685] CT
0.929 0.694 0.125 RC
N
f-862814258
f
GR
GS
[0.75 0 0 0.75 132.87 202.27345] CT
0.929 0.694 0.125 RC
N
f-862814258
f
GR
GS
[0.75 0 0 0.75 145.89 202.32694] CT
0.929 0.694 0.125 RC
N
f-862814258
f
GR
GS
[0.75 0 0 0.75 158.91 202.39687] CT
0.929 0.694 0.125 RC
N
f-862814258
f
GR
GS
[0.75 0 0 0.75 171.93 202.47324] CT
0.929 0.694 0.125 RC
N
f-862814258
f
GR
GS
[0.75 0 0 0.75 184.95 202.5491] CT
0.929 0.694 0.125 RC
N
f-862814258
f
GR
GS
[0.75 0 0 0.75 197.96999 202.62286] CT
0.929 0.694 0.125 RC
N
f-862814258
f
GR
GS
[0.75 0 0 0.75 210.99001 202.69302] CT
0.929 0.694 0.125 RC
N
f-862814258
f
GR
GS
[0.75 0 0 0.75 224.00999 202.76072] CT
0.929 0.694 0.125 RC
N
f-862814258
f
GR
GS
[0.75 0 0 0.75 237.03001 202.82712] CT
0.929 0.694 0.125 RC
N
f-862814258
f
GR
GS
[0.75 0 0 0.75 250.05 202.89363] CT
0.929 0.694 0.125 RC
N
f-862814258
f
GR
GS
[0.75 0 0 0.75 263.07001 202.84696] CT
0.929 0.694 0.125 RC
N
f-862814258
f
GR
GS
[0.75 0 0 0.75 276.09 202.78757] CT
0.929 0.694 0.125 RC
N
f-862814258
f
GR
GS
[0.75 0 0 0.75 289.11001 202.72005] CT
0.929 0.694 0.125 RC
N
f-862814258
f
GR
GS
[0.75 0 0 0.75 302.13 202.65747] CT
0.929 0.694 0.125 RC
N
f-862814258
f
GR
GS
[0.75 0 0 0.75 315.15001 202.58359] CT
0.929 0.694 0.125 RC
N
f-862814258
f
GR
GS
[0.75 0 0 0.75 328.17 202.51726] CT
0.929 0.694 0.125 RC
N
f-862814258
f
GR
GS
[0.75 0 0 0.75 341.19001 202.45097] CT
0.929 0.694 0.125 RC
N
f-862814258
f
GR
GS
[0.75 0 0 0.75 354.21 202.38766] CT
0.929 0.694 0.125 RC
N
f-862814258
f
GR
GS
[0.75 0 0 0.75 367.23001 202.31374] CT
0.929 0.694 0.125 RC
N
f-862814258
f
GR
GS
[0.75 0 0 0.75 380.25 202.24354] CT
0.929 0.694 0.125 RC
N
f-862814258
f
GR
GS
[0.75 0 0 0.75 0 0] CT
0.494 0.184 0.557 RC
[1 3] 0 setdash
2 LJ
0.667 LW
N
90.36 268.048 M
107.72 268.214 L
125.08 261.99 L
142.44 254.302 L
159.8 247.259 L
177.16 239.913 L
194.52 232.277 L
211.88 224.518 L
229.24 216.636 L
246.6 208.577 L
263.96 200.323 L
281.32 191.871 L
298.68 183.209 L
316.04 174.326 L
333.4 165.211 L
350.76 155.856 L
368.12 146.251 L
385.48 136.389 L
402.84 126.264 L
420.2 115.869 L
437.56 105.202 L
454.92 94.263 L
472.28 83.054 L
489.64 71.581 L
507 59.859 L
S
GR
GS
[0.75 0 0 0.75 67.77 201.03589] CT
0.494 0.184 0.557 RC
N
f-862814258
f
GR
GS
[0.75 0 0 0.75 80.79 201.16072] CT
0.494 0.184 0.557 RC
N
f-862814258
f
GR
GS
[0.75 0 0 0.75 93.81 196.49231] CT
0.494 0.184 0.557 RC
N
f-862814258
f
GR
GS
[0.75 0 0 0.75 106.83 190.72675] CT
0.494 0.184 0.557 RC
N
f-862814258
f
GR
GS
[0.75 0 0 0.75 119.85 185.44445] CT
0.494 0.184 0.557 RC
N
f-862814258
f
GR
GS
[0.75 0 0 0.75 132.87 179.935] CT
0.494 0.184 0.557 RC
N
f-862814258
f
GR
GS
[0.75 0 0 0.75 145.89 174.20747] CT
0.494 0.184 0.557 RC
N
f-862814258
f
GR
GS
[0.75 0 0 0.75 158.91 168.38863] CT
0.494 0.184 0.557 RC
N
f-862814258
f
GR
GS
[0.75 0 0 0.75 171.93 162.47689] CT
0.494 0.184 0.557 RC
N
f-862814258
f
GR
GS
[0.75 0 0 0.75 184.95 156.4328] CT
0.494 0.184 0.557 RC
N
f-862814258
f
GR
GS
[0.75 0 0 0.75 197.96999 150.2425] CT
0.494 0.184 0.557 RC
N
f-862814258
f
GR
GS
[0.75 0 0 0.75 210.99001 143.90289] CT
0.494 0.184 0.557 RC
N
f-862814258
f
GR
GS
[0.75 0 0 0.75 224.00999 137.40665] CT
0.494 0.184 0.557 RC
N
f-862814258
f
GR
GS
[0.75 0 0 0.75 237.03001 130.74449] CT
0.494 0.184 0.557 RC
N
f-862814258
f
GR
GS
[0.75 0 0 0.75 250.05 123.90854] CT
0.494 0.184 0.557 RC
N
f-862814258
f
GR
GS
[0.75 0 0 0.75 263.07001 116.892] CT
0.494 0.184 0.557 RC
N
f-862814258
f
GR
GS
[0.75 0 0 0.75 276.09 109.68843] CT
0.494 0.184 0.557 RC
N
f-862814258
f
GR
GS
[0.75 0 0 0.75 289.11001 102.29197] CT
0.494 0.184 0.557 RC
N
f-862814258
f
GR
GS
[0.75 0 0 0.75 302.13 94.69766] CT
0.494 0.184 0.557 RC
N
f-862814258
f
GR
GS
[0.75 0 0 0.75 315.15001 86.90172] CT
0.494 0.184 0.557 RC
N
f-862814258
f
GR
GS
[0.75 0 0 0.75 328.17 78.90175] CT
0.494 0.184 0.557 RC
N
f-862814258
f
GR
GS
[0.75 0 0 0.75 341.19001 70.6973] CT
0.494 0.184 0.557 RC
N
f-862814258
f
GR
GS
[0.75 0 0 0.75 354.21 62.29029] CT
0.494 0.184 0.557 RC
N
f-862814258
f
GR
GS
[0.75 0 0 0.75 367.23001 53.686] CT
0.494 0.184 0.557 RC
N
f-862814258
f
GR
GS
[0.75 0 0 0.75 380.25 44.89403] CT
0.494 0.184 0.557 RC
N
f-862814258
f
GR
GS
[0.75 0 0 0.75 0 0] CT
0.467 0.675 0.188 RC
[8 3 2 3] 0 setdash
2 LJ
0.667 LW
N
90.36 299.045 M
107.72 299.053 L
125.08 299.061 L
142.44 299.051 L
159.8 299.045 L
177.16 299.094 L
194.52 299.064 L
211.88 299.086 L
229.24 299.07 L
246.6 299.059 L
263.96 299.068 L
281.32 299.077 L
298.68 299.083 L
316.04 299.09 L
333.4 299.101 L
350.76 299.092 L
368.12 299.066 L
385.48 299.101 L
402.84 299.054 L
420.2 299.058 L
437.56 299.079 L
454.92 299.073 L
472.28 299.072 L
489.64 299.066 L
507 299.06 L
S
GR
GS
[0.75 0 0 0.75 67.77 224.2836] CT
0.467 0.675 0.188 RC
10.0 ML
0.667 LW
N
-4 0 M
0 5.32 L
4 0 L
0 -5.32 L
cp
S
GR
GS
[0.75 0 0 0.75 80.79 224.28978] CT
0.467 0.675 0.188 RC
10.0 ML
0.667 LW
N
-4 0 M
0 5.32 L
4 0 L
0 -5.32 L
cp
S
GR
GS
[0.75 0 0 0.75 93.81 224.29543] CT
0.467 0.675 0.188 RC
10.0 ML
0.667 LW
N
-4 0 M
0 5.32 L
4 0 L
0 -5.32 L
cp
S
GR
GS
[0.75 0 0 0.75 106.83 224.28802] CT
0.467 0.675 0.188 RC
10.0 ML
0.667 LW
N
-4 0 M
0 5.32 L
4 0 L
0 -5.32 L
cp
S
GR
GS
[0.75 0 0 0.75 119.85 224.28399] CT
0.467 0.675 0.188 RC
10.0 ML
0.667 LW
N
-4 0 M
0 5.32 L
4 0 L
0 -5.32 L
cp
S
GR
GS
[0.75 0 0 0.75 132.87 224.3207] CT
0.467 0.675 0.188 RC
10.0 ML
0.667 LW
N
-4 0 M
0 5.32 L
4 0 L
0 -5.32 L
cp
S
GR
GS
[0.75 0 0 0.75 145.89 224.29786] CT
0.467 0.675 0.188 RC
10.0 ML
0.667 LW
N
-4 0 M
0 5.32 L
4 0 L
0 -5.32 L
cp
S
GR
GS
[0.75 0 0 0.75 158.91 224.31425] CT
0.467 0.675 0.188 RC
10.0 ML
0.667 LW
N
-4 0 M
0 5.32 L
4 0 L
0 -5.32 L
cp
S
GR
GS
[0.75 0 0 0.75 171.93 224.30248] CT
0.467 0.675 0.188 RC
10.0 ML
0.667 LW
N
-4 0 M
0 5.32 L
4 0 L
0 -5.32 L
cp
S
GR
GS
[0.75 0 0 0.75 184.95 224.29443] CT
0.467 0.675 0.188 RC
10.0 ML
0.667 LW
N
-4 0 M
0 5.32 L
4 0 L
0 -5.32 L
cp
S
GR
GS
[0.75 0 0 0.75 197.96999 224.30067] CT
0.467 0.675 0.188 RC
10.0 ML
0.667 LW
N
-4 0 M
0 5.32 L
4 0 L
0 -5.32 L
cp
S
GR
GS
[0.75 0 0 0.75 210.99001 224.30772] CT
0.467 0.675 0.188 RC
10.0 ML
0.667 LW
N
-4 0 M
0 5.32 L
4 0 L
0 -5.32 L
cp
S
GR
GS
[0.75 0 0 0.75 224.00999 224.31207] CT
0.467 0.675 0.188 RC
10.0 ML
0.667 LW
N
-4 0 M
0 5.32 L
4 0 L
0 -5.32 L
cp
S
GR
GS
[0.75 0 0 0.75 237.03001 224.31773] CT
0.467 0.675 0.188 RC
10.0 ML
0.667 LW
N
-4 0 M
0 5.32 L
4 0 L
0 -5.32 L
cp
S
GR
GS
[0.75 0 0 0.75 250.05 224.32562] CT
0.467 0.675 0.188 RC
10.0 ML
0.667 LW
N
-4 0 M
0 5.32 L
4 0 L
0 -5.32 L
cp
S
GR
GS
[0.75 0 0 0.75 263.07001 224.31917] CT
0.467 0.675 0.188 RC
10.0 ML
0.667 LW
N
-4 0 M
0 5.32 L
4 0 L
0 -5.32 L
cp
S
GR
GS
[0.75 0 0 0.75 276.09 224.29976] CT
0.467 0.675 0.188 RC
10.0 ML
0.667 LW
N
-4 0 M
0 5.32 L
4 0 L
0 -5.32 L
cp
S
GR
GS
[0.75 0 0 0.75 289.11001 224.32562] CT
0.467 0.675 0.188 RC
10.0 ML
0.667 LW
N
-4 0 M
0 5.32 L
4 0 L
0 -5.32 L
cp
S
GR
GS
[0.75 0 0 0.75 302.13 224.29083] CT
0.467 0.675 0.188 RC
10.0 ML
0.667 LW
N
-4 0 M
0 5.32 L
4 0 L
0 -5.32 L
cp
S
GR
GS
[0.75 0 0 0.75 315.15001 224.29344] CT
0.467 0.675 0.188 RC
10.0 ML
0.667 LW
N
-4 0 M
0 5.32 L
4 0 L
0 -5.32 L
cp
S
GR
GS
[0.75 0 0 0.75 328.17 224.30953] CT
0.467 0.675 0.188 RC
10.0 ML
0.667 LW
N
-4 0 M
0 5.32 L
4 0 L
0 -5.32 L
cp
S
GR
GS
[0.75 0 0 0.75 341.19001 224.30495] CT
0.467 0.675 0.188 RC
10.0 ML
0.667 LW
N
-4 0 M
0 5.32 L
4 0 L
0 -5.32 L
cp
S
GR
GS
[0.75 0 0 0.75 354.21 224.30381] CT
0.467 0.675 0.188 RC
10.0 ML
0.667 LW
N
-4 0 M
0 5.32 L
4 0 L
0 -5.32 L
cp
S
GR
GS
[0.75 0 0 0.75 367.23001 224.29926] CT
0.467 0.675 0.188 RC
10.0 ML
0.667 LW
N
-4 0 M
0 5.32 L
4 0 L
0 -5.32 L
cp
S
GR
GS
[0.75 0 0 0.75 380.25 224.29475] CT
0.467 0.675 0.188 RC
10.0 ML
0.667 LW
N
-4 0 M
0 5.32 L
4 0 L
0 -5.32 L
cp
S
GR
GS
[0.75 0 0 0.75 0 0] CT
0.302 0.745 0.933 RC
[8 3 2 3] 0 setdash
2 LJ
0.667 LW
N
90.36 299.045 M
107.72 299.053 L
125.08 298.982 L
142.44 298.991 L
159.8 299.015 L
177.16 298.971 L
194.52 298.982 L
211.88 299.033 L
229.24 299.077 L
246.6 299.07 L
263.96 299.082 L
281.32 299.056 L
298.68 299.098 L
316.04 299.009 L
333.4 299.078 L
350.76 298.984 L
368.12 299.038 L
385.48 298.98 L
402.84 299.049 L
420.2 299.022 L
437.56 298.931 L
454.92 299.028 L
472.28 299.079 L
489.64 299.001 L
507 299.017 L
S
GR
GS
[0.75 0 0 0.75 67.77 224.2836] CT
0.302 0.745 0.933 RC
10.0 ML
0.667 LW
N
-4 0 M
0 5.32 L
4 0 L
0 -5.32 L
cp
S
GR
GS
[0.75 0 0 0.75 80.79 224.28978] CT
0.302 0.745 0.933 RC
10.0 ML
0.667 LW
N
-4 0 M
0 5.32 L
4 0 L
0 -5.32 L
cp
S
GR
GS
[0.75 0 0 0.75 93.81 224.23615] CT
0.302 0.745 0.933 RC
10.0 ML
0.667 LW
N
-4 0 M
0 5.32 L
4 0 L
0 -5.32 L
cp
S
GR
GS
[0.75 0 0 0.75 106.83 224.243] CT
0.302 0.745 0.933 RC
10.0 ML
0.667 LW
N
-4 0 M
0 5.32 L
4 0 L
0 -5.32 L
cp
S
GR
GS
[0.75 0 0 0.75 119.85 224.26089] CT
0.302 0.745 0.933 RC
10.0 ML
0.667 LW
N
-4 0 M
0 5.32 L
4 0 L
0 -5.32 L
cp
S
GR
GS
[0.75 0 0 0.75 132.87 224.22842] CT
0.302 0.745 0.933 RC
10.0 ML
0.667 LW
N
-4 0 M
0 5.32 L
4 0 L
0 -5.32 L
cp
S
GR
GS
[0.75 0 0 0.75 145.89 224.23686] CT
0.302 0.745 0.933 RC
10.0 ML
0.667 LW
N
-4 0 M
0 5.32 L
4 0 L
0 -5.32 L
cp
S
GR
GS
[0.75 0 0 0.75 158.91 224.27481] CT
0.302 0.745 0.933 RC
10.0 ML
0.667 LW
N
-4 0 M
0 5.32 L
4 0 L
0 -5.32 L
cp
S
GR
GS
[0.75 0 0 0.75 171.93 224.30802] CT
0.302 0.745 0.933 RC
10.0 ML
0.667 LW
N
-4 0 M
0 5.32 L
4 0 L
0 -5.32 L
cp
S
GR
GS
[0.75 0 0 0.75 184.95 224.30287] CT
0.302 0.745 0.933 RC
10.0 ML
0.667 LW
N
-4 0 M
0 5.32 L
4 0 L
0 -5.32 L
cp
S
GR
GS
[0.75 0 0 0.75 197.96999 224.31113] CT
0.302 0.745 0.933 RC
10.0 ML
0.667 LW
N
-4 0 M
0 5.32 L
4 0 L
0 -5.32 L
cp
S
GR
GS
[0.75 0 0 0.75 210.99001 224.29179] CT
0.302 0.745 0.933 RC
10.0 ML
0.667 LW
N
-4 0 M
0 5.32 L
4 0 L
0 -5.32 L
cp
S
GR
GS
[0.75 0 0 0.75 224.00999 224.32338] CT
0.302 0.745 0.933 RC
10.0 ML
0.667 LW
N
-4 0 M
0 5.32 L
4 0 L
0 -5.32 L
cp
S
GR
GS
[0.75 0 0 0.75 237.03001 224.25696] CT
0.302 0.745 0.933 RC
10.0 ML
0.667 LW
N
-4 0 M
0 5.32 L
4 0 L
0 -5.32 L
cp
S
GR
GS
[0.75 0 0 0.75 250.05 224.3085] CT
0.302 0.745 0.933 RC
10.0 ML
0.667 LW
N
-4 0 M
0 5.32 L
4 0 L
0 -5.32 L
cp
S
GR
GS
[0.75 0 0 0.75 263.07001 224.23766] CT
0.302 0.745 0.933 RC
10.0 ML
0.667 LW
N
-4 0 M
0 5.32 L
4 0 L
0 -5.32 L
cp
S
GR
GS
[0.75 0 0 0.75 276.09 224.27875] CT
0.302 0.745 0.933 RC
10.0 ML
0.667 LW
N
-4 0 M
0 5.32 L
4 0 L
0 -5.32 L
cp
S
GR
GS
[0.75 0 0 0.75 289.11001 224.23515] CT
0.302 0.745 0.933 RC
10.0 ML
0.667 LW
N
-4 0 M
0 5.32 L
4 0 L
0 -5.32 L
cp
S
GR
GS
[0.75 0 0 0.75 302.13 224.28683] CT
0.302 0.745 0.933 RC
10.0 ML
0.667 LW
N
-4 0 M
0 5.32 L
4 0 L
0 -5.32 L
cp
S
GR
GS
[0.75 0 0 0.75 315.15001 224.26643] CT
0.302 0.745 0.933 RC
10.0 ML
0.667 LW
N
-4 0 M
0 5.32 L
4 0 L
0 -5.32 L
cp
S
GR
GS
[0.75 0 0 0.75 328.17 224.19855] CT
0.302 0.745 0.933 RC
10.0 ML
0.667 LW
N
-4 0 M
0 5.32 L
4 0 L
0 -5.32 L
cp
S
GR
GS
[0.75 0 0 0.75 341.19001 224.27133] CT
0.302 0.745 0.933 RC
10.0 ML
0.667 LW
N
-4 0 M
0 5.32 L
4 0 L
0 -5.32 L
cp
S
GR
GS
[0.75 0 0 0.75 354.21 224.30928] CT
0.302 0.745 0.933 RC
10.0 ML
0.667 LW
N
-4 0 M
0 5.32 L
4 0 L
0 -5.32 L
cp
S
GR
GS
[0.75 0 0 0.75 367.23001 224.25101] CT
0.302 0.745 0.933 RC
10.0 ML
0.667 LW
N
-4 0 M
0 5.32 L
4 0 L
0 -5.32 L
cp
S
GR
GS
[0.75 0 0 0.75 380.25 224.26238] CT
0.302 0.745 0.933 RC
10.0 ML
0.667 LW
N
-4 0 M
0 5.32 L
4 0 L
0 -5.32 L
cp
S
GR
GS
[0.75 0 0 0.75 0 0] CT
1 GC
N
202 173 M
202 70 L
88 70 L
88 173 L
cp
f
GR
GS
[0.75 0 0 0.75 101.25 60.03659] CT
/Helvetica 12 F
GS
[1 0 0 1 0 0] CT
0 5 moveto 
1 -1 scale
(max/minAle) t 
GR
GR
GS
[0.75 0 0 0.75 0 0] CT
0 0.447 0.741 RC
[10 6] 0 setdash
2 LJ
0.667 LW
N
92 80.049 M
132 80.049 L
S
GR
GS
[0.75 0 0 0.75 84 60.03659] CT
0 0.447 0.741 RC
10.0 ML
0.667 LW
N
-3 -3 M
-3 3 L
3 3 L
3 -3 L
cp
S
GR
GS
[0.75 0 0 0.75 101.25 72.47195] CT
/Helvetica 12 F
GS
[1 0 0 1 0 0] CT
0 5 moveto 
1 -1 scale
(max/min) t 
GR
GR
GS
[0.75 0 0 0.75 0 0] CT
0.851 0.325 0.098 RC
[10 6] 0 setdash
2 LJ
0.667 LW
N
92 96.629 M
132 96.629 L
S
GR
GS
[0.75 0 0 0.75 84 72.47195] CT
0.851 0.325 0.098 RC
10.0 ML
0.667 LW
N
-3 -3 M
-3 3 L
3 3 L
3 -3 L
cp
S
GR
GS
[0.75 0 0 0.75 101.25 84.90732] CT
/Helvetica 12 F
GS
[1 0 0 1 0 0] CT
0 5 moveto 
1 -1 scale
(maxAle) t 
GR
GR
GS
[0.75 0 0 0.75 0 0] CT
0.929 0.694 0.125 RC
[1 3] 0 setdash
2 LJ
0.667 LW
N
92 113.21 M
132 113.21 L
S
GR
GS
[0.75 0 0 0.75 84 84.90732] CT
0.929 0.694 0.125 RC
N
f-862814258
f
GR
GS
[0.75 0 0 0.75 101.25 97.34269] CT
/Helvetica 12 F
GS
[1 0 0 1 0 0] CT
0 5 moveto 
1 -1 scale
(max) t 
GR
GR
GS
[0.75 0 0 0.75 0 0] CT
0.494 0.184 0.557 RC
[1 3] 0 setdash
2 LJ
0.667 LW
N
92 129.79 M
132 129.79 L
S
GR
GS
[0.75 0 0 0.75 84 97.34268] CT
0.494 0.184 0.557 RC
N
f-862814258
f
GR
GS
[0.75 0 0 0.75 101.25 109.77805] CT
/Helvetica 12 F
GS
[1 0 0 1 0 0] CT
0 5 moveto 
1 -1 scale
(minAle) t 
GR
GR
GS
[0.75 0 0 0.75 0 0] CT
0.467 0.675 0.188 RC
[8 3 2 3] 0 setdash
2 LJ
0.667 LW
N
92 146.371 M
132 146.371 L
S
GR
GS
[0.75 0 0 0.75 84 109.77805] CT
0.467 0.675 0.188 RC
10.0 ML
0.667 LW
N
-4 0 M
0 5.32 L
4 0 L
0 -5.32 L
cp
S
GR
GS
[0.75 0 0 0.75 101.25 122.21341] CT
/Helvetica 12 F
GS
[1 0 0 1 0 0] CT
0 5 moveto 
1 -1 scale
(min) t 
GR
GR
GS
[0.75 0 0 0.75 0 0] CT
0.302 0.745 0.933 RC
[8 3 2 3] 0 setdash
2 LJ
0.667 LW
N
92 162.951 M
132 162.951 L
S
GR
GS
[0.75 0 0 0.75 84 122.21341] CT
0.302 0.745 0.933 RC
10.0 ML
0.667 LW
N
-4 0 M
0 5.32 L
4 0 L
0 -5.32 L
cp
S
GR
GS
[0.75 0 0 0.75 0 0] CT
0.149 GC
10.0 ML
0.667 LW
N
88 173 M
88 70 L
202 70 L
202 173 L
cp
S
GR
%%Trailer
%%Pages: 1
%%EOF
