%!PS-Adobe-3.0 EPSF-3.0
%%Creator: (MATLAB, The Mathworks, Inc. Version 9.7.0.1319299 \(R2019b\) Update 5. Operating System: Windows 10)
%%Title: Plots_Quality/Kovacs_Dumbbell_Time.eps
%%CreationDate: 2020-12-17T16:34:27
%%Pages: (atend)
%%BoundingBox:    44     5   385   315
%%LanguageLevel: 2
%%EndComments
%%BeginProlog
%%BeginResource: procset (Apache XML Graphics Std ProcSet) 1.2 0
%%Version: 1.2 0
%%Copyright: (Copyright 2001-2003,2010 The Apache Software Foundation. License terms: http://www.apache.org/licenses/LICENSE-2.0)
/bd{bind def}bind def
/ld{load def}bd
/GR/grestore ld
/GS/gsave ld
/RM/rmoveto ld
/C/curveto ld
/t/show ld
/L/lineto ld
/ML/setmiterlimit ld
/CT/concat ld
/f/fill ld
/N/newpath ld
/S/stroke ld
/CC/setcmykcolor ld
/A/ashow ld
/cp/closepath ld
/RC/setrgbcolor ld
/LJ/setlinejoin ld
/GC/setgray ld
/LW/setlinewidth ld
/M/moveto ld
/re {4 2 roll M
1 index 0 rlineto
0 exch rlineto
neg 0 rlineto
cp } bd
/_ctm matrix def
/_tm matrix def
/BT { _ctm currentmatrix pop matrix _tm copy pop 0 0 moveto } bd
/ET { _ctm setmatrix } bd
/iTm { _ctm setmatrix _tm concat } bd
/Tm { _tm astore pop iTm 0 0 moveto } bd
/ux 0.0 def
/uy 0.0 def
/F {
  /Tp exch def
  /Tf exch def
  Tf findfont Tp scalefont setfont
  /cf Tf def  /cs Tp def
} bd
/ULS {currentpoint /uy exch def /ux exch def} bd
/ULE {
  /Tcx currentpoint pop def
  gsave
  newpath
  cf findfont cs scalefont dup
  /FontMatrix get 0 get /Ts exch def /FontInfo get dup
  /UnderlinePosition get Ts mul /To exch def
  /UnderlineThickness get Ts mul /Tt exch def
  ux uy To add moveto  Tcx uy To add lineto
  Tt setlinewidth stroke
  grestore
} bd
/OLE {
  /Tcx currentpoint pop def
  gsave
  newpath
  cf findfont cs scalefont dup
  /FontMatrix get 0 get /Ts exch def /FontInfo get dup
  /UnderlinePosition get Ts mul /To exch def
  /UnderlineThickness get Ts mul /Tt exch def
  ux uy To add cs add moveto Tcx uy To add cs add lineto
  Tt setlinewidth stroke
  grestore
} bd
/SOE {
  /Tcx currentpoint pop def
  gsave
  newpath
  cf findfont cs scalefont dup
  /FontMatrix get 0 get /Ts exch def /FontInfo get dup
  /UnderlinePosition get Ts mul /To exch def
  /UnderlineThickness get Ts mul /Tt exch def
  ux uy To add cs 10 mul 26 idiv add moveto Tcx uy To add cs 10 mul 26 idiv add lineto
  Tt setlinewidth stroke
  grestore
} bd
/QT {
/Y22 exch store
/X22 exch store
/Y21 exch store
/X21 exch store
currentpoint
/Y21 load 2 mul add 3 div exch
/X21 load 2 mul add 3 div exch
/X21 load 2 mul /X22 load add 3 div
/Y21 load 2 mul /Y22 load add 3 div
/X22 load /Y22 load curveto
} bd
/SSPD {
dup length /d exch dict def
{
/v exch def
/k exch def
currentpagedevice k known {
/cpdv currentpagedevice k get def
v cpdv ne {
/upd false def
/nullv v type /nulltype eq def
/nullcpdv cpdv type /nulltype eq def
nullv nullcpdv or
{
/upd true def
} {
/sametype v type cpdv type eq def
sametype {
v type /arraytype eq {
/vlen v length def
/cpdvlen cpdv length def
vlen cpdvlen eq {
0 1 vlen 1 sub {
/i exch def
/obj v i get def
/cpdobj cpdv i get def
obj cpdobj ne {
/upd true def
exit
} if
} for
} {
/upd true def
} ifelse
} {
v type /dicttype eq {
v {
/dv exch def
/dk exch def
/cpddv cpdv dk get def
dv cpddv ne {
/upd true def
exit
} if
} forall
} {
/upd true def
} ifelse
} ifelse
} if
} ifelse
upd true eq {
d k v put
} if
} if
} if
} forall
d length 0 gt {
d setpagedevice
} if
} bd
/RE { % /NewFontName [NewEncodingArray] /FontName RE -
  findfont dup length dict begin
  {
    1 index /FID ne
    {def} {pop pop} ifelse
  } forall
  /Encoding exch def
  /FontName 1 index def
  currentdict definefont pop
  end
} bind def
%%EndResource
%%BeginResource: procset (Apache XML Graphics EPS ProcSet) 1.0 0
%%Version: 1.0 0
%%Copyright: (Copyright 2002-2003 The Apache Software Foundation. License terms: http://www.apache.org/licenses/LICENSE-2.0)
/BeginEPSF { %def
/b4_Inc_state save def         % Save state for cleanup
/dict_count countdictstack def % Count objects on dict stack
/op_count count 1 sub def      % Count objects on operand stack
userdict begin                 % Push userdict on dict stack
/showpage { } def              % Redefine showpage, { } = null proc
0 setgray 0 setlinecap         % Prepare graphics state
1 setlinewidth 0 setlinejoin
10 setmiterlimit [ ] 0 setdash newpath
/languagelevel where           % If level not equal to 1 then
{pop languagelevel             % set strokeadjust and
1 ne                           % overprint to their defaults.
{false setstrokeadjust false setoverprint
} if
} if
} bd
/EndEPSF { %def
count op_count sub {pop} repeat            % Clean up stacks
countdictstack dict_count sub {end} repeat
b4_Inc_state restore
} bd
%%EndResource
%FOPBeginFontDict
%%IncludeResource: font Courier-Oblique
%%IncludeResource: font Courier-BoldOblique
%%IncludeResource: font Courier-Bold
%%IncludeResource: font ZapfDingbats
%%IncludeResource: font Symbol
%%IncludeResource: font Helvetica
%%IncludeResource: font Helvetica-Oblique
%%IncludeResource: font Helvetica-Bold
%%IncludeResource: font Helvetica-BoldOblique
%%IncludeResource: font Times-Roman
%%IncludeResource: font Times-Italic
%%IncludeResource: font Times-Bold
%%IncludeResource: font Times-BoldItalic
%%IncludeResource: font Courier
%FOPEndFontDict
%%BeginResource: encoding WinAnsiEncoding
/WinAnsiEncoding [
/.notdef /.notdef /.notdef /.notdef /.notdef
/.notdef /.notdef /.notdef /.notdef /.notdef
/.notdef /.notdef /.notdef /.notdef /.notdef
/.notdef /.notdef /.notdef /.notdef /.notdef
/.notdef /.notdef /.notdef /.notdef /.notdef
/.notdef /.notdef /.notdef /.notdef /.notdef
/.notdef /.notdef /space /exclam /quotedbl
/numbersign /dollar /percent /ampersand /quotesingle
/parenleft /parenright /asterisk /plus /comma
/hyphen /period /slash /zero /one
/two /three /four /five /six
/seven /eight /nine /colon /semicolon
/less /equal /greater /question /at
/A /B /C /D /E
/F /G /H /I /J
/K /L /M /N /O
/P /Q /R /S /T
/U /V /W /X /Y
/Z /bracketleft /backslash /bracketright /asciicircum
/underscore /quoteleft /a /b /c
/d /e /f /g /h
/i /j /k /l /m
/n /o /p /q /r
/s /t /u /v /w
/x /y /z /braceleft /bar
/braceright /asciitilde /bullet /Euro /bullet
/quotesinglbase /florin /quotedblbase /ellipsis /dagger
/daggerdbl /circumflex /perthousand /Scaron /guilsinglleft
/OE /bullet /Zcaron /bullet /bullet
/quoteleft /quoteright /quotedblleft /quotedblright /bullet
/endash /emdash /asciitilde /trademark /scaron
/guilsinglright /oe /bullet /zcaron /Ydieresis
/space /exclamdown /cent /sterling /currency
/yen /brokenbar /section /dieresis /copyright
/ordfeminine /guillemotleft /logicalnot /sfthyphen /registered
/macron /degree /plusminus /twosuperior /threesuperior
/acute /mu /paragraph /middot /cedilla
/onesuperior /ordmasculine /guillemotright /onequarter /onehalf
/threequarters /questiondown /Agrave /Aacute /Acircumflex
/Atilde /Adieresis /Aring /AE /Ccedilla
/Egrave /Eacute /Ecircumflex /Edieresis /Igrave
/Iacute /Icircumflex /Idieresis /Eth /Ntilde
/Ograve /Oacute /Ocircumflex /Otilde /Odieresis
/multiply /Oslash /Ugrave /Uacute /Ucircumflex
/Udieresis /Yacute /Thorn /germandbls /agrave
/aacute /acircumflex /atilde /adieresis /aring
/ae /ccedilla /egrave /eacute /ecircumflex
/edieresis /igrave /iacute /icircumflex /idieresis
/eth /ntilde /ograve /oacute /ocircumflex
/otilde /odieresis /divide /oslash /ugrave
/uacute /ucircumflex /udieresis /yacute /thorn
/ydieresis
] def
%%EndResource
%FOPBeginFontReencode
/Courier-Oblique findfont
dup length dict begin
  {1 index /FID ne {def} {pop pop} ifelse} forall
  /Encoding WinAnsiEncoding def
  currentdict
end
/Courier-Oblique exch definefont pop
/Courier-BoldOblique findfont
dup length dict begin
  {1 index /FID ne {def} {pop pop} ifelse} forall
  /Encoding WinAnsiEncoding def
  currentdict
end
/Courier-BoldOblique exch definefont pop
/Courier-Bold findfont
dup length dict begin
  {1 index /FID ne {def} {pop pop} ifelse} forall
  /Encoding WinAnsiEncoding def
  currentdict
end
/Courier-Bold exch definefont pop
/Helvetica findfont
dup length dict begin
  {1 index /FID ne {def} {pop pop} ifelse} forall
  /Encoding WinAnsiEncoding def
  currentdict
end
/Helvetica exch definefont pop
/Helvetica-Oblique findfont
dup length dict begin
  {1 index /FID ne {def} {pop pop} ifelse} forall
  /Encoding WinAnsiEncoding def
  currentdict
end
/Helvetica-Oblique exch definefont pop
/Helvetica-Bold findfont
dup length dict begin
  {1 index /FID ne {def} {pop pop} ifelse} forall
  /Encoding WinAnsiEncoding def
  currentdict
end
/Helvetica-Bold exch definefont pop
/Helvetica-BoldOblique findfont
dup length dict begin
  {1 index /FID ne {def} {pop pop} ifelse} forall
  /Encoding WinAnsiEncoding def
  currentdict
end
/Helvetica-BoldOblique exch definefont pop
/Times-Roman findfont
dup length dict begin
  {1 index /FID ne {def} {pop pop} ifelse} forall
  /Encoding WinAnsiEncoding def
  currentdict
end
/Times-Roman exch definefont pop
/Times-Italic findfont
dup length dict begin
  {1 index /FID ne {def} {pop pop} ifelse} forall
  /Encoding WinAnsiEncoding def
  currentdict
end
/Times-Italic exch definefont pop
/Times-Bold findfont
dup length dict begin
  {1 index /FID ne {def} {pop pop} ifelse} forall
  /Encoding WinAnsiEncoding def
  currentdict
end
/Times-Bold exch definefont pop
/Times-BoldItalic findfont
dup length dict begin
  {1 index /FID ne {def} {pop pop} ifelse} forall
  /Encoding WinAnsiEncoding def
  currentdict
end
/Times-BoldItalic exch definefont pop
/Courier findfont
dup length dict begin
  {1 index /FID ne {def} {pop pop} ifelse} forall
  /Encoding WinAnsiEncoding def
  currentdict
end
/Courier exch definefont pop
%FOPEndFontReencode
%%EndProlog
%%Page: 1 1
%%PageBoundingBox: 0 0 420 315
%%BeginPageSetup
[1 0 0 -1 0 315] CT
%%EndPageSetup
GS
[0.75 0 0 0.75 0 0] CT
1 GC
N
0 0 560 420 re
f
GR
GS
[0.75 0 0 0.75 0 0] CT
1 GC
N
0 0 560 420 re
f
GR
GS
[0.75 0 0 0.75 0 0] CT
1 GC
N
73 374 M
507 374 L
507 37 L
73 37 L
cp
f
GR
GS
[0.75 0 0 0.75 0 0] CT
0.149 GC
2 setlinecap
1 LJ
0.667 LW
N
73 374 M
507 374 L
S
GR
GS
[0.75 0 0 0.75 0 0] CT
0.149 GC
2 setlinecap
1 LJ
0.667 LW
N
73 37 M
507 37 L
S
GR
GS
[0.75 0 0 0.75 0 0] CT
0.149 GC
2 setlinecap
1 LJ
0.667 LW
N
73 374 M
73 369.66 L
S
GR
GS
[0.75 0 0 0.75 0 0] CT
0.149 GC
2 setlinecap
1 LJ
0.667 LW
N
145.333 374 M
145.333 369.66 L
S
GR
GS
[0.75 0 0 0.75 0 0] CT
0.149 GC
2 setlinecap
1 LJ
0.667 LW
N
217.667 374 M
217.667 369.66 L
S
GR
GS
[0.75 0 0 0.75 0 0] CT
0.149 GC
2 setlinecap
1 LJ
0.667 LW
N
290 374 M
290 369.66 L
S
GR
GS
[0.75 0 0 0.75 0 0] CT
0.149 GC
2 setlinecap
1 LJ
0.667 LW
N
362.333 374 M
362.333 369.66 L
S
GR
GS
[0.75 0 0 0.75 0 0] CT
0.149 GC
2 setlinecap
1 LJ
0.667 LW
N
434.667 374 M
434.667 369.66 L
S
GR
GS
[0.75 0 0 0.75 0 0] CT
0.149 GC
2 setlinecap
1 LJ
0.667 LW
N
507 374 M
507 369.66 L
S
GR
GS
[0.75 0 0 0.75 0 0] CT
0.149 GC
2 setlinecap
1 LJ
0.667 LW
N
73 37 M
73 41.34 L
S
GR
GS
[0.75 0 0 0.75 0 0] CT
0.149 GC
2 setlinecap
1 LJ
0.667 LW
N
145.333 37 M
145.333 41.34 L
S
GR
GS
[0.75 0 0 0.75 0 0] CT
0.149 GC
2 setlinecap
1 LJ
0.667 LW
N
217.667 37 M
217.667 41.34 L
S
GR
GS
[0.75 0 0 0.75 0 0] CT
0.149 GC
2 setlinecap
1 LJ
0.667 LW
N
290 37 M
290 41.34 L
S
GR
GS
[0.75 0 0 0.75 0 0] CT
0.149 GC
2 setlinecap
1 LJ
0.667 LW
N
362.333 37 M
362.333 41.34 L
S
GR
GS
[0.75 0 0 0.75 0 0] CT
0.149 GC
2 setlinecap
1 LJ
0.667 LW
N
434.667 37 M
434.667 41.34 L
S
GR
GS
[0.75 0 0 0.75 0 0] CT
0.149 GC
2 setlinecap
1 LJ
0.667 LW
N
507 37 M
507 41.34 L
S
GR
GS
[0.75 0 0 0.75 54.75 284.50001] CT
0.149 GC
/Helvetica 13.333 F
GS
[1 0 0 1 0 0] CT
-4 14 moveto 
1 -1 scale
(0) t 
GR
GR
GS
[0.75 0 0 0.75 109 284.50001] CT
0.149 GC
/Helvetica 13.333 F
GS
[1 0 0 1 0 0] CT
-4 14 moveto 
1 -1 scale
(5) t 
GR
GR
GS
[0.75 0 0 0.75 163.25 284.50001] CT
0.149 GC
/Helvetica 13.333 F
GS
[1 0 0 1 0 0] CT
-7.5 14 moveto 
1 -1 scale
(10) t 
GR
GR
GS
[0.75 0 0 0.75 217.5 284.50001] CT
0.149 GC
/Helvetica 13.333 F
GS
[1 0 0 1 0 0] CT
-7.5 14 moveto 
1 -1 scale
(15) t 
GR
GR
GS
[0.75 0 0 0.75 271.75001 284.50001] CT
0.149 GC
/Helvetica 13.333 F
GS
[1 0 0 1 0 0] CT
-7.5 14 moveto 
1 -1 scale
(20) t 
GR
GR
GS
[0.75 0 0 0.75 325.99999 284.50001] CT
0.149 GC
/Helvetica 13.333 F
GS
[1 0 0 1 0 0] CT
-7.5 14 moveto 
1 -1 scale
(25) t 
GR
GR
GS
[0.75 0 0 0.75 380.25 284.50001] CT
0.149 GC
/Helvetica 13.333 F
GS
[1 0 0 1 0 0] CT
-7.5 14 moveto 
1 -1 scale
(30) t 
GR
GR
GS
[0.75 0 0 0.75 217.50016 298.24999] CT
0.149 GC
/Helvetica 14.667 F
GS
[1 0 0 1 0 0] CT
-36 15 moveto 
1 -1 scale
(Zeitschritte) t 
GR
GR
GS
[0.75 0 0 0.75 0 0] CT
0.149 GC
2 setlinecap
1 LJ
0.667 LW
N
73 374 M
73 37 L
S
GR
GS
[0.75 0 0 0.75 0 0] CT
0.149 GC
2 setlinecap
1 LJ
0.667 LW
N
507 374 M
507 37 L
S
GR
GS
[0.75 0 0 0.75 0 0] CT
0.149 GC
2 setlinecap
1 LJ
0.667 LW
N
73 374 M
77.34 374 L
S
GR
GS
[0.75 0 0 0.75 0 0] CT
0.149 GC
2 setlinecap
1 LJ
0.667 LW
N
73 317.833 M
77.34 317.833 L
S
GR
GS
[0.75 0 0 0.75 0 0] CT
0.149 GC
2 setlinecap
1 LJ
0.667 LW
N
73 261.667 M
77.34 261.667 L
S
GR
GS
[0.75 0 0 0.75 0 0] CT
0.149 GC
2 setlinecap
1 LJ
0.667 LW
N
73 205.5 M
77.34 205.5 L
S
GR
GS
[0.75 0 0 0.75 0 0] CT
0.149 GC
2 setlinecap
1 LJ
0.667 LW
N
73 149.333 M
77.34 149.333 L
S
GR
GS
[0.75 0 0 0.75 0 0] CT
0.149 GC
2 setlinecap
1 LJ
0.667 LW
N
73 93.167 M
77.34 93.167 L
S
GR
GS
[0.75 0 0 0.75 0 0] CT
0.149 GC
2 setlinecap
1 LJ
0.667 LW
N
73 37 M
77.34 37 L
S
GR
GS
[0.75 0 0 0.75 0 0] CT
0.149 GC
2 setlinecap
1 LJ
0.667 LW
N
507 374 M
502.66 374 L
S
GR
GS
[0.75 0 0 0.75 0 0] CT
0.149 GC
2 setlinecap
1 LJ
0.667 LW
N
507 317.833 M
502.66 317.833 L
S
GR
GS
[0.75 0 0 0.75 0 0] CT
0.149 GC
2 setlinecap
1 LJ
0.667 LW
N
507 261.667 M
502.66 261.667 L
S
GR
GS
[0.75 0 0 0.75 0 0] CT
0.149 GC
2 setlinecap
1 LJ
0.667 LW
N
507 205.5 M
502.66 205.5 L
S
GR
GS
[0.75 0 0 0.75 0 0] CT
0.149 GC
2 setlinecap
1 LJ
0.667 LW
N
507 149.333 M
502.66 149.333 L
S
GR
GS
[0.75 0 0 0.75 0 0] CT
0.149 GC
2 setlinecap
1 LJ
0.667 LW
N
507 93.167 M
502.66 93.167 L
S
GR
GS
[0.75 0 0 0.75 0 0] CT
0.149 GC
2 setlinecap
1 LJ
0.667 LW
N
507 37 M
502.66 37 L
S
GR
GS
[0.75 0 0 0.75 50.75 280.5] CT
0.149 GC
/Helvetica 13.333 F
GS
[1 0 0 1 0 0] CT
-8 5.5 moveto 
1 -1 scale
(1) t 
GR
GR
GS
[0.75 0 0 0.75 50.75 238.37501] CT
0.149 GC
/Helvetica 13.333 F
GS
[1 0 0 1 0 0] CT
-8 5.5 moveto 
1 -1 scale
(2) t 
GR
GR
GS
[0.75 0 0 0.75 50.75 196.24999] CT
0.149 GC
/Helvetica 13.333 F
GS
[1 0 0 1 0 0] CT
-8 5.5 moveto 
1 -1 scale
(3) t 
GR
GR
GS
[0.75 0 0 0.75 50.75 154.125] CT
0.149 GC
/Helvetica 13.333 F
GS
[1 0 0 1 0 0] CT
-8 5.5 moveto 
1 -1 scale
(4) t 
GR
GR
GS
[0.75 0 0 0.75 50.75 112] CT
0.149 GC
/Helvetica 13.333 F
GS
[1 0 0 1 0 0] CT
-8 5.5 moveto 
1 -1 scale
(5) t 
GR
GR
GS
[0.75 0 0 0.75 50.75 69.875] CT
0.149 GC
/Helvetica 13.333 F
GS
[1 0 0 1 0 0] CT
-8 5.5 moveto 
1 -1 scale
(6) t 
GR
GR
GS
[0.75 0 0 0.75 50.75 27.75] CT
0.149 GC
/Helvetica 13.333 F
GS
[1 0 0 1 0 0] CT
-8 5.5 moveto 
1 -1 scale
(7) t 
GR
GR
GS
[0.75 0 0 0.75 217.50021 25.68749] CT
N
-73.967 -12.261 M
-73.967 -12.792 L
-72.435 -12.792 -72.435 -13.261 QT
-72.435 -21.511 L
-72.435 -21.979 -73.967 -21.979 QT
-73.967 -22.511 L
-69.482 -22.511 L
-69.482 -21.979 L
-71.029 -21.979 -71.029 -21.511 QT
-71.029 -16.636 L
-66.388 -21.089 L
-66.201 -21.292 -66.201 -21.511 QT
-66.201 -21.745 -66.404 -21.862 QT
-66.607 -21.979 -66.857 -21.979 QT
-66.857 -22.511 L
-63.607 -22.511 L
-63.607 -21.979 L
-64.826 -21.979 -65.763 -21.089 QT
-68.42 -18.542 L
-65.138 -13.667 L
-64.732 -13.089 -64.428 -12.94 QT
-64.123 -12.792 -63.404 -12.792 QT
-63.404 -12.261 L
-67.326 -12.261 L
-67.326 -12.792 L
-66.967 -12.792 -66.717 -12.862 QT
-66.467 -12.932 -66.467 -13.198 QT
-66.467 -13.386 -66.67 -13.667 QT
-69.357 -17.651 L
-71.029 -16.042 L
-71.029 -13.261 L
-71.029 -12.792 -69.482 -12.792 QT
-69.482 -12.261 L
-73.967 -12.261 L
cp
f
GR
GS
[0.75 0 0 0.75 217.50021 25.68749] CT
N
-59.278 -12.089 M
-60.184 -12.089 -60.95 -12.55 QT
-61.715 -13.011 -62.161 -13.776 QT
-62.606 -14.542 -62.606 -15.448 QT
-62.606 -16.136 -62.364 -16.776 QT
-62.122 -17.417 -61.661 -17.917 QT
-61.2 -18.417 -60.59 -18.698 QT
-59.981 -18.979 -59.278 -18.979 QT
-58.356 -18.979 -57.598 -18.495 QT
-56.84 -18.011 -56.403 -17.19 QT
-55.965 -16.37 -55.965 -15.448 QT
-55.965 -14.557 -56.411 -13.784 QT
-56.856 -13.011 -57.622 -12.55 QT
-58.387 -12.089 -59.278 -12.089 QT
cp
-59.278 -12.526 M
-58.075 -12.526 -57.676 -13.401 QT
-57.278 -14.276 -57.278 -15.62 QT
-57.278 -16.37 -57.356 -16.87 QT
-57.434 -17.37 -57.7 -17.776 QT
-57.872 -18.011 -58.129 -18.198 QT
-58.387 -18.386 -58.676 -18.487 QT
-58.965 -18.589 -59.278 -18.589 QT
-59.747 -18.589 -60.169 -18.378 QT
-60.59 -18.167 -60.872 -17.776 QT
-61.153 -17.339 -61.223 -16.831 QT
-61.294 -16.323 -61.294 -15.62 QT
-61.294 -14.776 -61.153 -14.104 QT
-61.012 -13.432 -60.567 -12.979 QT
-60.122 -12.526 -59.278 -12.526 QT
cp
f
GR
GS
[0.75 0 0 0.75 217.50021 25.68749] CT
N
-52.446 -12.261 M
-54.633 -17.776 L
-54.774 -18.042 -55.063 -18.12 QT
-55.352 -18.198 -55.821 -18.198 QT
-55.821 -18.729 L
-52.664 -18.729 L
-52.664 -18.198 L
-53.508 -18.198 -53.508 -17.839 QT
-53.508 -17.776 -53.493 -17.761 QT
-51.805 -13.526 L
-50.289 -17.339 L
-50.243 -17.464 -50.243 -17.589 QT
-50.243 -17.87 -50.461 -18.034 QT
-50.68 -18.198 -50.977 -18.198 QT
-50.977 -18.729 L
-48.477 -18.729 L
-48.477 -18.198 L
-48.946 -18.198 -49.297 -17.987 QT
-49.649 -17.776 -49.836 -17.354 QT
-51.852 -12.261 L
-51.914 -12.089 -52.102 -12.089 QT
-52.211 -12.089 L
-52.383 -12.089 -52.446 -12.261 QT
cp
f
GR
GS
[0.75 0 0 0.75 217.50021 25.68749] CT
N
-45.283 -20.198 M
-43.486 -22.511 L
-43.314 -22.729 -43.049 -22.729 QT
-42.814 -22.729 -42.65 -22.565 QT
-42.486 -22.401 -42.486 -22.167 QT
-42.486 -21.932 -42.689 -21.745 QT
-44.971 -19.886 L
-45.283 -20.198 L
cp
f
GR
GS
[0.75 0 0 0.75 217.50021 25.68749] CT
N
-47.767 -13.729 M
-47.767 -14.62 -47.064 -15.182 QT
-46.361 -15.745 -45.369 -15.979 QT
-44.377 -16.214 -43.502 -16.214 QT
-43.502 -16.823 L
-43.502 -17.261 -43.689 -17.667 QT
-43.877 -18.073 -44.236 -18.331 QT
-44.596 -18.589 -45.033 -18.589 QT
-46.017 -18.589 -46.549 -18.136 QT
-46.252 -18.136 -46.072 -17.925 QT
-45.892 -17.714 -45.892 -17.417 QT
-45.892 -17.12 -46.103 -16.909 QT
-46.314 -16.698 -46.596 -16.698 QT
-46.908 -16.698 -47.119 -16.909 QT
-47.33 -17.12 -47.33 -17.417 QT
-47.33 -18.214 -46.611 -18.597 QT
-45.892 -18.979 -45.033 -18.979 QT
-44.424 -18.979 -43.806 -18.722 QT
-43.189 -18.464 -42.799 -17.979 QT
-42.408 -17.495 -42.408 -16.854 QT
-42.408 -13.479 L
-42.408 -13.182 -42.283 -12.94 QT
-42.158 -12.698 -41.892 -12.698 QT
-41.642 -12.698 -41.525 -12.948 QT
-41.408 -13.198 -41.408 -13.479 QT
-41.408 -14.432 L
-40.971 -14.432 L
-40.971 -13.479 L
-40.971 -13.136 -41.142 -12.831 QT
-41.314 -12.526 -41.611 -12.347 QT
-41.908 -12.167 -42.252 -12.167 QT
-42.689 -12.167 -43.01 -12.511 QT
-43.33 -12.854 -43.361 -13.323 QT
-43.642 -12.761 -44.181 -12.425 QT
-44.721 -12.089 -45.346 -12.089 QT
-45.908 -12.089 -46.463 -12.261 QT
-47.017 -12.432 -47.392 -12.792 QT
-47.767 -13.151 -47.767 -13.729 QT
cp
-46.549 -13.729 M
-46.549 -13.198 -46.158 -12.847 QT
-45.767 -12.495 -45.236 -12.495 QT
-44.752 -12.495 -44.361 -12.729 QT
-43.971 -12.964 -43.736 -13.386 QT
-43.502 -13.807 -43.502 -14.261 QT
-43.502 -15.823 L
-44.174 -15.823 -44.892 -15.604 QT
-45.611 -15.386 -46.08 -14.909 QT
-46.549 -14.432 -46.549 -13.729 QT
cp
f
GR
GS
[0.75 0 0 0.75 217.50021 25.68749] CT
N
-37.293 -12.089 M
-38.2 -12.089 -38.942 -12.565 QT
-39.684 -13.042 -40.106 -13.823 QT
-40.528 -14.604 -40.528 -15.495 QT
-40.528 -16.386 -40.106 -17.198 QT
-39.684 -18.011 -38.942 -18.495 QT
-38.2 -18.979 -37.293 -18.979 QT
-36.418 -18.979 -35.692 -18.636 QT
-34.965 -18.292 -34.965 -17.511 QT
-34.965 -17.214 -35.176 -17.003 QT
-35.387 -16.792 -35.684 -16.792 QT
-35.981 -16.792 -36.192 -17.003 QT
-36.403 -17.214 -36.403 -17.511 QT
-36.403 -17.776 -36.239 -17.972 QT
-36.075 -18.167 -35.825 -18.214 QT
-36.34 -18.542 -37.278 -18.542 QT
-37.997 -18.542 -38.434 -18.065 QT
-38.872 -17.589 -39.051 -16.886 QT
-39.231 -16.182 -39.231 -15.495 QT
-39.231 -14.776 -39.012 -14.097 QT
-38.793 -13.417 -38.317 -12.972 QT
-37.84 -12.526 -37.106 -12.526 QT
-36.403 -12.526 -35.903 -12.964 QT
-35.403 -13.401 -35.215 -14.104 QT
-35.215 -14.198 -35.106 -14.198 QT
-34.918 -14.198 L
-34.872 -14.198 -34.84 -14.159 QT
-34.809 -14.12 -34.809 -14.057 QT
-34.809 -14.026 L
-35.028 -13.136 -35.7 -12.612 QT
-36.372 -12.089 -37.293 -12.089 QT
cp
f
GR
GS
[0.75 0 0 0.75 217.50021 25.68749] CT
N
-34.009 -12.214 M
-34.009 -14.667 L
-34.009 -14.776 -33.884 -14.776 QT
-33.697 -14.776 L
-33.603 -14.776 -33.572 -14.667 QT
-33.166 -12.495 -31.556 -12.495 QT
-30.853 -12.495 -30.369 -12.815 QT
-29.884 -13.136 -29.884 -13.807 QT
-29.884 -14.292 -30.259 -14.628 QT
-30.634 -14.964 -31.15 -15.089 QT
-32.15 -15.292 L
-32.65 -15.401 -33.064 -15.628 QT
-33.478 -15.854 -33.744 -16.229 QT
-34.009 -16.604 -34.009 -17.104 QT
-34.009 -17.776 -33.666 -18.19 QT
-33.322 -18.604 -32.759 -18.792 QT
-32.197 -18.979 -31.556 -18.979 QT
-30.791 -18.979 -30.212 -18.573 QT
-29.791 -18.948 L
-29.791 -18.979 -29.712 -18.979 QT
-29.603 -18.979 L
-29.556 -18.979 -29.517 -18.94 QT
-29.478 -18.901 -29.478 -18.854 QT
-29.478 -16.901 L
-29.478 -16.761 -29.603 -16.761 QT
-29.791 -16.761 L
-29.916 -16.761 -29.916 -16.901 QT
-29.916 -17.682 -30.353 -18.159 QT
-30.791 -18.636 -31.572 -18.636 QT
-32.244 -18.636 -32.736 -18.386 QT
-33.228 -18.136 -33.228 -17.526 QT
-33.228 -17.104 -32.876 -16.839 QT
-32.525 -16.573 -32.041 -16.464 QT
-31.025 -16.261 L
-30.525 -16.151 -30.08 -15.87 QT
-29.634 -15.589 -29.376 -15.167 QT
-29.119 -14.745 -29.119 -14.214 QT
-29.119 -13.667 -29.298 -13.268 QT
-29.478 -12.87 -29.814 -12.604 QT
-30.15 -12.339 -30.603 -12.214 QT
-31.056 -12.089 -31.556 -12.089 QT
-32.494 -12.089 -33.166 -12.729 QT
-33.712 -12.136 L
-33.712 -12.089 -33.791 -12.089 QT
-33.884 -12.089 L
-34.009 -12.089 -34.009 -12.214 QT
cp
f
GR
GS
[0.75 0 0 0.75 217.50021 25.68749] CT
N
-20.101 -12.089 M
-21.023 -12.089 -21.781 -12.573 QT
-22.538 -13.057 -22.976 -13.854 QT
-23.413 -14.651 -23.413 -15.542 QT
-23.413 -16.432 -23.015 -17.222 QT
-22.616 -18.011 -21.906 -18.495 QT
-21.195 -18.979 -20.32 -18.979 QT
-19.616 -18.979 -19.109 -18.753 QT
-18.601 -18.526 -18.273 -18.112 QT
-17.945 -17.698 -17.781 -17.143 QT
-17.616 -16.589 -17.616 -15.917 QT
-17.616 -15.729 -17.757 -15.729 QT
-22.101 -15.729 L
-22.101 -15.557 L
-22.101 -14.323 -21.601 -13.425 QT
-21.101 -12.526 -19.96 -12.526 QT
-19.507 -12.526 -19.116 -12.737 QT
-18.726 -12.948 -18.437 -13.307 QT
-18.148 -13.667 -18.038 -14.089 QT
-18.023 -14.136 -17.984 -14.182 QT
-17.945 -14.229 -17.898 -14.229 QT
-17.757 -14.229 L
-17.616 -14.229 -17.616 -14.026 QT
-17.82 -13.182 -18.523 -12.636 QT
-19.226 -12.089 -20.101 -12.089 QT
cp
-22.085 -16.104 M
-18.679 -16.104 L
-18.679 -16.667 -18.835 -17.245 QT
-18.991 -17.823 -19.359 -18.206 QT
-19.726 -18.589 -20.32 -18.589 QT
-21.163 -18.589 -21.624 -17.792 QT
-22.085 -16.995 -22.085 -16.104 QT
cp
f
GR
GS
[0.75 0 0 0.75 217.50021 25.68749] CT
N
-15.785 -14.057 M
-15.785 -18.198 L
-17.035 -18.198 L
-17.035 -18.589 L
-16.051 -18.589 -15.59 -19.503 QT
-15.129 -20.417 -15.129 -21.495 QT
-14.692 -21.495 L
-14.692 -18.729 L
-12.582 -18.729 L
-12.582 -18.198 L
-14.692 -18.198 L
-14.692 -14.089 L
-14.692 -13.464 -14.481 -12.995 QT
-14.27 -12.526 -13.739 -12.526 QT
-13.223 -12.526 -12.996 -13.026 QT
-12.77 -13.526 -12.77 -14.089 QT
-12.77 -14.979 L
-12.332 -14.979 L
-12.332 -14.057 L
-12.332 -13.589 -12.504 -13.136 QT
-12.676 -12.682 -13.012 -12.386 QT
-13.348 -12.089 -13.832 -12.089 QT
-14.739 -12.089 -15.262 -12.628 QT
-15.785 -13.167 -15.785 -14.057 QT
cp
f
GR
GS
[0.75 0 0 0.75 217.50021 25.68749] CT
N
-6.13 -13.729 M
-6.13 -14.62 -5.427 -15.182 QT
-4.724 -15.745 -3.732 -15.979 QT
-2.74 -16.214 -1.865 -16.214 QT
-1.865 -16.823 L
-1.865 -17.261 -2.052 -17.667 QT
-2.24 -18.073 -2.599 -18.331 QT
-2.958 -18.589 -3.396 -18.589 QT
-4.38 -18.589 -4.912 -18.136 QT
-4.615 -18.136 -4.435 -17.925 QT
-4.255 -17.714 -4.255 -17.417 QT
-4.255 -17.12 -4.466 -16.909 QT
-4.677 -16.698 -4.958 -16.698 QT
-5.271 -16.698 -5.482 -16.909 QT
-5.693 -17.12 -5.693 -17.417 QT
-5.693 -18.214 -4.974 -18.597 QT
-4.255 -18.979 -3.396 -18.979 QT
-2.787 -18.979 -2.169 -18.722 QT
-1.552 -18.464 -1.162 -17.979 QT
-0.771 -17.495 -0.771 -16.854 QT
-0.771 -13.479 L
-0.771 -13.182 -0.646 -12.94 QT
-0.521 -12.698 -0.255 -12.698 QT
-0.005 -12.698 0.112 -12.948 QT
0.229 -13.198 0.229 -13.479 QT
0.229 -14.432 L
0.667 -14.432 L
0.667 -13.479 L
0.667 -13.136 0.495 -12.831 QT
0.323 -12.526 0.026 -12.347 QT
-0.271 -12.167 -0.615 -12.167 QT
-1.052 -12.167 -1.373 -12.511 QT
-1.693 -12.854 -1.724 -13.323 QT
-2.005 -12.761 -2.544 -12.425 QT
-3.083 -12.089 -3.708 -12.089 QT
-4.271 -12.089 -4.826 -12.261 QT
-5.38 -12.432 -5.755 -12.792 QT
-6.13 -13.151 -6.13 -13.729 QT
cp
-4.912 -13.729 M
-4.912 -13.198 -4.521 -12.847 QT
-4.13 -12.495 -3.599 -12.495 QT
-3.115 -12.495 -2.724 -12.729 QT
-2.333 -12.964 -2.099 -13.386 QT
-1.865 -13.807 -1.865 -14.261 QT
-1.865 -15.823 L
-2.537 -15.823 -3.255 -15.604 QT
-3.974 -15.386 -4.443 -14.909 QT
-4.912 -14.432 -4.912 -13.729 QT
cp
f
GR
GS
[0.75 0 0 0.75 217.50021 25.68749] CT
N
1.078 -12.261 M
1.078 -12.792 L
1.578 -12.792 1.914 -12.87 QT
2.25 -12.948 2.25 -13.261 QT
2.25 -21.136 L
2.25 -21.542 2.125 -21.722 QT
2 -21.901 1.773 -21.94 QT
1.547 -21.979 1.078 -21.979 QT
1.078 -22.511 L
3.297 -22.667 L
3.297 -13.261 L
3.297 -12.948 3.625 -12.87 QT
3.953 -12.792 4.469 -12.792 QT
4.469 -12.261 L
1.078 -12.261 L
cp
f
GR
GS
[0.75 0 0 0.75 217.50021 25.68749] CT
N
5.949 -13.089 M
5.949 -13.432 6.199 -13.667 QT
6.449 -13.901 6.777 -13.901 QT
6.98 -13.901 7.176 -13.792 QT
7.371 -13.682 7.48 -13.487 QT
7.59 -13.292 7.59 -13.089 QT
7.59 -12.761 7.347 -12.511 QT
7.105 -12.261 6.777 -12.261 QT
6.449 -12.261 6.199 -12.511 QT
5.949 -12.761 5.949 -13.089 QT
cp
f
GR
GS
[0.75 0 0 0.75 217.50021 25.68749] CT
N
10.023 -13.089 M
10.023 -13.432 10.273 -13.667 QT
10.523 -13.901 10.851 -13.901 QT
11.054 -13.901 11.25 -13.792 QT
11.445 -13.682 11.554 -13.487 QT
11.664 -13.292 11.664 -13.089 QT
11.664 -12.761 11.421 -12.511 QT
11.179 -12.261 10.851 -12.261 QT
10.523 -12.261 10.273 -12.511 QT
10.023 -12.761 10.023 -13.089 QT
cp
10.023 -17.901 M
10.023 -18.12 10.132 -18.307 QT
10.242 -18.495 10.437 -18.612 QT
10.632 -18.729 10.851 -18.729 QT
11.054 -18.729 11.25 -18.612 QT
11.445 -18.495 11.554 -18.307 QT
11.664 -18.12 11.664 -17.901 QT
11.664 -17.557 11.429 -17.315 QT
11.195 -17.073 10.851 -17.073 QT
10.507 -17.073 10.265 -17.315 QT
10.023 -17.557 10.023 -17.901 QT
cp
f
GR
GS
[0.75 0 0 0.75 217.50021 25.68749] CT
N
22.266 -22.433 M
22.266 -22.526 22.282 -22.573 QT
23.407 -27.042 L
23.516 -27.464 23.516 -27.776 QT
23.516 -28.417 23.079 -28.417 QT
22.61 -28.417 22.383 -27.862 QT
22.157 -27.308 21.938 -26.448 QT
21.938 -26.401 21.891 -26.378 QT
21.844 -26.355 21.813 -26.355 QT
21.641 -26.355 L
21.579 -26.355 21.548 -26.409 QT
21.516 -26.464 21.516 -26.511 QT
21.673 -27.151 21.821 -27.605 QT
21.969 -28.058 22.29 -28.433 QT
22.61 -28.808 23.094 -28.808 QT
23.657 -28.808 24.087 -28.456 QT
24.516 -28.105 24.516 -27.558 QT
24.969 -28.136 25.563 -28.472 QT
26.157 -28.808 26.844 -28.808 QT
27.548 -28.808 28.063 -28.448 QT
28.579 -28.089 28.579 -27.417 QT
29.048 -28.073 29.665 -28.441 QT
30.282 -28.808 31.016 -28.808 QT
31.782 -28.808 32.258 -28.386 QT
32.735 -27.964 32.735 -27.198 QT
32.735 -26.573 32.462 -25.706 QT
32.188 -24.839 31.782 -23.761 QT
31.563 -23.245 31.563 -22.855 QT
31.563 -22.417 31.907 -22.417 QT
32.501 -22.417 32.891 -23.042 QT
33.282 -23.667 33.438 -24.386 QT
33.485 -24.48 33.563 -24.48 QT
33.735 -24.48 L
33.798 -24.48 33.837 -24.441 QT
33.876 -24.401 33.876 -24.339 QT
33.876 -24.323 33.86 -24.292 QT
33.657 -23.448 33.149 -22.73 QT
32.641 -22.011 31.876 -22.011 QT
31.344 -22.011 30.977 -22.378 QT
30.61 -22.745 30.61 -23.261 QT
30.61 -23.526 30.719 -23.839 QT
31.157 -24.98 31.438 -25.862 QT
31.719 -26.745 31.719 -27.417 QT
31.719 -27.839 31.548 -28.128 QT
31.376 -28.417 30.985 -28.417 QT
30.157 -28.417 29.563 -27.917 QT
28.969 -27.417 28.516 -26.589 QT
28.501 -26.448 28.485 -26.37 QT
27.516 -22.511 L
27.454 -22.308 27.274 -22.159 QT
27.094 -22.011 26.876 -22.011 QT
26.704 -22.011 26.571 -22.128 QT
26.438 -22.245 26.438 -22.433 QT
26.438 -22.526 26.454 -22.573 QT
27.407 -26.401 L
27.563 -27.011 27.563 -27.417 QT
27.563 -27.839 27.391 -28.128 QT
27.219 -28.417 26.813 -28.417 QT
26.266 -28.417 25.798 -28.175 QT
25.329 -27.933 24.985 -27.534 QT
24.641 -27.136 24.36 -26.589 QT
23.344 -22.511 L
23.298 -22.308 23.118 -22.159 QT
22.938 -22.011 22.719 -22.011 QT
22.532 -22.011 22.399 -22.128 QT
22.266 -22.245 22.266 -22.433 QT
cp
f
GR
GS
[0.75 0 0 0.75 217.50021 25.68749] CT
N
36.597 -22.011 M
35.644 -22.011 35.105 -22.73 QT
34.566 -23.448 34.566 -24.417 QT
34.566 -25.37 35.058 -26.409 QT
35.55 -27.448 36.402 -28.128 QT
37.253 -28.808 38.222 -28.808 QT
38.675 -28.808 39.027 -28.566 QT
39.378 -28.323 39.566 -27.917 QT
39.738 -28.511 40.222 -28.511 QT
40.425 -28.511 40.55 -28.394 QT
40.675 -28.276 40.675 -28.089 QT
40.675 -28.042 40.675 -28.026 QT
40.675 -28.011 40.659 -27.98 QT
39.613 -23.792 L
39.503 -23.339 39.503 -23.058 QT
39.503 -22.417 39.941 -22.417 QT
40.409 -22.417 40.659 -23.011 QT
40.909 -23.605 41.066 -24.386 QT
41.097 -24.48 41.191 -24.48 QT
41.378 -24.48 L
41.425 -24.48 41.464 -24.425 QT
41.503 -24.37 41.503 -24.323 QT
41.238 -23.276 40.925 -22.644 QT
40.613 -22.011 39.909 -22.011 QT
39.409 -22.011 39.019 -22.308 QT
38.628 -22.605 38.534 -23.105 QT
37.566 -22.011 36.597 -22.011 QT
cp
36.613 -22.417 M
37.159 -22.417 37.667 -22.823 QT
38.175 -23.23 38.534 -23.776 QT
38.55 -23.792 38.55 -23.823 QT
39.363 -27.073 L
39.378 -27.12 L
39.284 -27.651 38.988 -28.034 QT
38.691 -28.417 38.191 -28.417 QT
37.675 -28.417 37.238 -28.003 QT
36.8 -27.589 36.503 -27.026 QT
36.222 -26.433 35.948 -25.386 QT
35.675 -24.339 35.675 -23.761 QT
35.675 -23.245 35.902 -22.831 QT
36.128 -22.417 36.613 -22.417 QT
cp
f
GR
GS
[0.75 0 0 0.75 217.50021 25.68749] CT
N
42.912 -22.62 M
43.178 -22.417 43.662 -22.417 QT
44.131 -22.417 44.49 -22.862 QT
44.85 -23.308 44.975 -23.839 QT
45.662 -26.511 L
45.818 -27.23 45.818 -27.495 QT
45.818 -27.87 45.607 -28.144 QT
45.396 -28.417 45.021 -28.417 QT
44.553 -28.417 44.139 -28.12 QT
43.725 -27.823 43.435 -27.37 QT
43.146 -26.917 43.037 -26.448 QT
43.006 -26.355 42.912 -26.355 QT
42.725 -26.355 L
42.615 -26.355 42.615 -26.495 QT
42.615 -26.526 L
42.756 -27.089 43.107 -27.62 QT
43.459 -28.151 43.967 -28.48 QT
44.475 -28.808 45.053 -28.808 QT
45.615 -28.808 46.053 -28.519 QT
46.49 -28.23 46.678 -27.714 QT
46.928 -28.183 47.326 -28.495 QT
47.725 -28.808 48.209 -28.808 QT
48.537 -28.808 48.873 -28.698 QT
49.209 -28.589 49.42 -28.355 QT
49.631 -28.12 49.631 -27.761 QT
49.631 -27.386 49.381 -27.112 QT
49.131 -26.839 48.756 -26.839 QT
48.521 -26.839 48.357 -26.987 QT
48.193 -27.136 48.193 -27.37 QT
48.193 -27.698 48.412 -27.933 QT
48.631 -28.167 48.928 -28.214 QT
48.662 -28.417 48.178 -28.417 QT
47.693 -28.417 47.342 -27.972 QT
46.99 -27.526 46.834 -26.98 QT
46.178 -24.323 L
46.021 -23.73 46.021 -23.339 QT
46.021 -22.964 46.232 -22.691 QT
46.443 -22.417 46.803 -22.417 QT
47.506 -22.417 48.06 -23.034 QT
48.615 -23.651 48.787 -24.386 QT
48.818 -24.48 48.912 -24.48 QT
49.1 -24.48 L
49.146 -24.48 49.185 -24.441 QT
49.225 -24.401 49.225 -24.339 QT
49.225 -24.323 49.209 -24.292 QT
49.006 -23.401 48.318 -22.706 QT
47.631 -22.011 46.787 -22.011 QT
46.225 -22.011 45.787 -22.308 QT
45.35 -22.605 45.162 -23.12 QT
44.928 -22.667 44.514 -22.339 QT
44.1 -22.011 43.631 -22.011 QT
43.303 -22.011 42.967 -22.128 QT
42.631 -22.245 42.42 -22.48 QT
42.209 -22.714 42.209 -23.073 QT
42.209 -23.417 42.451 -23.706 QT
42.693 -23.995 43.053 -23.995 QT
43.303 -23.995 43.475 -23.847 QT
43.646 -23.698 43.646 -23.464 QT
43.646 -23.136 43.435 -22.901 QT
43.225 -22.667 42.912 -22.62 QT
cp
f
GR
GS
[0.75 0 0 0.75 217.50021 25.68749] CT
N
54.779 -18.464 M
53.935 -19.12 53.334 -19.972 QT
52.732 -20.823 52.349 -21.792 QT
51.966 -22.761 51.771 -23.816 QT
51.576 -24.87 51.576 -25.933 QT
51.576 -27.011 51.771 -28.066 QT
51.966 -29.12 52.357 -30.097 QT
52.748 -31.073 53.357 -31.917 QT
53.966 -32.761 54.779 -33.401 QT
54.779 -33.433 54.841 -33.433 QT
54.982 -33.433 L
55.029 -33.433 55.068 -33.394 QT
55.107 -33.355 55.107 -33.308 QT
55.107 -33.23 55.076 -33.198 QT
54.341 -32.495 53.857 -31.675 QT
53.373 -30.855 53.076 -29.925 QT
52.779 -28.995 52.646 -28.003 QT
52.513 -27.011 52.513 -25.933 QT
52.513 -21.167 55.06 -18.683 QT
55.107 -18.651 55.107 -18.558 QT
55.107 -18.526 55.068 -18.48 QT
55.029 -18.433 54.982 -18.433 QT
54.841 -18.433 L
54.779 -18.433 54.779 -18.464 QT
cp
f
GR
GS
[0.75 0 0 0.75 217.50021 25.68749] CT
N
57.123 -23.105 M
57.529 -22.417 58.748 -22.417 QT
59.279 -22.417 59.756 -22.597 QT
60.233 -22.776 60.545 -23.128 QT
60.858 -23.48 60.858 -23.995 QT
60.858 -24.386 60.576 -24.636 QT
60.295 -24.886 59.889 -24.98 QT
59.076 -25.136 L
58.529 -25.276 58.17 -25.659 QT
57.811 -26.042 57.811 -26.573 QT
57.811 -27.245 58.17 -27.761 QT
58.529 -28.276 59.123 -28.542 QT
59.717 -28.808 60.358 -28.808 QT
61.029 -28.808 61.568 -28.487 QT
62.108 -28.167 62.108 -27.526 QT
62.108 -27.183 61.912 -26.917 QT
61.717 -26.651 61.373 -26.651 QT
61.186 -26.651 61.037 -26.776 QT
60.889 -26.901 60.889 -27.105 QT
60.889 -27.276 60.99 -27.441 QT
61.092 -27.605 61.256 -27.706 QT
61.42 -27.808 61.592 -27.808 QT
61.467 -28.136 61.108 -28.276 QT
60.748 -28.417 60.326 -28.417 QT
59.936 -28.417 59.561 -28.269 QT
59.186 -28.12 58.951 -27.823 QT
58.717 -27.526 58.717 -27.12 QT
58.717 -26.855 58.912 -26.644 QT
59.108 -26.433 59.373 -26.355 QT
60.248 -26.167 L
60.67 -26.089 61.014 -25.862 QT
61.358 -25.636 61.561 -25.3 QT
61.764 -24.964 61.764 -24.526 QT
61.764 -23.964 61.451 -23.425 QT
61.139 -22.886 60.686 -22.558 QT
59.889 -22.011 58.733 -22.011 QT
57.936 -22.011 57.272 -22.378 QT
56.608 -22.745 56.608 -23.48 QT
56.608 -23.886 56.842 -24.191 QT
57.076 -24.495 57.483 -24.495 QT
57.733 -24.495 57.897 -24.347 QT
58.061 -24.198 58.061 -23.948 QT
58.061 -23.605 57.803 -23.355 QT
57.545 -23.105 57.201 -23.105 QT
57.123 -23.105 L
cp
f
GR
GS
[0.75 0 0 0.75 217.50021 25.68749] CT
N
63.483 -20.701 M
63.483 -20.889 63.561 -21.092 QT
64.373 -23.248 L
64.498 -23.608 64.498 -23.842 QT
64.498 -24.139 64.279 -24.139 QT
63.889 -24.139 63.631 -23.733 QT
63.373 -23.326 63.248 -22.826 QT
63.233 -22.764 63.17 -22.764 QT
63.061 -22.764 L
62.967 -22.764 62.967 -22.858 QT
62.967 -22.889 L
63.139 -23.483 63.467 -23.944 QT
63.795 -24.405 64.311 -24.405 QT
64.654 -24.405 64.904 -24.17 QT
65.154 -23.936 65.154 -23.576 QT
65.154 -23.389 65.076 -23.186 QT
64.264 -21.03 L
64.123 -20.701 64.123 -20.436 QT
64.123 -20.139 64.358 -20.139 QT
64.748 -20.139 65.006 -20.553 QT
65.264 -20.967 65.373 -21.451 QT
65.389 -21.514 65.451 -21.514 QT
65.576 -21.514 L
65.608 -21.514 65.631 -21.483 QT
65.654 -21.451 65.654 -21.42 QT
65.654 -21.42 65.654 -21.389 QT
65.514 -20.826 65.178 -20.35 QT
64.842 -19.873 64.326 -19.873 QT
63.983 -19.873 63.733 -20.116 QT
63.483 -20.358 63.483 -20.701 QT
cp
64.608 -26.045 M
64.608 -26.248 64.787 -26.42 QT
64.967 -26.592 65.17 -26.592 QT
65.342 -26.592 65.451 -26.491 QT
65.561 -26.389 65.561 -26.217 QT
65.561 -25.998 65.381 -25.826 QT
65.201 -25.655 64.998 -25.655 QT
64.826 -25.655 64.717 -25.772 QT
64.608 -25.889 64.608 -26.045 QT
cp
f
GR
GS
[0.75 0 0 0.75 217.50021 25.68749] CT
N
67.94 -18.433 M
67.815 -18.433 67.815 -18.558 QT
67.815 -18.636 67.847 -18.667 QT
70.409 -21.167 70.409 -25.933 QT
70.409 -30.698 67.878 -33.183 QT
67.815 -33.214 67.815 -33.308 QT
67.815 -33.355 67.854 -33.394 QT
67.894 -33.433 67.94 -33.433 QT
68.081 -33.433 L
68.128 -33.433 68.159 -33.401 QT
69.237 -32.558 69.956 -31.339 QT
70.675 -30.12 71.003 -28.745 QT
71.331 -27.37 71.331 -25.933 QT
71.331 -24.87 71.151 -23.839 QT
70.972 -22.808 70.581 -21.808 QT
70.19 -20.808 69.589 -19.964 QT
68.987 -19.12 68.159 -18.464 QT
68.128 -18.433 68.081 -18.433 QT
67.94 -18.433 L
cp
f
GR
GS
[0.75 0 0 0.75 217.50021 25.68749] CT
N
21.11 -16.221 51.565 0.587 re
f
GR
GS
[0.75 0 0 0.75 217.50021 25.68749] CT
N
39.524 -2.45 M
39.524 -2.544 39.54 -2.591 QT
40.665 -7.059 L
40.774 -7.481 40.774 -7.794 QT
40.774 -8.434 40.337 -8.434 QT
39.868 -8.434 39.641 -7.88 QT
39.415 -7.325 39.196 -6.466 QT
39.196 -6.419 39.149 -6.395 QT
39.102 -6.372 39.071 -6.372 QT
38.899 -6.372 L
38.837 -6.372 38.805 -6.427 QT
38.774 -6.481 38.774 -6.528 QT
38.93 -7.169 39.079 -7.622 QT
39.227 -8.075 39.548 -8.45 QT
39.868 -8.825 40.352 -8.825 QT
40.868 -8.825 41.258 -8.528 QT
41.649 -8.231 41.743 -7.731 QT
42.118 -8.231 42.61 -8.528 QT
43.102 -8.825 43.68 -8.825 QT
44.149 -8.825 44.516 -8.552 QT
44.883 -8.278 44.883 -7.794 QT
44.883 -7.419 44.641 -7.137 QT
44.399 -6.856 44.008 -6.856 QT
43.758 -6.856 43.594 -7.005 QT
43.43 -7.153 43.43 -7.387 QT
43.43 -7.716 43.673 -7.981 QT
43.915 -8.247 44.227 -8.247 QT
43.993 -8.434 43.649 -8.434 QT
43.008 -8.434 42.532 -7.981 QT
42.055 -7.528 41.665 -6.825 QT
40.602 -2.528 L
40.555 -2.325 40.376 -2.177 QT
40.196 -2.028 39.977 -2.028 QT
39.79 -2.028 39.657 -2.145 QT
39.524 -2.263 39.524 -2.45 QT
cp
f
GR
GS
[0.75 0 0 0.75 217.50021 25.68749] CT
N
45.766 -0.719 M
45.766 -0.906 45.844 -1.109 QT
46.657 -3.266 L
46.782 -3.625 46.782 -3.859 QT
46.782 -4.156 46.563 -4.156 QT
46.172 -4.156 45.915 -3.75 QT
45.657 -3.344 45.532 -2.844 QT
45.516 -2.781 45.454 -2.781 QT
45.344 -2.781 L
45.25 -2.781 45.25 -2.875 QT
45.25 -2.906 L
45.422 -3.5 45.75 -3.961 QT
46.079 -4.422 46.594 -4.422 QT
46.938 -4.422 47.188 -4.188 QT
47.438 -3.953 47.438 -3.594 QT
47.438 -3.406 47.36 -3.203 QT
46.547 -1.047 L
46.407 -0.719 46.407 -0.453 QT
46.407 -0.156 46.641 -0.156 QT
47.032 -0.156 47.29 -0.57 QT
47.547 -0.984 47.657 -1.469 QT
47.672 -1.531 47.735 -1.531 QT
47.86 -1.531 L
47.891 -1.531 47.915 -1.5 QT
47.938 -1.469 47.938 -1.438 QT
47.938 -1.438 47.938 -1.406 QT
47.797 -0.844 47.461 -0.367 QT
47.125 0.109 46.61 0.109 QT
46.266 0.109 46.016 -0.133 QT
45.766 -0.375 45.766 -0.719 QT
cp
46.891 -6.063 M
46.891 -6.266 47.071 -6.438 QT
47.25 -6.609 47.454 -6.609 QT
47.625 -6.609 47.735 -6.508 QT
47.844 -6.406 47.844 -6.234 QT
47.844 -6.016 47.665 -5.844 QT
47.485 -5.672 47.282 -5.672 QT
47.11 -5.672 47 -5.789 QT
46.891 -5.906 46.891 -6.063 QT
cp
f
GR
GS
[0.75 0 0 0.75 217.50021 25.68749] CT
N
49.287 -0.172 M
49.287 -0.234 49.303 -0.266 QT
50.053 -3.25 L
50.131 -3.516 50.131 -3.734 QT
50.131 -4.156 49.834 -4.156 QT
49.522 -4.156 49.366 -3.781 QT
49.209 -3.406 49.069 -2.844 QT
49.069 -2.813 49.045 -2.797 QT
49.022 -2.781 48.991 -2.781 QT
48.881 -2.781 L
48.834 -2.781 48.811 -2.82 QT
48.787 -2.859 48.787 -2.875 QT
48.897 -3.313 48.998 -3.617 QT
49.1 -3.922 49.311 -4.172 QT
49.522 -4.422 49.834 -4.422 QT
50.209 -4.422 50.498 -4.188 QT
50.787 -3.953 50.787 -3.578 QT
51.084 -3.969 51.491 -4.195 QT
51.897 -4.422 52.334 -4.422 QT
52.694 -4.422 52.951 -4.297 QT
53.209 -4.172 53.358 -3.93 QT
53.506 -3.688 53.506 -3.344 QT
53.506 -2.938 53.319 -2.352 QT
53.131 -1.766 52.866 -1.047 QT
52.725 -0.719 52.725 -0.453 QT
52.725 -0.156 52.944 -0.156 QT
53.334 -0.156 53.6 -0.57 QT
53.866 -0.984 53.975 -1.469 QT
53.991 -1.531 54.053 -1.531 QT
54.178 -1.531 L
54.209 -1.531 54.241 -1.508 QT
54.272 -1.484 54.272 -1.438 QT
54.272 -1.438 54.256 -1.406 QT
54.116 -0.844 53.78 -0.367 QT
53.444 0.109 52.928 0.109 QT
52.584 0.109 52.334 -0.133 QT
52.084 -0.375 52.084 -0.719 QT
52.084 -0.906 52.162 -1.109 QT
52.287 -1.438 52.451 -1.891 QT
52.616 -2.344 52.717 -2.758 QT
52.819 -3.172 52.819 -3.484 QT
52.819 -3.766 52.709 -3.961 QT
52.6 -4.156 52.319 -4.156 QT
51.959 -4.156 51.647 -4 QT
51.334 -3.844 51.108 -3.578 QT
50.881 -3.313 50.694 -2.938 QT
50.006 -0.219 L
49.975 -0.078 49.858 0.016 QT
49.741 0.109 49.584 0.109 QT
49.475 0.109 49.381 0.031 QT
49.287 -0.047 49.287 -0.172 QT
cp
f
GR
GS
[0.75 0 0 0.75 0 0] CT
0 0.447 0.741 RC
[10 6] 0 setdash
2 LJ
0.667 LW
N
87.467 361.066 M
101.933 360.511 L
116.4 362.061 L
130.867 361.693 L
145.333 361.354 L
159.8 361.207 L
174.267 360.99 L
188.733 360.265 L
203.2 359.965 L
217.667 359.336 L
232.133 359.19 L
246.6 358.847 L
261.067 358.275 L
275.533 357.96 L
290 357.309 L
304.467 356.928 L
318.933 356.192 L
333.4 355.724 L
347.867 355.173 L
362.333 354.448 L
376.8 353.779 L
391.267 352.223 L
405.733 350.502 L
420.2 348.496 L
434.667 346.339 L
449.133 341.788 L
463.6 331.318 L
S
GR
GS
[0.75 0 0 0.75 65.6 270.79971] CT
0 0.447 0.741 RC
10.0 ML
0.667 LW
N
-3 -3 M
-3 3 L
3 3 L
3 -3 L
cp
S
GR
GS
[0.75 0 0 0.75 76.45 270.3834] CT
0 0.447 0.741 RC
10.0 ML
0.667 LW
N
-3 -3 M
-3 3 L
3 3 L
3 -3 L
cp
S
GR
GS
[0.75 0 0 0.75 87.3 271.54568] CT
0 0.447 0.741 RC
10.0 ML
0.667 LW
N
-3 -3 M
-3 3 L
3 3 L
3 -3 L
cp
S
GR
GS
[0.75 0 0 0.75 98.15 271.2697] CT
0 0.447 0.741 RC
10.0 ML
0.667 LW
N
-3 -3 M
-3 3 L
3 3 L
3 -3 L
cp
S
GR
GS
[0.75 0 0 0.75 109 271.01585] CT
0 0.447 0.741 RC
10.0 ML
0.667 LW
N
-3 -3 M
-3 3 L
3 3 L
3 -3 L
cp
S
GR
GS
[0.75 0 0 0.75 119.85 270.90493] CT
0 0.447 0.741 RC
10.0 ML
0.667 LW
N
-3 -3 M
-3 3 L
3 3 L
3 -3 L
cp
S
GR
GS
[0.75 0 0 0.75 130.7 270.7424] CT
0 0.447 0.741 RC
10.0 ML
0.667 LW
N
-3 -3 M
-3 3 L
3 3 L
3 -3 L
cp
S
GR
GS
[0.75 0 0 0.75 141.55 270.19908] CT
0 0.447 0.741 RC
10.0 ML
0.667 LW
N
-3 -3 M
-3 3 L
3 3 L
3 -3 L
cp
S
GR
GS
[0.75 0 0 0.75 152.4 269.97388] CT
0 0.447 0.741 RC
10.0 ML
0.667 LW
N
-3 -3 M
-3 3 L
3 3 L
3 -3 L
cp
S
GR
GS
[0.75 0 0 0.75 163.25 269.50198] CT
0 0.447 0.741 RC
10.0 ML
0.667 LW
N
-3 -3 M
-3 3 L
3 3 L
3 -3 L
cp
S
GR
GS
[0.75 0 0 0.75 174.1 269.39252] CT
0 0.447 0.741 RC
10.0 ML
0.667 LW
N
-3 -3 M
-3 3 L
3 3 L
3 -3 L
cp
S
GR
GS
[0.75 0 0 0.75 184.95 269.13508] CT
0 0.447 0.741 RC
10.0 ML
0.667 LW
N
-3 -3 M
-3 3 L
3 3 L
3 -3 L
cp
S
GR
GS
[0.75 0 0 0.75 195.80001 268.70643] CT
0 0.447 0.741 RC
10.0 ML
0.667 LW
N
-3 -3 M
-3 3 L
3 3 L
3 -3 L
cp
S
GR
GS
[0.75 0 0 0.75 206.64999 268.46965] CT
0 0.447 0.741 RC
10.0 ML
0.667 LW
N
-3 -3 M
-3 3 L
3 3 L
3 -3 L
cp
S
GR
GS
[0.75 0 0 0.75 217.5 267.98211] CT
0 0.447 0.741 RC
10.0 ML
0.667 LW
N
-3 -3 M
-3 3 L
3 3 L
3 -3 L
cp
S
GR
GS
[0.75 0 0 0.75 228.35001 267.69564] CT
0 0.447 0.741 RC
10.0 ML
0.667 LW
N
-3 -3 M
-3 3 L
3 3 L
3 -3 L
cp
S
GR
GS
[0.75 0 0 0.75 239.19999 267.14365] CT
0 0.447 0.741 RC
10.0 ML
0.667 LW
N
-3 -3 M
-3 3 L
3 3 L
3 -3 L
cp
S
GR
GS
[0.75 0 0 0.75 250.05 266.79302] CT
0 0.447 0.741 RC
10.0 ML
0.667 LW
N
-3 -3 M
-3 3 L
3 3 L
3 -3 L
cp
S
GR
GS
[0.75 0 0 0.75 260.9 266.37982] CT
0 0.447 0.741 RC
10.0 ML
0.667 LW
N
-3 -3 M
-3 3 L
3 3 L
3 -3 L
cp
S
GR
GS
[0.75 0 0 0.75 271.75001 265.83598] CT
0 0.447 0.741 RC
10.0 ML
0.667 LW
N
-3 -3 M
-3 3 L
3 3 L
3 -3 L
cp
S
GR
GS
[0.75 0 0 0.75 282.59999 265.3342] CT
0 0.447 0.741 RC
10.0 ML
0.667 LW
N
-3 -3 M
-3 3 L
3 3 L
3 -3 L
cp
S
GR
GS
[0.75 0 0 0.75 293.45 264.16738] CT
0 0.447 0.741 RC
10.0 ML
0.667 LW
N
-3 -3 M
-3 3 L
3 3 L
3 -3 L
cp
S
GR
GS
[0.75 0 0 0.75 304.3 262.87669] CT
0 0.447 0.741 RC
10.0 ML
0.667 LW
N
-3 -3 M
-3 3 L
3 3 L
3 -3 L
cp
S
GR
GS
[0.75 0 0 0.75 315.15001 261.37209] CT
0 0.447 0.741 RC
10.0 ML
0.667 LW
N
-3 -3 M
-3 3 L
3 3 L
3 -3 L
cp
S
GR
GS
[0.75 0 0 0.75 325.99999 259.75413] CT
0 0.447 0.741 RC
10.0 ML
0.667 LW
N
-3 -3 M
-3 3 L
3 3 L
3 -3 L
cp
S
GR
GS
[0.75 0 0 0.75 336.85 256.34118] CT
0 0.447 0.741 RC
10.0 ML
0.667 LW
N
-3 -3 M
-3 3 L
3 3 L
3 -3 L
cp
S
GR
GS
[0.75 0 0 0.75 347.7 248.48817] CT
0 0.447 0.741 RC
10.0 ML
0.667 LW
N
-3 -3 M
-3 3 L
3 3 L
3 -3 L
cp
S
GR
GS
[0.75 0 0 0.75 0 0] CT
0.851 0.325 0.098 RC
[10 6] 0 setdash
2 LJ
0.667 LW
N
87.467 361.066 M
101.933 360.511 L
116.4 359.08 L
130.867 356.42 L
145.333 353.923 L
159.8 351.599 L
174.267 349.307 L
188.733 347.061 L
203.2 344.774 L
217.667 342.52 L
232.133 340.247 L
246.6 338.149 L
261.067 336.038 L
275.533 334.079 L
290 331.993 L
304.467 330.056 L
318.933 328.1 L
333.4 326.474 L
347.867 324.744 L
362.333 323.155 L
376.8 321.666 L
391.267 320.275 L
405.733 319.021 L
420.2 317.859 L
434.667 316.906 L
449.133 316.28 L
463.6 306.729 L
S
GR
GS
[0.75 0 0 0.75 65.6 270.79971] CT
0.851 0.325 0.098 RC
10.0 ML
0.667 LW
N
-3 -3 M
-3 3 L
3 3 L
3 -3 L
cp
S
GR
GS
[0.75 0 0 0.75 76.45 270.3834] CT
0.851 0.325 0.098 RC
10.0 ML
0.667 LW
N
-3 -3 M
-3 3 L
3 3 L
3 -3 L
cp
S
GR
GS
[0.75 0 0 0.75 87.3 269.31004] CT
0.851 0.325 0.098 RC
10.0 ML
0.667 LW
N
-3 -3 M
-3 3 L
3 3 L
3 -3 L
cp
S
GR
GS
[0.75 0 0 0.75 98.15 267.31478] CT
0.851 0.325 0.098 RC
10.0 ML
0.667 LW
N
-3 -3 M
-3 3 L
3 3 L
3 -3 L
cp
S
GR
GS
[0.75 0 0 0.75 109 265.44228] CT
0.851 0.325 0.098 RC
10.0 ML
0.667 LW
N
-3 -3 M
-3 3 L
3 3 L
3 -3 L
cp
S
GR
GS
[0.75 0 0 0.75 119.85 263.6995] CT
0.851 0.325 0.098 RC
10.0 ML
0.667 LW
N
-3 -3 M
-3 3 L
3 3 L
3 -3 L
cp
S
GR
GS
[0.75 0 0 0.75 130.7 261.97996] CT
0.851 0.325 0.098 RC
10.0 ML
0.667 LW
N
-3 -3 M
-3 3 L
3 3 L
3 -3 L
cp
S
GR
GS
[0.75 0 0 0.75 141.55 260.29591] CT
0.851 0.325 0.098 RC
10.0 ML
0.667 LW
N
-3 -3 M
-3 3 L
3 3 L
3 -3 L
cp
S
GR
GS
[0.75 0 0 0.75 152.4 258.58026] CT
0.851 0.325 0.098 RC
10.0 ML
0.667 LW
N
-3 -3 M
-3 3 L
3 3 L
3 -3 L
cp
S
GR
GS
[0.75 0 0 0.75 163.25 256.89027] CT
0.851 0.325 0.098 RC
10.0 ML
0.667 LW
N
-3 -3 M
-3 3 L
3 3 L
3 -3 L
cp
S
GR
GS
[0.75 0 0 0.75 174.1 255.18503] CT
0.851 0.325 0.098 RC
10.0 ML
0.667 LW
N
-3 -3 M
-3 3 L
3 3 L
3 -3 L
cp
S
GR
GS
[0.75 0 0 0.75 184.95 253.61183] CT
0.851 0.325 0.098 RC
10.0 ML
0.667 LW
N
-3 -3 M
-3 3 L
3 3 L
3 -3 L
cp
S
GR
GS
[0.75 0 0 0.75 195.80001 252.02822] CT
0.851 0.325 0.098 RC
10.0 ML
0.667 LW
N
-3 -3 M
-3 3 L
3 3 L
3 -3 L
cp
S
GR
GS
[0.75 0 0 0.75 206.64999 250.55907] CT
0.851 0.325 0.098 RC
10.0 ML
0.667 LW
N
-3 -3 M
-3 3 L
3 3 L
3 -3 L
cp
S
GR
GS
[0.75 0 0 0.75 217.5 248.99485] CT
0.851 0.325 0.098 RC
10.0 ML
0.667 LW
N
-3 -3 M
-3 3 L
3 3 L
3 -3 L
cp
S
GR
GS
[0.75 0 0 0.75 228.35001 247.5423] CT
0.851 0.325 0.098 RC
10.0 ML
0.667 LW
N
-3 -3 M
-3 3 L
3 3 L
3 -3 L
cp
S
GR
GS
[0.75 0 0 0.75 239.19999 246.07526] CT
0.851 0.325 0.098 RC
10.0 ML
0.667 LW
N
-3 -3 M
-3 3 L
3 3 L
3 -3 L
cp
S
GR
GS
[0.75 0 0 0.75 250.05 244.85516] CT
0.851 0.325 0.098 RC
10.0 ML
0.667 LW
N
-3 -3 M
-3 3 L
3 3 L
3 -3 L
cp
S
GR
GS
[0.75 0 0 0.75 260.9 243.55806] CT
0.851 0.325 0.098 RC
10.0 ML
0.667 LW
N
-3 -3 M
-3 3 L
3 3 L
3 -3 L
cp
S
GR
GS
[0.75 0 0 0.75 271.75001 242.36639] CT
0.851 0.325 0.098 RC
10.0 ML
0.667 LW
N
-3 -3 M
-3 3 L
3 3 L
3 -3 L
cp
S
GR
GS
[0.75 0 0 0.75 282.59999 241.24921] CT
0.851 0.325 0.098 RC
10.0 ML
0.667 LW
N
-3 -3 M
-3 3 L
3 3 L
3 -3 L
cp
S
GR
GS
[0.75 0 0 0.75 293.45 240.2059] CT
0.851 0.325 0.098 RC
10.0 ML
0.667 LW
N
-3 -3 M
-3 3 L
3 3 L
3 -3 L
cp
S
GR
GS
[0.75 0 0 0.75 304.3 239.26568] CT
0.851 0.325 0.098 RC
10.0 ML
0.667 LW
N
-3 -3 M
-3 3 L
3 3 L
3 -3 L
cp
S
GR
GS
[0.75 0 0 0.75 315.15001 238.39391] CT
0.851 0.325 0.098 RC
10.0 ML
0.667 LW
N
-3 -3 M
-3 3 L
3 3 L
3 -3 L
cp
S
GR
GS
[0.75 0 0 0.75 325.99999 237.6798] CT
0.851 0.325 0.098 RC
10.0 ML
0.667 LW
N
-3 -3 M
-3 3 L
3 3 L
3 -3 L
cp
S
GR
GS
[0.75 0 0 0.75 336.85 237.2103] CT
0.851 0.325 0.098 RC
10.0 ML
0.667 LW
N
-3 -3 M
-3 3 L
3 3 L
3 -3 L
cp
S
GR
GS
[0.75 0 0 0.75 347.7 230.04648] CT
0.851 0.325 0.098 RC
10.0 ML
0.667 LW
N
-3 -3 M
-3 3 L
3 3 L
3 -3 L
cp
S
GR
GS
[0.75 0 0 0.75 0 0] CT
0.929 0.694 0.125 RC
[1 3] 0 setdash
2 LJ
0.667 LW
N
87.467 222.766 M
101.933 221.098 L
116.4 225.774 L
130.867 224.701 L
145.333 223.718 L
159.8 223.183 L
174.267 222.442 L
188.733 220.271 L
203.2 219.463 L
217.667 217.476 L
232.133 217.017 L
246.6 215.857 L
261.067 214.252 L
275.533 213.292 L
290 211.416 L
304.467 210.345 L
318.933 207.952 L
333.4 206.631 L
347.867 204.815 L
362.333 202.773 L
376.8 200.761 L
391.267 196.079 L
405.733 190.855 L
420.2 184.626 L
434.667 178.089 L
449.133 164.331 L
463.6 132.662 L
S
GR
GS
[0.75 0 0 0.75 65.6 167.07445] CT
0.929 0.694 0.125 RC
N
0 -3.667 M
2.025 -3.667 3.667 -2.025 3.667 0 C
3.667 0 L
3.667 2.025 2.025 3.667 0 3.667 C
-2.025 3.667 -3.667 2.025 -3.667 0 C
-3.667 -2.025 -2.025 -3.667 0 -3.667 C
cp
0 -4.333 M
-2.393 -4.333 -4.333 -2.393 -4.333 0 C
-4.333 2.393 -2.393 4.333 0 4.333 C
2.393 4.333 4.333 2.393 4.333 0 C
4.333 0 L
4.333 -2.393 2.393 -4.333 0 -4.333 C
cp
f
GR
GS
[0.75 0 0 0.75 76.45 165.82328] CT
0.929 0.694 0.125 RC
N
/f-862814258{0 -3.667 M
2.025 -3.667 3.667 -2.025 3.667 0 C
3.667 0 L
3.667 2.025 2.025 3.667 0 3.667 C
-2.025 3.667 -3.667 2.025 -3.667 0 C
-3.667 -2.025 -2.025 -3.667 0 -3.667 C
cp
0 -4.333 M
-2.393 -4.333 -4.333 -2.393 -4.333 0 C
-4.333 2.393 -2.393 4.333 0 4.333 C
2.393 4.333 4.333 2.393 4.333 0 C
4.333 0 L
4.333 -2.393 2.393 -4.333 0 -4.333 C
cp}def
f-862814258
f
GR
GS
[0.75 0 0 0.75 87.3 169.33052] CT
0.929 0.694 0.125 RC
N
f-862814258
f
GR
GS
[0.75 0 0 0.75 98.15 168.5259] CT
0.929 0.694 0.125 RC
N
f-862814258
f
GR
GS
[0.75 0 0 0.75 109 167.7883] CT
0.929 0.694 0.125 RC
N
f-862814258
f
GR
GS
[0.75 0 0 0.75 119.85 167.38737] CT
0.929 0.694 0.125 RC
N
f-862814258
f
GR
GS
[0.75 0 0 0.75 130.7 166.83119] CT
0.929 0.694 0.125 RC
N
f-862814258
f
GR
GS
[0.75 0 0 0.75 141.55 165.20301] CT
0.929 0.694 0.125 RC
N
f-862814258
f
GR
GS
[0.75 0 0 0.75 152.4 164.59735] CT
0.929 0.694 0.125 RC
N
f-862814258
f
GR
GS
[0.75 0 0 0.75 163.25 163.10702] CT
0.929 0.694 0.125 RC
N
f-862814258
f
GR
GS
[0.75 0 0 0.75 174.1 162.7631] CT
0.929 0.694 0.125 RC
N
f-862814258
f
GR
GS
[0.75 0 0 0.75 184.95 161.89253] CT
0.929 0.694 0.125 RC
N
f-862814258
f
GR
GS
[0.75 0 0 0.75 195.80001 160.68916] CT
0.929 0.694 0.125 RC
N
f-862814258
f
GR
GS
[0.75 0 0 0.75 206.64999 159.96933] CT
0.929 0.694 0.125 RC
N
f-862814258
f
GR
GS
[0.75 0 0 0.75 217.5 158.56194] CT
0.929 0.694 0.125 RC
N
f-862814258
f
GR
GS
[0.75 0 0 0.75 228.35001 157.75859] CT
0.929 0.694 0.125 RC
N
f-862814258
f
GR
GS
[0.75 0 0 0.75 239.19999 155.96437] CT
0.929 0.694 0.125 RC
N
f-862814258
f
GR
GS
[0.75 0 0 0.75 250.05 154.97359] CT
0.929 0.694 0.125 RC
N
f-862814258
f
GR
GS
[0.75 0 0 0.75 260.9 153.61161] CT
0.929 0.694 0.125 RC
N
f-862814258
f
GR
GS
[0.75 0 0 0.75 271.75001 152.08011] CT
0.929 0.694 0.125 RC
N
f-862814258
f
GR
GS
[0.75 0 0 0.75 282.59999 150.57111] CT
0.929 0.694 0.125 RC
N
f-862814258
f
GR
GS
[0.75 0 0 0.75 293.45 147.05958] CT
0.929 0.694 0.125 RC
N
f-862814258
f
GR
GS
[0.75 0 0 0.75 304.3 143.1411] CT
0.929 0.694 0.125 RC
N
f-862814258
f
GR
GS
[0.75 0 0 0.75 315.15001 138.46949] CT
0.929 0.694 0.125 RC
N
f-862814258
f
GR
GS
[0.75 0 0 0.75 325.99999 133.56678] CT
0.929 0.694 0.125 RC
N
f-862814258
f
GR
GS
[0.75 0 0 0.75 336.85 123.24806] CT
0.929 0.694 0.125 RC
N
f-862814258
f
GR
GS
[0.75 0 0 0.75 347.7 99.49651] CT
0.929 0.694 0.125 RC
N
f-862814258
f
GR
GS
[0.75 0 0 0.75 0 0] CT
0.494 0.184 0.557 RC
[1 3] 0 setdash
2 LJ
0.667 LW
N
87.467 222.766 M
101.933 221.098 L
116.4 216.748 L
130.867 208.723 L
145.333 201.375 L
159.8 194.253 L
174.267 187.235 L
188.733 180.326 L
203.2 173.532 L
217.667 166.85 L
232.133 160.278 L
246.6 153.822 L
261.067 147.491 L
275.533 141.299 L
290 135.267 L
304.467 129.416 L
318.933 123.771 L
333.4 118.36 L
347.867 113.214 L
362.333 108.366 L
376.8 103.852 L
391.267 99.711 L
405.733 95.988 L
420.2 92.736 L
434.667 90.017 L
449.133 87.91 L
463.6 59.266 L
S
GR
GS
[0.75 0 0 0.75 65.6 167.07445] CT
0.494 0.184 0.557 RC
N
f-862814258
f
GR
GS
[0.75 0 0 0.75 76.45 165.82328] CT
0.494 0.184 0.557 RC
N
f-862814258
f
GR
GS
[0.75 0 0 0.75 87.3 162.56104] CT
0.494 0.184 0.557 RC
N
f-862814258
f
GR
GS
[0.75 0 0 0.75 98.15 156.54193] CT
0.494 0.184 0.557 RC
N
f-862814258
f
GR
GS
[0.75 0 0 0.75 109 151.03156] CT
0.494 0.184 0.557 RC
N
f-862814258
f
GR
GS
[0.75 0 0 0.75 119.85 145.68963] CT
0.494 0.184 0.557 RC
N
f-862814258
f
GR
GS
[0.75 0 0 0.75 130.7 140.42661] CT
0.494 0.184 0.557 RC
N
f-862814258
f
GR
GS
[0.75 0 0 0.75 141.55 135.24482] CT
0.494 0.184 0.557 RC
N
f-862814258
f
GR
GS
[0.75 0 0 0.75 152.4 130.14919] CT
0.494 0.184 0.557 RC
N
f-862814258
f
GR
GS
[0.75 0 0 0.75 163.25 125.13745] CT
0.494 0.184 0.557 RC
N
f-862814258
f
GR
GS
[0.75 0 0 0.75 174.1 120.20866] CT
0.494 0.184 0.557 RC
N
f-862814258
f
GR
GS
[0.75 0 0 0.75 184.95 115.36632] CT
0.494 0.184 0.557 RC
N
f-862814258
f
GR
GS
[0.75 0 0 0.75 195.80001 110.61795] CT
0.494 0.184 0.557 RC
N
f-862814258
f
GR
GS
[0.75 0 0 0.75 206.64999 105.97457] CT
0.494 0.184 0.557 RC
N
f-862814258
f
GR
GS
[0.75 0 0 0.75 217.5 101.45023] CT
0.494 0.184 0.557 RC
N
f-862814258
f
GR
GS
[0.75 0 0 0.75 228.35001 97.06169] CT
0.494 0.184 0.557 RC
N
f-862814258
f
GR
GS
[0.75 0 0 0.75 239.19999 92.82801] CT
0.494 0.184 0.557 RC
N
f-862814258
f
GR
GS
[0.75 0 0 0.75 250.05 88.77012] CT
0.494 0.184 0.557 RC
N
f-862814258
f
GR
GS
[0.75 0 0 0.75 260.9 84.91079] CT
0.494 0.184 0.557 RC
N
f-862814258
f
GR
GS
[0.75 0 0 0.75 271.75001 81.27472] CT
0.494 0.184 0.557 RC
N
f-862814258
f
GR
GS
[0.75 0 0 0.75 282.59999 77.88884] CT
0.494 0.184 0.557 RC
N
f-862814258
f
GR
GS
[0.75 0 0 0.75 293.45 74.78294] CT
0.494 0.184 0.557 RC
N
f-862814258
f
GR
GS
[0.75 0 0 0.75 304.3 71.99082] CT
0.494 0.184 0.557 RC
N
f-862814258
f
GR
GS
[0.75 0 0 0.75 315.15001 69.5517] CT
0.494 0.184 0.557 RC
N
f-862814258
f
GR
GS
[0.75 0 0 0.75 325.99999 67.51279] CT
0.494 0.184 0.557 RC
N
f-862814258
f
GR
GS
[0.75 0 0 0.75 336.85 65.93285] CT
0.494 0.184 0.557 RC
N
f-862814258
f
GR
GS
[0.75 0 0 0.75 347.7 44.44927] CT
0.494 0.184 0.557 RC
N
f-862814258
f
GR
GS
[0.75 0 0 0.75 0 0] CT
0.467 0.675 0.188 RC
[8 3 2 3] 0 setdash
2 LJ
0.667 LW
N
87.467 261.586 M
101.933 261.584 L
116.4 261.604 L
130.867 261.63 L
145.333 261.657 L
159.8 261.583 L
174.267 261.509 L
188.733 261.512 L
203.2 261.587 L
217.667 261.509 L
232.133 261.493 L
246.6 261.391 L
261.067 261.479 L
275.533 261.47 L
290 261.529 L
304.467 261.587 L
318.933 261.447 L
333.4 261.51 L
347.867 261.389 L
362.333 261.491 L
376.8 261.489 L
391.267 261.482 L
405.733 261.442 L
420.2 261.303 L
434.667 261.269 L
449.133 261.221 L
463.6 261.123 L
S
GR
GS
[0.75 0 0 0.75 65.6 196.18932] CT
0.467 0.675 0.188 RC
10.0 ML
0.667 LW
N
-4 0 M
0 5.32 L
4 0 L
0 -5.32 L
cp
S
GR
GS
[0.75 0 0 0.75 76.45 196.18801] CT
0.467 0.675 0.188 RC
10.0 ML
0.667 LW
N
-4 0 M
0 5.32 L
4 0 L
0 -5.32 L
cp
S
GR
GS
[0.75 0 0 0.75 87.3 196.20337] CT
0.467 0.675 0.188 RC
10.0 ML
0.667 LW
N
-4 0 M
0 5.32 L
4 0 L
0 -5.32 L
cp
S
GR
GS
[0.75 0 0 0.75 98.15 196.22278] CT
0.467 0.675 0.188 RC
10.0 ML
0.667 LW
N
-4 0 M
0 5.32 L
4 0 L
0 -5.32 L
cp
S
GR
GS
[0.75 0 0 0.75 109 196.24246] CT
0.467 0.675 0.188 RC
10.0 ML
0.667 LW
N
-4 0 M
0 5.32 L
4 0 L
0 -5.32 L
cp
S
GR
GS
[0.75 0 0 0.75 119.85 196.18696] CT
0.467 0.675 0.188 RC
10.0 ML
0.667 LW
N
-4 0 M
0 5.32 L
4 0 L
0 -5.32 L
cp
S
GR
GS
[0.75 0 0 0.75 130.7 196.13143] CT
0.467 0.675 0.188 RC
10.0 ML
0.667 LW
N
-4 0 M
0 5.32 L
4 0 L
0 -5.32 L
cp
S
GR
GS
[0.75 0 0 0.75 141.55 196.13409] CT
0.467 0.675 0.188 RC
10.0 ML
0.667 LW
N
-4 0 M
0 5.32 L
4 0 L
0 -5.32 L
cp
S
GR
GS
[0.75 0 0 0.75 152.4 196.19057] CT
0.467 0.675 0.188 RC
10.0 ML
0.667 LW
N
-4 0 M
0 5.32 L
4 0 L
0 -5.32 L
cp
S
GR
GS
[0.75 0 0 0.75 163.25 196.13189] CT
0.467 0.675 0.188 RC
10.0 ML
0.667 LW
N
-4 0 M
0 5.32 L
4 0 L
0 -5.32 L
cp
S
GR
GS
[0.75 0 0 0.75 174.1 196.11983] CT
0.467 0.675 0.188 RC
10.0 ML
0.667 LW
N
-4 0 M
0 5.32 L
4 0 L
0 -5.32 L
cp
S
GR
GS
[0.75 0 0 0.75 184.95 196.04308] CT
0.467 0.675 0.188 RC
10.0 ML
0.667 LW
N
-4 0 M
0 5.32 L
4 0 L
0 -5.32 L
cp
S
GR
GS
[0.75 0 0 0.75 195.80001 196.1093] CT
0.467 0.675 0.188 RC
10.0 ML
0.667 LW
N
-4 0 M
0 5.32 L
4 0 L
0 -5.32 L
cp
S
GR
GS
[0.75 0 0 0.75 206.64999 196.10248] CT
0.467 0.675 0.188 RC
10.0 ML
0.667 LW
N
-4 0 M
0 5.32 L
4 0 L
0 -5.32 L
cp
S
GR
GS
[0.75 0 0 0.75 217.5 196.1464] CT
0.467 0.675 0.188 RC
10.0 ML
0.667 LW
N
-4 0 M
0 5.32 L
4 0 L
0 -5.32 L
cp
S
GR
GS
[0.75 0 0 0.75 228.35001 196.18991] CT
0.467 0.675 0.188 RC
10.0 ML
0.667 LW
N
-4 0 M
0 5.32 L
4 0 L
0 -5.32 L
cp
S
GR
GS
[0.75 0 0 0.75 239.19999 196.08556] CT
0.467 0.675 0.188 RC
10.0 ML
0.667 LW
N
-4 0 M
0 5.32 L
4 0 L
0 -5.32 L
cp
S
GR
GS
[0.75 0 0 0.75 250.05 196.13267] CT
0.467 0.675 0.188 RC
10.0 ML
0.667 LW
N
-4 0 M
0 5.32 L
4 0 L
0 -5.32 L
cp
S
GR
GS
[0.75 0 0 0.75 260.9 196.04187] CT
0.467 0.675 0.188 RC
10.0 ML
0.667 LW
N
-4 0 M
0 5.32 L
4 0 L
0 -5.32 L
cp
S
GR
GS
[0.75 0 0 0.75 271.75001 196.11811] CT
0.467 0.675 0.188 RC
10.0 ML
0.667 LW
N
-4 0 M
0 5.32 L
4 0 L
0 -5.32 L
cp
S
GR
GS
[0.75 0 0 0.75 282.59999 196.11655] CT
0.467 0.675 0.188 RC
10.0 ML
0.667 LW
N
-4 0 M
0 5.32 L
4 0 L
0 -5.32 L
cp
S
GR
GS
[0.75 0 0 0.75 293.45 196.11127] CT
0.467 0.675 0.188 RC
10.0 ML
0.667 LW
N
-4 0 M
0 5.32 L
4 0 L
0 -5.32 L
cp
S
GR
GS
[0.75 0 0 0.75 304.3 196.08151] CT
0.467 0.675 0.188 RC
10.0 ML
0.667 LW
N
-4 0 M
0 5.32 L
4 0 L
0 -5.32 L
cp
S
GR
GS
[0.75 0 0 0.75 315.15001 195.97712] CT
0.467 0.675 0.188 RC
10.0 ML
0.667 LW
N
-4 0 M
0 5.32 L
4 0 L
0 -5.32 L
cp
S
GR
GS
[0.75 0 0 0.75 325.99999 195.95142] CT
0.467 0.675 0.188 RC
10.0 ML
0.667 LW
N
-4 0 M
0 5.32 L
4 0 L
0 -5.32 L
cp
S
GR
GS
[0.75 0 0 0.75 336.85 195.91605] CT
0.467 0.675 0.188 RC
10.0 ML
0.667 LW
N
-4 0 M
0 5.32 L
4 0 L
0 -5.32 L
cp
S
GR
GS
[0.75 0 0 0.75 347.7 195.84203] CT
0.467 0.675 0.188 RC
10.0 ML
0.667 LW
N
-4 0 M
0 5.32 L
4 0 L
0 -5.32 L
cp
S
GR
GS
[0.75 0 0 0.75 0 0] CT
0.302 0.745 0.933 RC
[8 3 2 3] 0 setdash
2 LJ
0.667 LW
N
87.467 261.586 M
101.933 261.584 L
116.4 261.541 L
130.867 261.512 L
145.333 261.622 L
159.8 261.515 L
174.267 261.423 L
188.733 261.313 L
203.2 261.367 L
217.667 261.425 L
232.133 261.586 L
246.6 261.488 L
261.067 261.494 L
275.533 261.314 L
290 261.45 L
304.467 261.431 L
318.933 261.558 L
333.4 261.273 L
347.867 261.302 L
362.333 261.265 L
376.8 261.246 L
391.267 261.268 L
405.733 261.292 L
420.2 261.413 L
434.667 261.484 L
449.133 261.372 L
463.6 261.4 L
S
GR
GS
[0.75 0 0 0.75 65.6 196.18932] CT
0.302 0.745 0.933 RC
10.0 ML
0.667 LW
N
-4 0 M
0 5.32 L
4 0 L
0 -5.32 L
cp
S
GR
GS
[0.75 0 0 0.75 76.45 196.18801] CT
0.302 0.745 0.933 RC
10.0 ML
0.667 LW
N
-4 0 M
0 5.32 L
4 0 L
0 -5.32 L
cp
S
GR
GS
[0.75 0 0 0.75 87.3 196.15592] CT
0.302 0.745 0.933 RC
10.0 ML
0.667 LW
N
-4 0 M
0 5.32 L
4 0 L
0 -5.32 L
cp
S
GR
GS
[0.75 0 0 0.75 98.15 196.13395] CT
0.302 0.745 0.933 RC
10.0 ML
0.667 LW
N
-4 0 M
0 5.32 L
4 0 L
0 -5.32 L
cp
S
GR
GS
[0.75 0 0 0.75 109 196.21667] CT
0.302 0.745 0.933 RC
10.0 ML
0.667 LW
N
-4 0 M
0 5.32 L
4 0 L
0 -5.32 L
cp
S
GR
GS
[0.75 0 0 0.75 119.85 196.13644] CT
0.302 0.745 0.933 RC
10.0 ML
0.667 LW
N
-4 0 M
0 5.32 L
4 0 L
0 -5.32 L
cp
S
GR
GS
[0.75 0 0 0.75 130.7 196.06716] CT
0.302 0.745 0.933 RC
10.0 ML
0.667 LW
N
-4 0 M
0 5.32 L
4 0 L
0 -5.32 L
cp
S
GR
GS
[0.75 0 0 0.75 141.55 195.98447] CT
0.302 0.745 0.933 RC
10.0 ML
0.667 LW
N
-4 0 M
0 5.32 L
4 0 L
0 -5.32 L
cp
S
GR
GS
[0.75 0 0 0.75 152.4 196.02534] CT
0.302 0.745 0.933 RC
10.0 ML
0.667 LW
N
-4 0 M
0 5.32 L
4 0 L
0 -5.32 L
cp
S
GR
GS
[0.75 0 0 0.75 163.25 196.0684] CT
0.302 0.745 0.933 RC
10.0 ML
0.667 LW
N
-4 0 M
0 5.32 L
4 0 L
0 -5.32 L
cp
S
GR
GS
[0.75 0 0 0.75 174.1 196.18977] CT
0.302 0.745 0.933 RC
10.0 ML
0.667 LW
N
-4 0 M
0 5.32 L
4 0 L
0 -5.32 L
cp
S
GR
GS
[0.75 0 0 0.75 184.95 196.11621] CT
0.302 0.745 0.933 RC
10.0 ML
0.667 LW
N
-4 0 M
0 5.32 L
4 0 L
0 -5.32 L
cp
S
GR
GS
[0.75 0 0 0.75 195.80001 196.12067] CT
0.302 0.745 0.933 RC
10.0 ML
0.667 LW
N
-4 0 M
0 5.32 L
4 0 L
0 -5.32 L
cp
S
GR
GS
[0.75 0 0 0.75 206.64999 195.98543] CT
0.302 0.745 0.933 RC
10.0 ML
0.667 LW
N
-4 0 M
0 5.32 L
4 0 L
0 -5.32 L
cp
S
GR
GS
[0.75 0 0 0.75 217.5 196.08733] CT
0.302 0.745 0.933 RC
10.0 ML
0.667 LW
N
-4 0 M
0 5.32 L
4 0 L
0 -5.32 L
cp
S
GR
GS
[0.75 0 0 0.75 228.35001 196.07316] CT
0.302 0.745 0.933 RC
10.0 ML
0.667 LW
N
-4 0 M
0 5.32 L
4 0 L
0 -5.32 L
cp
S
GR
GS
[0.75 0 0 0.75 239.19999 196.16869] CT
0.302 0.745 0.933 RC
10.0 ML
0.667 LW
N
-4 0 M
0 5.32 L
4 0 L
0 -5.32 L
cp
S
GR
GS
[0.75 0 0 0.75 250.05 195.9546] CT
0.302 0.745 0.933 RC
10.0 ML
0.667 LW
N
-4 0 M
0 5.32 L
4 0 L
0 -5.32 L
cp
S
GR
GS
[0.75 0 0 0.75 260.9 195.97648] CT
0.302 0.745 0.933 RC
10.0 ML
0.667 LW
N
-4 0 M
0 5.32 L
4 0 L
0 -5.32 L
cp
S
GR
GS
[0.75 0 0 0.75 271.75001 195.94849] CT
0.302 0.745 0.933 RC
10.0 ML
0.667 LW
N
-4 0 M
0 5.32 L
4 0 L
0 -5.32 L
cp
S
GR
GS
[0.75 0 0 0.75 282.59999 195.93482] CT
0.302 0.745 0.933 RC
10.0 ML
0.667 LW
N
-4 0 M
0 5.32 L
4 0 L
0 -5.32 L
cp
S
GR
GS
[0.75 0 0 0.75 293.45 195.95114] CT
0.302 0.745 0.933 RC
10.0 ML
0.667 LW
N
-4 0 M
0 5.32 L
4 0 L
0 -5.32 L
cp
S
GR
GS
[0.75 0 0 0.75 304.3 195.96893] CT
0.302 0.745 0.933 RC
10.0 ML
0.667 LW
N
-4 0 M
0 5.32 L
4 0 L
0 -5.32 L
cp
S
GR
GS
[0.75 0 0 0.75 315.15001 196.05993] CT
0.302 0.745 0.933 RC
10.0 ML
0.667 LW
N
-4 0 M
0 5.32 L
4 0 L
0 -5.32 L
cp
S
GR
GS
[0.75 0 0 0.75 325.99999 196.1128] CT
0.302 0.745 0.933 RC
10.0 ML
0.667 LW
N
-4 0 M
0 5.32 L
4 0 L
0 -5.32 L
cp
S
GR
GS
[0.75 0 0 0.75 336.85 196.02903] CT
0.302 0.745 0.933 RC
10.0 ML
0.667 LW
N
-4 0 M
0 5.32 L
4 0 L
0 -5.32 L
cp
S
GR
GS
[0.75 0 0 0.75 347.7 196.04972] CT
0.302 0.745 0.933 RC
10.0 ML
0.667 LW
N
-4 0 M
0 5.32 L
4 0 L
0 -5.32 L
cp
S
GR
GS
[0.75 0 0 0.75 0 0] CT
1 GC
N
202 173 M
202 70 L
88 70 L
88 173 L
cp
f
GR
GS
[0.75 0 0 0.75 101.25 60.03659] CT
/Helvetica 12 F
GS
[1 0 0 1 0 0] CT
0 5 moveto 
1 -1 scale
(max/minAle) t 
GR
GR
GS
[0.75 0 0 0.75 0 0] CT
0 0.447 0.741 RC
[10 6] 0 setdash
2 LJ
0.667 LW
N
92 80.049 M
132 80.049 L
S
GR
GS
[0.75 0 0 0.75 84 60.03659] CT
0 0.447 0.741 RC
10.0 ML
0.667 LW
N
-3 -3 M
-3 3 L
3 3 L
3 -3 L
cp
S
GR
GS
[0.75 0 0 0.75 101.25 72.47195] CT
/Helvetica 12 F
GS
[1 0 0 1 0 0] CT
0 5 moveto 
1 -1 scale
(max/min) t 
GR
GR
GS
[0.75 0 0 0.75 0 0] CT
0.851 0.325 0.098 RC
[10 6] 0 setdash
2 LJ
0.667 LW
N
92 96.629 M
132 96.629 L
S
GR
GS
[0.75 0 0 0.75 84 72.47195] CT
0.851 0.325 0.098 RC
10.0 ML
0.667 LW
N
-3 -3 M
-3 3 L
3 3 L
3 -3 L
cp
S
GR
GS
[0.75 0 0 0.75 101.25 84.90732] CT
/Helvetica 12 F
GS
[1 0 0 1 0 0] CT
0 5 moveto 
1 -1 scale
(maxAle) t 
GR
GR
GS
[0.75 0 0 0.75 0 0] CT
0.929 0.694 0.125 RC
[1 3] 0 setdash
2 LJ
0.667 LW
N
92 113.21 M
132 113.21 L
S
GR
GS
[0.75 0 0 0.75 84 84.90732] CT
0.929 0.694 0.125 RC
N
f-862814258
f
GR
GS
[0.75 0 0 0.75 101.25 97.34269] CT
/Helvetica 12 F
GS
[1 0 0 1 0 0] CT
0 5 moveto 
1 -1 scale
(max) t 
GR
GR
GS
[0.75 0 0 0.75 0 0] CT
0.494 0.184 0.557 RC
[1 3] 0 setdash
2 LJ
0.667 LW
N
92 129.79 M
132 129.79 L
S
GR
GS
[0.75 0 0 0.75 84 97.34268] CT
0.494 0.184 0.557 RC
N
f-862814258
f
GR
GS
[0.75 0 0 0.75 101.25 109.77805] CT
/Helvetica 12 F
GS
[1 0 0 1 0 0] CT
0 5 moveto 
1 -1 scale
(minAle) t 
GR
GR
GS
[0.75 0 0 0.75 0 0] CT
0.467 0.675 0.188 RC
[8 3 2 3] 0 setdash
2 LJ
0.667 LW
N
92 146.371 M
132 146.371 L
S
GR
GS
[0.75 0 0 0.75 84 109.77805] CT
0.467 0.675 0.188 RC
10.0 ML
0.667 LW
N
-4 0 M
0 5.32 L
4 0 L
0 -5.32 L
cp
S
GR
GS
[0.75 0 0 0.75 101.25 122.21341] CT
/Helvetica 12 F
GS
[1 0 0 1 0 0] CT
0 5 moveto 
1 -1 scale
(min) t 
GR
GR
GS
[0.75 0 0 0.75 0 0] CT
0.302 0.745 0.933 RC
[8 3 2 3] 0 setdash
2 LJ
0.667 LW
N
92 162.951 M
132 162.951 L
S
GR
GS
[0.75 0 0 0.75 84 122.21341] CT
0.302 0.745 0.933 RC
10.0 ML
0.667 LW
N
-4 0 M
0 5.32 L
4 0 L
0 -5.32 L
cp
S
GR
GS
[0.75 0 0 0.75 0 0] CT
0.149 GC
10.0 ML
0.667 LW
N
88 173 M
88 70 L
202 70 L
202 173 L
cp
S
GR
%%Trailer
%%Pages: 1
%%EOF
